%!PS-Adobe-3.0 EPSF-3.0
%%Creator: MATLAB, The MathWorks, Inc. Version 8.1.0.604 (R2013a). Operating System: Linux 3.12-0.bpo.1-amd64 #1 SMP Debian 3.12.9-1~bpo70+1 (2014-02-07) x86_64.
%%Title: /data/geodynamo/natafh/Dynamo/Acoustics/elastic_shell/Figures/rigid_and_strong_shell.eps
%%CreationDate: 09/09/2014  08:33:01
%%DocumentNeededFonts: Helvetica
%%DocumentProcessColors: Cyan Magenta Yellow Black
%%LanguageLevel: 2
%%Pages: 1
%%BoundingBox:    27    38   584   753
%%EndComments

%%BeginProlog
% MathWorks dictionary
/MathWorks 160 dict begin
% definition operators
/bdef {bind def} bind def
/ldef {load def} bind def
/xdef {exch def} bdef
/xstore {exch store} bdef
% operator abbreviations
/c  /clip ldef
/cc /concat ldef
/cp /closepath ldef
/gr /grestore ldef
/gs /gsave ldef
/mt /moveto ldef
/np /newpath ldef
/cm /currentmatrix ldef
/sm /setmatrix ldef
/rm /rmoveto ldef
/rl /rlineto ldef
/s {show newpath} bdef
/sc {setcmykcolor} bdef
/sr /setrgbcolor ldef
/sg /setgray ldef
/w /setlinewidth ldef
/j /setlinejoin ldef
/cap /setlinecap ldef
/rc {rectclip} bdef
/rf {rectfill} bdef
% page state control
/pgsv () def
/bpage {/pgsv save def} bdef
/epage {pgsv restore} bdef
/bplot /gsave ldef
/eplot {stroke grestore} bdef
% orientation switch
/portraitMode 0 def /landscapeMode 1 def /rotateMode 2 def
% coordinate system mappings
/dpi2point 0 def
% font control
/FontSize 0 def
/FMS {/FontSize xstore findfont [FontSize 0 0 FontSize neg 0 0]
  makefont setfont} bdef
/reencode {exch dup where {pop load} {pop StandardEncoding} ifelse
  exch dup 3 1 roll findfont dup length dict begin
  { 1 index /FID ne {def}{pop pop} ifelse } forall
  /Encoding exch def currentdict end definefont pop} bdef
/isroman {findfont /CharStrings get /Agrave known} bdef
/FMSR {3 1 roll 1 index dup isroman {reencode} {pop pop} ifelse
  exch FMS} bdef
/csm {1 dpi2point div -1 dpi2point div scale neg translate
 dup landscapeMode eq {pop -90 rotate}
  {rotateMode eq {90 rotate} if} ifelse} bdef
% line types: solid, dotted, dashed, dotdash
/SO { [] 0 setdash } bdef
/DO { [.5 dpi2point mul 4 dpi2point mul] 0 setdash } bdef
/DA { [6 dpi2point mul] 0 setdash } bdef
/DD { [.5 dpi2point mul 4 dpi2point mul 6 dpi2point mul 4
  dpi2point mul] 0 setdash } bdef
% macros for lines and objects
/L {lineto stroke} bdef
/MP {3 1 roll moveto 1 sub {rlineto} repeat} bdef
/AP {{rlineto} repeat} bdef
/PDlw -1 def
/W {/PDlw currentlinewidth def setlinewidth} def
/PP {closepath eofill} bdef
/DP {closepath stroke} bdef
/MR {4 -2 roll moveto dup  0 exch rlineto exch 0 rlineto
  neg 0 exch rlineto closepath} bdef
/FR {MR stroke} bdef
/PR {MR fill} bdef
/L1i {{currentfile picstr readhexstring pop} image} bdef
/tMatrix matrix def
/MakeOval {newpath tMatrix currentmatrix pop translate scale
0 0 1 0 360 arc tMatrix setmatrix} bdef
/FO {MakeOval stroke} bdef
/PO {MakeOval fill} bdef
/PD {currentlinewidth 2 div 0 360 arc fill
   PDlw -1 eq not {PDlw w /PDlw -1 def} if} def
/FA {newpath tMatrix currentmatrix pop translate scale
  0 0 1 5 -2 roll arc tMatrix setmatrix stroke} bdef
/PA {newpath tMatrix currentmatrix pop	translate 0 0 moveto scale
  0 0 1 5 -2 roll arc closepath tMatrix setmatrix fill} bdef
/FAn {newpath tMatrix currentmatrix pop translate scale
  0 0 1 5 -2 roll arcn tMatrix setmatrix stroke} bdef
/PAn {newpath tMatrix currentmatrix pop translate 0 0 moveto scale
  0 0 1 5 -2 roll arcn closepath tMatrix setmatrix fill} bdef
/vradius 0 def /hradius 0 def /lry 0 def
/lrx 0 def /uly 0 def /ulx 0 def /rad 0 def
/MRR {/vradius xdef /hradius xdef /lry xdef /lrx xdef /uly xdef
  /ulx xdef newpath tMatrix currentmatrix pop ulx hradius add uly
  vradius add translate hradius vradius scale 0 0 1 180 270 arc 
  tMatrix setmatrix lrx hradius sub uly vradius add translate
  hradius vradius scale 0 0 1 270 360 arc tMatrix setmatrix
  lrx hradius sub lry vradius sub translate hradius vradius scale
  0 0 1 0 90 arc tMatrix setmatrix ulx hradius add lry vradius sub
  translate hradius vradius scale 0 0 1 90 180 arc tMatrix setmatrix
  closepath} bdef
/FRR {MRR stroke } bdef
/PRR {MRR fill } bdef
/MlrRR {/lry xdef /lrx xdef /uly xdef /ulx xdef /rad lry uly sub 2 div def
  newpath tMatrix currentmatrix pop ulx rad add uly rad add translate
  rad rad scale 0 0 1 90 270 arc tMatrix setmatrix lrx rad sub lry rad
  sub translate rad rad scale 0 0 1 270 90 arc tMatrix setmatrix
  closepath} bdef
/FlrRR {MlrRR stroke } bdef
/PlrRR {MlrRR fill } bdef
/MtbRR {/lry xdef /lrx xdef /uly xdef /ulx xdef /rad lrx ulx sub 2 div def
  newpath tMatrix currentmatrix pop ulx rad add uly rad add translate
  rad rad scale 0 0 1 180 360 arc tMatrix setmatrix lrx rad sub lry rad
  sub translate rad rad scale 0 0 1 0 180 arc tMatrix setmatrix
  closepath} bdef
/FtbRR {MtbRR stroke } bdef
/PtbRR {MtbRR fill } bdef
/stri 6 array def /dtri 6 array def
/smat 6 array def /dmat 6 array def
/tmat1 6 array def /tmat2 6 array def /dif 3 array def
/asub {/ind2 exch def /ind1 exch def dup dup
  ind1 get exch ind2 get sub exch } bdef
/tri_to_matrix {
  2 0 asub 3 1 asub 4 0 asub 5 1 asub
  dup 0 get exch 1 get 7 -1 roll astore } bdef
/compute_transform {
  dmat dtri tri_to_matrix tmat1 invertmatrix 
  smat stri tri_to_matrix tmat2 concatmatrix } bdef
/ds {stri astore pop} bdef
/dt {dtri astore pop} bdef
/db {2 copy /cols xdef /rows xdef mul dup 3 mul string
  currentfile 
  3 index 0 eq {/ASCIIHexDecode filter}
  {/ASCII85Decode filter 3 index 2 eq {/RunLengthDecode filter} if }
  ifelse exch readstring pop
  dup 0 3 index getinterval /rbmap xdef
  dup 2 index dup getinterval /gbmap xdef
  1 index dup 2 mul exch getinterval /bbmap xdef pop pop}bdef
/it {gs np dtri aload pop moveto lineto lineto cp c
  cols rows 8 compute_transform 
  rbmap gbmap bbmap true 3 colorimage gr}bdef
/il {newpath moveto lineto stroke}bdef
currentdict end def
%%EndProlog

%%BeginSetup
MathWorks begin

0 cap

end
%%EndSetup

%%Page: 1 1
%%BeginPageSetup
%%PageBoundingBox:    27    38   584   753
MathWorks begin
bpage
%%EndPageSetup

%%BeginObject: obj1
bplot

/dpi2point 12 def
portraitMode 0324 9036 csm

    0     0  6691  8573 rc
88 dict begin %Colortable dictionary
/c0 { 0.000000 0.000000 0.000000 sr} bdef
/c1 { 1.000000 1.000000 1.000000 sr} bdef
/c2 { 0.900000 0.000000 0.000000 sr} bdef
/c3 { 0.000000 0.820000 0.000000 sr} bdef
/c4 { 0.000000 0.000000 0.800000 sr} bdef
/c5 { 0.910000 0.820000 0.320000 sr} bdef
/c6 { 1.000000 0.260000 0.820000 sr} bdef
/c7 { 0.000000 0.820000 0.820000 sr} bdef
c0
1 j
1 sg
   0    0 6692 8574 rf
6 w
0 6987 5185 0 0 -6987 870 7630 4 MP
PP
-5185 0 0 6987 5185 0 0 -6987 870 7630 5 MP stroke
4 w
DO
0 sg
 870 7630 mt  870  643 L
 870  643 mt  870  643 L
2598 7630 mt 2598  643 L
2598  643 mt 2598  643 L
4326 7630 mt 4326  643 L
4326  643 mt 4326  643 L
6055 7630 mt 6055  643 L
6055  643 mt 6055  643 L
 870 7459 mt 6055 7459 L
6055 7459 mt 6055 7459 L
 870 6607 mt 6055 6607 L
6055 6607 mt 6055 6607 L
 870 5755 mt 6055 5755 L
6055 5755 mt 6055 5755 L
 870 4903 mt 6055 4903 L
6055 4903 mt 6055 4903 L
 870 4051 mt 6055 4051 L
6055 4051 mt 6055 4051 L
 870 3199 mt 6055 3199 L
6055 3199 mt 6055 3199 L
 870 2347 mt 6055 2347 L
6055 2347 mt 6055 2347 L
 870 1495 mt 6055 1495 L
6055 1495 mt 6055 1495 L
 870  643 mt 6055  643 L
6055  643 mt 6055  643 L
SO
6 w
 870 7630 mt 6055 7630 L
 870  643 mt 6055  643 L
 870 7630 mt  870  643 L
6055 7630 mt 6055  643 L
 870 7630 mt 6055 7630 L
 870 7630 mt  870  643 L
 870 7630 mt  870 7560 L
 870  643 mt  870  712 L
%%IncludeResource: font Helvetica
/Helvetica /ISOLatin1Encoding 120 FMSR

 837 7775 mt 
(0) s
2598 7630 mt 2598 7560 L
2598  643 mt 2598  712 L
2565 7775 mt 
(5) s
4326 7630 mt 4326 7560 L
4326  643 mt 4326  712 L
4260 7775 mt 
(10) s
6055 7630 mt 6055 7560 L
6055  643 mt 6055  712 L
5989 7775 mt 
(15) s
 870 7459 mt  939 7459 L
6055 7459 mt 5985 7459 L
 635 7503 mt 
(500) s
 870 6607 mt  939 6607 L
6055 6607 mt 5985 6607 L
 569 6651 mt 
(1000) s
 870 5755 mt  939 5755 L
6055 5755 mt 5985 5755 L
 569 5799 mt 
(1500) s
 870 4903 mt  939 4903 L
6055 4903 mt 5985 4903 L
 569 4947 mt 
(2000) s
 870 4051 mt  939 4051 L
6055 4051 mt 5985 4051 L
 569 4095 mt 
(2500) s
 870 3199 mt  939 3199 L
6055 3199 mt 5985 3199 L
 569 3243 mt 
(3000) s
 870 2347 mt  939 2347 L
6055 2347 mt 5985 2347 L
 569 2391 mt 
(3500) s
 870 1495 mt  939 1495 L
6055 1495 mt 5985 1495 L
 569 1539 mt 
(4000) s
 870  643 mt  939  643 L
6055  643 mt 5985  643 L
 569  687 mt 
(4500) s
 870 7630 mt 6055 7630 L
 870  643 mt 6055  643 L
 870 7630 mt  870  643 L
6055 7630 mt 6055  643 L
%%IncludeResource: font Helvetica
/Helvetica /ISOLatin1Encoding 96 FMSR

 960  214 mt 
(n) s
%%IncludeResource: font Helvetica
/Helvetica /ISOLatin1Encoding 120 FMSR

1013  154 mt 
(S) s
%%IncludeResource: font Helvetica
/Helvetica /ISOLatin1Encoding 96 FMSR

1093  214 mt 
(l) s
%%IncludeResource: font Helvetica
/Helvetica /ISOLatin1Encoding 120 FMSR

1114  154 mt 
( mode frequencies for spherical shell of fluid enclosed bet\
ween inner and outer solid shells : ) s
2580  324 mt 
(r) s
%%IncludeResource: font Helvetica
/Helvetica /ISOLatin1Encoding 96 FMSR

2619  384 mt 
(i) s
%%IncludeResource: font Helvetica
/Helvetica /ISOLatin1Encoding 120 FMSR

2640  324 mt 
(=0, lambda) s
%%IncludeResource: font Helvetica
/Helvetica /ISOLatin1Encoding 96 FMSR

3237  384 mt 
(i) s
%%IncludeResource: font Helvetica
/Helvetica /ISOLatin1Encoding 120 FMSR

3258  324 mt 
(=0, kappa) s
%%IncludeResource: font Helvetica
/Helvetica /ISOLatin1Encoding 96 FMSR

3788  384 mt 
(0) s
3841  384 mt 
(i) s
%%IncludeResource: font Helvetica
/Helvetica /ISOLatin1Encoding 120 FMSR

3862  324 mt 
(=0, nu) s
%%IncludeResource: font Helvetica
/Helvetica /ISOLatin1Encoding 96 FMSR

4197  384 mt 
(i) s
%%IncludeResource: font Helvetica
/Helvetica /ISOLatin1Encoding 120 FMSR

4218  324 mt 
(=1) s
1939  494 mt 
(r) s
%%IncludeResource: font Helvetica
/Helvetica /ISOLatin1Encoding 96 FMSR

1978  554 mt 
(o) s
%%IncludeResource: font Helvetica
/Helvetica /ISOLatin1Encoding 120 FMSR

2031  494 mt 
(=0.222 lambda) s
%%IncludeResource: font Helvetica
/Helvetica /ISOLatin1Encoding 96 FMSR

2828  554 mt 
(o) s
%%IncludeResource: font Helvetica
/Helvetica /ISOLatin1Encoding 120 FMSR

2881  494 mt 
(=0.011975, kappa) s
%%IncludeResource: font Helvetica
/Helvetica /ISOLatin1Encoding 96 FMSR

3845  554 mt 
(0) s
3898  554 mt 
(o) s
%%IncludeResource: font Helvetica
/Helvetica /ISOLatin1Encoding 120 FMSR

3951  494 mt 
(=0.093277, nu) s
%%IncludeResource: font Helvetica
/Helvetica /ISOLatin1Encoding 96 FMSR

4720  554 mt 
(o) s
%%IncludeResource: font Helvetica
/Helvetica /ISOLatin1Encoding 120 FMSR

4773  494 mt 
(=0.4) s
2845 7918 mt 
(mode angular number l) s
 487 5279 mt  -90 rotate
(mode frequency \(Hz\) \(csound = 347.5 m/s\)) s
90 rotate
gs 870 643 5186 6988 rc
gr

0 j
-21 -16 8 -25 -22 15 -21 -15 8 25 -21 16 26 0 8 24 
9 -24 26 0 835 988 11 MP
gs
PP
gr
DP
gs 870 643 5186 6988 rc
gr

0 -58 -58 0 0 58 58 0 841 2310 5 MP
/c8 { 0.000000 1.000000 0.000000 sr} bdef
c8
gs
PP
gr
DP
0 -58 -58 0 0 58 58 0 1186 1668 5 MP
gs
PP
gr
DP
0 -58 -58 0 0 58 58 0 1532 1047 5 MP
gs
PP
gr
DP
gs 870 643 5186 6988 rc
gr

41 71 -82 0 41 -71 870 3729 4 MP
/c9 { 1.000000 0.000000 1.000000 sr} bdef
c9
gs
PP
gr
DP
41 71 -82 0 41 -71 1215 3092 4 MP
gs
PP
gr
DP
41 71 -82 0 41 -71 1561 2480 4 MP
gs
PP
gr
DP
41 71 -82 0 41 -71 1907 1886 4 MP
gs
PP
gr
DP
41 71 -82 0 41 -71 2252 1307 4 MP
gs
PP
gr
DP
41 71 -82 0 41 -71 2598 739 4 MP
gs
PP
gr
DP
gs 870 643 5186 6988 rc
gr

/c10 { 1.000000 0.000000 0.000000 sr} bdef
c10
 834 5031 mt  906 5031 L
 870 4995 mt  870 5067 L
1179 4403 mt 1251 4403 L
1215 4367 mt 1215 4439 L
1525 3805 mt 1597 3805 L
1561 3769 mt 1561 3841 L
1871 3228 mt 1943 3228 L
1907 3192 mt 1907 3264 L
2216 2667 mt 2288 2667 L
2252 2631 mt 2252 2703 L
2562 2117 mt 2634 2117 L
2598 2081 mt 2598 2153 L
2908 1576 mt 2980 1576 L
2944 1540 mt 2944 1612 L
3253 1044 mt 3325 1044 L
3289 1008 mt 3289 1080 L
gs 870 643 5186 6988 rc
gr

/c11 { 0.000000 0.000000 1.000000 sr} bdef
c11
 845 6378 mt  895 6428 L
 895 6378 mt  845 6428 L
1190 5764 mt 1240 5814 L
1240 5764 mt 1190 5814 L
1536 5191 mt 1586 5241 L
1586 5191 mt 1536 5241 L
1882 4642 mt 1932 4692 L
1932 4642 mt 1882 4692 L
2227 4108 mt 2277 4158 L
2277 4108 mt 2227 4158 L
2573 3586 mt 2623 3636 L
2623 3586 mt 2573 3636 L
2919 3073 mt 2969 3123 L
2969 3073 mt 2919 3123 L
3264 2567 mt 3314 2617 L
3314 2567 mt 3264 2617 L
3610 2066 mt 3660 2116 L
3660 2066 mt 3610 2116 L
3956 1570 mt 4006 1620 L
4006 1570 mt 3956 1620 L
4301 1078 mt 4351 1128 L
4351 1078 mt 4301 1128 L
gs 870 643 5186 6988 rc
gr

0 sg
  36   36 1215 7427 PO
  36   36 1561 6892 PO
  36   36 1907 6395 PO
  36   36 2252 5914 PO
  36   36 2598 5443 PO
  36   36 2944 4978 PO
  36   36 3289 4518 PO
  36   36 3635 4061 PO
  36   36 3981 3607 PO
  36   36 4326 3156 PO
  36   36 4672 2706 PO
  36   36 5018 2258 PO
  36   36 5363 1811 PO
  36   36 5709 1365 PO
  36   36 6055  921 PO
  36   36 1215 7427 FO
  36   36 1561 6892 FO
  36   36 1907 6395 FO
  36   36 2252 5914 FO
  36   36 2598 5443 FO
  36   36 2944 4978 FO
  36   36 3289 4518 FO
  36   36 3635 4061 FO
  36   36 3981 3607 FO
  36   36 4326 3156 FO
  36   36 4672 2706 FO
  36   36 5018 2258 FO
  36   36 5363 1811 FO
  36   36 5709 1365 FO
  36   36 6055  921 FO
gs 870 643 5186 6988 rc
gr

 853 7673 mt 
( ) s
6039  685 mt 
( ) s
gs 870 643 5186 6988 rc
gr

-35 -26 13 -41 -36 24 -35 -24 13 41 -35 26 43 0 14 41 
15 -41 43 0 812 988 11 MP
/c12 { 0.831373 0.815686 0.784314 sr} bdef
c12
gs
PP
gr
0 sg
DP
gs 870 643 5186 6988 rc
gr

-35 -26 13 -41 -36 24 -35 -24 13 41 -35 26 43 0 14 41 
15 -41 43 0 1503 1054 11 MP
c12
gs
PP
gr
0 sg
DP
gs 870 643 5186 6988 rc
gr

0 -94 -94 0 0 94 94 0 823 2296 5 MP
c12
gs
PP
gr
c8
DP
0 -94 -94 0 0 94 94 0 1168 1650 5 MP
c12
gs
PP
gr
c8
DP
0 -94 -94 0 0 94 94 0 1514 2381 5 MP
c12
gs
PP
gr
c8
DP
0 -94 -94 0 0 94 94 0 1860 1786 5 MP
c12
gs
PP
gr
c8
DP
0 -94 -94 0 0 94 94 0 2205 1207 5 MP
c12
gs
PP
gr
c8
DP
gs 870 643 5186 6988 rc
gr

69 119 -138 0 69 -119 870 3763 4 MP
c12
gs
PP
gr
c9
DP
69 119 -138 0 69 -119 1215 3123 4 MP
c12
gs
PP
gr
c9
DP
69 119 -138 0 69 -119 1561 3873 4 MP
c12
gs
PP
gr
c9
DP
69 119 -138 0 69 -119 1907 3292 4 MP
c12
gs
PP
gr
c9
DP
69 119 -138 0 69 -119 2252 2732 4 MP
c12
gs
PP
gr
c9
DP
69 119 -138 0 69 -119 2598 765 4 MP
c12
gs
PP
gr
c9
DP
69 119 -138 0 69 -119 2944 1647 4 MP
c12
gs
PP
gr
c9
DP
69 119 -138 0 69 -119 3289 1115 4 MP
c12
gs
PP
gr
c9
DP
gs 870 643 5186 6988 rc
gr

c10
 810 5033 mt  930 5033 L
 870 4973 mt  870 5093 L
1155 4401 mt 1275 4401 L
1215 4341 mt 1215 4461 L
1501 4738 mt 1621 4738 L
1561 4678 mt 1561 4798 L
1847 4047 mt 1967 4047 L
1907 3987 mt 1907 4107 L
2192 3742 mt 2312 3742 L
2252 3682 mt 2252 3802 L
2538 2106 mt 2658 2106 L
2598 2046 mt 2598 2166 L
2884 3061 mt 3004 3061 L
2944 3001 mt 2944 3121 L
3229 2570 mt 3349 2570 L
3289 2510 mt 3289 2630 L
3575 2075 mt 3695 2075 L
3635 2015 mt 3635 2135 L
3921 1583 mt 4041 1583 L
3981 1523 mt 3981 1643 L
4266 1093 mt 4386 1093 L
4326 1033 mt 4326 1153 L
gs 870 643 5186 6988 rc
gr

c11
 828 6362 mt  912 6446 L
 912 6362 mt  828 6446 L
1173 5744 mt 1257 5828 L
1257 5744 mt 1173 5828 L
1519 5194 mt 1603 5278 L
1603 5194 mt 1519 5278 L
1865 4644 mt 1949 4728 L
1949 4644 mt 1865 4728 L
2210 4127 mt 2294 4211 L
2294 4127 mt 2210 4211 L
2556 3705 mt 2640 3789 L
2640 3705 mt 2556 3789 L
2902 3533 mt 2986 3617 L
2986 3533 mt 2902 3617 L
3247 3451 mt 3331 3535 L
3331 3451 mt 3247 3535 L
3593 3380 mt 3677 3464 L
3677 3380 mt 3593 3464 L
3939 3263 mt 4023 3347 L
4023 3263 mt 3939 3347 L
4284 2988 mt 4368 3072 L
4368 2988 mt 4284 3072 L
4630 2592 mt 4714 2676 L
4714 2592 mt 4630 2676 L
gs 870 643 5186 6988 rc
gr

c12
  60   60 1215 7409 PO
  60   60 1561 6898 PO
  60   60 1907 6402 PO
  60   60 2252 5924 PO
  60   60 2598 5458 PO
  60   60 2944 5001 PO
  60   60 3289 4554 PO
  60   60 3635 4127 PO
  60   60 3981 3763 PO
  60   60 4326 3567 PO
  60   60 4672 3497 PO
  60   60 5018 2207 PO
  60   60 5363 1771 PO
  60   60 5709 1331 PO
  60   60 6055  891 PO
0 sg
  60   60 1215 7409 FO
  60   60 1561 6898 FO
  60   60 1907 6402 FO
  60   60 2252 5924 FO
  60   60 2598 5458 FO
  60   60 2944 5001 FO
  60   60 3289 4554 FO
  60   60 3635 4127 FO
  60   60 3981 3763 FO
  60   60 4326 3567 FO
  60   60 4672 3497 FO
  60   60 5018 2207 FO
  60   60 5363 1771 FO
  60   60 5709 1331 FO
  60   60 6055  891 FO
gs 870 643 5186 6988 rc
24 w
gr

24 w
-35 -26 13 -41 -36 24 -35 -24 13 41 -35 26 43 0 14 41 
15 -41 43 0 812 992 11 MP
DP
gs 870 643 5186 6988 rc
gr

0 -94 -94 0 0 94 94 0 823 2297 5 MP
c8
DP
0 -94 -94 0 0 94 94 0 1168 1651 5 MP
DP
0 -94 -94 0 0 94 94 0 1514 1026 5 MP
DP
gs 870 643 5186 6988 rc
gr

0 -94 -94 0 0 94 94 0 2551 639 5 MP
DP
gs 870 643 5186 6988 rc
gr

69 119 -138 0 69 -119 870 3763 4 MP
c9
DP
69 119 -138 0 69 -119 1215 3123 4 MP
DP
69 119 -138 0 69 -119 1561 2508 4 MP
DP
69 119 -138 0 69 -119 1907 1913 4 MP
DP
69 119 -138 0 69 -119 2252 1333 4 MP
DP
69 119 -138 0 69 -119 2598 2187 4 MP
DP
69 119 -138 0 69 -119 2944 1648 4 MP
DP
69 119 -138 0 69 -119 3289 1116 4 MP
DP
gs 870 643 5186 6988 rc
gr

c10
 810 5033 mt  930 5033 L
 870 4973 mt  870 5093 L
1155 4401 mt 1275 4401 L
1215 4341 mt 1215 4461 L
1501 3796 mt 1621 3796 L
1561 3736 mt 1561 3856 L
1847 3216 mt 1967 3216 L
1907 3156 mt 1907 3276 L
2192 2656 mt 2312 2656 L
2252 2596 mt 2252 2716 L
2538 3570 mt 2658 3570 L
2598 3510 mt 2598 3630 L
2884 3075 mt 3004 3075 L
2944 3015 mt 2944 3135 L
3229 2575 mt 3349 2575 L
3289 2515 mt 3289 2635 L
3575 2078 mt 3695 2078 L
3635 2018 mt 3635 2138 L
3921 1584 mt 4041 1584 L
3981 1524 mt 3981 1644 L
4266 1094 mt 4386 1094 L
4326 1034 mt 4326 1154 L
gs 870 643 5186 6988 rc
gr

c11
 828 6362 mt  912 6446 L
 912 6362 mt  828 6446 L
1173 5744 mt 1257 5828 L
1257 5744 mt 1173 5828 L
1519 5214 mt 1603 5298 L
1603 5214 mt 1519 5298 L
1865 4662 mt 1949 4746 L
1949 4662 mt 1865 4746 L
2210 4200 mt 2294 4284 L
2294 4200 mt 2210 4284 L
2556 3967 mt 2640 4051 L
2640 3967 mt 2556 4051 L
2902 3860 mt 2986 3944 L
2986 3860 mt 2902 3944 L
3247 3780 mt 3331 3864 L
3331 3780 mt 3247 3864 L
3593 3674 mt 3677 3758 L
3677 3674 mt 3593 3758 L
3939 3426 mt 4023 3510 L
4023 3426 mt 3939 3510 L
4284 3039 mt 4368 3123 L
4368 3039 mt 4284 3123 L
gs 870 643 5186 6988 rc
gr

0 sg
  60   60 1215 7410 FO
  60   60 1561 6899 FO
  60   60 1907 6403 FO
  60   60 2252 5927 FO
  60   60 2598 5462 FO
  60   60 2944 5009 FO
  60   60 3289 4573 FO
  60   60 3635 4188 FO
  60   60 3981 3957 FO
  60   60 4326 3874 FO
  60   60 4672 2654 FO
  60   60 5018 2217 FO
  60   60 5363 1777 FO
  60   60 5709 1335 FO
  60   60 6055  894 FO
gs 870 643 5186 6988 rc
6 w
gr

6 w
1 sg
0 3087 1215 0 0 -3087 4629 7194 4 MP
PP
-1215 0 0 3087 1215 0 0 -3087 4629 7194 5 MP stroke
4 w
DO
SO
6 w
0 sg
4629 7194 mt 5844 7194 L
4629 4107 mt 5844 4107 L
4629 7194 mt 4629 4107 L
5844 7194 mt 5844 4107 L
4629 7194 mt 5844 7194 L
4629 7194 mt 4629 4107 L
4629 7194 mt 5844 7194 L
4629 4107 mt 5844 4107 L
4629 7194 mt 4629 4107 L
5844 7194 mt 5844 4107 L
5098 4255 mt 
(n=5) s
gs 4629 4107 1216 3088 rc
gs 4808 4139 147 147 rc
-21 -16 8 -25 -22 15 -21 -15 8 25 -21 16 26 0 8 24 
9 -24 26 0 4846 4200 11 MP
gs
PP
gr
DP
gr

gr

5098 4424 mt 
(4) s
gs 4629 4107 1216 3088 rc
gs 4808 4308 147 147 rc
0 -58 -58 0 0 58 58 0 4852 4352 5 MP
c8
gs
PP
gr
DP
gr

c8
gr

c8
0 sg
5098 4593 mt 
(3) s
gs 4629 4107 1216 3088 rc
gs 4808 4477 147 147 rc
41 71 -82 0 41 -71 4881 4597 4 MP
c9
gs
PP
gr
DP
gr

c9
gr

c9
0 sg
5098 4762 mt 
(2) s
gs 4629 4107 1216 3088 rc
gs 4808 4647 147 147 rc
c10
4845 4720 mt 4917 4720 L
4881 4684 mt 4881 4756 L
gr

c10
gr

c10
0 sg
5098 4932 mt 
(1) s
gs 4629 4107 1216 3088 rc
gs 4808 4816 147 147 rc
c11
4856 4864 mt 4906 4914 L
4906 4864 mt 4856 4914 L
gr

c11
gr

c11
0 sg
5098 5101 mt 
(0) s
gs 4629 4107 1216 3088 rc
gs 4808 4985 147 147 rc
  36   36 4881 5058 PO
  36   36 4881 5058 FO
gr

gr

5098 5270 mt 
(n=5 mu=7e9l) s
gs 4629 4107 1216 3088 rc
gs 4760 5106 243 243 rc
-35 -26 13 -41 -36 24 -35 -24 13 41 -35 26 43 0 14 41 
15 -41 43 0 4823 5208 11 MP
c12
gs
PP
gr
0 sg
DP
gr

gr

5098 5439 mt 
(4) s
gs 4629 4107 1216 3088 rc
gs 4760 5275 243 243 rc
0 -94 -94 0 0 94 94 0 4834 5349 5 MP
c12
gs
PP
gr
c8
DP
gr

c8
gr

c8
0 sg
5098 5608 mt 
(3) s
gs 4629 4107 1216 3088 rc
gs 4760 5444 243 243 rc
69 119 -138 0 69 -119 4881 5644 4 MP
c12
gs
PP
gr
c9
DP
gr

c9
gr

c9
0 sg
5098 5778 mt 
(2) s
gs 4629 4107 1216 3088 rc
gs 4760 5614 243 243 rc
c10
4821 5735 mt 4941 5735 L
4881 5675 mt 4881 5795 L
gr

c10
gr

c10
0 sg
5098 5947 mt 
(1) s
gs 4629 4107 1216 3088 rc
gs 4760 5783 243 243 rc
c11
4839 5862 mt 4923 5946 L
4923 5862 mt 4839 5946 L
gr

c11
gr

c11
0 sg
5098 6116 mt 
(0) s
gs 4629 4107 1216 3088 rc
gs 4760 5952 243 243 rc
c12
  60   60 4881 6073 PO
0 sg
  60   60 4881 6073 FO
gr

gr

5098 6285 mt 
(n=5 mu=6e9) s
gs 4629 4107 1216 3088 rc
24 w
gs 4735 6096 293 293 rc
-35 -26 13 -41 -36 24 -35 -24 13 41 -35 26 43 0 14 41 
15 -41 43 0 4823 6223 11 MP
DP
gr

gr

24 w
5098 6454 mt 
(4) s
gs 4629 4107 1216 3088 rc
gs 4735 6265 293 293 rc
0 -94 -94 0 0 94 94 0 4834 6364 5 MP
c8
DP
gr

c8
gr

c8
0 sg
5098 6624 mt 
(3) s
gs 4629 4107 1216 3088 rc
gs 4735 6434 293 293 rc
69 119 -138 0 69 -119 4881 6659 4 MP
c9
DP
gr

c9
gr

c9
0 sg
5098 6793 mt 
(2) s
gs 4629 4107 1216 3088 rc
gs 4735 6604 293 293 rc
c10
4821 6750 mt 4941 6750 L
4881 6690 mt 4881 6810 L
gr

c10
gr

c10
0 sg
5098 6962 mt 
(1) s
gs 4629 4107 1216 3088 rc
gs 4735 6773 293 293 rc
c11
4839 6877 mt 4923 6961 L
4923 6877 mt 4839 6961 L
gr

c11
gr

c11
0 sg
5098 7131 mt 
(0) s
gs 4629 4107 1216 3088 rc
gr

gs 4735 6942 293 293 rc
  60   60 4881 7088 FO
gr

gs 4629 4107 1216 3088 rc
6 w
gr

6 w

end %%Color Dict

eplot
%%EndObject

epage
end

showpage

%%Trailer
%%EOF
