%!PS-Adobe-3.0 EPSF-3.0
%%Creator: MATLAB, The MathWorks, Inc. Version 8.1.0.604 (R2013a). Operating System: Linux 3.12-0.bpo.1-amd64 #1 SMP Debian 3.12.9-1~bpo70+1 (2014-02-07) x86_64.
%%Title: /data/geodynamo/natafh/Dynamo/Acoustics/elastic_shell/Figures/rigid_and_strong_shell_mu6p5e9.eps
%%CreationDate: 09/09/2014  10:49:58
%%DocumentNeededFonts: Helvetica
%%DocumentProcessColors: Cyan Magenta Yellow Black
%%LanguageLevel: 2
%%Pages: 1
%%BoundingBox:    27    38   584   753
%%EndComments

%%BeginProlog
% MathWorks dictionary
/MathWorks 160 dict begin
% definition operators
/bdef {bind def} bind def
/ldef {load def} bind def
/xdef {exch def} bdef
/xstore {exch store} bdef
% operator abbreviations
/c  /clip ldef
/cc /concat ldef
/cp /closepath ldef
/gr /grestore ldef
/gs /gsave ldef
/mt /moveto ldef
/np /newpath ldef
/cm /currentmatrix ldef
/sm /setmatrix ldef
/rm /rmoveto ldef
/rl /rlineto ldef
/s {show newpath} bdef
/sc {setcmykcolor} bdef
/sr /setrgbcolor ldef
/sg /setgray ldef
/w /setlinewidth ldef
/j /setlinejoin ldef
/cap /setlinecap ldef
/rc {rectclip} bdef
/rf {rectfill} bdef
% page state control
/pgsv () def
/bpage {/pgsv save def} bdef
/epage {pgsv restore} bdef
/bplot /gsave ldef
/eplot {stroke grestore} bdef
% orientation switch
/portraitMode 0 def /landscapeMode 1 def /rotateMode 2 def
% coordinate system mappings
/dpi2point 0 def
% font control
/FontSize 0 def
/FMS {/FontSize xstore findfont [FontSize 0 0 FontSize neg 0 0]
  makefont setfont} bdef
/reencode {exch dup where {pop load} {pop StandardEncoding} ifelse
  exch dup 3 1 roll findfont dup length dict begin
  { 1 index /FID ne {def}{pop pop} ifelse } forall
  /Encoding exch def currentdict end definefont pop} bdef
/isroman {findfont /CharStrings get /Agrave known} bdef
/FMSR {3 1 roll 1 index dup isroman {reencode} {pop pop} ifelse
  exch FMS} bdef
/csm {1 dpi2point div -1 dpi2point div scale neg translate
 dup landscapeMode eq {pop -90 rotate}
  {rotateMode eq {90 rotate} if} ifelse} bdef
% line types: solid, dotted, dashed, dotdash
/SO { [] 0 setdash } bdef
/DO { [.5 dpi2point mul 4 dpi2point mul] 0 setdash } bdef
/DA { [6 dpi2point mul] 0 setdash } bdef
/DD { [.5 dpi2point mul 4 dpi2point mul 6 dpi2point mul 4
  dpi2point mul] 0 setdash } bdef
% macros for lines and objects
/L {lineto stroke} bdef
/MP {3 1 roll moveto 1 sub {rlineto} repeat} bdef
/AP {{rlineto} repeat} bdef
/PDlw -1 def
/W {/PDlw currentlinewidth def setlinewidth} def
/PP {closepath eofill} bdef
/DP {closepath stroke} bdef
/MR {4 -2 roll moveto dup  0 exch rlineto exch 0 rlineto
  neg 0 exch rlineto closepath} bdef
/FR {MR stroke} bdef
/PR {MR fill} bdef
/L1i {{currentfile picstr readhexstring pop} image} bdef
/tMatrix matrix def
/MakeOval {newpath tMatrix currentmatrix pop translate scale
0 0 1 0 360 arc tMatrix setmatrix} bdef
/FO {MakeOval stroke} bdef
/PO {MakeOval fill} bdef
/PD {currentlinewidth 2 div 0 360 arc fill
   PDlw -1 eq not {PDlw w /PDlw -1 def} if} def
/FA {newpath tMatrix currentmatrix pop translate scale
  0 0 1 5 -2 roll arc tMatrix setmatrix stroke} bdef
/PA {newpath tMatrix currentmatrix pop	translate 0 0 moveto scale
  0 0 1 5 -2 roll arc closepath tMatrix setmatrix fill} bdef
/FAn {newpath tMatrix currentmatrix pop translate scale
  0 0 1 5 -2 roll arcn tMatrix setmatrix stroke} bdef
/PAn {newpath tMatrix currentmatrix pop translate 0 0 moveto scale
  0 0 1 5 -2 roll arcn closepath tMatrix setmatrix fill} bdef
/vradius 0 def /hradius 0 def /lry 0 def
/lrx 0 def /uly 0 def /ulx 0 def /rad 0 def
/MRR {/vradius xdef /hradius xdef /lry xdef /lrx xdef /uly xdef
  /ulx xdef newpath tMatrix currentmatrix pop ulx hradius add uly
  vradius add translate hradius vradius scale 0 0 1 180 270 arc 
  tMatrix setmatrix lrx hradius sub uly vradius add translate
  hradius vradius scale 0 0 1 270 360 arc tMatrix setmatrix
  lrx hradius sub lry vradius sub translate hradius vradius scale
  0 0 1 0 90 arc tMatrix setmatrix ulx hradius add lry vradius sub
  translate hradius vradius scale 0 0 1 90 180 arc tMatrix setmatrix
  closepath} bdef
/FRR {MRR stroke } bdef
/PRR {MRR fill } bdef
/MlrRR {/lry xdef /lrx xdef /uly xdef /ulx xdef /rad lry uly sub 2 div def
  newpath tMatrix currentmatrix pop ulx rad add uly rad add translate
  rad rad scale 0 0 1 90 270 arc tMatrix setmatrix lrx rad sub lry rad
  sub translate rad rad scale 0 0 1 270 90 arc tMatrix setmatrix
  closepath} bdef
/FlrRR {MlrRR stroke } bdef
/PlrRR {MlrRR fill } bdef
/MtbRR {/lry xdef /lrx xdef /uly xdef /ulx xdef /rad lrx ulx sub 2 div def
  newpath tMatrix currentmatrix pop ulx rad add uly rad add translate
  rad rad scale 0 0 1 180 360 arc tMatrix setmatrix lrx rad sub lry rad
  sub translate rad rad scale 0 0 1 0 180 arc tMatrix setmatrix
  closepath} bdef
/FtbRR {MtbRR stroke } bdef
/PtbRR {MtbRR fill } bdef
/stri 6 array def /dtri 6 array def
/smat 6 array def /dmat 6 array def
/tmat1 6 array def /tmat2 6 array def /dif 3 array def
/asub {/ind2 exch def /ind1 exch def dup dup
  ind1 get exch ind2 get sub exch } bdef
/tri_to_matrix {
  2 0 asub 3 1 asub 4 0 asub 5 1 asub
  dup 0 get exch 1 get 7 -1 roll astore } bdef
/compute_transform {
  dmat dtri tri_to_matrix tmat1 invertmatrix 
  smat stri tri_to_matrix tmat2 concatmatrix } bdef
/ds {stri astore pop} bdef
/dt {dtri astore pop} bdef
/db {2 copy /cols xdef /rows xdef mul dup 3 mul string
  currentfile 
  3 index 0 eq {/ASCIIHexDecode filter}
  {/ASCII85Decode filter 3 index 2 eq {/RunLengthDecode filter} if }
  ifelse exch readstring pop
  dup 0 3 index getinterval /rbmap xdef
  dup 2 index dup getinterval /gbmap xdef
  1 index dup 2 mul exch getinterval /bbmap xdef pop pop}bdef
/it {gs np dtri aload pop moveto lineto lineto cp c
  cols rows 8 compute_transform 
  rbmap gbmap bbmap true 3 colorimage gr}bdef
/il {newpath moveto lineto stroke}bdef
currentdict end def
%%EndProlog

%%BeginSetup
MathWorks begin

0 cap

end
%%EndSetup

%%Page: 1 1
%%BeginPageSetup
%%PageBoundingBox:    27    38   584   753
MathWorks begin
bpage
%%EndPageSetup

%%BeginObject: obj1
bplot

/dpi2point 12 def
portraitMode 0324 9036 csm

    0     0  6691  8573 rc
87 dict begin %Colortable dictionary
/c0 { 0.000000 0.000000 0.000000 sr} bdef
/c1 { 1.000000 1.000000 1.000000 sr} bdef
/c2 { 0.900000 0.000000 0.000000 sr} bdef
/c3 { 0.000000 0.820000 0.000000 sr} bdef
/c4 { 0.000000 0.000000 0.800000 sr} bdef
/c5 { 0.910000 0.820000 0.320000 sr} bdef
/c6 { 1.000000 0.260000 0.820000 sr} bdef
/c7 { 0.000000 0.820000 0.820000 sr} bdef
c0
1 j
1 sg
   0    0 6692 8574 rf
6 w
0 6987 5185 0 0 -6987 870 7630 4 MP
PP
-5185 0 0 6987 5185 0 0 -6987 870 7630 5 MP stroke
4 w
DO
0 sg
 870 7630 mt  870  643 L
 870  643 mt  870  643 L
2598 7630 mt 2598  643 L
2598  643 mt 2598  643 L
4326 7630 mt 4326  643 L
4326  643 mt 4326  643 L
6055 7630 mt 6055  643 L
6055  643 mt 6055  643 L
 870 7459 mt 6055 7459 L
6055 7459 mt 6055 7459 L
 870 6607 mt 6055 6607 L
6055 6607 mt 6055 6607 L
 870 5755 mt 6055 5755 L
6055 5755 mt 6055 5755 L
 870 4903 mt 6055 4903 L
6055 4903 mt 6055 4903 L
 870 4051 mt 6055 4051 L
6055 4051 mt 6055 4051 L
 870 3199 mt 6055 3199 L
6055 3199 mt 6055 3199 L
 870 2347 mt 6055 2347 L
6055 2347 mt 6055 2347 L
 870 1495 mt 6055 1495 L
6055 1495 mt 6055 1495 L
 870  643 mt 6055  643 L
6055  643 mt 6055  643 L
SO
6 w
 870 7630 mt 6055 7630 L
 870  643 mt 6055  643 L
 870 7630 mt  870  643 L
6055 7630 mt 6055  643 L
 870 7630 mt 6055 7630 L
 870 7630 mt  870  643 L
 870 7630 mt  870 7560 L
 870  643 mt  870  712 L
%%IncludeResource: font Helvetica
/Helvetica /ISOLatin1Encoding 120 FMSR

 837 7775 mt 
(0) s
2598 7630 mt 2598 7560 L
2598  643 mt 2598  712 L
2565 7775 mt 
(5) s
4326 7630 mt 4326 7560 L
4326  643 mt 4326  712 L
4260 7775 mt 
(10) s
6055 7630 mt 6055 7560 L
6055  643 mt 6055  712 L
5989 7775 mt 
(15) s
 870 7459 mt  939 7459 L
6055 7459 mt 5985 7459 L
 635 7503 mt 
(500) s
 870 6607 mt  939 6607 L
6055 6607 mt 5985 6607 L
 569 6651 mt 
(1000) s
 870 5755 mt  939 5755 L
6055 5755 mt 5985 5755 L
 569 5799 mt 
(1500) s
 870 4903 mt  939 4903 L
6055 4903 mt 5985 4903 L
 569 4947 mt 
(2000) s
 870 4051 mt  939 4051 L
6055 4051 mt 5985 4051 L
 569 4095 mt 
(2500) s
 870 3199 mt  939 3199 L
6055 3199 mt 5985 3199 L
 569 3243 mt 
(3000) s
 870 2347 mt  939 2347 L
6055 2347 mt 5985 2347 L
 569 2391 mt 
(3500) s
 870 1495 mt  939 1495 L
6055 1495 mt 5985 1495 L
 569 1539 mt 
(4000) s
 870  643 mt  939  643 L
6055  643 mt 5985  643 L
 569  687 mt 
(4500) s
 870 7630 mt 6055 7630 L
 870  643 mt 6055  643 L
 870 7630 mt  870  643 L
6055 7630 mt 6055  643 L
%%IncludeResource: font Helvetica
/Helvetica /ISOLatin1Encoding 96 FMSR

 960  214 mt 
(n) s
%%IncludeResource: font Helvetica
/Helvetica /ISOLatin1Encoding 120 FMSR

1013  154 mt 
(S) s
%%IncludeResource: font Helvetica
/Helvetica /ISOLatin1Encoding 96 FMSR

1093  214 mt 
(l) s
%%IncludeResource: font Helvetica
/Helvetica /ISOLatin1Encoding 120 FMSR

1114  154 mt 
( mode frequencies for spherical shell of fluid enclosed bet\
ween inner and outer solid shells : ) s
2580  324 mt 
(r) s
%%IncludeResource: font Helvetica
/Helvetica /ISOLatin1Encoding 96 FMSR

2619  384 mt 
(i) s
%%IncludeResource: font Helvetica
/Helvetica /ISOLatin1Encoding 120 FMSR

2640  324 mt 
(=0, lambda) s
%%IncludeResource: font Helvetica
/Helvetica /ISOLatin1Encoding 96 FMSR

3237  384 mt 
(i) s
%%IncludeResource: font Helvetica
/Helvetica /ISOLatin1Encoding 120 FMSR

3258  324 mt 
(=0, kappa) s
%%IncludeResource: font Helvetica
/Helvetica /ISOLatin1Encoding 96 FMSR

3788  384 mt 
(0) s
3841  384 mt 
(i) s
%%IncludeResource: font Helvetica
/Helvetica /ISOLatin1Encoding 120 FMSR

3862  324 mt 
(=0, nu) s
%%IncludeResource: font Helvetica
/Helvetica /ISOLatin1Encoding 96 FMSR

4197  384 mt 
(i) s
%%IncludeResource: font Helvetica
/Helvetica /ISOLatin1Encoding 120 FMSR

4218  324 mt 
(=1) s
1906  494 mt 
(r) s
%%IncludeResource: font Helvetica
/Helvetica /ISOLatin1Encoding 96 FMSR

1945  554 mt 
(o) s
%%IncludeResource: font Helvetica
/Helvetica /ISOLatin1Encoding 120 FMSR

1998  494 mt 
(=0.222 lambda) s
%%IncludeResource: font Helvetica
/Helvetica /ISOLatin1Encoding 96 FMSR

2795  554 mt 
(o) s
%%IncludeResource: font Helvetica
/Helvetica /ISOLatin1Encoding 120 FMSR

2848  494 mt 
(=0.011054, kappa) s
%%IncludeResource: font Helvetica
/Helvetica /ISOLatin1Encoding 96 FMSR

3812  554 mt 
(0) s
3865  554 mt 
(o) s
%%IncludeResource: font Helvetica
/Helvetica /ISOLatin1Encoding 120 FMSR

3918  494 mt 
(=0.093277, nu) s
%%IncludeResource: font Helvetica
/Helvetica /ISOLatin1Encoding 96 FMSR

4687  554 mt 
(o) s
%%IncludeResource: font Helvetica
/Helvetica /ISOLatin1Encoding 120 FMSR

4740  494 mt 
(=0.39) s
2845 7918 mt 
(mode angular number l) s
 487 5279 mt  -90 rotate
(mode frequency \(Hz\) \(csound = 347.5 m/s\)) s
90 rotate
gs 870 643 5186 6988 rc
gr

0 j
-21 -16 8 -25 -22 15 -21 -15 8 25 -21 16 26 0 8 24 
9 -24 26 0 835 988 11 MP
gs
PP
gr
DP
gs 870 643 5186 6988 rc
gr

0 -58 -58 0 0 58 58 0 841 2310 5 MP
/c8 { 0.000000 1.000000 0.000000 sr} bdef
c8
gs
PP
gr
DP
0 -58 -58 0 0 58 58 0 1186 1668 5 MP
gs
PP
gr
DP
0 -58 -58 0 0 58 58 0 1532 1047 5 MP
gs
PP
gr
DP
gs 870 643 5186 6988 rc
gr

41 71 -82 0 41 -71 870 3729 4 MP
/c9 { 1.000000 0.000000 1.000000 sr} bdef
c9
gs
PP
gr
DP
41 71 -82 0 41 -71 1215 3092 4 MP
gs
PP
gr
DP
41 71 -82 0 41 -71 1561 2480 4 MP
gs
PP
gr
DP
41 71 -82 0 41 -71 1907 1886 4 MP
gs
PP
gr
DP
41 71 -82 0 41 -71 2252 1307 4 MP
gs
PP
gr
DP
41 71 -82 0 41 -71 2598 739 4 MP
gs
PP
gr
DP
gs 870 643 5186 6988 rc
gr

/c10 { 1.000000 0.000000 0.000000 sr} bdef
c10
 834 5031 mt  906 5031 L
 870 4995 mt  870 5067 L
1179 4403 mt 1251 4403 L
1215 4367 mt 1215 4439 L
1525 3805 mt 1597 3805 L
1561 3769 mt 1561 3841 L
1871 3228 mt 1943 3228 L
1907 3192 mt 1907 3264 L
2216 2667 mt 2288 2667 L
2252 2631 mt 2252 2703 L
2562 2117 mt 2634 2117 L
2598 2081 mt 2598 2153 L
2908 1576 mt 2980 1576 L
2944 1540 mt 2944 1612 L
3253 1044 mt 3325 1044 L
3289 1008 mt 3289 1080 L
gs 870 643 5186 6988 rc
gr

/c11 { 0.000000 0.000000 1.000000 sr} bdef
c11
 845 6378 mt  895 6428 L
 895 6378 mt  845 6428 L
1190 5764 mt 1240 5814 L
1240 5764 mt 1190 5814 L
1536 5191 mt 1586 5241 L
1586 5191 mt 1536 5241 L
1882 4642 mt 1932 4692 L
1932 4642 mt 1882 4692 L
2227 4108 mt 2277 4158 L
2277 4108 mt 2227 4158 L
2573 3586 mt 2623 3636 L
2623 3586 mt 2573 3636 L
2919 3073 mt 2969 3123 L
2969 3073 mt 2919 3123 L
3264 2567 mt 3314 2617 L
3314 2567 mt 3264 2617 L
3610 2066 mt 3660 2116 L
3660 2066 mt 3610 2116 L
3956 1570 mt 4006 1620 L
4006 1570 mt 3956 1620 L
4301 1078 mt 4351 1128 L
4351 1078 mt 4301 1128 L
gs 870 643 5186 6988 rc
gr

0 sg
  36   36 1215 7427 PO
  36   36 1561 6892 PO
  36   36 1907 6395 PO
  36   36 2252 5914 PO
  36   36 2598 5443 PO
  36   36 2944 4978 PO
  36   36 3289 4518 PO
  36   36 3635 4061 PO
  36   36 3981 3607 PO
  36   36 4326 3156 PO
  36   36 4672 2706 PO
  36   36 5018 2258 PO
  36   36 5363 1811 PO
  36   36 5709 1365 PO
  36   36 6055  921 PO
  36   36 1215 7427 FO
  36   36 1561 6892 FO
  36   36 1907 6395 FO
  36   36 2252 5914 FO
  36   36 2598 5443 FO
  36   36 2944 4978 FO
  36   36 3289 4518 FO
  36   36 3635 4061 FO
  36   36 3981 3607 FO
  36   36 4326 3156 FO
  36   36 4672 2706 FO
  36   36 5018 2258 FO
  36   36 5363 1811 FO
  36   36 5709 1365 FO
  36   36 6055  921 FO
gs 870 643 5186 6988 rc
gr

 853 7673 mt 
( ) s
6039  685 mt 
( ) s
gs 870 643 5186 6988 rc
gr

-35 -26 13 -41 -36 24 -35 -24 13 41 -35 26 43 0 14 41 
15 -41 43 0 812 990 11 MP
DP
gs 870 643 5186 6988 rc
gr

0 -94 -94 0 0 94 94 0 823 2296 5 MP
c8
DP
0 -94 -94 0 0 94 94 0 1168 1650 5 MP
DP
0 -94 -94 0 0 94 94 0 1514 1026 5 MP
DP
0 -94 -94 0 0 94 94 0 1860 1786 5 MP
DP
gs 870 643 5186 6988 rc
gr

69 119 -138 0 69 -119 870 3763 4 MP
c9
DP
69 119 -138 0 69 -119 1215 3123 4 MP
DP
69 119 -138 0 69 -119 1561 2507 4 MP
DP
69 119 -138 0 69 -119 1907 3294 4 MP
DP
69 119 -138 0 69 -119 2252 1333 4 MP
DP
69 119 -138 0 69 -119 2598 765 4 MP
DP
69 119 -138 0 69 -119 2944 1647 4 MP
DP
69 119 -138 0 69 -119 3289 1116 4 MP
DP
gs 870 643 5186 6988 rc
gr

c10
 810 5033 mt  930 5033 L
 870 4973 mt  870 5093 L
1155 4401 mt 1275 4401 L
1215 4341 mt 1215 4461 L
1501 3795 mt 1621 3795 L
1561 3735 mt 1561 3855 L
1847 4200 mt 1967 4200 L
1907 4140 mt 1907 4260 L
2192 2655 mt 2312 2655 L
2252 2595 mt 2252 2715 L
2538 2107 mt 2658 2107 L
2598 2047 mt 2598 2167 L
2884 3070 mt 3004 3070 L
2944 3010 mt 2944 3130 L
3229 2573 mt 3349 2573 L
3289 2513 mt 3289 2633 L
3575 2077 mt 3695 2077 L
3635 2017 mt 3635 2137 L
3921 1584 mt 4041 1584 L
3981 1524 mt 3981 1644 L
4266 1093 mt 4386 1093 L
4326 1033 mt 4326 1153 L
gs 870 643 5186 6988 rc
gr

c11
 828 6362 mt  912 6446 L
 912 6362 mt  828 6446 L
1173 5744 mt 1257 5828 L
1257 5744 mt 1173 5828 L
1519 5201 mt 1603 5285 L
1603 5201 mt 1519 5285 L
1865 4651 mt 1949 4735 L
1949 4651 mt 1865 4735 L
2210 4151 mt 2294 4235 L
2294 4151 mt 2210 4235 L
2556 3829 mt 2640 3913 L
2640 3829 mt 2556 3913 L
2902 3705 mt 2986 3789 L
2986 3705 mt 2902 3789 L
3247 3628 mt 3331 3712 L
3331 3628 mt 3247 3712 L
3593 3544 mt 3677 3628 L
3677 3544 mt 3593 3628 L
3939 3367 mt 4023 3451 L
4023 3367 mt 3939 3451 L
4284 3021 mt 4368 3105 L
4368 3021 mt 4284 3105 L
4630 2605 mt 4714 2689 L
4714 2605 mt 4630 2689 L
gs 870 643 5186 6988 rc
gr

0 sg
  60   60 1215 7410 FO
  60   60 1561 6898 FO
  60   60 1907 6403 FO
  60   60 2252 5925 FO
  60   60 2598 5460 FO
  60   60 2944 5004 FO
  60   60 3289 4563 FO
  60   60 3635 4152 FO
  60   60 3981 3849 FO
  60   60 4326 3725 FO
  60   60 4672 3678 FO
  60   60 5018 2213 FO
  60   60 5363 1774 FO
  60   60 5709 1334 FO
  60   60 6055  892 FO
gs 870 643 5186 6988 rc
gr

1 sg
0 2072 1282 0 0 -2072 4434 7362 4 MP
PP
-1282 0 0 2072 1282 0 0 -2072 4434 7362 5 MP stroke
4 w
DO
SO
6 w
0 sg
4434 7362 mt 5716 7362 L
4434 5290 mt 5716 5290 L
4434 7362 mt 4434 5290 L
5716 7362 mt 5716 5290 L
4434 7362 mt 5716 7362 L
4434 7362 mt 4434 5290 L
4434 7362 mt 5716 7362 L
4434 5290 mt 5716 5290 L
4434 7362 mt 4434 5290 L
5716 7362 mt 5716 5290 L
4903 5438 mt 
(n=5 rigid) s
gs 4434 5290 1283 2073 rc
gr

-21 -16 8 -25 -22 15 -21 -15 8 25 -21 16 26 0 8 24 
9 -24 26 0 4651 5383 11 MP
gs
PP
gr
DP
gs 4434 5290 1283 2073 rc
gr

4903 5607 mt 
(4) s
gs 4434 5290 1283 2073 rc
gr

0 -58 -58 0 0 58 58 0 4657 5535 5 MP
c8
gs
PP
gr
DP
gs 4434 5290 1283 2073 rc
gr

0 sg
4903 5776 mt 
(3) s
gs 4434 5290 1283 2073 rc
gr

41 71 -82 0 41 -71 4686 5780 4 MP
c9
gs
PP
gr
DP
gs 4434 5290 1283 2073 rc
gr

0 sg
4903 5945 mt 
(2) s
gs 4434 5290 1283 2073 rc
gr

c10
4650 5903 mt 4722 5903 L
4686 5867 mt 4686 5939 L
gs 4434 5290 1283 2073 rc
gr

0 sg
4903 6115 mt 
(1) s
gs 4434 5290 1283 2073 rc
gr

c11
4661 6047 mt 4711 6097 L
4711 6047 mt 4661 6097 L
gs 4434 5290 1283 2073 rc
gr

0 sg
4903 6284 mt 
(0) s
gs 4434 5290 1283 2073 rc
gr

  36   36 4686 6241 PO
  36   36 4686 6241 FO
gs 4434 5290 1283 2073 rc
gr

4903 6453 mt 
(n=5 mu=6.5e9) s
gs 4434 5290 1283 2073 rc
gr

-35 -26 13 -41 -36 24 -35 -24 13 41 -35 26 43 0 14 41 
15 -41 43 0 4628 6391 11 MP
DP
gs 4434 5290 1283 2073 rc
gr

4903 6622 mt 
(4) s
gs 4434 5290 1283 2073 rc
gr

0 -94 -94 0 0 94 94 0 4639 6532 5 MP
c8
DP
gs 4434 5290 1283 2073 rc
gr

0 sg
4903 6792 mt 
(3) s
gs 4434 5290 1283 2073 rc
gr

69 119 -138 0 69 -119 4686 6827 4 MP
c9
DP
gs 4434 5290 1283 2073 rc
gr

0 sg
4903 6961 mt 
(2) s
gs 4434 5290 1283 2073 rc
gr

c10
4626 6918 mt 4746 6918 L
4686 6858 mt 4686 6978 L
gs 4434 5290 1283 2073 rc
gr

0 sg
4903 7130 mt 
(1) s
gs 4434 5290 1283 2073 rc
gr

c11
4644 7045 mt 4728 7129 L
4728 7045 mt 4644 7129 L
gs 4434 5290 1283 2073 rc
gr

0 sg
4903 7299 mt 
(0) s
gs 4434 5290 1283 2073 rc
gr

  60   60 4686 7256 FO
gs 4434 5290 1283 2073 rc
gr


end %%Color Dict

eplot
%%EndObject

epage
end

showpage

%%Trailer
%%EOF
