%!PS-Adobe-3.0 EPSF-3.0
%%Creator: (MATLAB, The Mathworks, Inc. Version 9.0.0.341360 \(R2016a\). Operating System: Linux)
%%Title: /data/geodynamo/natafh/Dynamo/Acoustics/elastic_shell/Figures/BigSister/BigSister_elastic_vs_rigid.eps
%%CreationDate: 2016-06-03T16:04:05
%%Pages: (atend)
%%BoundingBox: 0 0 593 668
%%LanguageLevel: 3
%%EndComments
%%BeginProlog
%%BeginResource: procset (Apache XML Graphics Std ProcSet) 1.2 0
%%Version: 1.2 0
%%Copyright: (Copyright 2001-2003,2010 The Apache Software Foundation. License terms: http://www.apache.org/licenses/LICENSE-2.0)
/bd{bind def}bind def
/ld{load def}bd
/GR/grestore ld
/M/moveto ld
/LJ/setlinejoin ld
/C/curveto ld
/f/fill ld
/LW/setlinewidth ld
/GC/setgray ld
/t/show ld
/N/newpath ld
/CT/concat ld
/cp/closepath ld
/S/stroke ld
/L/lineto ld
/CC/setcmykcolor ld
/A/ashow ld
/GS/gsave ld
/RC/setrgbcolor ld
/RM/rmoveto ld
/ML/setmiterlimit ld
/re {4 2 roll M
1 index 0 rlineto
0 exch rlineto
neg 0 rlineto
cp } bd
/_ctm matrix def
/_tm matrix def
/BT { _ctm currentmatrix pop matrix _tm copy pop 0 0 moveto } bd
/ET { _ctm setmatrix } bd
/iTm { _ctm setmatrix _tm concat } bd
/Tm { _tm astore pop iTm 0 0 moveto } bd
/ux 0.0 def
/uy 0.0 def
/F {
  /Tp exch def
  /Tf exch def
  Tf findfont Tp scalefont setfont
  /cf Tf def  /cs Tp def
} bd
/ULS {currentpoint /uy exch def /ux exch def} bd
/ULE {
  /Tcx currentpoint pop def
  gsave
  newpath
  cf findfont cs scalefont dup
  /FontMatrix get 0 get /Ts exch def /FontInfo get dup
  /UnderlinePosition get Ts mul /To exch def
  /UnderlineThickness get Ts mul /Tt exch def
  ux uy To add moveto  Tcx uy To add lineto
  Tt setlinewidth stroke
  grestore
} bd
/OLE {
  /Tcx currentpoint pop def
  gsave
  newpath
  cf findfont cs scalefont dup
  /FontMatrix get 0 get /Ts exch def /FontInfo get dup
  /UnderlinePosition get Ts mul /To exch def
  /UnderlineThickness get Ts mul /Tt exch def
  ux uy To add cs add moveto Tcx uy To add cs add lineto
  Tt setlinewidth stroke
  grestore
} bd
/SOE {
  /Tcx currentpoint pop def
  gsave
  newpath
  cf findfont cs scalefont dup
  /FontMatrix get 0 get /Ts exch def /FontInfo get dup
  /UnderlinePosition get Ts mul /To exch def
  /UnderlineThickness get Ts mul /Tt exch def
  ux uy To add cs 10 mul 26 idiv add moveto Tcx uy To add cs 10 mul 26 idiv add lineto
  Tt setlinewidth stroke
  grestore
} bd
/QT {
/Y22 exch store
/X22 exch store
/Y21 exch store
/X21 exch store
currentpoint
/Y21 load 2 mul add 3 div exch
/X21 load 2 mul add 3 div exch
/X21 load 2 mul /X22 load add 3 div
/Y21 load 2 mul /Y22 load add 3 div
/X22 load /Y22 load curveto
} bd
/SSPD {
dup length /d exch dict def
{
/v exch def
/k exch def
currentpagedevice k known {
/cpdv currentpagedevice k get def
v cpdv ne {
/upd false def
/nullv v type /nulltype eq def
/nullcpdv cpdv type /nulltype eq def
nullv nullcpdv or
{
/upd true def
} {
/sametype v type cpdv type eq def
sametype {
v type /arraytype eq {
/vlen v length def
/cpdvlen cpdv length def
vlen cpdvlen eq {
0 1 vlen 1 sub {
/i exch def
/obj v i get def
/cpdobj cpdv i get def
obj cpdobj ne {
/upd true def
exit
} if
} for
} {
/upd true def
} ifelse
} {
v type /dicttype eq {
v {
/dv exch def
/dk exch def
/cpddv cpdv dk get def
dv cpddv ne {
/upd true def
exit
} if
} forall
} {
/upd true def
} ifelse
} ifelse
} if
} ifelse
upd true eq {
d k v put
} if
} if
} if
} forall
d length 0 gt {
d setpagedevice
} if
} bd
%%EndResource
%%BeginResource: procset (Apache XML Graphics EPS ProcSet) 1.0 0
%%Version: 1.0 0
%%Copyright: (Copyright 2002-2003 The Apache Software Foundation. License terms: http://www.apache.org/licenses/LICENSE-2.0)
/BeginEPSF { %def
/b4_Inc_state save def         % Save state for cleanup
/dict_count countdictstack def % Count objects on dict stack
/op_count count 1 sub def      % Count objects on operand stack
userdict begin                 % Push userdict on dict stack
/showpage { } def              % Redefine showpage, { } = null proc
0 setgray 0 setlinecap         % Prepare graphics state
1 setlinewidth 0 setlinejoin
10 setmiterlimit [ ] 0 setdash newpath
/languagelevel where           % If level not equal to 1 then
{pop languagelevel             % set strokeadjust and
1 ne                           % overprint to their defaults.
{false setstrokeadjust false setoverprint
} if
} if
} bd
/EndEPSF { %def
count op_count sub {pop} repeat            % Clean up stacks
countdictstack dict_count sub {end} repeat
b4_Inc_state restore
} bd
%%EndResource
%FOPBeginFontDict
%%IncludeResource: font Courier-Bold
%%IncludeResource: font Helvetica
%%IncludeResource: font Courier-BoldOblique
%%IncludeResource: font Courier-Oblique
%%IncludeResource: font Times-Roman
%%IncludeResource: font Helvetica-BoldOblique
%%IncludeResource: font Helvetica-Bold
%%IncludeResource: font Helvetica-Oblique
%%IncludeResource: font Times-BoldItalic
%%IncludeResource: font Courier
%%IncludeResource: font Times-Italic
%%IncludeResource: font Times-Bold
%%IncludeResource: font Symbol
%%IncludeResource: font ZapfDingbats
%FOPEndFontDict
%%BeginResource: encoding WinAnsiEncoding
/WinAnsiEncoding [
/.notdef /.notdef /.notdef /.notdef /.notdef
/.notdef /.notdef /.notdef /.notdef /.notdef
/.notdef /.notdef /.notdef /.notdef /.notdef
/.notdef /.notdef /.notdef /.notdef /.notdef
/.notdef /.notdef /.notdef /.notdef /.notdef
/.notdef /.notdef /.notdef /.notdef /.notdef
/.notdef /.notdef /space /exclam /quotedbl
/numbersign /dollar /percent /ampersand /quotesingle
/parenleft /parenright /asterisk /plus /comma
/hyphen /period /slash /zero /one
/two /three /four /five /six
/seven /eight /nine /colon /semicolon
/less /equal /greater /question /at
/A /B /C /D /E
/F /G /H /I /J
/K /L /M /N /O
/P /Q /R /S /T
/U /V /W /X /Y
/Z /bracketleft /backslash /bracketright /asciicircum
/underscore /quoteleft /a /b /c
/d /e /f /g /h
/i /j /k /l /m
/n /o /p /q /r
/s /t /u /v /w
/x /y /z /braceleft /bar
/braceright /asciitilde /bullet /Euro /bullet
/quotesinglbase /florin /quotedblbase /ellipsis /dagger
/daggerdbl /circumflex /perthousand /Scaron /guilsinglleft
/OE /bullet /Zcaron /bullet /bullet
/quoteleft /quoteright /quotedblleft /quotedblright /bullet
/endash /emdash /asciitilde /trademark /scaron
/guilsinglright /oe /bullet /zcaron /Ydieresis
/space /exclamdown /cent /sterling /currency
/yen /brokenbar /section /dieresis /copyright
/ordfeminine /guillemotleft /logicalnot /sfthyphen /registered
/macron /degree /plusminus /twosuperior /threesuperior
/acute /mu /paragraph /middot /cedilla
/onesuperior /ordmasculine /guillemotright /onequarter /onehalf
/threequarters /questiondown /Agrave /Aacute /Acircumflex
/Atilde /Adieresis /Aring /AE /Ccedilla
/Egrave /Eacute /Ecircumflex /Edieresis /Igrave
/Iacute /Icircumflex /Idieresis /Eth /Ntilde
/Ograve /Oacute /Ocircumflex /Otilde /Odieresis
/multiply /Oslash /Ugrave /Uacute /Ucircumflex
/Udieresis /Yacute /Thorn /germandbls /agrave
/aacute /acircumflex /atilde /adieresis /aring
/ae /ccedilla /egrave /eacute /ecircumflex
/edieresis /igrave /iacute /icircumflex /idieresis
/eth /ntilde /ograve /oacute /ocircumflex
/otilde /odieresis /divide /oslash /ugrave
/uacute /ucircumflex /udieresis /yacute /thorn
/ydieresis
] def
%%EndResource
%FOPBeginFontReencode
/Courier-Bold findfont
dup length dict begin
  {1 index /FID ne {def} {pop pop} ifelse} forall
  /Encoding WinAnsiEncoding def
  currentdict
end
/Courier-Bold exch definefont pop
/Helvetica findfont
dup length dict begin
  {1 index /FID ne {def} {pop pop} ifelse} forall
  /Encoding WinAnsiEncoding def
  currentdict
end
/Helvetica exch definefont pop
/Courier-BoldOblique findfont
dup length dict begin
  {1 index /FID ne {def} {pop pop} ifelse} forall
  /Encoding WinAnsiEncoding def
  currentdict
end
/Courier-BoldOblique exch definefont pop
/Courier-Oblique findfont
dup length dict begin
  {1 index /FID ne {def} {pop pop} ifelse} forall
  /Encoding WinAnsiEncoding def
  currentdict
end
/Courier-Oblique exch definefont pop
/Times-Roman findfont
dup length dict begin
  {1 index /FID ne {def} {pop pop} ifelse} forall
  /Encoding WinAnsiEncoding def
  currentdict
end
/Times-Roman exch definefont pop
/Helvetica-BoldOblique findfont
dup length dict begin
  {1 index /FID ne {def} {pop pop} ifelse} forall
  /Encoding WinAnsiEncoding def
  currentdict
end
/Helvetica-BoldOblique exch definefont pop
/Helvetica-Bold findfont
dup length dict begin
  {1 index /FID ne {def} {pop pop} ifelse} forall
  /Encoding WinAnsiEncoding def
  currentdict
end
/Helvetica-Bold exch definefont pop
/Helvetica-Oblique findfont
dup length dict begin
  {1 index /FID ne {def} {pop pop} ifelse} forall
  /Encoding WinAnsiEncoding def
  currentdict
end
/Helvetica-Oblique exch definefont pop
/Times-BoldItalic findfont
dup length dict begin
  {1 index /FID ne {def} {pop pop} ifelse} forall
  /Encoding WinAnsiEncoding def
  currentdict
end
/Times-BoldItalic exch definefont pop
/Courier findfont
dup length dict begin
  {1 index /FID ne {def} {pop pop} ifelse} forall
  /Encoding WinAnsiEncoding def
  currentdict
end
/Courier exch definefont pop
/Times-Italic findfont
dup length dict begin
  {1 index /FID ne {def} {pop pop} ifelse} forall
  /Encoding WinAnsiEncoding def
  currentdict
end
/Times-Italic exch definefont pop
/Times-Bold findfont
dup length dict begin
  {1 index /FID ne {def} {pop pop} ifelse} forall
  /Encoding WinAnsiEncoding def
  currentdict
end
/Times-Bold exch definefont pop
%FOPEndFontReencode
%%EndProlog
%%Page: 1 1
%%PageBoundingBox: 0 0 593 668
%%BeginPageSetup
[1 0 0 -1 0 668] CT
%%EndPageSetup
GS
[0.75 0 0 0.75 0 0.5] CT
1 GC
N
0 0 791 890 re
f
GR
GS
[0.75 0 0 0.75 0 0.5] CT
1 GC
N
0 0 791 890 re
f
GR
GS
[0.75 0 0 0.75 0 0.5] CT
1 GC
N
103 792 M
716 792 L
716 93 L
103 93 L
cp
f
GR
GS
[0.75 0 0 0.75 0 0.5] CT
0.873 GC
1 LJ
0.667 LW
N
103 792 M
103 93 L
S
GR
GS
[0.75 0 0 0.75 0 0.5] CT
0.873 GC
1 LJ
0.667 LW
N
307.333 792 M
307.333 93 L
S
GR
GS
[0.75 0 0 0.75 0 0.5] CT
0.873 GC
1 LJ
0.667 LW
N
511.667 792 M
511.667 93 L
S
GR
GS
[0.75 0 0 0.75 0 0.5] CT
0.873 GC
1 LJ
0.667 LW
N
716 792 M
716 93 L
S
GR
GS
[0.75 0 0 0.75 0 0.5] CT
0.873 GC
1 LJ
0.667 LW
N
716 792 M
103 792 L
S
GR
GS
[0.75 0 0 0.75 0 0.5] CT
0.873 GC
1 LJ
0.667 LW
N
716 675.5 M
103 675.5 L
S
GR
GS
[0.75 0 0 0.75 0 0.5] CT
0.873 GC
1 LJ
0.667 LW
N
716 559 M
103 559 L
S
GR
GS
[0.75 0 0 0.75 0 0.5] CT
0.873 GC
1 LJ
0.667 LW
N
716 442.5 M
103 442.5 L
S
GR
GS
[0.75 0 0 0.75 0 0.5] CT
0.873 GC
1 LJ
0.667 LW
N
716 326 M
103 326 L
S
GR
GS
[0.75 0 0 0.75 0 0.5] CT
0.873 GC
1 LJ
0.667 LW
N
716 209.5 M
103 209.5 L
S
GR
GS
[0.75 0 0 0.75 0 0.5] CT
0.873 GC
1 LJ
0.667 LW
N
716 93 M
103 93 L
S
GR
GS
[0.75 0 0 0.75 0 0.5] CT
0.149 GC
2 setlinecap
1 LJ
0.667 LW
N
103 792 M
716 792 L
S
GR
GS
[0.75 0 0 0.75 0 0.5] CT
0.149 GC
2 setlinecap
1 LJ
0.667 LW
N
103 93 M
716 93 L
S
GR
GS
[0.75 0 0 0.75 0 0.5] CT
0.149 GC
2 setlinecap
1 LJ
0.667 LW
N
103 792 M
103 785.02 L
S
GR
GS
[0.75 0 0 0.75 0 0.5] CT
0.149 GC
2 setlinecap
1 LJ
0.667 LW
N
307.333 792 M
307.333 785.02 L
S
GR
GS
[0.75 0 0 0.75 0 0.5] CT
0.149 GC
2 setlinecap
1 LJ
0.667 LW
N
511.667 792 M
511.667 785.02 L
S
GR
GS
[0.75 0 0 0.75 0 0.5] CT
0.149 GC
2 setlinecap
1 LJ
0.667 LW
N
716 792 M
716 785.02 L
S
GR
GS
[0.75 0 0 0.75 0 0.5] CT
0.149 GC
2 setlinecap
1 LJ
0.667 LW
N
103 93 M
103 99.98 L
S
GR
GS
[0.75 0 0 0.75 0 0.5] CT
0.149 GC
2 setlinecap
1 LJ
0.667 LW
N
307.333 93 M
307.333 99.98 L
S
GR
GS
[0.75 0 0 0.75 0 0.5] CT
0.149 GC
2 setlinecap
1 LJ
0.667 LW
N
511.667 93 M
511.667 99.98 L
S
GR
GS
[0.75 0 0 0.75 0 0.5] CT
0.149 GC
2 setlinecap
1 LJ
0.667 LW
N
716 93 M
716 99.98 L
S
GR
GS
[0.75 0 0 0.75 77.25 598.49998] CT
0.149 GC
/Helvetica 13.333 F
GS
[1 0 0 1 0 0] CT
-4.5 13 moveto 
1 -1 scale
(0) t 
GR
GR
GS
[0.75 0 0 0.75 230.50001 598.49998] CT
0.149 GC
/Helvetica 13.333 F
GS
[1 0 0 1 0 0] CT
-4.5 13 moveto 
1 -1 scale
(5) t 
GR
GR
GS
[0.75 0 0 0.75 383.74999 598.49998] CT
0.149 GC
/Helvetica 13.333 F
GS
[1 0 0 1 0 0] CT
-8.5 13 moveto 
1 -1 scale
(10) t 
GR
GR
GS
[0.75 0 0 0.75 537 598.49998] CT
0.149 GC
/Helvetica 13.333 F
GS
[1 0 0 1 0 0] CT
-8.5 13 moveto 
1 -1 scale
(15) t 
GR
GR
GS
[0.75 0 0 0.75 307.12523 612.25002] CT
0.149 GC
/Helvetica 14.667 F
GS
[1 0 0 1 0 0] CT
-88.5 14 moveto 
1 -1 scale
(mode angular number l) t 
GR
GR
GS
[0.75 0 0 0.75 0 0.5] CT
0.149 GC
2 setlinecap
1 LJ
0.667 LW
N
103 792 M
103 93 L
S
GR
GS
[0.75 0 0 0.75 0 0.5] CT
0.149 GC
2 setlinecap
1 LJ
0.667 LW
N
716 792 M
716 93 L
S
GR
GS
[0.75 0 0 0.75 0 0.5] CT
0.149 GC
2 setlinecap
1 LJ
0.667 LW
N
103 792 M
109.98 792 L
S
GR
GS
[0.75 0 0 0.75 0 0.5] CT
0.149 GC
2 setlinecap
1 LJ
0.667 LW
N
103 675.5 M
109.98 675.5 L
S
GR
GS
[0.75 0 0 0.75 0 0.5] CT
0.149 GC
2 setlinecap
1 LJ
0.667 LW
N
103 559 M
109.98 559 L
S
GR
GS
[0.75 0 0 0.75 0 0.5] CT
0.149 GC
2 setlinecap
1 LJ
0.667 LW
N
103 442.5 M
109.98 442.5 L
S
GR
GS
[0.75 0 0 0.75 0 0.5] CT
0.149 GC
2 setlinecap
1 LJ
0.667 LW
N
103 326 M
109.98 326 L
S
GR
GS
[0.75 0 0 0.75 0 0.5] CT
0.149 GC
2 setlinecap
1 LJ
0.667 LW
N
103 209.5 M
109.98 209.5 L
S
GR
GS
[0.75 0 0 0.75 0 0.5] CT
0.149 GC
2 setlinecap
1 LJ
0.667 LW
N
103 93 M
109.98 93 L
S
GR
GS
[0.75 0 0 0.75 0 0.5] CT
0.149 GC
2 setlinecap
1 LJ
0.667 LW
N
716 792 M
709.02 792 L
S
GR
GS
[0.75 0 0 0.75 0 0.5] CT
0.149 GC
2 setlinecap
1 LJ
0.667 LW
N
716 675.5 M
709.02 675.5 L
S
GR
GS
[0.75 0 0 0.75 0 0.5] CT
0.149 GC
2 setlinecap
1 LJ
0.667 LW
N
716 559 M
709.02 559 L
S
GR
GS
[0.75 0 0 0.75 0 0.5] CT
0.149 GC
2 setlinecap
1 LJ
0.667 LW
N
716 442.5 M
709.02 442.5 L
S
GR
GS
[0.75 0 0 0.75 0 0.5] CT
0.149 GC
2 setlinecap
1 LJ
0.667 LW
N
716 326 M
709.02 326 L
S
GR
GS
[0.75 0 0 0.75 0 0.5] CT
0.149 GC
2 setlinecap
1 LJ
0.667 LW
N
716 209.5 M
709.02 209.5 L
S
GR
GS
[0.75 0 0 0.75 0 0.5] CT
0.149 GC
2 setlinecap
1 LJ
0.667 LW
N
716 93 M
709.02 93 L
S
GR
GS
[0.75 0 0 0.75 73.25 594.5] CT
0.149 GC
/Helvetica 13.333 F
GS
[1 0 0 1 0 0] CT
-9 4.5 moveto 
1 -1 scale
(0) t 
GR
GR
GS
[0.75 0 0 0.75 73.25 507.125] CT
0.149 GC
/Helvetica 13.333 F
GS
[1 0 0 1 0 0] CT
-34 4.5 moveto 
1 -1 scale
(2000) t 
GR
GR
GS
[0.75 0 0 0.75 73.25 419.75] CT
0.149 GC
/Helvetica 13.333 F
GS
[1 0 0 1 0 0] CT
-34 4.5 moveto 
1 -1 scale
(4000) t 
GR
GR
GS
[0.75 0 0 0.75 73.25 332.375] CT
0.149 GC
/Helvetica 13.333 F
GS
[1 0 0 1 0 0] CT
-34 4.5 moveto 
1 -1 scale
(6000) t 
GR
GR
GS
[0.75 0 0 0.75 73.25 245] CT
0.149 GC
/Helvetica 13.333 F
GS
[1 0 0 1 0 0] CT
-34 4.5 moveto 
1 -1 scale
(8000) t 
GR
GR
GS
[0.75 0 0 0.75 73.25 157.625] CT
0.149 GC
/Helvetica 13.333 F
GS
[1 0 0 1 0 0] CT
-42 4.5 moveto 
1 -1 scale
(10000) t 
GR
GR
GS
[0.75 0 0 0.75 73.25 70.25] CT
0.149 GC
/Helvetica 13.333 F
GS
[1 0 0 1 0 0] CT
-42 4.5 moveto 
1 -1 scale
(12000) t 
GR
GR
GS
[0 -0.75 0.75 0 38.75 332.37475] CT
0.149 GC
/Helvetica 14.667 F
GS
[1 0 0 1 0 0] CT
-161 -4 moveto 
1 -1 scale
(mode frequency \(Hz\) \(csound = 2500 m/s\)) t 
GR
GR
GS
[0.75 0 0 0.75 1.5 16.25] CT
/Helvetica-Bold 10.667 F
GS
[1 0 0 1 0 0] CT
0 0 moveto 
1 -1 scale
(n) t 
GR
GR
GS
[0.75 0 0 0.75 7.5 11] CT
/Helvetica-Bold 14.667 F
GS
[1 0 0 1 0 0] CT
0 0 moveto 
1 -1 scale
(S) t 
GR
GR
GS
[0.75 0 0 0.75 15.75 16.25] CT
/Helvetica-Bold 10.667 F
GS
[1 0 0 1 0 0] CT
0 0 moveto 
1 -1 scale
(l) t 
GR
GR
GS
[0.75 0 0 0.75 18.75 11] CT
/Helvetica-Bold 14.667 F
GS
[1 0 0 1 0 0] CT
0 0 moveto 
1 -1 scale
( mode frequencies for spherical shell of fluid enclosed between inner and outer solid shells : ) t 
GR
GR
GS
[0.75 0 0 0.75 163.5 29] CT
/Helvetica-Bold 14.667 F
GS
[1 0 0 1 0 0] CT
0 0 moveto 
1 -1 scale
(r) t 
GR
GR
GS
[0.75 0 0 0.75 169.5 34.25] CT
/Helvetica-Bold 10.667 F
GS
[1 0 0 1 0 0] CT
0 0 moveto 
1 -1 scale
(i) t 
GR
GR
GS
[0.75 0 0 0.75 172.5 29] CT
/Helvetica-Bold 14.667 F
GS
[1 0 0 1 0 0] CT
0 0 moveto 
1 -1 scale
(=0.51, lambda) t 
GR
GR
GS
[0.75 0 0 0.75 264.75 34.25] CT
/Helvetica-Bold 10.667 F
GS
[1 0 0 1 0 0] CT
0 0 moveto 
1 -1 scale
(i) t 
GR
GR
GS
[0.75 0 0 0.75 267.75 29] CT
/Helvetica-Bold 14.667 F
GS
[1 0 0 1 0 0] CT
0 0 moveto 
1 -1 scale
(=0, kappa) t 
GR
GR
GS
[0.75 0 0 0.75 332.25 34.25] CT
/Helvetica-Bold 10.667 F
GS
[1 0 0 1 0 0] CT
0 0 moveto 
1 -1 scale
(0) t 
GR
GR
GS
[0.75 0 0 0.75 338.25 34.25] CT
/Helvetica-Bold 10.667 F
GS
[1 0 0 1 0 0] CT
0 0 moveto 
1 -1 scale
(i) t 
GR
GR
GS
[0.75 0 0 0.75 341.25 29] CT
/Helvetica-Bold 14.667 F
GS
[1 0 0 1 0 0] CT
0 0 moveto 
1 -1 scale
(=9.8509, nu) t 
GR
GR
GS
[0.75 0 0 0.75 418.5 34.25] CT
/Helvetica-Bold 10.667 F
GS
[1 0 0 1 0 0] CT
0 0 moveto 
1 -1 scale
(i) t 
GR
GR
GS
[0.75 0 0 0.75 421.5 29] CT
/Helvetica-Bold 14.667 F
GS
[1 0 0 1 0 0] CT
0 0 moveto 
1 -1 scale
(=0.3) t 
GR
GR
GS
[0.75 0 0 0.75 162.75 47] CT
/Helvetica-Bold 14.667 F
GS
[1 0 0 1 0 0] CT
0 0 moveto 
1 -1 scale
(r) t 
GR
GR
GS
[0.75 0 0 0.75 168.75 52.25] CT
/Helvetica-Bold 10.667 F
GS
[1 0 0 1 0 0] CT
0 0 moveto 
1 -1 scale
(o) t 
GR
GR
GS
[0.75 0 0 0.75 174.75 47] CT
/Helvetica-Bold 14.667 F
GS
[1 0 0 1 0 0] CT
0 0 moveto 
1 -1 scale
(=1.46 lambda) t 
GR
GR
GS
[0.75 0 0 0.75 263.25 52.25] CT
/Helvetica-Bold 10.667 F
GS
[1 0 0 1 0 0] CT
0 0 moveto 
1 -1 scale
(o) t 
GR
GR
GS
[0.75 0 0 0.75 269.25 47] CT
/Helvetica-Bold 14.667 F
GS
[1 0 0 1 0 0] CT
0 0 moveto 
1 -1 scale
(=0, kappa) t 
GR
GR
GS
[0.75 0 0 0.75 333.75 52.25] CT
/Helvetica-Bold 10.667 F
GS
[1 0 0 1 0 0] CT
0 0 moveto 
1 -1 scale
(0) t 
GR
GR
GS
[0.75 0 0 0.75 339.75 52.25] CT
/Helvetica-Bold 10.667 F
GS
[1 0 0 1 0 0] CT
0 0 moveto 
1 -1 scale
(o) t 
GR
GR
GS
[0.75 0 0 0.75 345.75 47] CT
/Helvetica-Bold 14.667 F
GS
[1 0 0 1 0 0] CT
0 0 moveto 
1 -1 scale
(=7.163, nu) t 
GR
GR
GS
[0.75 0 0 0.75 415.5 52.25] CT
/Helvetica-Bold 10.667 F
GS
[1 0 0 1 0 0] CT
0 0 moveto 
1 -1 scale
(o) t 
GR
GR
GS
[0.75 0 0 0.75 421.5 47] CT
/Helvetica-Bold 14.667 F
GS
[1 0 0 1 0 0] CT
0 0 moveto 
1 -1 scale
(=0.3) t 
GR
GR
GS
[0.75 0 0 0.75 123.75 65] CT
/Helvetica-Bold 14.667 F
GS
[1 0 0 1 0 0] CT
0 0 moveto 
1 -1 scale
(compared to inner and outer rigid shells \(empty symbols\)) t 
GR
GR
GS
[0.75 0 0 0.75 0 0.5] CT
N
99.696 425.264 M
102.56 425.264 L
103.5 422.5 L
104.44 425.264 L
107.304 425.264 L
105.022 426.994 L
105.851 429.736 L
103.5 428.1 L
101.149 429.736 L
101.978 426.994 L
99.696 425.264 L
cp
f
GR
GS
[0.75 0 0 0.75 0 0.5] CT
10.0 ML
N
99.696 425.264 M
102.56 425.264 L
103.5 422.5 L
104.44 425.264 L
107.304 425.264 L
105.022 426.994 L
105.851 429.736 L
103.5 428.1 L
101.149 429.736 L
101.978 426.994 L
cp
S
GR
GS
[0.75 0 0 0.75 0 0.5] CT
N
139.696 346.264 M
142.56 346.264 L
143.5 343.5 L
144.44 346.264 L
147.304 346.264 L
145.022 347.994 L
145.851 350.736 L
143.5 349.1 L
141.149 350.736 L
141.978 347.994 L
139.696 346.264 L
cp
f
GR
GS
[0.75 0 0 0.75 0 0.5] CT
10.0 ML
N
139.696 346.264 M
142.56 346.264 L
143.5 343.5 L
144.44 346.264 L
147.304 346.264 L
145.022 347.994 L
145.851 350.736 L
143.5 349.1 L
141.149 350.736 L
141.978 347.994 L
cp
S
GR
GS
[0.75 0 0 0.75 0 0.5] CT
N
180.696 343.264 M
183.56 343.264 L
184.5 340.5 L
185.44 343.264 L
188.304 343.264 L
186.022 344.994 L
186.851 347.736 L
184.5 346.1 L
182.149 347.736 L
182.978 344.994 L
180.696 343.264 L
cp
f
GR
GS
[0.75 0 0 0.75 0 0.5] CT
10.0 ML
N
180.696 343.264 M
183.56 343.264 L
184.5 340.5 L
185.44 343.264 L
188.304 343.264 L
186.022 344.994 L
186.851 347.736 L
184.5 346.1 L
182.149 347.736 L
182.978 344.994 L
cp
S
GR
GS
[0.75 0 0 0.75 0 0.5] CT
N
221.696 339.264 M
224.56 339.264 L
225.5 336.5 L
226.44 339.264 L
229.304 339.264 L
227.022 340.994 L
227.851 343.736 L
225.5 342.1 L
223.149 343.736 L
223.978 340.994 L
221.696 339.264 L
cp
f
GR
GS
[0.75 0 0 0.75 0 0.5] CT
10.0 ML
N
221.696 339.264 M
224.56 339.264 L
225.5 336.5 L
226.44 339.264 L
229.304 339.264 L
227.022 340.994 L
227.851 343.736 L
225.5 342.1 L
223.149 343.736 L
223.978 340.994 L
cp
S
GR
GS
[0.75 0 0 0.75 0 0.5] CT
N
262.696 335.264 M
265.56 335.264 L
266.5 332.5 L
267.44 335.264 L
270.304 335.264 L
268.022 336.994 L
268.851 339.736 L
266.5 338.1 L
264.149 339.736 L
264.978 336.994 L
262.696 335.264 L
cp
f
GR
GS
[0.75 0 0 0.75 0 0.5] CT
10.0 ML
N
262.696 335.264 M
265.56 335.264 L
266.5 332.5 L
267.44 335.264 L
270.304 335.264 L
268.022 336.994 L
268.851 339.736 L
266.5 338.1 L
264.149 339.736 L
264.978 336.994 L
cp
S
GR
GS
[0.75 0 0 0.75 0 0.5] CT
N
303.696 395.264 M
306.56 395.264 L
307.5 392.5 L
308.44 395.264 L
311.304 395.264 L
309.022 396.994 L
309.851 399.736 L
307.5 398.1 L
305.149 399.736 L
305.978 396.994 L
303.696 395.264 L
cp
f
GR
GS
[0.75 0 0 0.75 0 0.5] CT
10.0 ML
N
303.696 395.264 M
306.56 395.264 L
307.5 392.5 L
308.44 395.264 L
311.304 395.264 L
309.022 396.994 L
309.851 399.736 L
307.5 398.1 L
305.149 399.736 L
305.978 396.994 L
cp
S
GR
GS
[0.75 0 0 0.75 0 0.5] CT
N
344.696 314.264 M
347.56 314.264 L
348.5 311.5 L
349.44 314.264 L
352.304 314.264 L
350.022 315.994 L
350.851 318.736 L
348.5 317.1 L
346.149 318.736 L
346.978 315.994 L
344.696 314.264 L
cp
f
GR
GS
[0.75 0 0 0.75 0 0.5] CT
10.0 ML
N
344.696 314.264 M
347.56 314.264 L
348.5 311.5 L
349.44 314.264 L
352.304 314.264 L
350.022 315.994 L
350.851 318.736 L
348.5 317.1 L
346.149 318.736 L
346.978 315.994 L
cp
S
GR
GS
[0.75 0 0 0.75 0 0.5] CT
N
385.696 304.264 M
388.56 304.264 L
389.5 301.5 L
390.44 304.264 L
393.304 304.264 L
391.022 305.994 L
391.851 308.736 L
389.5 307.1 L
387.149 308.736 L
387.978 305.994 L
385.696 304.264 L
cp
f
GR
GS
[0.75 0 0 0.75 0 0.5] CT
10.0 ML
N
385.696 304.264 M
388.56 304.264 L
389.5 301.5 L
390.44 304.264 L
393.304 304.264 L
391.022 305.994 L
391.851 308.736 L
389.5 307.1 L
387.149 308.736 L
387.978 305.994 L
cp
S
GR
GS
[0.75 0 0 0.75 0 0.5] CT
N
425.696 361.264 M
428.56 361.264 L
429.5 358.5 L
430.44 361.264 L
433.304 361.264 L
431.022 362.994 L
431.851 365.736 L
429.5 364.1 L
427.149 365.736 L
427.978 362.994 L
425.696 361.264 L
cp
f
GR
GS
[0.75 0 0 0.75 0 0.5] CT
10.0 ML
N
425.696 361.264 M
428.56 361.264 L
429.5 358.5 L
430.44 361.264 L
433.304 361.264 L
431.022 362.994 L
431.851 365.736 L
429.5 364.1 L
427.149 365.736 L
427.978 362.994 L
cp
S
GR
GS
[0.75 0 0 0.75 0 0.5] CT
N
466.696 347.264 M
469.56 347.264 L
470.5 344.5 L
471.44 347.264 L
474.304 347.264 L
472.022 348.994 L
472.851 351.736 L
470.5 350.1 L
468.149 351.736 L
468.978 348.994 L
466.696 347.264 L
cp
f
GR
GS
[0.75 0 0 0.75 0 0.5] CT
10.0 ML
N
466.696 347.264 M
469.56 347.264 L
470.5 344.5 L
471.44 347.264 L
474.304 347.264 L
472.022 348.994 L
472.851 351.736 L
470.5 350.1 L
468.149 351.736 L
468.978 348.994 L
cp
S
GR
GS
[0.75 0 0 0.75 0 0.5] CT
N
507.696 267.264 M
510.56 267.264 L
511.5 264.5 L
512.44 267.264 L
515.304 267.264 L
513.022 268.994 L
513.851 271.736 L
511.5 270.1 L
509.149 271.736 L
509.978 268.994 L
507.696 267.264 L
cp
f
GR
GS
[0.75 0 0 0.75 0 0.5] CT
10.0 ML
N
507.696 267.264 M
510.56 267.264 L
511.5 264.5 L
512.44 267.264 L
515.304 267.264 L
513.022 268.994 L
513.851 271.736 L
511.5 270.1 L
509.149 271.736 L
509.978 268.994 L
cp
S
GR
GS
[0.75 0 0 0.75 0 0.5] CT
N
548.696 252.264 M
551.56 252.264 L
552.5 249.5 L
553.44 252.264 L
556.304 252.264 L
554.022 253.994 L
554.851 256.736 L
552.5 255.1 L
550.149 256.736 L
550.978 253.994 L
548.696 252.264 L
cp
f
GR
GS
[0.75 0 0 0.75 0 0.5] CT
10.0 ML
N
548.696 252.264 M
551.56 252.264 L
552.5 249.5 L
553.44 252.264 L
556.304 252.264 L
554.022 253.994 L
554.851 256.736 L
552.5 255.1 L
550.149 256.736 L
550.978 253.994 L
cp
S
GR
GS
[0.75 0 0 0.75 0 0.5] CT
N
589.696 297.264 M
592.56 297.264 L
593.5 294.5 L
594.44 297.264 L
597.304 297.264 L
595.022 298.994 L
595.851 301.736 L
593.5 300.1 L
591.149 301.736 L
591.978 298.994 L
589.696 297.264 L
cp
f
GR
GS
[0.75 0 0 0.75 0 0.5] CT
10.0 ML
N
589.696 297.264 M
592.56 297.264 L
593.5 294.5 L
594.44 297.264 L
597.304 297.264 L
595.022 298.994 L
595.851 301.736 L
593.5 300.1 L
591.149 301.736 L
591.978 298.994 L
cp
S
GR
GS
[0.75 0 0 0.75 0 0.5] CT
N
630.696 279.264 M
633.56 279.264 L
634.5 276.5 L
635.44 279.264 L
638.304 279.264 L
636.022 280.994 L
636.851 283.736 L
634.5 282.1 L
632.149 283.736 L
632.978 280.994 L
630.696 279.264 L
cp
f
GR
GS
[0.75 0 0 0.75 0 0.5] CT
10.0 ML
N
630.696 279.264 M
633.56 279.264 L
634.5 276.5 L
635.44 279.264 L
638.304 279.264 L
636.022 280.994 L
636.851 283.736 L
634.5 282.1 L
632.149 283.736 L
632.978 280.994 L
cp
S
GR
GS
[0.75 0 0 0.75 0 0.5] CT
N
671.696 203.264 M
674.56 203.264 L
675.5 200.5 L
676.44 203.264 L
679.304 203.264 L
677.022 204.994 L
677.851 207.736 L
675.5 206.1 L
673.149 207.736 L
673.978 204.994 L
671.696 203.264 L
cp
f
GR
GS
[0.75 0 0 0.75 0 0.5] CT
10.0 ML
N
671.696 203.264 M
674.56 203.264 L
675.5 200.5 L
676.44 203.264 L
679.304 203.264 L
677.022 204.994 L
677.851 207.736 L
675.5 206.1 L
673.149 207.736 L
673.978 204.994 L
cp
S
GR
GS
[0.75 0 0 0.75 0 0.5] CT
N
712.696 185.264 M
715.56 185.264 L
716.5 182.5 L
717.44 185.264 L
720.304 185.264 L
718.022 186.994 L
718.851 189.736 L
716.5 188.1 L
714.149 189.736 L
714.978 186.994 L
712.696 185.264 L
cp
f
GR
GS
[0.75 0 0 0.75 0 0.5] CT
10.0 ML
N
712.696 185.264 M
715.56 185.264 L
716.5 182.5 L
717.44 185.264 L
720.304 185.264 L
718.022 186.994 L
718.851 189.736 L
716.5 188.1 L
714.149 189.736 L
714.978 186.994 L
cp
S
GR
GS
[0.75 0 0 0.75 0 0.5] CT
0 1 0 RC
N
100.38 506.62 M
100.38 500.38 L
106.62 500.38 L
106.62 506.62 L
cp
f
GR
GS
[0.75 0 0 0.75 0 0.5] CT
0 1 0 RC
10.0 ML
N
100.38 506.62 M
100.38 500.38 L
106.62 500.38 L
106.62 506.62 L
cp
S
GR
GS
[0.75 0 0 0.75 0 0.5] CT
0 1 0 RC
N
140.38 427.62 M
140.38 421.38 L
146.62 421.38 L
146.62 427.62 L
cp
f
GR
GS
[0.75 0 0 0.75 0 0.5] CT
0 1 0 RC
10.0 ML
N
140.38 427.62 M
140.38 421.38 L
146.62 421.38 L
146.62 427.62 L
cp
S
GR
GS
[0.75 0 0 0.75 0 0.5] CT
0 1 0 RC
N
181.38 424.62 M
181.38 418.38 L
187.62 418.38 L
187.62 424.62 L
cp
f
GR
GS
[0.75 0 0 0.75 0 0.5] CT
0 1 0 RC
10.0 ML
N
181.38 424.62 M
181.38 418.38 L
187.62 418.38 L
187.62 424.62 L
cp
S
GR
GS
[0.75 0 0 0.75 0 0.5] CT
0 1 0 RC
N
222.38 420.62 M
222.38 414.38 L
228.62 414.38 L
228.62 420.62 L
cp
f
GR
GS
[0.75 0 0 0.75 0 0.5] CT
0 1 0 RC
10.0 ML
N
222.38 420.62 M
222.38 414.38 L
228.62 414.38 L
228.62 420.62 L
cp
S
GR
GS
[0.75 0 0 0.75 0 0.5] CT
0 1 0 RC
N
263.38 480.62 M
263.38 474.38 L
269.62 474.38 L
269.62 480.62 L
cp
f
GR
GS
[0.75 0 0 0.75 0 0.5] CT
0 1 0 RC
10.0 ML
N
263.38 480.62 M
263.38 474.38 L
269.62 474.38 L
269.62 480.62 L
cp
S
GR
GS
[0.75 0 0 0.75 0 0.5] CT
0 1 0 RC
N
304.38 471.62 M
304.38 465.38 L
310.62 465.38 L
310.62 471.62 L
cp
f
GR
GS
[0.75 0 0 0.75 0 0.5] CT
0 1 0 RC
10.0 ML
N
304.38 471.62 M
304.38 465.38 L
310.62 465.38 L
310.62 471.62 L
cp
S
GR
GS
[0.75 0 0 0.75 0 0.5] CT
0 1 0 RC
N
345.38 390.62 M
345.38 384.38 L
351.62 384.38 L
351.62 390.62 L
cp
f
GR
GS
[0.75 0 0 0.75 0 0.5] CT
0 1 0 RC
10.0 ML
N
345.38 390.62 M
345.38 384.38 L
351.62 384.38 L
351.62 390.62 L
cp
S
GR
GS
[0.75 0 0 0.75 0 0.5] CT
0 1 0 RC
N
386.38 378.62 M
386.38 372.38 L
392.62 372.38 L
392.62 378.62 L
cp
f
GR
GS
[0.75 0 0 0.75 0 0.5] CT
0 1 0 RC
10.0 ML
N
386.38 378.62 M
386.38 372.38 L
392.62 372.38 L
392.62 378.62 L
cp
S
GR
GS
[0.75 0 0 0.75 0 0.5] CT
0 1 0 RC
N
426.38 430.62 M
426.38 424.38 L
432.62 424.38 L
432.62 430.62 L
cp
f
GR
GS
[0.75 0 0 0.75 0 0.5] CT
0 1 0 RC
10.0 ML
N
426.38 430.62 M
426.38 424.38 L
432.62 424.38 L
432.62 430.62 L
cp
S
GR
GS
[0.75 0 0 0.75 0 0.5] CT
0 1 0 RC
N
467.38 413.62 M
467.38 407.38 L
473.62 407.38 L
473.62 413.62 L
cp
f
GR
GS
[0.75 0 0 0.75 0 0.5] CT
0 1 0 RC
10.0 ML
N
467.38 413.62 M
467.38 407.38 L
473.62 407.38 L
473.62 413.62 L
cp
S
GR
GS
[0.75 0 0 0.75 0 0.5] CT
0 1 0 RC
N
508.38 335.62 M
508.38 329.38 L
514.62 329.38 L
514.62 335.62 L
cp
f
GR
GS
[0.75 0 0 0.75 0 0.5] CT
0 1 0 RC
10.0 ML
N
508.38 335.62 M
508.38 329.38 L
514.62 329.38 L
514.62 335.62 L
cp
S
GR
GS
[0.75 0 0 0.75 0 0.5] CT
0 1 0 RC
N
549.38 319.62 M
549.38 313.38 L
555.62 313.38 L
555.62 319.62 L
cp
f
GR
GS
[0.75 0 0 0.75 0 0.5] CT
0 1 0 RC
10.0 ML
N
549.38 319.62 M
549.38 313.38 L
555.62 313.38 L
555.62 319.62 L
cp
S
GR
GS
[0.75 0 0 0.75 0 0.5] CT
0 1 0 RC
N
590.38 359.62 M
590.38 353.38 L
596.62 353.38 L
596.62 359.62 L
cp
f
GR
GS
[0.75 0 0 0.75 0 0.5] CT
0 1 0 RC
10.0 ML
N
590.38 359.62 M
590.38 353.38 L
596.62 353.38 L
596.62 359.62 L
cp
S
GR
GS
[0.75 0 0 0.75 0 0.5] CT
0 1 0 RC
N
631.38 340.62 M
631.38 334.38 L
637.62 334.38 L
637.62 340.62 L
cp
f
GR
GS
[0.75 0 0 0.75 0 0.5] CT
0 1 0 RC
10.0 ML
N
631.38 340.62 M
631.38 334.38 L
637.62 334.38 L
637.62 340.62 L
cp
S
GR
GS
[0.75 0 0 0.75 0 0.5] CT
0 1 0 RC
N
672.38 265.62 M
672.38 259.38 L
678.62 259.38 L
678.62 265.62 L
cp
f
GR
GS
[0.75 0 0 0.75 0 0.5] CT
0 1 0 RC
10.0 ML
N
672.38 265.62 M
672.38 259.38 L
678.62 259.38 L
678.62 265.62 L
cp
S
GR
GS
[0.75 0 0 0.75 0 0.5] CT
0 1 0 RC
N
713.38 246.62 M
713.38 240.38 L
719.62 240.38 L
719.62 246.62 L
cp
f
GR
GS
[0.75 0 0 0.75 0 0.5] CT
0 1 0 RC
10.0 ML
N
713.38 246.62 M
713.38 240.38 L
719.62 240.38 L
719.62 246.62 L
cp
S
GR
GS
[0.75 0 0 0.75 0 0.5] CT
1 0 1 RC
N
103.5 584.832 M
108.118 576.834 L
98.882 576.834 L
cp
f
GR
GS
[0.75 0 0 0.75 0 0.5] CT
1 0 1 RC
10.0 ML
N
103.5 584.832 M
108.118 576.834 L
98.882 576.834 L
cp
S
GR
GS
[0.75 0 0 0.75 0 0.5] CT
1 0 1 RC
N
143.5 506.832 M
148.118 498.834 L
138.882 498.834 L
cp
f
GR
GS
[0.75 0 0 0.75 0 0.5] CT
1 0 1 RC
10.0 ML
N
143.5 506.832 M
148.118 498.834 L
138.882 498.834 L
cp
S
GR
GS
[0.75 0 0 0.75 0 0.5] CT
1 0 1 RC
N
184.5 503.832 M
189.118 495.834 L
179.882 495.834 L
cp
f
GR
GS
[0.75 0 0 0.75 0 0.5] CT
1 0 1 RC
10.0 ML
N
184.5 503.832 M
189.118 495.834 L
179.882 495.834 L
cp
S
GR
GS
[0.75 0 0 0.75 0 0.5] CT
1 0 1 RC
N
225.5 562.832 M
230.118 554.834 L
220.882 554.834 L
cp
f
GR
GS
[0.75 0 0 0.75 0 0.5] CT
1 0 1 RC
10.0 ML
N
225.5 562.832 M
230.118 554.834 L
220.882 554.834 L
cp
S
GR
GS
[0.75 0 0 0.75 0 0.5] CT
1 0 1 RC
N
266.5 552.832 M
271.118 544.834 L
261.882 544.834 L
cp
f
GR
GS
[0.75 0 0 0.75 0 0.5] CT
1 0 1 RC
10.0 ML
N
266.5 552.832 M
271.118 544.834 L
261.882 544.834 L
cp
S
GR
GS
[0.75 0 0 0.75 0 0.5] CT
1 0 1 RC
N
307.5 540.832 M
312.118 532.834 L
302.882 532.834 L
cp
f
GR
GS
[0.75 0 0 0.75 0 0.5] CT
1 0 1 RC
10.0 ML
N
307.5 540.832 M
312.118 532.834 L
302.882 532.834 L
cp
S
GR
GS
[0.75 0 0 0.75 0 0.5] CT
1 0 1 RC
N
348.5 461.832 M
353.118 453.834 L
343.882 453.834 L
cp
f
GR
GS
[0.75 0 0 0.75 0 0.5] CT
1 0 1 RC
10.0 ML
N
348.5 461.832 M
353.118 453.834 L
343.882 453.834 L
cp
S
GR
GS
[0.75 0 0 0.75 0 0.5] CT
1 0 1 RC
N
389.5 447.832 M
394.118 439.834 L
384.882 439.834 L
cp
f
GR
GS
[0.75 0 0 0.75 0 0.5] CT
1 0 1 RC
10.0 ML
N
389.5 447.832 M
394.118 439.834 L
384.882 439.834 L
cp
S
GR
GS
[0.75 0 0 0.75 0 0.5] CT
1 0 1 RC
N
429.5 491.832 M
434.118 483.834 L
424.882 483.834 L
cp
f
GR
GS
[0.75 0 0 0.75 0 0.5] CT
1 0 1 RC
10.0 ML
N
429.5 491.832 M
434.118 483.834 L
424.882 483.834 L
cp
S
GR
GS
[0.75 0 0 0.75 0 0.5] CT
1 0 1 RC
N
470.5 473.832 M
475.118 465.834 L
465.882 465.834 L
cp
f
GR
GS
[0.75 0 0 0.75 0 0.5] CT
1 0 1 RC
10.0 ML
N
470.5 473.832 M
475.118 465.834 L
465.882 465.834 L
cp
S
GR
GS
[0.75 0 0 0.75 0 0.5] CT
1 0 1 RC
N
511.5 398.832 M
516.117 390.834 L
506.882 390.834 L
cp
f
GR
GS
[0.75 0 0 0.75 0 0.5] CT
1 0 1 RC
10.0 ML
N
511.5 398.832 M
516.117 390.834 L
506.882 390.834 L
cp
S
GR
GS
[0.75 0 0 0.75 0 0.5] CT
1 0 1 RC
N
552.5 380.832 M
557.117 372.834 L
547.883 372.834 L
cp
f
GR
GS
[0.75 0 0 0.75 0 0.5] CT
1 0 1 RC
10.0 ML
N
552.5 380.832 M
557.117 372.834 L
547.883 372.834 L
cp
S
GR
GS
[0.75 0 0 0.75 0 0.5] CT
1 0 1 RC
N
593.5 400.832 M
598.117 392.834 L
588.883 392.834 L
cp
f
GR
GS
[0.75 0 0 0.75 0 0.5] CT
1 0 1 RC
10.0 ML
N
593.5 400.832 M
598.117 392.834 L
588.883 392.834 L
cp
S
GR
GS
[0.75 0 0 0.75 0 0.5] CT
1 0 1 RC
N
634.5 370.832 M
639.117 362.834 L
629.883 362.834 L
cp
f
GR
GS
[0.75 0 0 0.75 0 0.5] CT
1 0 1 RC
10.0 ML
N
634.5 370.832 M
639.117 362.834 L
629.883 362.834 L
cp
S
GR
GS
[0.75 0 0 0.75 0 0.5] CT
1 0 1 RC
N
675.5 339.832 M
680.117 331.834 L
670.883 331.834 L
cp
f
GR
GS
[0.75 0 0 0.75 0 0.5] CT
1 0 1 RC
10.0 ML
N
675.5 339.832 M
680.117 331.834 L
670.883 331.834 L
cp
S
GR
GS
[0.75 0 0 0.75 0 0.5] CT
1 0 1 RC
N
716.5 309.832 M
721.117 301.834 L
711.883 301.834 L
cp
f
GR
GS
[0.75 0 0 0.75 0 0.5] CT
1 0 1 RC
10.0 ML
N
716.5 309.832 M
721.117 301.834 L
711.883 301.834 L
cp
S
GR
GS
[0.75 0 0 0.75 0 0.5] CT
1 0 0 RC
1 LJ
N
99 654.5 M
108 654.5 L
S
GR
GS
[0.75 0 0 0.75 0 0.5] CT
1 0 0 RC
1 LJ
N
103.5 659 M
103.5 650 L
S
GR
GS
[0.75 0 0 0.75 0 0.5] CT
1 0 0 RC
1 LJ
N
139 577.5 M
148 577.5 L
S
GR
GS
[0.75 0 0 0.75 0 0.5] CT
1 0 0 RC
1 LJ
N
143.5 582 M
143.5 573 L
S
GR
GS
[0.75 0 0 0.75 0 0.5] CT
1 0 0 RC
1 LJ
N
180 634.5 M
189 634.5 L
S
GR
GS
[0.75 0 0 0.75 0 0.5] CT
1 0 0 RC
1 LJ
N
184.5 639 M
184.5 630 L
S
GR
GS
[0.75 0 0 0.75 0 0.5] CT
1 0 0 RC
1 LJ
N
221 625.5 M
230 625.5 L
S
GR
GS
[0.75 0 0 0.75 0 0.5] CT
1 0 0 RC
1 LJ
N
225.5 630 M
225.5 621 L
S
GR
GS
[0.75 0 0 0.75 0 0.5] CT
1 0 0 RC
1 LJ
N
262 611.5 M
271 611.5 L
S
GR
GS
[0.75 0 0 0.75 0 0.5] CT
1 0 0 RC
1 LJ
N
266.5 616 M
266.5 607 L
S
GR
GS
[0.75 0 0 0.75 0 0.5] CT
1 0 0 RC
1 LJ
N
303 595.5 M
312 595.5 L
S
GR
GS
[0.75 0 0 0.75 0 0.5] CT
1 0 0 RC
1 LJ
N
307.5 600 M
307.5 591 L
S
GR
GS
[0.75 0 0 0.75 0 0.5] CT
1 0 0 RC
1 LJ
N
344 520.5 M
353 520.5 L
S
GR
GS
[0.75 0 0 0.75 0 0.5] CT
1 0 0 RC
1 LJ
N
348.5 525 M
348.5 516 L
S
GR
GS
[0.75 0 0 0.75 0 0.5] CT
1 0 0 RC
1 LJ
N
385 503.5 M
394 503.5 L
S
GR
GS
[0.75 0 0 0.75 0 0.5] CT
1 0 0 RC
1 LJ
N
389.5 508 M
389.5 499 L
S
GR
GS
[0.75 0 0 0.75 0 0.5] CT
1 0 0 RC
1 LJ
N
425 522.5 M
434 522.5 L
S
GR
GS
[0.75 0 0 0.75 0 0.5] CT
1 0 0 RC
1 LJ
N
429.5 527 M
429.5 518 L
S
GR
GS
[0.75 0 0 0.75 0 0.5] CT
1 0 0 RC
1 LJ
N
466 491.5 M
475 491.5 L
S
GR
GS
[0.75 0 0 0.75 0 0.5] CT
1 0 0 RC
1 LJ
N
470.5 496 M
470.5 487 L
S
GR
GS
[0.75 0 0 0.75 0 0.5] CT
1 0 0 RC
1 LJ
N
507 461.5 M
516 461.5 L
S
GR
GS
[0.75 0 0 0.75 0 0.5] CT
1 0 0 RC
1 LJ
N
511.5 466 M
511.5 457 L
S
GR
GS
[0.75 0 0 0.75 0 0.5] CT
1 0 0 RC
1 LJ
N
548 435.5 M
557 435.5 L
S
GR
GS
[0.75 0 0 0.75 0 0.5] CT
1 0 0 RC
1 LJ
N
552.5 440 M
552.5 431 L
S
GR
GS
[0.75 0 0 0.75 0 0.5] CT
1 0 0 RC
1 LJ
N
589 414.5 M
598 414.5 L
S
GR
GS
[0.75 0 0 0.75 0 0.5] CT
1 0 0 RC
1 LJ
N
593.5 419 M
593.5 410 L
S
GR
GS
[0.75 0 0 0.75 0 0.5] CT
1 0 0 RC
1 LJ
N
630 395.5 M
639 395.5 L
S
GR
GS
[0.75 0 0 0.75 0 0.5] CT
1 0 0 RC
1 LJ
N
634.5 400 M
634.5 391 L
S
GR
GS
[0.75 0 0 0.75 0 0.5] CT
1 0 0 RC
1 LJ
N
671 377.5 M
680 377.5 L
S
GR
GS
[0.75 0 0 0.75 0 0.5] CT
1 0 0 RC
1 LJ
N
675.5 382 M
675.5 373 L
S
GR
GS
[0.75 0 0 0.75 0 0.5] CT
1 0 0 RC
1 LJ
N
712 358.5 M
721 358.5 L
S
GR
GS
[0.75 0 0 0.75 0 0.5] CT
1 0 0 RC
1 LJ
N
716.5 363 M
716.5 354 L
S
GR
GS
[0.75 0 0 0.75 0 0.5] CT
0 0 1 RC
1 LJ
N
100 730 M
107 723 L
S
GR
GS
[0.75 0 0 0.75 0 0.5] CT
0 0 1 RC
1 LJ
N
100 723 M
107 730 L
S
GR
GS
[0.75 0 0 0.75 0 0.5] CT
0 0 1 RC
1 LJ
N
140 658 M
147 651 L
S
GR
GS
[0.75 0 0 0.75 0 0.5] CT
0 0 1 RC
1 LJ
N
140 651 M
147 658 L
S
GR
GS
[0.75 0 0 0.75 0 0.5] CT
0 0 1 RC
1 LJ
N
181 701 M
188 694 L
S
GR
GS
[0.75 0 0 0.75 0 0.5] CT
0 0 1 RC
1 LJ
N
181 694 M
188 701 L
S
GR
GS
[0.75 0 0 0.75 0 0.5] CT
0 0 1 RC
1 LJ
N
222 681 M
229 674 L
S
GR
GS
[0.75 0 0 0.75 0 0.5] CT
0 0 1 RC
1 LJ
N
222 674 M
229 681 L
S
GR
GS
[0.75 0 0 0.75 0 0.5] CT
0 0 1 RC
1 LJ
N
263 653 M
270 646 L
S
GR
GS
[0.75 0 0 0.75 0 0.5] CT
0 0 1 RC
1 LJ
N
263 646 M
270 653 L
S
GR
GS
[0.75 0 0 0.75 0 0.5] CT
0 0 1 RC
1 LJ
N
304 623 M
311 616 L
S
GR
GS
[0.75 0 0 0.75 0 0.5] CT
0 0 1 RC
1 LJ
N
304 616 M
311 623 L
S
GR
GS
[0.75 0 0 0.75 0 0.5] CT
0 0 1 RC
1 LJ
N
345 594 M
352 587 L
S
GR
GS
[0.75 0 0 0.75 0 0.5] CT
0 0 1 RC
1 LJ
N
345 587 M
352 594 L
S
GR
GS
[0.75 0 0 0.75 0 0.5] CT
0 0 1 RC
1 LJ
N
386 569 M
393 562 L
S
GR
GS
[0.75 0 0 0.75 0 0.5] CT
0 0 1 RC
1 LJ
N
386 562 M
393 569 L
S
GR
GS
[0.75 0 0 0.75 0 0.5] CT
0 0 1 RC
1 LJ
N
426 549 M
433 542 L
S
GR
GS
[0.75 0 0 0.75 0 0.5] CT
0 0 1 RC
1 LJ
N
426 542 M
433 549 L
S
GR
GS
[0.75 0 0 0.75 0 0.5] CT
0 0 1 RC
1 LJ
N
467 531 M
474 524 L
S
GR
GS
[0.75 0 0 0.75 0 0.5] CT
0 0 1 RC
1 LJ
N
467 524 M
474 531 L
S
GR
GS
[0.75 0 0 0.75 0 0.5] CT
0 0 1 RC
1 LJ
N
508 513 M
515 506 L
S
GR
GS
[0.75 0 0 0.75 0 0.5] CT
0 0 1 RC
1 LJ
N
508 506 M
515 513 L
S
GR
GS
[0.75 0 0 0.75 0 0.5] CT
0 0 1 RC
1 LJ
N
549 494 M
556 487 L
S
GR
GS
[0.75 0 0 0.75 0 0.5] CT
0 0 1 RC
1 LJ
N
549 487 M
556 494 L
S
GR
GS
[0.75 0 0 0.75 0 0.5] CT
0 0 1 RC
1 LJ
N
590 476 M
597 469 L
S
GR
GS
[0.75 0 0 0.75 0 0.5] CT
0 0 1 RC
1 LJ
N
590 469 M
597 476 L
S
GR
GS
[0.75 0 0 0.75 0 0.5] CT
0 0 1 RC
1 LJ
N
631 459 M
638 452 L
S
GR
GS
[0.75 0 0 0.75 0 0.5] CT
0 0 1 RC
1 LJ
N
631 452 M
638 459 L
S
GR
GS
[0.75 0 0 0.75 0 0.5] CT
0 0 1 RC
1 LJ
N
672 441 M
679 434 L
S
GR
GS
[0.75 0 0 0.75 0 0.5] CT
0 0 1 RC
1 LJ
N
672 434 M
679 441 L
S
GR
GS
[0.75 0 0 0.75 0 0.5] CT
0 0 1 RC
1 LJ
N
713 423 M
720 416 L
S
GR
GS
[0.75 0 0 0.75 0 0.5] CT
0 0 1 RC
1 LJ
N
713 416 M
720 423 L
S
GR
GS
[0.75 0 0 0.75 0 0.5] CT
N
107.5 791.5 M
106.328 788.672 L
103.5 787.5 L
100.672 788.672 L
99.5 791.5 L
100.672 794.328 L
103.5 795.5 L
106.328 794.328 L
107.5 791.5 L
cp
f
GR
GS
[0.75 0 0 0.75 0 0.5] CT
1 LJ
N
107.5 791.5 M
106.736 789.149 L
104.736 787.696 L
102.264 787.696 L
100.264 789.149 L
99.5 791.5 L
100.264 793.851 L
102.264 795.304 L
104.736 795.304 L
106.736 793.851 L
cp
S
GR
GS
[0.75 0 0 0.75 0 0.5] CT
N
147.5 755.5 M
146.328 752.672 L
143.5 751.5 L
140.672 752.672 L
139.5 755.5 L
140.672 758.328 L
143.5 759.5 L
146.328 758.328 L
147.5 755.5 L
cp
f
GR
GS
[0.75 0 0 0.75 0 0.5] CT
1 LJ
N
147.5 755.5 M
146.736 753.149 L
144.736 751.696 L
142.264 751.696 L
140.264 753.149 L
139.5 755.5 L
140.264 757.851 L
142.264 759.304 L
144.736 759.304 L
146.736 757.851 L
cp
S
GR
GS
[0.75 0 0 0.75 0 0.5] CT
N
188.5 722.5 M
187.328 719.672 L
184.5 718.5 L
181.672 719.672 L
180.5 722.5 L
181.672 725.328 L
184.5 726.5 L
187.328 725.328 L
188.5 722.5 L
cp
f
GR
GS
[0.75 0 0 0.75 0 0.5] CT
1 LJ
N
188.5 722.5 M
187.736 720.149 L
185.736 718.696 L
183.264 718.696 L
181.264 720.149 L
180.5 722.5 L
181.264 724.851 L
183.264 726.304 L
185.736 726.304 L
187.736 724.851 L
cp
S
GR
GS
[0.75 0 0 0.75 0 0.5] CT
N
229.5 694.5 M
228.328 691.672 L
225.5 690.5 L
222.672 691.672 L
221.5 694.5 L
222.672 697.328 L
225.5 698.5 L
228.328 697.328 L
229.5 694.5 L
cp
f
GR
GS
[0.75 0 0 0.75 0 0.5] CT
1 LJ
N
229.5 694.5 M
228.736 692.149 L
226.736 690.696 L
224.264 690.696 L
222.264 692.149 L
221.5 694.5 L
222.264 696.851 L
224.264 698.304 L
226.736 698.304 L
228.736 696.851 L
cp
S
GR
GS
[0.75 0 0 0.75 0 0.5] CT
N
270.5 674.5 M
269.328 671.672 L
266.5 670.5 L
263.672 671.672 L
262.5 674.5 L
263.672 677.328 L
266.5 678.5 L
269.328 677.328 L
270.5 674.5 L
cp
f
GR
GS
[0.75 0 0 0.75 0 0.5] CT
1 LJ
N
270.5 674.5 M
269.736 672.149 L
267.736 670.696 L
265.264 670.696 L
263.264 672.149 L
262.5 674.5 L
263.264 676.851 L
265.264 678.304 L
267.736 678.304 L
269.736 676.851 L
cp
S
GR
GS
[0.75 0 0 0.75 0 0.5] CT
N
311.5 656.5 M
310.328 653.672 L
307.5 652.5 L
304.672 653.672 L
303.5 656.5 L
304.672 659.328 L
307.5 660.5 L
310.328 659.328 L
311.5 656.5 L
cp
f
GR
GS
[0.75 0 0 0.75 0 0.5] CT
1 LJ
N
311.5 656.5 M
310.736 654.149 L
308.736 652.696 L
306.264 652.696 L
304.264 654.149 L
303.5 656.5 L
304.264 658.851 L
306.264 660.304 L
308.736 660.304 L
310.736 658.851 L
cp
S
GR
GS
[0.75 0 0 0.75 0 0.5] CT
N
352.5 638.5 M
351.328 635.672 L
348.5 634.5 L
345.672 635.672 L
344.5 638.5 L
345.672 641.328 L
348.5 642.5 L
351.328 641.328 L
352.5 638.5 L
cp
f
GR
GS
[0.75 0 0 0.75 0 0.5] CT
1 LJ
N
352.5 638.5 M
351.736 636.149 L
349.736 634.696 L
347.264 634.696 L
345.264 636.149 L
344.5 638.5 L
345.264 640.851 L
347.264 642.304 L
349.736 642.304 L
351.736 640.851 L
cp
S
GR
GS
[0.75 0 0 0.75 0 0.5] CT
N
393.5 621.5 M
392.328 618.672 L
389.5 617.5 L
386.672 618.672 L
385.5 621.5 L
386.672 624.328 L
389.5 625.5 L
392.328 624.328 L
393.5 621.5 L
cp
f
GR
GS
[0.75 0 0 0.75 0 0.5] CT
1 LJ
N
393.5 621.5 M
392.736 619.149 L
390.736 617.696 L
388.264 617.696 L
386.264 619.149 L
385.5 621.5 L
386.264 623.851 L
388.264 625.304 L
390.736 625.304 L
392.736 623.851 L
cp
S
GR
GS
[0.75 0 0 0.75 0 0.5] CT
N
433.5 604.5 M
432.328 601.672 L
429.5 600.5 L
426.672 601.672 L
425.5 604.5 L
426.672 607.328 L
429.5 608.5 L
432.328 607.328 L
433.5 604.5 L
cp
f
GR
GS
[0.75 0 0 0.75 0 0.5] CT
1 LJ
N
433.5 604.5 M
432.736 602.149 L
430.736 600.696 L
428.264 600.696 L
426.264 602.149 L
425.5 604.5 L
426.264 606.851 L
428.264 608.304 L
430.736 608.304 L
432.736 606.851 L
cp
S
GR
GS
[0.75 0 0 0.75 0 0.5] CT
N
474.5 587.5 M
473.328 584.672 L
470.5 583.5 L
467.672 584.672 L
466.5 587.5 L
467.672 590.328 L
470.5 591.5 L
473.328 590.328 L
474.5 587.5 L
cp
f
GR
GS
[0.75 0 0 0.75 0 0.5] CT
1 LJ
N
474.5 587.5 M
473.736 585.149 L
471.736 583.696 L
469.264 583.696 L
467.264 585.149 L
466.5 587.5 L
467.264 589.851 L
469.264 591.304 L
471.736 591.304 L
473.736 589.851 L
cp
S
GR
GS
[0.75 0 0 0.75 0 0.5] CT
N
515.5 570.5 M
514.328 567.672 L
511.5 566.5 L
508.672 567.672 L
507.5 570.5 L
508.672 573.328 L
511.5 574.5 L
514.328 573.328 L
515.5 570.5 L
cp
f
GR
GS
[0.75 0 0 0.75 0 0.5] CT
1 LJ
N
515.5 570.5 M
514.736 568.149 L
512.736 566.696 L
510.264 566.696 L
508.264 568.149 L
507.5 570.5 L
508.264 572.851 L
510.264 574.304 L
512.736 574.304 L
514.736 572.851 L
cp
S
GR
GS
[0.75 0 0 0.75 0 0.5] CT
N
556.5 554.5 M
555.328 551.672 L
552.5 550.5 L
549.672 551.672 L
548.5 554.5 L
549.672 557.328 L
552.5 558.5 L
555.328 557.328 L
556.5 554.5 L
cp
f
GR
GS
[0.75 0 0 0.75 0 0.5] CT
1 LJ
N
556.5 554.5 M
555.736 552.149 L
553.736 550.696 L
551.264 550.696 L
549.264 552.149 L
548.5 554.5 L
549.264 556.851 L
551.264 558.304 L
553.736 558.304 L
555.736 556.851 L
cp
S
GR
GS
[0.75 0 0 0.75 0 0.5] CT
N
597.5 537.5 M
596.328 534.672 L
593.5 533.5 L
590.672 534.672 L
589.5 537.5 L
590.672 540.328 L
593.5 541.5 L
596.328 540.328 L
597.5 537.5 L
cp
f
GR
GS
[0.75 0 0 0.75 0 0.5] CT
1 LJ
N
597.5 537.5 M
596.736 535.149 L
594.736 533.696 L
592.264 533.696 L
590.264 535.149 L
589.5 537.5 L
590.264 539.851 L
592.264 541.304 L
594.736 541.304 L
596.736 539.851 L
cp
S
GR
GS
[0.75 0 0 0.75 0 0.5] CT
N
638.5 521.5 M
637.328 518.672 L
634.5 517.5 L
631.672 518.672 L
630.5 521.5 L
631.672 524.328 L
634.5 525.5 L
637.328 524.328 L
638.5 521.5 L
cp
f
GR
GS
[0.75 0 0 0.75 0 0.5] CT
1 LJ
N
638.5 521.5 M
637.736 519.149 L
635.736 517.696 L
633.264 517.696 L
631.264 519.149 L
630.5 521.5 L
631.264 523.851 L
633.264 525.304 L
635.736 525.304 L
637.736 523.851 L
cp
S
GR
GS
[0.75 0 0 0.75 0 0.5] CT
N
679.5 504.5 M
678.328 501.672 L
675.5 500.5 L
672.672 501.672 L
671.5 504.5 L
672.672 507.328 L
675.5 508.5 L
678.328 507.328 L
679.5 504.5 L
cp
f
GR
GS
[0.75 0 0 0.75 0 0.5] CT
1 LJ
N
679.5 504.5 M
678.736 502.149 L
676.736 500.696 L
674.264 500.696 L
672.264 502.149 L
671.5 504.5 L
672.264 506.851 L
674.264 508.304 L
676.736 508.304 L
678.736 506.851 L
cp
S
GR
GS
[0.75 0 0 0.75 0 0.5] CT
N
720.5 488.5 M
719.328 485.672 L
716.5 484.5 L
713.672 485.672 L
712.5 488.5 L
713.672 491.328 L
716.5 492.5 L
719.328 491.328 L
720.5 488.5 L
cp
f
GR
GS
[0.75 0 0 0.75 0 0.5] CT
1 LJ
N
720.5 488.5 M
719.736 486.149 L
717.736 484.696 L
715.264 484.696 L
713.264 486.149 L
712.5 488.5 L
713.264 490.851 L
715.264 492.304 L
717.736 492.304 L
719.736 490.851 L
cp
S
GR
GS
[0.75 0 0 0.75 0 0.5] CT
10.0 ML
N
99.696 405.264 M
102.56 405.264 L
103.5 402.5 L
104.44 405.264 L
107.304 405.264 L
105.022 406.994 L
105.851 409.736 L
103.5 408.1 L
101.149 409.736 L
101.978 406.994 L
cp
S
GR
GS
[0.75 0 0 0.75 0 0.5] CT
10.0 ML
N
139.696 403.264 M
142.56 403.264 L
143.5 400.5 L
144.44 403.264 L
147.304 403.264 L
145.022 404.994 L
145.851 407.736 L
143.5 406.1 L
141.149 407.736 L
141.978 404.994 L
cp
S
GR
GS
[0.75 0 0 0.75 0 0.5] CT
10.0 ML
N
180.696 400.264 M
183.56 400.264 L
184.5 397.5 L
185.44 400.264 L
188.304 400.264 L
186.022 401.994 L
186.851 404.736 L
184.5 403.1 L
182.149 404.736 L
182.978 401.994 L
cp
S
GR
GS
[0.75 0 0 0.75 0 0.5] CT
10.0 ML
N
221.696 394.264 M
224.56 394.264 L
225.5 391.5 L
226.44 394.264 L
229.304 394.264 L
227.022 395.994 L
227.851 398.736 L
225.5 397.1 L
223.149 398.736 L
223.978 395.994 L
cp
S
GR
GS
[0.75 0 0 0.75 0 0.5] CT
10.0 ML
N
262.696 386.264 M
265.56 386.264 L
266.5 383.5 L
267.44 386.264 L
270.304 386.264 L
268.022 387.994 L
268.851 390.736 L
266.5 389.1 L
264.149 390.736 L
264.978 387.994 L
cp
S
GR
GS
[0.75 0 0 0.75 0 0.5] CT
10.0 ML
N
303.696 377.264 M
306.56 377.264 L
307.5 374.5 L
308.44 377.264 L
311.304 377.264 L
309.022 378.994 L
309.851 381.736 L
307.5 380.1 L
305.149 381.736 L
305.978 378.994 L
cp
S
GR
GS
[0.75 0 0 0.75 0 0.5] CT
10.0 ML
N
344.696 366.264 M
347.56 366.264 L
348.5 363.5 L
349.44 366.264 L
352.304 366.264 L
350.022 367.994 L
350.851 370.736 L
348.5 369.1 L
346.149 370.736 L
346.978 367.994 L
cp
S
GR
GS
[0.75 0 0 0.75 0 0.5] CT
10.0 ML
N
385.696 353.264 M
388.56 353.264 L
389.5 350.5 L
390.44 353.264 L
393.304 353.264 L
391.022 354.994 L
391.851 357.736 L
389.5 356.1 L
387.149 357.736 L
387.978 354.994 L
cp
S
GR
GS
[0.75 0 0 0.75 0 0.5] CT
10.0 ML
N
425.696 338.264 M
428.56 338.264 L
429.5 335.5 L
430.44 338.264 L
433.304 338.264 L
431.022 339.994 L
431.851 342.736 L
429.5 341.1 L
427.149 342.736 L
427.978 339.994 L
cp
S
GR
GS
[0.75 0 0 0.75 0 0.5] CT
10.0 ML
N
466.696 321.264 M
469.56 321.264 L
470.5 318.5 L
471.44 321.264 L
474.304 321.264 L
472.022 322.994 L
472.851 325.736 L
470.5 324.1 L
468.149 325.736 L
468.978 322.994 L
cp
S
GR
GS
[0.75 0 0 0.75 0 0.5] CT
10.0 ML
N
507.696 302.264 M
510.56 302.264 L
511.5 299.5 L
512.44 302.264 L
515.304 302.264 L
513.022 303.994 L
513.851 306.736 L
511.5 305.1 L
509.149 306.736 L
509.978 303.994 L
cp
S
GR
GS
[0.75 0 0 0.75 0 0.5] CT
10.0 ML
N
548.696 282.264 M
551.56 282.264 L
552.5 279.5 L
553.44 282.264 L
556.304 282.264 L
554.022 283.994 L
554.851 286.736 L
552.5 285.1 L
550.149 286.736 L
550.978 283.994 L
cp
S
GR
GS
[0.75 0 0 0.75 0 0.5] CT
10.0 ML
N
589.696 260.264 M
592.56 260.264 L
593.5 257.5 L
594.44 260.264 L
597.304 260.264 L
595.022 261.994 L
595.851 264.736 L
593.5 263.1 L
591.149 264.736 L
591.978 261.994 L
cp
S
GR
GS
[0.75 0 0 0.75 0 0.5] CT
10.0 ML
N
630.696 238.264 M
633.56 238.264 L
634.5 235.5 L
635.44 238.264 L
638.304 238.264 L
636.022 239.994 L
636.851 242.736 L
634.5 241.1 L
632.149 242.736 L
632.978 239.994 L
cp
S
GR
GS
[0.75 0 0 0.75 0 0.5] CT
10.0 ML
N
671.696 217.264 M
674.56 217.264 L
675.5 214.5 L
676.44 217.264 L
679.304 217.264 L
677.022 218.994 L
677.851 221.736 L
675.5 220.1 L
673.149 221.736 L
673.978 218.994 L
cp
S
GR
GS
[0.75 0 0 0.75 0 0.5] CT
10.0 ML
N
712.696 195.264 M
715.56 195.264 L
716.5 192.5 L
717.44 195.264 L
720.304 195.264 L
718.022 196.994 L
718.851 199.736 L
716.5 198.1 L
714.149 199.736 L
714.978 196.994 L
cp
S
GR
GS
[0.75 0 0 0.75 0 0.5] CT
0 1 0 RC
10.0 ML
N
100.38 486.62 M
100.38 480.38 L
106.62 480.38 L
106.62 486.62 L
cp
S
GR
GS
[0.75 0 0 0.75 0 0.5] CT
0 1 0 RC
10.0 ML
N
140.38 483.62 M
140.38 477.38 L
146.62 477.38 L
146.62 483.62 L
cp
S
GR
GS
[0.75 0 0 0.75 0 0.5] CT
0 1 0 RC
10.0 ML
N
181.38 478.62 M
181.38 472.38 L
187.62 472.38 L
187.62 478.62 L
cp
S
GR
GS
[0.75 0 0 0.75 0 0.5] CT
0 1 0 RC
10.0 ML
N
222.38 471.62 M
222.38 465.38 L
228.62 465.38 L
228.62 471.62 L
cp
S
GR
GS
[0.75 0 0 0.75 0 0.5] CT
0 1 0 RC
10.0 ML
N
263.38 462.62 M
263.38 456.38 L
269.62 456.38 L
269.62 462.62 L
cp
S
GR
GS
[0.75 0 0 0.75 0 0.5] CT
0 1 0 RC
10.0 ML
N
304.38 450.62 M
304.38 444.38 L
310.62 444.38 L
310.62 450.62 L
cp
S
GR
GS
[0.75 0 0 0.75 0 0.5] CT
0 1 0 RC
10.0 ML
N
345.38 436.62 M
345.38 430.38 L
351.62 430.38 L
351.62 436.62 L
cp
S
GR
GS
[0.75 0 0 0.75 0 0.5] CT
0 1 0 RC
10.0 ML
N
386.38 419.62 M
386.38 413.38 L
392.62 413.38 L
392.62 419.62 L
cp
S
GR
GS
[0.75 0 0 0.75 0 0.5] CT
0 1 0 RC
10.0 ML
N
426.38 400.62 M
426.38 394.38 L
432.62 394.38 L
432.62 400.62 L
cp
S
GR
GS
[0.75 0 0 0.75 0 0.5] CT
0 1 0 RC
10.0 ML
N
467.38 380.62 M
467.38 374.38 L
473.62 374.38 L
473.62 380.62 L
cp
S
GR
GS
[0.75 0 0 0.75 0 0.5] CT
0 1 0 RC
10.0 ML
N
508.38 358.62 M
508.38 352.38 L
514.62 352.38 L
514.62 358.62 L
cp
S
GR
GS
[0.75 0 0 0.75 0 0.5] CT
0 1 0 RC
10.0 ML
N
549.38 336.62 M
549.38 330.38 L
555.62 330.38 L
555.62 336.62 L
cp
S
GR
GS
[0.75 0 0 0.75 0 0.5] CT
0 1 0 RC
10.0 ML
N
590.38 315.62 M
590.38 309.38 L
596.62 309.38 L
596.62 315.62 L
cp
S
GR
GS
[0.75 0 0 0.75 0 0.5] CT
0 1 0 RC
10.0 ML
N
631.38 294.62 M
631.38 288.38 L
637.62 288.38 L
637.62 294.62 L
cp
S
GR
GS
[0.75 0 0 0.75 0 0.5] CT
0 1 0 RC
10.0 ML
N
672.38 274.62 M
672.38 268.38 L
678.62 268.38 L
678.62 274.62 L
cp
S
GR
GS
[0.75 0 0 0.75 0 0.5] CT
0 1 0 RC
10.0 ML
N
713.38 254.62 M
713.38 248.38 L
719.62 248.38 L
719.62 254.62 L
cp
S
GR
GS
[0.75 0 0 0.75 0 0.5] CT
1 0 1 RC
10.0 ML
N
103.5 564.832 M
108.118 556.834 L
98.882 556.834 L
cp
S
GR
GS
[0.75 0 0 0.75 0 0.5] CT
1 0 1 RC
10.0 ML
N
143.5 560.832 M
148.118 552.834 L
138.882 552.834 L
cp
S
GR
GS
[0.75 0 0 0.75 0 0.5] CT
1 0 1 RC
10.0 ML
N
184.5 554.832 M
189.118 546.834 L
179.882 546.834 L
cp
S
GR
GS
[0.75 0 0 0.75 0 0.5] CT
1 0 1 RC
10.0 ML
N
225.5 544.832 M
230.118 536.834 L
220.882 536.834 L
cp
S
GR
GS
[0.75 0 0 0.75 0 0.5] CT
1 0 1 RC
10.0 ML
N
266.5 531.832 M
271.118 523.834 L
261.882 523.834 L
cp
S
GR
GS
[0.75 0 0 0.75 0 0.5] CT
1 0 1 RC
10.0 ML
N
307.5 515.832 M
312.118 507.834 L
302.882 507.834 L
cp
S
GR
GS
[0.75 0 0 0.75 0 0.5] CT
1 0 1 RC
10.0 ML
N
348.5 497.832 M
353.118 489.834 L
343.882 489.834 L
cp
S
GR
GS
[0.75 0 0 0.75 0 0.5] CT
1 0 1 RC
10.0 ML
N
389.5 476.832 M
394.118 468.834 L
384.882 468.834 L
cp
S
GR
GS
[0.75 0 0 0.75 0 0.5] CT
1 0 1 RC
10.0 ML
N
429.5 454.832 M
434.118 446.834 L
424.882 446.834 L
cp
S
GR
GS
[0.75 0 0 0.75 0 0.5] CT
1 0 1 RC
10.0 ML
N
470.5 432.832 M
475.118 424.834 L
465.882 424.834 L
cp
S
GR
GS
[0.75 0 0 0.75 0 0.5] CT
1 0 1 RC
10.0 ML
N
511.5 411.832 M
516.117 403.834 L
506.882 403.834 L
cp
S
GR
GS
[0.75 0 0 0.75 0 0.5] CT
1 0 1 RC
10.0 ML
N
552.5 391.832 M
557.117 383.834 L
547.883 383.834 L
cp
S
GR
GS
[0.75 0 0 0.75 0 0.5] CT
1 0 1 RC
10.0 ML
N
593.5 371.832 M
598.117 363.834 L
588.883 363.834 L
cp
S
GR
GS
[0.75 0 0 0.75 0 0.5] CT
1 0 1 RC
10.0 ML
N
634.5 351.832 M
639.117 343.834 L
629.883 343.834 L
cp
S
GR
GS
[0.75 0 0 0.75 0 0.5] CT
1 0 1 RC
10.0 ML
N
675.5 332.832 M
680.117 324.834 L
670.883 324.834 L
cp
S
GR
GS
[0.75 0 0 0.75 0 0.5] CT
1 0 1 RC
10.0 ML
N
716.5 313.832 M
721.117 305.834 L
711.883 305.834 L
cp
S
GR
GS
[0.75 0 0 0.75 0 0.5] CT
1 0 0 RC
1 LJ
N
100 638 M
107 631 L
S
GR
GS
[0.75 0 0 0.75 0 0.5] CT
1 0 0 RC
1 LJ
N
100 631 M
107 638 L
S
GR
GS
[0.75 0 0 0.75 0 0.5] CT
1 0 0 RC
1 LJ
N
140 633 M
147 626 L
S
GR
GS
[0.75 0 0 0.75 0 0.5] CT
1 0 0 RC
1 LJ
N
140 626 M
147 633 L
S
GR
GS
[0.75 0 0 0.75 0 0.5] CT
1 0 0 RC
1 LJ
N
181 623 M
188 616 L
S
GR
GS
[0.75 0 0 0.75 0 0.5] CT
1 0 0 RC
1 LJ
N
181 616 M
188 623 L
S
GR
GS
[0.75 0 0 0.75 0 0.5] CT
1 0 0 RC
1 LJ
N
222 608 M
229 601 L
S
GR
GS
[0.75 0 0 0.75 0 0.5] CT
1 0 0 RC
1 LJ
N
222 601 M
229 608 L
S
GR
GS
[0.75 0 0 0.75 0 0.5] CT
1 0 0 RC
1 LJ
N
263 590 M
270 583 L
S
GR
GS
[0.75 0 0 0.75 0 0.5] CT
1 0 0 RC
1 LJ
N
263 583 M
270 590 L
S
GR
GS
[0.75 0 0 0.75 0 0.5] CT
1 0 0 RC
1 LJ
N
304 569 M
311 562 L
S
GR
GS
[0.75 0 0 0.75 0 0.5] CT
1 0 0 RC
1 LJ
N
304 562 M
311 569 L
S
GR
GS
[0.75 0 0 0.75 0 0.5] CT
1 0 0 RC
1 LJ
N
345 547 M
352 540 L
S
GR
GS
[0.75 0 0 0.75 0 0.5] CT
1 0 0 RC
1 LJ
N
345 540 M
352 547 L
S
GR
GS
[0.75 0 0 0.75 0 0.5] CT
1 0 0 RC
1 LJ
N
386 526 M
393 519 L
S
GR
GS
[0.75 0 0 0.75 0 0.5] CT
1 0 0 RC
1 LJ
N
386 519 M
393 526 L
S
GR
GS
[0.75 0 0 0.75 0 0.5] CT
1 0 0 RC
1 LJ
N
426 505 M
433 498 L
S
GR
GS
[0.75 0 0 0.75 0 0.5] CT
1 0 0 RC
1 LJ
N
426 498 M
433 505 L
S
GR
GS
[0.75 0 0 0.75 0 0.5] CT
1 0 0 RC
1 LJ
N
467 485 M
474 478 L
S
GR
GS
[0.75 0 0 0.75 0 0.5] CT
1 0 0 RC
1 LJ
N
467 478 M
474 485 L
S
GR
GS
[0.75 0 0 0.75 0 0.5] CT
1 0 0 RC
1 LJ
N
508 466 M
515 459 L
S
GR
GS
[0.75 0 0 0.75 0 0.5] CT
1 0 0 RC
1 LJ
N
508 459 M
515 466 L
S
GR
GS
[0.75 0 0 0.75 0 0.5] CT
1 0 0 RC
1 LJ
N
549 446 M
556 439 L
S
GR
GS
[0.75 0 0 0.75 0 0.5] CT
1 0 0 RC
1 LJ
N
549 439 M
556 446 L
S
GR
GS
[0.75 0 0 0.75 0 0.5] CT
1 0 0 RC
1 LJ
N
590 427 M
597 420 L
S
GR
GS
[0.75 0 0 0.75 0 0.5] CT
1 0 0 RC
1 LJ
N
590 420 M
597 427 L
S
GR
GS
[0.75 0 0 0.75 0 0.5] CT
1 0 0 RC
1 LJ
N
631 408 M
638 401 L
S
GR
GS
[0.75 0 0 0.75 0 0.5] CT
1 0 0 RC
1 LJ
N
631 401 M
638 408 L
S
GR
GS
[0.75 0 0 0.75 0 0.5] CT
1 0 0 RC
1 LJ
N
672 390 M
679 383 L
S
GR
GS
[0.75 0 0 0.75 0 0.5] CT
1 0 0 RC
1 LJ
N
672 383 M
679 390 L
S
GR
GS
[0.75 0 0 0.75 0 0.5] CT
1 0 0 RC
1 LJ
N
713 371 M
720 364 L
S
GR
GS
[0.75 0 0 0.75 0 0.5] CT
1 0 0 RC
1 LJ
N
713 364 M
720 371 L
S
GR
GS
[0.75 0 0 0.75 0 0.5] CT
0 0 1 RC
1 LJ
N
99 707.5 M
108 707.5 L
S
GR
GS
[0.75 0 0 0.75 0 0.5] CT
0 0 1 RC
1 LJ
N
103.5 712 M
103.5 703 L
S
GR
GS
[0.75 0 0 0.75 0 0.5] CT
0 0 1 RC
1 LJ
N
139 697.5 M
148 697.5 L
S
GR
GS
[0.75 0 0 0.75 0 0.5] CT
0 0 1 RC
1 LJ
N
143.5 702 M
143.5 693 L
S
GR
GS
[0.75 0 0 0.75 0 0.5] CT
0 0 1 RC
1 LJ
N
180 680.5 M
189 680.5 L
S
GR
GS
[0.75 0 0 0.75 0 0.5] CT
0 0 1 RC
1 LJ
N
184.5 685 M
184.5 676 L
S
GR
GS
[0.75 0 0 0.75 0 0.5] CT
0 0 1 RC
1 LJ
N
221 659.5 M
230 659.5 L
S
GR
GS
[0.75 0 0 0.75 0 0.5] CT
0 0 1 RC
1 LJ
N
225.5 664 M
225.5 655 L
S
GR
GS
[0.75 0 0 0.75 0 0.5] CT
0 0 1 RC
1 LJ
N
262 638.5 M
271 638.5 L
S
GR
GS
[0.75 0 0 0.75 0 0.5] CT
0 0 1 RC
1 LJ
N
266.5 643 M
266.5 634 L
S
GR
GS
[0.75 0 0 0.75 0 0.5] CT
0 0 1 RC
1 LJ
N
303 617.5 M
312 617.5 L
S
GR
GS
[0.75 0 0 0.75 0 0.5] CT
0 0 1 RC
1 LJ
N
307.5 622 M
307.5 613 L
S
GR
GS
[0.75 0 0 0.75 0 0.5] CT
0 0 1 RC
1 LJ
N
344 597.5 M
353 597.5 L
S
GR
GS
[0.75 0 0 0.75 0 0.5] CT
0 0 1 RC
1 LJ
N
348.5 602 M
348.5 593 L
S
GR
GS
[0.75 0 0 0.75 0 0.5] CT
0 0 1 RC
1 LJ
N
385 578.5 M
394 578.5 L
S
GR
GS
[0.75 0 0 0.75 0 0.5] CT
0 0 1 RC
1 LJ
N
389.5 583 M
389.5 574 L
S
GR
GS
[0.75 0 0 0.75 0 0.5] CT
0 0 1 RC
1 LJ
N
425 559.5 M
434 559.5 L
S
GR
GS
[0.75 0 0 0.75 0 0.5] CT
0 0 1 RC
1 LJ
N
429.5 564 M
429.5 555 L
S
GR
GS
[0.75 0 0 0.75 0 0.5] CT
0 0 1 RC
1 LJ
N
466 540.5 M
475 540.5 L
S
GR
GS
[0.75 0 0 0.75 0 0.5] CT
0 0 1 RC
1 LJ
N
470.5 545 M
470.5 536 L
S
GR
GS
[0.75 0 0 0.75 0 0.5] CT
0 0 1 RC
1 LJ
N
507 522.5 M
516 522.5 L
S
GR
GS
[0.75 0 0 0.75 0 0.5] CT
0 0 1 RC
1 LJ
N
511.5 527 M
511.5 518 L
S
GR
GS
[0.75 0 0 0.75 0 0.5] CT
0 0 1 RC
1 LJ
N
548 504.5 M
557 504.5 L
S
GR
GS
[0.75 0 0 0.75 0 0.5] CT
0 0 1 RC
1 LJ
N
552.5 509 M
552.5 500 L
S
GR
GS
[0.75 0 0 0.75 0 0.5] CT
0 0 1 RC
1 LJ
N
589 486.5 M
598 486.5 L
S
GR
GS
[0.75 0 0 0.75 0 0.5] CT
0 0 1 RC
1 LJ
N
593.5 491 M
593.5 482 L
S
GR
GS
[0.75 0 0 0.75 0 0.5] CT
0 0 1 RC
1 LJ
N
630 468.5 M
639 468.5 L
S
GR
GS
[0.75 0 0 0.75 0 0.5] CT
0 0 1 RC
1 LJ
N
634.5 473 M
634.5 464 L
S
GR
GS
[0.75 0 0 0.75 0 0.5] CT
0 0 1 RC
1 LJ
N
671 450.5 M
680 450.5 L
S
GR
GS
[0.75 0 0 0.75 0 0.5] CT
0 0 1 RC
1 LJ
N
675.5 455 M
675.5 446 L
S
GR
GS
[0.75 0 0 0.75 0 0.5] CT
0 0 1 RC
1 LJ
N
712 432.5 M
721 432.5 L
S
GR
GS
[0.75 0 0 0.75 0 0.5] CT
0 0 1 RC
1 LJ
N
716.5 437 M
716.5 428 L
S
GR
GS
[0.75 0 0 0.75 0 0.5] CT
1 LJ
N
107.5 791.5 M
106.736 789.149 L
104.736 787.696 L
102.264 787.696 L
100.264 789.149 L
99.5 791.5 L
100.264 793.851 L
102.264 795.304 L
104.736 795.304 L
106.736 793.851 L
cp
S
GR
GS
[0.75 0 0 0.75 0 0.5] CT
1 LJ
N
147.5 760.5 M
146.736 758.149 L
144.736 756.696 L
142.264 756.696 L
140.264 758.149 L
139.5 760.5 L
140.264 762.851 L
142.264 764.304 L
144.736 764.304 L
146.736 762.851 L
cp
S
GR
GS
[0.75 0 0 0.75 0 0.5] CT
1 LJ
N
188.5 739.5 M
187.736 737.149 L
185.736 735.696 L
183.264 735.696 L
181.264 737.149 L
180.5 739.5 L
181.264 741.851 L
183.264 743.304 L
185.736 743.304 L
187.736 741.851 L
cp
S
GR
GS
[0.75 0 0 0.75 0 0.5] CT
1 LJ
N
229.5 720.5 M
228.736 718.149 L
226.736 716.696 L
224.264 716.696 L
222.264 718.149 L
221.5 720.5 L
222.264 722.851 L
224.264 724.304 L
226.736 724.304 L
228.736 722.851 L
cp
S
GR
GS
[0.75 0 0 0.75 0 0.5] CT
1 LJ
N
270.5 702.5 M
269.736 700.149 L
267.736 698.696 L
265.264 698.696 L
263.264 700.149 L
262.5 702.5 L
263.264 704.851 L
265.264 706.304 L
267.736 706.304 L
269.736 704.851 L
cp
S
GR
GS
[0.75 0 0 0.75 0 0.5] CT
1 LJ
N
311.5 684.5 M
310.736 682.149 L
308.736 680.696 L
306.264 680.696 L
304.264 682.149 L
303.5 684.5 L
304.264 686.851 L
306.264 688.304 L
308.736 688.304 L
310.736 686.851 L
cp
S
GR
GS
[0.75 0 0 0.75 0 0.5] CT
1 LJ
N
352.5 667.5 M
351.736 665.149 L
349.736 663.696 L
347.264 663.696 L
345.264 665.149 L
344.5 667.5 L
345.264 669.851 L
347.264 671.304 L
349.736 671.304 L
351.736 669.851 L
cp
S
GR
GS
[0.75 0 0 0.75 0 0.5] CT
1 LJ
N
393.5 650.5 M
392.736 648.149 L
390.736 646.696 L
388.264 646.696 L
386.264 648.149 L
385.5 650.5 L
386.264 652.851 L
388.264 654.304 L
390.736 654.304 L
392.736 652.851 L
cp
S
GR
GS
[0.75 0 0 0.75 0 0.5] CT
1 LJ
N
433.5 633.5 M
432.736 631.149 L
430.736 629.696 L
428.264 629.696 L
426.264 631.149 L
425.5 633.5 L
426.264 635.851 L
428.264 637.304 L
430.736 637.304 L
432.736 635.851 L
cp
S
GR
GS
[0.75 0 0 0.75 0 0.5] CT
1 LJ
N
474.5 616.5 M
473.736 614.149 L
471.736 612.696 L
469.264 612.696 L
467.264 614.149 L
466.5 616.5 L
467.264 618.851 L
469.264 620.304 L
471.736 620.304 L
473.736 618.851 L
cp
S
GR
GS
[0.75 0 0 0.75 0 0.5] CT
1 LJ
N
515.5 599.5 M
514.736 597.149 L
512.736 595.696 L
510.264 595.696 L
508.264 597.149 L
507.5 599.5 L
508.264 601.851 L
510.264 603.304 L
512.736 603.304 L
514.736 601.851 L
cp
S
GR
GS
[0.75 0 0 0.75 0 0.5] CT
1 LJ
N
556.5 582.5 M
555.736 580.149 L
553.736 578.696 L
551.264 578.696 L
549.264 580.149 L
548.5 582.5 L
549.264 584.851 L
551.264 586.304 L
553.736 586.304 L
555.736 584.851 L
cp
S
GR
GS
[0.75 0 0 0.75 0 0.5] CT
1 LJ
N
597.5 565.5 M
596.736 563.149 L
594.736 561.696 L
592.264 561.696 L
590.264 563.149 L
589.5 565.5 L
590.264 567.851 L
592.264 569.304 L
594.736 569.304 L
596.736 567.851 L
cp
S
GR
GS
[0.75 0 0 0.75 0 0.5] CT
1 LJ
N
638.5 548.5 M
637.736 546.149 L
635.736 544.696 L
633.264 544.696 L
631.264 546.149 L
630.5 548.5 L
631.264 550.851 L
633.264 552.304 L
635.736 552.304 L
637.736 550.851 L
cp
S
GR
GS
[0.75 0 0 0.75 0 0.5] CT
1 LJ
N
679.5 532.5 M
678.736 530.149 L
676.736 528.696 L
674.264 528.696 L
672.264 530.149 L
671.5 532.5 L
672.264 534.851 L
674.264 536.304 L
676.736 536.304 L
678.736 534.851 L
cp
S
GR
GS
[0.75 0 0 0.75 0 0.5] CT
1 LJ
N
720.5 515.5 M
719.736 513.149 L
717.736 511.696 L
715.264 511.696 L
713.264 513.149 L
712.5 515.5 L
713.264 517.851 L
715.264 519.304 L
717.736 519.304 L
719.736 517.851 L
cp
S
GR
GS
[0.75 0 0 0.75 0 0.5] CT
1 GC
N
172 306 M
172 116 L
273 116 L
273 306 L
cp
f
GR
GS
[0.75 0 0 0.75 156.75 94.6438] CT
/Helvetica 12 F
GS
[1 0 0 1 0 0] CT
0 4.5 moveto 
1 -1 scale
(n=5) t 
GR
GR
GS
[0.75 0 0 0.75 0 0.5] CT
N
187.696 124.264 M
190.56 124.264 L
191.5 121.5 L
192.44 124.264 L
195.304 124.264 L
193.022 125.994 L
193.851 128.736 L
191.5 127.1 L
189.149 128.736 L
189.978 125.994 L
187.696 124.264 L
cp
f
GR
GS
[0.75 0 0 0.75 0 0.5] CT
10.0 ML
N
187.696 124.264 M
190.56 124.264 L
191.5 121.5 L
192.44 124.264 L
195.304 124.264 L
193.022 125.994 L
193.851 128.736 L
191.5 127.1 L
189.149 128.736 L
189.978 125.994 L
cp
S
GR
GS
[0.75 0 0 0.75 156.75 106.29947] CT
/Helvetica 12 F
GS
[1 0 0 1 0 0] CT
0 4.5 moveto 
1 -1 scale
(4) t 
GR
GR
GS
[0.75 0 0 0.75 0 0.5] CT
0 1 0 RC
N
188.38 144.62 M
188.38 138.38 L
194.62 138.38 L
194.62 144.62 L
cp
f
GR
GS
[0.75 0 0 0.75 0 0.5] CT
0 1 0 RC
10.0 ML
N
188.38 144.62 M
188.38 138.38 L
194.62 138.38 L
194.62 144.62 L
cp
S
GR
GS
[0.75 0 0 0.75 156.75 117.95514] CT
/Helvetica 12 F
GS
[1 0 0 1 0 0] CT
0 4.5 moveto 
1 -1 scale
(3) t 
GR
GR
GS
[0.75 0 0 0.75 0 0.5] CT
1 0 1 RC
N
191.5 161.832 M
196.118 153.834 L
186.882 153.834 L
cp
f
GR
GS
[0.75 0 0 0.75 0 0.5] CT
1 0 1 RC
10.0 ML
N
191.5 161.832 M
196.118 153.834 L
186.882 153.834 L
cp
S
GR
GS
[0.75 0 0 0.75 156.75 129.61082] CT
/Helvetica 12 F
GS
[1 0 0 1 0 0] CT
0 4.5 moveto 
1 -1 scale
(2) t 
GR
GR
GS
[0.75 0 0 0.75 0 0.5] CT
1 0 0 RC
1 LJ
N
187 172.5 M
196 172.5 L
S
GR
GS
[0.75 0 0 0.75 0 0.5] CT
1 0 0 RC
1 LJ
N
191.5 177 M
191.5 168 L
S
GR
GS
[0.75 0 0 0.75 156.75 141.26649] CT
/Helvetica 12 F
GS
[1 0 0 1 0 0] CT
0 4.5 moveto 
1 -1 scale
(1) t 
GR
GR
GS
[0.75 0 0 0.75 0 0.5] CT
0 0 1 RC
1 LJ
N
188 191 M
195 184 L
S
GR
GS
[0.75 0 0 0.75 0 0.5] CT
0 0 1 RC
1 LJ
N
188 184 M
195 191 L
S
GR
GS
[0.75 0 0 0.75 156.75 152.92216] CT
/Helvetica 12 F
GS
[1 0 0 1 0 0] CT
0 4.5 moveto 
1 -1 scale
(0) t 
GR
GR
GS
[0.75 0 0 0.75 0 0.5] CT
N
195.5 203.5 M
194.328 200.672 L
191.5 199.5 L
188.672 200.672 L
187.5 203.5 L
188.672 206.328 L
191.5 207.5 L
194.328 206.328 L
195.5 203.5 L
cp
f
GR
GS
[0.75 0 0 0.75 0 0.5] CT
1 LJ
N
195.5 203.5 M
194.736 201.149 L
192.736 199.696 L
190.264 199.696 L
188.264 201.149 L
187.5 203.5 L
188.264 205.851 L
190.264 207.304 L
192.736 207.304 L
194.736 205.851 L
cp
S
GR
GS
[0.75 0 0 0.75 156.75 164.57784] CT
/Helvetica 12 F
GS
[1 0 0 1 0 0] CT
0 4.5 moveto 
1 -1 scale
(n=5, rigid) t 
GR
GR
GS
[0.75 0 0 0.75 0 0.5] CT
10.0 ML
N
187.696 217.264 M
190.56 217.264 L
191.5 214.5 L
192.44 217.264 L
195.304 217.264 L
193.022 218.994 L
193.851 221.736 L
191.5 220.1 L
189.149 221.736 L
189.978 218.994 L
cp
S
GR
GS
[0.75 0 0 0.75 156.75 176.23351] CT
/Helvetica 12 F
GS
[1 0 0 1 0 0] CT
0 4.5 moveto 
1 -1 scale
(4) t 
GR
GR
GS
[0.75 0 0 0.75 0 0.5] CT
0 1 0 RC
10.0 ML
N
188.38 237.62 M
188.38 231.38 L
194.62 231.38 L
194.62 237.62 L
cp
S
GR
GS
[0.75 0 0 0.75 156.75 187.88918] CT
/Helvetica 12 F
GS
[1 0 0 1 0 0] CT
0 4.5 moveto 
1 -1 scale
(3) t 
GR
GR
GS
[0.75 0 0 0.75 0 0.5] CT
1 0 1 RC
10.0 ML
N
191.5 254.832 M
196.118 246.834 L
186.882 246.834 L
cp
S
GR
GS
[0.75 0 0 0.75 156.75 199.54485] CT
/Helvetica 12 F
GS
[1 0 0 1 0 0] CT
0 4.5 moveto 
1 -1 scale
(2) t 
GR
GR
GS
[0.75 0 0 0.75 0 0.5] CT
1 0 0 RC
1 LJ
N
188 269 M
195 262 L
S
GR
GS
[0.75 0 0 0.75 0 0.5] CT
1 0 0 RC
1 LJ
N
188 262 M
195 269 L
S
GR
GS
[0.75 0 0 0.75 156.75 211.20054] CT
/Helvetica 12 F
GS
[1 0 0 1 0 0] CT
0 4.5 moveto 
1 -1 scale
(1) t 
GR
GR
GS
[0.75 0 0 0.75 0 0.5] CT
0 0 1 RC
1 LJ
N
187 280.5 M
196 280.5 L
S
GR
GS
[0.75 0 0 0.75 0 0.5] CT
0 0 1 RC
1 LJ
N
191.5 285 M
191.5 276 L
S
GR
GS
[0.75 0 0 0.75 156.75 222.85621] CT
/Helvetica 12 F
GS
[1 0 0 1 0 0] CT
0 4.5 moveto 
1 -1 scale
(0) t 
GR
GR
GS
[0.75 0 0 0.75 0 0.5] CT
1 LJ
N
195.5 296.5 M
194.736 294.149 L
192.736 292.696 L
190.264 292.696 L
188.264 294.149 L
187.5 296.5 L
188.264 298.851 L
190.264 300.304 L
192.736 300.304 L
194.736 298.851 L
cp
S
GR
GS
[0.75 0 0 0.75 0 0.5] CT
0.149 GC
10.0 ML
0.667 LW
N
172 306 M
172 116 L
273 116 L
273 306 L
cp
S
GR
%%Trailer
%%Pages: 1
%%EOF
