%!PS-Adobe-3.0 EPSF-3.0
%%Creator: (MATLAB, The Mathworks, Inc. Version 9.0.0.341360 \(R2016a\). Operating System: Linux)
%%Title: /data/geodynamo/natafh/Dynamo/Acoustics/elastic_shell/Figures/BigSister/BigSister_elastic.eps
%%CreationDate: 2016-06-03T15:38:20
%%Pages: (atend)
%%BoundingBox: 0 0 450 600
%%LanguageLevel: 3
%%EndComments
%%BeginProlog
%%BeginResource: procset (Apache XML Graphics Std ProcSet) 1.2 0
%%Version: 1.2 0
%%Copyright: (Copyright 2001-2003,2010 The Apache Software Foundation. License terms: http://www.apache.org/licenses/LICENSE-2.0)
/bd{bind def}bind def
/ld{load def}bd
/GR/grestore ld
/M/moveto ld
/LJ/setlinejoin ld
/C/curveto ld
/f/fill ld
/LW/setlinewidth ld
/GC/setgray ld
/t/show ld
/N/newpath ld
/CT/concat ld
/cp/closepath ld
/S/stroke ld
/L/lineto ld
/CC/setcmykcolor ld
/A/ashow ld
/GS/gsave ld
/RC/setrgbcolor ld
/RM/rmoveto ld
/ML/setmiterlimit ld
/re {4 2 roll M
1 index 0 rlineto
0 exch rlineto
neg 0 rlineto
cp } bd
/_ctm matrix def
/_tm matrix def
/BT { _ctm currentmatrix pop matrix _tm copy pop 0 0 moveto } bd
/ET { _ctm setmatrix } bd
/iTm { _ctm setmatrix _tm concat } bd
/Tm { _tm astore pop iTm 0 0 moveto } bd
/ux 0.0 def
/uy 0.0 def
/F {
  /Tp exch def
  /Tf exch def
  Tf findfont Tp scalefont setfont
  /cf Tf def  /cs Tp def
} bd
/ULS {currentpoint /uy exch def /ux exch def} bd
/ULE {
  /Tcx currentpoint pop def
  gsave
  newpath
  cf findfont cs scalefont dup
  /FontMatrix get 0 get /Ts exch def /FontInfo get dup
  /UnderlinePosition get Ts mul /To exch def
  /UnderlineThickness get Ts mul /Tt exch def
  ux uy To add moveto  Tcx uy To add lineto
  Tt setlinewidth stroke
  grestore
} bd
/OLE {
  /Tcx currentpoint pop def
  gsave
  newpath
  cf findfont cs scalefont dup
  /FontMatrix get 0 get /Ts exch def /FontInfo get dup
  /UnderlinePosition get Ts mul /To exch def
  /UnderlineThickness get Ts mul /Tt exch def
  ux uy To add cs add moveto Tcx uy To add cs add lineto
  Tt setlinewidth stroke
  grestore
} bd
/SOE {
  /Tcx currentpoint pop def
  gsave
  newpath
  cf findfont cs scalefont dup
  /FontMatrix get 0 get /Ts exch def /FontInfo get dup
  /UnderlinePosition get Ts mul /To exch def
  /UnderlineThickness get Ts mul /Tt exch def
  ux uy To add cs 10 mul 26 idiv add moveto Tcx uy To add cs 10 mul 26 idiv add lineto
  Tt setlinewidth stroke
  grestore
} bd
/QT {
/Y22 exch store
/X22 exch store
/Y21 exch store
/X21 exch store
currentpoint
/Y21 load 2 mul add 3 div exch
/X21 load 2 mul add 3 div exch
/X21 load 2 mul /X22 load add 3 div
/Y21 load 2 mul /Y22 load add 3 div
/X22 load /Y22 load curveto
} bd
/SSPD {
dup length /d exch dict def
{
/v exch def
/k exch def
currentpagedevice k known {
/cpdv currentpagedevice k get def
v cpdv ne {
/upd false def
/nullv v type /nulltype eq def
/nullcpdv cpdv type /nulltype eq def
nullv nullcpdv or
{
/upd true def
} {
/sametype v type cpdv type eq def
sametype {
v type /arraytype eq {
/vlen v length def
/cpdvlen cpdv length def
vlen cpdvlen eq {
0 1 vlen 1 sub {
/i exch def
/obj v i get def
/cpdobj cpdv i get def
obj cpdobj ne {
/upd true def
exit
} if
} for
} {
/upd true def
} ifelse
} {
v type /dicttype eq {
v {
/dv exch def
/dk exch def
/cpddv cpdv dk get def
dv cpddv ne {
/upd true def
exit
} if
} forall
} {
/upd true def
} ifelse
} ifelse
} if
} ifelse
upd true eq {
d k v put
} if
} if
} if
} forall
d length 0 gt {
d setpagedevice
} if
} bd
%%EndResource
%%BeginResource: procset (Apache XML Graphics EPS ProcSet) 1.0 0
%%Version: 1.0 0
%%Copyright: (Copyright 2002-2003 The Apache Software Foundation. License terms: http://www.apache.org/licenses/LICENSE-2.0)
/BeginEPSF { %def
/b4_Inc_state save def         % Save state for cleanup
/dict_count countdictstack def % Count objects on dict stack
/op_count count 1 sub def      % Count objects on operand stack
userdict begin                 % Push userdict on dict stack
/showpage { } def              % Redefine showpage, { } = null proc
0 setgray 0 setlinecap         % Prepare graphics state
1 setlinewidth 0 setlinejoin
10 setmiterlimit [ ] 0 setdash newpath
/languagelevel where           % If level not equal to 1 then
{pop languagelevel             % set strokeadjust and
1 ne                           % overprint to their defaults.
{false setstrokeadjust false setoverprint
} if
} if
} bd
/EndEPSF { %def
count op_count sub {pop} repeat            % Clean up stacks
countdictstack dict_count sub {end} repeat
b4_Inc_state restore
} bd
%%EndResource
%FOPBeginFontDict
%%IncludeResource: font Courier-Bold
%%IncludeResource: font Helvetica
%%IncludeResource: font Courier-BoldOblique
%%IncludeResource: font Courier-Oblique
%%IncludeResource: font Times-Roman
%%IncludeResource: font Helvetica-BoldOblique
%%IncludeResource: font Helvetica-Bold
%%IncludeResource: font Helvetica-Oblique
%%IncludeResource: font Times-BoldItalic
%%IncludeResource: font Courier
%%IncludeResource: font Times-Italic
%%IncludeResource: font Times-Bold
%%IncludeResource: font Symbol
%%IncludeResource: font ZapfDingbats
%FOPEndFontDict
%%BeginResource: encoding WinAnsiEncoding
/WinAnsiEncoding [
/.notdef /.notdef /.notdef /.notdef /.notdef
/.notdef /.notdef /.notdef /.notdef /.notdef
/.notdef /.notdef /.notdef /.notdef /.notdef
/.notdef /.notdef /.notdef /.notdef /.notdef
/.notdef /.notdef /.notdef /.notdef /.notdef
/.notdef /.notdef /.notdef /.notdef /.notdef
/.notdef /.notdef /space /exclam /quotedbl
/numbersign /dollar /percent /ampersand /quotesingle
/parenleft /parenright /asterisk /plus /comma
/hyphen /period /slash /zero /one
/two /three /four /five /six
/seven /eight /nine /colon /semicolon
/less /equal /greater /question /at
/A /B /C /D /E
/F /G /H /I /J
/K /L /M /N /O
/P /Q /R /S /T
/U /V /W /X /Y
/Z /bracketleft /backslash /bracketright /asciicircum
/underscore /quoteleft /a /b /c
/d /e /f /g /h
/i /j /k /l /m
/n /o /p /q /r
/s /t /u /v /w
/x /y /z /braceleft /bar
/braceright /asciitilde /bullet /Euro /bullet
/quotesinglbase /florin /quotedblbase /ellipsis /dagger
/daggerdbl /circumflex /perthousand /Scaron /guilsinglleft
/OE /bullet /Zcaron /bullet /bullet
/quoteleft /quoteright /quotedblleft /quotedblright /bullet
/endash /emdash /asciitilde /trademark /scaron
/guilsinglright /oe /bullet /zcaron /Ydieresis
/space /exclamdown /cent /sterling /currency
/yen /brokenbar /section /dieresis /copyright
/ordfeminine /guillemotleft /logicalnot /sfthyphen /registered
/macron /degree /plusminus /twosuperior /threesuperior
/acute /mu /paragraph /middot /cedilla
/onesuperior /ordmasculine /guillemotright /onequarter /onehalf
/threequarters /questiondown /Agrave /Aacute /Acircumflex
/Atilde /Adieresis /Aring /AE /Ccedilla
/Egrave /Eacute /Ecircumflex /Edieresis /Igrave
/Iacute /Icircumflex /Idieresis /Eth /Ntilde
/Ograve /Oacute /Ocircumflex /Otilde /Odieresis
/multiply /Oslash /Ugrave /Uacute /Ucircumflex
/Udieresis /Yacute /Thorn /germandbls /agrave
/aacute /acircumflex /atilde /adieresis /aring
/ae /ccedilla /egrave /eacute /ecircumflex
/edieresis /igrave /iacute /icircumflex /idieresis
/eth /ntilde /ograve /oacute /ocircumflex
/otilde /odieresis /divide /oslash /ugrave
/uacute /ucircumflex /udieresis /yacute /thorn
/ydieresis
] def
%%EndResource
%FOPBeginFontReencode
/Courier-Bold findfont
dup length dict begin
  {1 index /FID ne {def} {pop pop} ifelse} forall
  /Encoding WinAnsiEncoding def
  currentdict
end
/Courier-Bold exch definefont pop
/Helvetica findfont
dup length dict begin
  {1 index /FID ne {def} {pop pop} ifelse} forall
  /Encoding WinAnsiEncoding def
  currentdict
end
/Helvetica exch definefont pop
/Courier-BoldOblique findfont
dup length dict begin
  {1 index /FID ne {def} {pop pop} ifelse} forall
  /Encoding WinAnsiEncoding def
  currentdict
end
/Courier-BoldOblique exch definefont pop
/Courier-Oblique findfont
dup length dict begin
  {1 index /FID ne {def} {pop pop} ifelse} forall
  /Encoding WinAnsiEncoding def
  currentdict
end
/Courier-Oblique exch definefont pop
/Times-Roman findfont
dup length dict begin
  {1 index /FID ne {def} {pop pop} ifelse} forall
  /Encoding WinAnsiEncoding def
  currentdict
end
/Times-Roman exch definefont pop
/Helvetica-BoldOblique findfont
dup length dict begin
  {1 index /FID ne {def} {pop pop} ifelse} forall
  /Encoding WinAnsiEncoding def
  currentdict
end
/Helvetica-BoldOblique exch definefont pop
/Helvetica-Bold findfont
dup length dict begin
  {1 index /FID ne {def} {pop pop} ifelse} forall
  /Encoding WinAnsiEncoding def
  currentdict
end
/Helvetica-Bold exch definefont pop
/Helvetica-Oblique findfont
dup length dict begin
  {1 index /FID ne {def} {pop pop} ifelse} forall
  /Encoding WinAnsiEncoding def
  currentdict
end
/Helvetica-Oblique exch definefont pop
/Times-BoldItalic findfont
dup length dict begin
  {1 index /FID ne {def} {pop pop} ifelse} forall
  /Encoding WinAnsiEncoding def
  currentdict
end
/Times-BoldItalic exch definefont pop
/Courier findfont
dup length dict begin
  {1 index /FID ne {def} {pop pop} ifelse} forall
  /Encoding WinAnsiEncoding def
  currentdict
end
/Courier exch definefont pop
/Times-Italic findfont
dup length dict begin
  {1 index /FID ne {def} {pop pop} ifelse} forall
  /Encoding WinAnsiEncoding def
  currentdict
end
/Times-Italic exch definefont pop
/Times-Bold findfont
dup length dict begin
  {1 index /FID ne {def} {pop pop} ifelse} forall
  /Encoding WinAnsiEncoding def
  currentdict
end
/Times-Bold exch definefont pop
%FOPEndFontReencode
%%EndProlog
%%Page: 1 1
%%PageBoundingBox: 0 0 450 600
%%BeginPageSetup
[1 0 0 -1 0 600] CT
%%EndPageSetup
GS
[0.75 0 0 0.75 0 0] CT
1 GC
N
0 0 600 800 re
f
GR
GS
[0.75 0 0 0.75 0 0] CT
1 GC
N
0 0 600 800 re
f
GR
GS
[0.75 0 0 0.75 0 0] CT
1 GC
N
78 712 M
543 712 L
543 76 L
78 76 L
cp
f
GR
GS
[0.75 0 0 0.75 0 0] CT
0.873 GC
1 LJ
0.667 LW
N
78 712 M
78 76 L
S
GR
GS
[0.75 0 0 0.75 0 0] CT
0.873 GC
1 LJ
0.667 LW
N
233 712 M
233 76 L
S
GR
GS
[0.75 0 0 0.75 0 0] CT
0.873 GC
1 LJ
0.667 LW
N
388 712 M
388 76 L
S
GR
GS
[0.75 0 0 0.75 0 0] CT
0.873 GC
1 LJ
0.667 LW
N
543 712 M
543 76 L
S
GR
GS
[0.75 0 0 0.75 0 0] CT
0.873 GC
1 LJ
0.667 LW
N
543 712 M
78 712 L
S
GR
GS
[0.75 0 0 0.75 0 0] CT
0.873 GC
1 LJ
0.667 LW
N
543 606 M
78 606 L
S
GR
GS
[0.75 0 0 0.75 0 0] CT
0.873 GC
1 LJ
0.667 LW
N
543 500 M
78 500 L
S
GR
GS
[0.75 0 0 0.75 0 0] CT
0.873 GC
1 LJ
0.667 LW
N
543 394 M
78 394 L
S
GR
GS
[0.75 0 0 0.75 0 0] CT
0.873 GC
1 LJ
0.667 LW
N
543 288 M
78 288 L
S
GR
GS
[0.75 0 0 0.75 0 0] CT
0.873 GC
1 LJ
0.667 LW
N
543 182 M
78 182 L
S
GR
GS
[0.75 0 0 0.75 0 0] CT
0.873 GC
1 LJ
0.667 LW
N
543 76 M
78 76 L
S
GR
GS
[0.75 0 0 0.75 0 0] CT
0.149 GC
2 setlinecap
1 LJ
0.667 LW
N
78 712 M
543 712 L
S
GR
GS
[0.75 0 0 0.75 0 0] CT
0.149 GC
2 setlinecap
1 LJ
0.667 LW
N
78 76 M
543 76 L
S
GR
GS
[0.75 0 0 0.75 0 0] CT
0.149 GC
2 setlinecap
1 LJ
0.667 LW
N
78 712 M
78 705.64 L
S
GR
GS
[0.75 0 0 0.75 0 0] CT
0.149 GC
2 setlinecap
1 LJ
0.667 LW
N
233 712 M
233 705.64 L
S
GR
GS
[0.75 0 0 0.75 0 0] CT
0.149 GC
2 setlinecap
1 LJ
0.667 LW
N
388 712 M
388 705.64 L
S
GR
GS
[0.75 0 0 0.75 0 0] CT
0.149 GC
2 setlinecap
1 LJ
0.667 LW
N
543 712 M
543 705.64 L
S
GR
GS
[0.75 0 0 0.75 0 0] CT
0.149 GC
2 setlinecap
1 LJ
0.667 LW
N
78 76 M
78 82.36 L
S
GR
GS
[0.75 0 0 0.75 0 0] CT
0.149 GC
2 setlinecap
1 LJ
0.667 LW
N
233 76 M
233 82.36 L
S
GR
GS
[0.75 0 0 0.75 0 0] CT
0.149 GC
2 setlinecap
1 LJ
0.667 LW
N
388 76 M
388 82.36 L
S
GR
GS
[0.75 0 0 0.75 0 0] CT
0.149 GC
2 setlinecap
1 LJ
0.667 LW
N
543 76 M
543 82.36 L
S
GR
GS
[0.75 0 0 0.75 58.5 537.99998] CT
0.149 GC
/Helvetica 13.333 F
GS
[1 0 0 1 0 0] CT
-4.5 13 moveto 
1 -1 scale
(0) t 
GR
GR
GS
[0.75 0 0 0.75 174.75 537.99998] CT
0.149 GC
/Helvetica 13.333 F
GS
[1 0 0 1 0 0] CT
-4.5 13 moveto 
1 -1 scale
(5) t 
GR
GR
GS
[0.75 0 0 0.75 291 537.99998] CT
0.149 GC
/Helvetica 13.333 F
GS
[1 0 0 1 0 0] CT
-8.5 13 moveto 
1 -1 scale
(10) t 
GR
GR
GS
[0.75 0 0 0.75 407.25 537.99998] CT
0.149 GC
/Helvetica 13.333 F
GS
[1 0 0 1 0 0] CT
-8.5 13 moveto 
1 -1 scale
(15) t 
GR
GR
GS
[0.75 0 0 0.75 232.87516 551.75002] CT
0.149 GC
/Helvetica 14.667 F
GS
[1 0 0 1 0 0] CT
-88.5 14 moveto 
1 -1 scale
(mode angular number l) t 
GR
GR
GS
[0.75 0 0 0.75 0 0] CT
0.149 GC
2 setlinecap
1 LJ
0.667 LW
N
78 712 M
78 76 L
S
GR
GS
[0.75 0 0 0.75 0 0] CT
0.149 GC
2 setlinecap
1 LJ
0.667 LW
N
543 712 M
543 76 L
S
GR
GS
[0.75 0 0 0.75 0 0] CT
0.149 GC
2 setlinecap
1 LJ
0.667 LW
N
78 712 M
84.36 712 L
S
GR
GS
[0.75 0 0 0.75 0 0] CT
0.149 GC
2 setlinecap
1 LJ
0.667 LW
N
78 606 M
84.36 606 L
S
GR
GS
[0.75 0 0 0.75 0 0] CT
0.149 GC
2 setlinecap
1 LJ
0.667 LW
N
78 500 M
84.36 500 L
S
GR
GS
[0.75 0 0 0.75 0 0] CT
0.149 GC
2 setlinecap
1 LJ
0.667 LW
N
78 394 M
84.36 394 L
S
GR
GS
[0.75 0 0 0.75 0 0] CT
0.149 GC
2 setlinecap
1 LJ
0.667 LW
N
78 288 M
84.36 288 L
S
GR
GS
[0.75 0 0 0.75 0 0] CT
0.149 GC
2 setlinecap
1 LJ
0.667 LW
N
78 182 M
84.36 182 L
S
GR
GS
[0.75 0 0 0.75 0 0] CT
0.149 GC
2 setlinecap
1 LJ
0.667 LW
N
78 76 M
84.36 76 L
S
GR
GS
[0.75 0 0 0.75 0 0] CT
0.149 GC
2 setlinecap
1 LJ
0.667 LW
N
543 712 M
536.64 712 L
S
GR
GS
[0.75 0 0 0.75 0 0] CT
0.149 GC
2 setlinecap
1 LJ
0.667 LW
N
543 606 M
536.64 606 L
S
GR
GS
[0.75 0 0 0.75 0 0] CT
0.149 GC
2 setlinecap
1 LJ
0.667 LW
N
543 500 M
536.64 500 L
S
GR
GS
[0.75 0 0 0.75 0 0] CT
0.149 GC
2 setlinecap
1 LJ
0.667 LW
N
543 394 M
536.64 394 L
S
GR
GS
[0.75 0 0 0.75 0 0] CT
0.149 GC
2 setlinecap
1 LJ
0.667 LW
N
543 288 M
536.64 288 L
S
GR
GS
[0.75 0 0 0.75 0 0] CT
0.149 GC
2 setlinecap
1 LJ
0.667 LW
N
543 182 M
536.64 182 L
S
GR
GS
[0.75 0 0 0.75 0 0] CT
0.149 GC
2 setlinecap
1 LJ
0.667 LW
N
543 76 M
536.64 76 L
S
GR
GS
[0.75 0 0 0.75 54.5 534] CT
0.149 GC
/Helvetica 13.333 F
GS
[1 0 0 1 0 0] CT
-9 4.5 moveto 
1 -1 scale
(0) t 
GR
GR
GS
[0.75 0 0 0.75 54.5 454.5] CT
0.149 GC
/Helvetica 13.333 F
GS
[1 0 0 1 0 0] CT
-34 4.5 moveto 
1 -1 scale
(2000) t 
GR
GR
GS
[0.75 0 0 0.75 54.5 375] CT
0.149 GC
/Helvetica 13.333 F
GS
[1 0 0 1 0 0] CT
-34 4.5 moveto 
1 -1 scale
(4000) t 
GR
GR
GS
[0.75 0 0 0.75 54.5 295.5] CT
0.149 GC
/Helvetica 13.333 F
GS
[1 0 0 1 0 0] CT
-34 4.5 moveto 
1 -1 scale
(6000) t 
GR
GR
GS
[0.75 0 0 0.75 54.5 216] CT
0.149 GC
/Helvetica 13.333 F
GS
[1 0 0 1 0 0] CT
-34 4.5 moveto 
1 -1 scale
(8000) t 
GR
GR
GS
[0.75 0 0 0.75 54.5 136.5] CT
0.149 GC
/Helvetica 13.333 F
GS
[1 0 0 1 0 0] CT
-42 4.5 moveto 
1 -1 scale
(10000) t 
GR
GR
GS
[0.75 0 0 0.75 54.5 57] CT
0.149 GC
/Helvetica 13.333 F
GS
[1 0 0 1 0 0] CT
-42 4.5 moveto 
1 -1 scale
(12000) t 
GR
GR
GS
[0 -0.75 0.75 0 20 295.49977] CT
0.149 GC
/Helvetica 14.667 F
GS
[1 0 0 1 0 0] CT
-161 -4 moveto 
1 -1 scale
(mode frequency \(Hz\) \(csound = 2500 m/s\)) t 
GR
GR
GS
[0.75 0 0 0.75 -72.75 16.5] CT
/Helvetica-Bold 10.667 F
GS
[1 0 0 1 0 0] CT
0 0 moveto 
1 -1 scale
(n) t 
GR
GR
GS
[0.75 0 0 0.75 -66.75 11.25] CT
/Helvetica-Bold 14.667 F
GS
[1 0 0 1 0 0] CT
0 0 moveto 
1 -1 scale
(S) t 
GR
GR
GS
[0.75 0 0 0.75 -58.5 16.5] CT
/Helvetica-Bold 10.667 F
GS
[1 0 0 1 0 0] CT
0 0 moveto 
1 -1 scale
(l) t 
GR
GR
GS
[0.75 0 0 0.75 -55.5 11.25] CT
/Helvetica-Bold 14.667 F
GS
[1 0 0 1 0 0] CT
0 0 moveto 
1 -1 scale
( mode frequencies for spherical shell of fluid enclosed between inner and outer solid shells : ) t 
GR
GR
GS
[0.75 0 0 0.75 67.5 29.25] CT
/Helvetica-Bold 14.667 F
GS
[1 0 0 1 0 0] CT
0 0 moveto 
1 -1 scale
(r) t 
GR
GR
GS
[0.75 0 0 0.75 73.5 34.5] CT
/Helvetica-Bold 10.667 F
GS
[1 0 0 1 0 0] CT
0 0 moveto 
1 -1 scale
(i) t 
GR
GR
GS
[0.75 0 0 0.75 76.5 29.25] CT
/Helvetica-Bold 14.667 F
GS
[1 0 0 1 0 0] CT
0 0 moveto 
1 -1 scale
(=0.51, lambda) t 
GR
GR
GS
[0.75 0 0 0.75 168.75 34.5] CT
/Helvetica-Bold 10.667 F
GS
[1 0 0 1 0 0] CT
0 0 moveto 
1 -1 scale
(i) t 
GR
GR
GS
[0.75 0 0 0.75 171.75 29.25] CT
/Helvetica-Bold 14.667 F
GS
[1 0 0 1 0 0] CT
0 0 moveto 
1 -1 scale
(=0.36066, kappa) t 
GR
GR
GS
[0.75 0 0 0.75 279.75 34.5] CT
/Helvetica-Bold 10.667 F
GS
[1 0 0 1 0 0] CT
0 0 moveto 
1 -1 scale
(0) t 
GR
GR
GS
[0.75 0 0 0.75 285.75 34.5] CT
/Helvetica-Bold 10.667 F
GS
[1 0 0 1 0 0] CT
0 0 moveto 
1 -1 scale
(i) t 
GR
GR
GS
[0.75 0 0 0.75 288.75 29.25] CT
/Helvetica-Bold 14.667 F
GS
[1 0 0 1 0 0] CT
0 0 moveto 
1 -1 scale
(=9.8509, nu) t 
GR
GR
GS
[0.75 0 0 0.75 366 34.5] CT
/Helvetica-Bold 10.667 F
GS
[1 0 0 1 0 0] CT
0 0 moveto 
1 -1 scale
(i) t 
GR
GR
GS
[0.75 0 0 0.75 369 29.25] CT
/Helvetica-Bold 14.667 F
GS
[1 0 0 1 0 0] CT
0 0 moveto 
1 -1 scale
(=0.3) t 
GR
GR
GS
[0.75 0 0 0.75 66.75 47.25] CT
/Helvetica-Bold 14.667 F
GS
[1 0 0 1 0 0] CT
0 0 moveto 
1 -1 scale
(r) t 
GR
GR
GS
[0.75 0 0 0.75 72.75 52.5] CT
/Helvetica-Bold 10.667 F
GS
[1 0 0 1 0 0] CT
0 0 moveto 
1 -1 scale
(o) t 
GR
GR
GS
[0.75 0 0 0.75 78.75 47.25] CT
/Helvetica-Bold 14.667 F
GS
[1 0 0 1 0 0] CT
0 0 moveto 
1 -1 scale
(=1.46 lambda) t 
GR
GR
GS
[0.75 0 0 0.75 167.25 52.5] CT
/Helvetica-Bold 10.667 F
GS
[1 0 0 1 0 0] CT
0 0 moveto 
1 -1 scale
(o) t 
GR
GR
GS
[0.75 0 0 0.75 173.25 47.25] CT
/Helvetica-Bold 14.667 F
GS
[1 0 0 1 0 0] CT
0 0 moveto 
1 -1 scale
(=0.36066, kappa) t 
GR
GR
GS
[0.75 0 0 0.75 281.25 52.5] CT
/Helvetica-Bold 10.667 F
GS
[1 0 0 1 0 0] CT
0 0 moveto 
1 -1 scale
(0) t 
GR
GR
GS
[0.75 0 0 0.75 287.25 52.5] CT
/Helvetica-Bold 10.667 F
GS
[1 0 0 1 0 0] CT
0 0 moveto 
1 -1 scale
(o) t 
GR
GR
GS
[0.75 0 0 0.75 293.25 47.25] CT
/Helvetica-Bold 14.667 F
GS
[1 0 0 1 0 0] CT
0 0 moveto 
1 -1 scale
(=7.163, nu) t 
GR
GR
GS
[0.75 0 0 0.75 363 52.5] CT
/Helvetica-Bold 10.667 F
GS
[1 0 0 1 0 0] CT
0 0 moveto 
1 -1 scale
(o) t 
GR
GR
GS
[0.75 0 0 0.75 369 47.25] CT
/Helvetica-Bold 14.667 F
GS
[1 0 0 1 0 0] CT
0 0 moveto 
1 -1 scale
(=0.3) t 
GR
GR
GS
[0.75 0 0 0.75 0 0] CT
N
74.696 378.264 M
77.56 378.264 L
78.5 375.5 L
79.44 378.264 L
82.304 378.264 L
80.022 379.994 L
80.851 382.736 L
78.5 381.1 L
76.149 382.736 L
76.978 379.994 L
74.696 378.264 L
cp
f
GR
GS
[0.75 0 0 0.75 0 0] CT
10.0 ML
N
74.696 378.264 M
77.56 378.264 L
78.5 375.5 L
79.44 378.264 L
82.304 378.264 L
80.022 379.994 L
80.851 382.736 L
78.5 381.1 L
76.149 382.736 L
76.978 379.994 L
cp
S
GR
GS
[0.75 0 0 0.75 0 0] CT
N
104.696 306.264 M
107.56 306.264 L
108.5 303.5 L
109.44 306.264 L
112.304 306.264 L
110.022 307.994 L
110.851 310.736 L
108.5 309.1 L
106.149 310.736 L
106.978 307.994 L
104.696 306.264 L
cp
f
GR
GS
[0.75 0 0 0.75 0 0] CT
10.0 ML
N
104.696 306.264 M
107.56 306.264 L
108.5 303.5 L
109.44 306.264 L
112.304 306.264 L
110.022 307.994 L
110.851 310.736 L
108.5 309.1 L
106.149 310.736 L
106.978 307.994 L
cp
S
GR
GS
[0.75 0 0 0.75 0 0] CT
N
135.696 303.264 M
138.56 303.264 L
139.5 300.5 L
140.44 303.264 L
143.304 303.264 L
141.022 304.994 L
141.851 307.736 L
139.5 306.1 L
137.149 307.736 L
137.978 304.994 L
135.696 303.264 L
cp
f
GR
GS
[0.75 0 0 0.75 0 0] CT
10.0 ML
N
135.696 303.264 M
138.56 303.264 L
139.5 300.5 L
140.44 303.264 L
143.304 303.264 L
141.022 304.994 L
141.851 307.736 L
139.5 306.1 L
137.149 307.736 L
137.978 304.994 L
cp
S
GR
GS
[0.75 0 0 0.75 0 0] CT
N
166.696 299.264 M
169.56 299.264 L
170.5 296.5 L
171.44 299.264 L
174.304 299.264 L
172.022 300.994 L
172.851 303.736 L
170.5 302.1 L
168.149 303.736 L
168.978 300.994 L
166.696 299.264 L
cp
f
GR
GS
[0.75 0 0 0.75 0 0] CT
10.0 ML
N
166.696 299.264 M
169.56 299.264 L
170.5 296.5 L
171.44 299.264 L
174.304 299.264 L
172.022 300.994 L
172.851 303.736 L
170.5 302.1 L
168.149 303.736 L
168.978 300.994 L
cp
S
GR
GS
[0.75 0 0 0.75 0 0] CT
N
197.696 296.264 M
200.56 296.264 L
201.5 293.5 L
202.44 296.264 L
205.304 296.264 L
203.022 297.994 L
203.851 300.736 L
201.5 299.1 L
199.149 300.736 L
199.978 297.994 L
197.696 296.264 L
cp
f
GR
GS
[0.75 0 0 0.75 0 0] CT
10.0 ML
N
197.696 296.264 M
200.56 296.264 L
201.5 293.5 L
202.44 296.264 L
205.304 296.264 L
203.022 297.994 L
203.851 300.736 L
201.5 299.1 L
199.149 300.736 L
199.978 297.994 L
cp
S
GR
GS
[0.75 0 0 0.75 0 0] CT
N
228.696 351.264 M
231.56 351.264 L
232.5 348.5 L
233.44 351.264 L
236.304 351.264 L
234.022 352.994 L
234.851 355.736 L
232.5 354.1 L
230.149 355.736 L
230.978 352.994 L
228.696 351.264 L
cp
f
GR
GS
[0.75 0 0 0.75 0 0] CT
10.0 ML
N
228.696 351.264 M
231.56 351.264 L
232.5 348.5 L
233.44 351.264 L
236.304 351.264 L
234.022 352.994 L
234.851 355.736 L
232.5 354.1 L
230.149 355.736 L
230.978 352.994 L
cp
S
GR
GS
[0.75 0 0 0.75 0 0] CT
N
259.696 277.264 M
262.56 277.264 L
263.5 274.5 L
264.44 277.264 L
267.304 277.264 L
265.022 278.994 L
265.851 281.736 L
263.5 280.1 L
261.149 281.736 L
261.978 278.994 L
259.696 277.264 L
cp
f
GR
GS
[0.75 0 0 0.75 0 0] CT
10.0 ML
N
259.696 277.264 M
262.56 277.264 L
263.5 274.5 L
264.44 277.264 L
267.304 277.264 L
265.022 278.994 L
265.851 281.736 L
263.5 280.1 L
261.149 281.736 L
261.978 278.994 L
cp
S
GR
GS
[0.75 0 0 0.75 0 0] CT
N
290.696 268.264 M
293.56 268.264 L
294.5 265.5 L
295.44 268.264 L
298.304 268.264 L
296.022 269.994 L
296.851 272.736 L
294.5 271.1 L
292.149 272.736 L
292.978 269.994 L
290.696 268.264 L
cp
f
GR
GS
[0.75 0 0 0.75 0 0] CT
10.0 ML
N
290.696 268.264 M
293.56 268.264 L
294.5 265.5 L
295.44 268.264 L
298.304 268.264 L
296.022 269.994 L
296.851 272.736 L
294.5 271.1 L
292.149 272.736 L
292.978 269.994 L
cp
S
GR
GS
[0.75 0 0 0.75 0 0] CT
N
322.696 320.264 M
325.56 320.264 L
326.5 317.5 L
327.44 320.264 L
330.304 320.264 L
328.022 321.994 L
328.851 324.736 L
326.5 323.1 L
324.149 324.736 L
324.978 321.994 L
322.696 320.264 L
cp
f
GR
GS
[0.75 0 0 0.75 0 0] CT
10.0 ML
N
322.696 320.264 M
325.56 320.264 L
326.5 317.5 L
327.44 320.264 L
330.304 320.264 L
328.022 321.994 L
328.851 324.736 L
326.5 323.1 L
324.149 324.736 L
324.978 321.994 L
cp
S
GR
GS
[0.75 0 0 0.75 0 0] CT
N
353.696 307.264 M
356.56 307.264 L
357.5 304.5 L
358.44 307.264 L
361.304 307.264 L
359.022 308.994 L
359.851 311.736 L
357.5 310.1 L
355.149 311.736 L
355.978 308.994 L
353.696 307.264 L
cp
f
GR
GS
[0.75 0 0 0.75 0 0] CT
10.0 ML
N
353.696 307.264 M
356.56 307.264 L
357.5 304.5 L
358.44 307.264 L
361.304 307.264 L
359.022 308.994 L
359.851 311.736 L
357.5 310.1 L
355.149 311.736 L
355.978 308.994 L
cp
S
GR
GS
[0.75 0 0 0.75 0 0] CT
N
384.696 234.264 M
387.56 234.264 L
388.5 231.5 L
389.44 234.264 L
392.304 234.264 L
390.022 235.994 L
390.851 238.736 L
388.5 237.1 L
386.149 238.736 L
386.978 235.994 L
384.696 234.264 L
cp
f
GR
GS
[0.75 0 0 0.75 0 0] CT
10.0 ML
N
384.696 234.264 M
387.56 234.264 L
388.5 231.5 L
389.44 234.264 L
392.304 234.264 L
390.022 235.994 L
390.851 238.736 L
388.5 237.1 L
386.149 238.736 L
386.978 235.994 L
cp
S
GR
GS
[0.75 0 0 0.75 0 0] CT
N
415.696 221.264 M
418.56 221.264 L
419.5 218.5 L
420.44 221.264 L
423.304 221.264 L
421.022 222.994 L
421.851 225.736 L
419.5 224.1 L
417.149 225.736 L
417.978 222.994 L
415.696 221.264 L
cp
f
GR
GS
[0.75 0 0 0.75 0 0] CT
10.0 ML
N
415.696 221.264 M
418.56 221.264 L
419.5 218.5 L
420.44 221.264 L
423.304 221.264 L
421.022 222.994 L
421.851 225.736 L
419.5 224.1 L
417.149 225.736 L
417.978 222.994 L
cp
S
GR
GS
[0.75 0 0 0.75 0 0] CT
N
446.696 262.264 M
449.56 262.264 L
450.5 259.5 L
451.44 262.264 L
454.304 262.264 L
452.022 263.994 L
452.851 266.736 L
450.5 265.1 L
448.149 266.736 L
448.978 263.994 L
446.696 262.264 L
cp
f
GR
GS
[0.75 0 0 0.75 0 0] CT
10.0 ML
N
446.696 262.264 M
449.56 262.264 L
450.5 259.5 L
451.44 262.264 L
454.304 262.264 L
452.022 263.994 L
452.851 266.736 L
450.5 265.1 L
448.149 266.736 L
448.978 263.994 L
cp
S
GR
GS
[0.75 0 0 0.75 0 0] CT
N
477.696 245.264 M
480.56 245.264 L
481.5 242.5 L
482.44 245.264 L
485.304 245.264 L
483.022 246.994 L
483.851 249.736 L
481.5 248.1 L
479.149 249.736 L
479.978 246.994 L
477.696 245.264 L
cp
f
GR
GS
[0.75 0 0 0.75 0 0] CT
10.0 ML
N
477.696 245.264 M
480.56 245.264 L
481.5 242.5 L
482.44 245.264 L
485.304 245.264 L
483.022 246.994 L
483.851 249.736 L
481.5 248.1 L
479.149 249.736 L
479.978 246.994 L
cp
S
GR
GS
[0.75 0 0 0.75 0 0] CT
N
508.696 176.264 M
511.56 176.264 L
512.5 173.5 L
513.44 176.264 L
516.304 176.264 L
514.022 177.994 L
514.851 180.736 L
512.5 179.1 L
510.149 180.736 L
510.978 177.994 L
508.696 176.264 L
cp
f
GR
GS
[0.75 0 0 0.75 0 0] CT
10.0 ML
N
508.696 176.264 M
511.56 176.264 L
512.5 173.5 L
513.44 176.264 L
516.304 176.264 L
514.022 177.994 L
514.851 180.736 L
512.5 179.1 L
510.149 180.736 L
510.978 177.994 L
cp
S
GR
GS
[0.75 0 0 0.75 0 0] CT
N
539.696 159.264 M
542.56 159.264 L
543.5 156.5 L
544.44 159.264 L
547.304 159.264 L
545.022 160.994 L
545.851 163.736 L
543.5 162.1 L
541.149 163.736 L
541.978 160.994 L
539.696 159.264 L
cp
f
GR
GS
[0.75 0 0 0.75 0 0] CT
10.0 ML
N
539.696 159.264 M
542.56 159.264 L
543.5 156.5 L
544.44 159.264 L
547.304 159.264 L
545.022 160.994 L
545.851 163.736 L
543.5 162.1 L
541.149 163.736 L
541.978 160.994 L
cp
S
GR
GS
[0.75 0 0 0.75 0 0] CT
0 1 0 RC
N
75.38 452.62 M
75.38 446.38 L
81.62 446.38 L
81.62 452.62 L
cp
f
GR
GS
[0.75 0 0 0.75 0 0] CT
0 1 0 RC
10.0 ML
N
75.38 452.62 M
75.38 446.38 L
81.62 446.38 L
81.62 452.62 L
cp
S
GR
GS
[0.75 0 0 0.75 0 0] CT
0 1 0 RC
N
105.38 380.62 M
105.38 374.38 L
111.62 374.38 L
111.62 380.62 L
cp
f
GR
GS
[0.75 0 0 0.75 0 0] CT
0 1 0 RC
10.0 ML
N
105.38 380.62 M
105.38 374.38 L
111.62 374.38 L
111.62 380.62 L
cp
S
GR
GS
[0.75 0 0 0.75 0 0] CT
0 1 0 RC
N
136.38 377.62 M
136.38 371.38 L
142.62 371.38 L
142.62 377.62 L
cp
f
GR
GS
[0.75 0 0 0.75 0 0] CT
0 1 0 RC
10.0 ML
N
136.38 377.62 M
136.38 371.38 L
142.62 371.38 L
142.62 377.62 L
cp
S
GR
GS
[0.75 0 0 0.75 0 0] CT
0 1 0 RC
N
167.38 374.62 M
167.38 368.38 L
173.62 368.38 L
173.62 374.62 L
cp
f
GR
GS
[0.75 0 0 0.75 0 0] CT
0 1 0 RC
10.0 ML
N
167.38 374.62 M
167.38 368.38 L
173.62 368.38 L
173.62 374.62 L
cp
S
GR
GS
[0.75 0 0 0.75 0 0] CT
0 1 0 RC
N
198.38 428.62 M
198.38 422.38 L
204.62 422.38 L
204.62 428.62 L
cp
f
GR
GS
[0.75 0 0 0.75 0 0] CT
0 1 0 RC
10.0 ML
N
198.38 428.62 M
198.38 422.38 L
204.62 422.38 L
204.62 428.62 L
cp
S
GR
GS
[0.75 0 0 0.75 0 0] CT
0 1 0 RC
N
229.38 420.62 M
229.38 414.38 L
235.62 414.38 L
235.62 420.62 L
cp
f
GR
GS
[0.75 0 0 0.75 0 0] CT
0 1 0 RC
10.0 ML
N
229.38 420.62 M
229.38 414.38 L
235.62 414.38 L
235.62 420.62 L
cp
S
GR
GS
[0.75 0 0 0.75 0 0] CT
0 1 0 RC
N
260.38 346.62 M
260.38 340.38 L
266.62 340.38 L
266.62 346.62 L
cp
f
GR
GS
[0.75 0 0 0.75 0 0] CT
0 1 0 RC
10.0 ML
N
260.38 346.62 M
260.38 340.38 L
266.62 340.38 L
266.62 346.62 L
cp
S
GR
GS
[0.75 0 0 0.75 0 0] CT
0 1 0 RC
N
291.38 336.62 M
291.38 330.38 L
297.62 330.38 L
297.62 336.62 L
cp
f
GR
GS
[0.75 0 0 0.75 0 0] CT
0 1 0 RC
10.0 ML
N
291.38 336.62 M
291.38 330.38 L
297.62 330.38 L
297.62 336.62 L
cp
S
GR
GS
[0.75 0 0 0.75 0 0] CT
0 1 0 RC
N
323.38 382.62 M
323.38 376.38 L
329.62 376.38 L
329.62 382.62 L
cp
f
GR
GS
[0.75 0 0 0.75 0 0] CT
0 1 0 RC
10.0 ML
N
323.38 382.62 M
323.38 376.38 L
329.62 376.38 L
329.62 382.62 L
cp
S
GR
GS
[0.75 0 0 0.75 0 0] CT
0 1 0 RC
N
354.38 367.62 M
354.38 361.38 L
360.62 361.38 L
360.62 367.62 L
cp
f
GR
GS
[0.75 0 0 0.75 0 0] CT
0 1 0 RC
10.0 ML
N
354.38 367.62 M
354.38 361.38 L
360.62 361.38 L
360.62 367.62 L
cp
S
GR
GS
[0.75 0 0 0.75 0 0] CT
0 1 0 RC
N
385.38 297.62 M
385.38 291.38 L
391.62 291.38 L
391.62 297.62 L
cp
f
GR
GS
[0.75 0 0 0.75 0 0] CT
0 1 0 RC
10.0 ML
N
385.38 297.62 M
385.38 291.38 L
391.62 291.38 L
391.62 297.62 L
cp
S
GR
GS
[0.75 0 0 0.75 0 0] CT
0 1 0 RC
N
416.38 282.62 M
416.38 276.38 L
422.62 276.38 L
422.62 282.62 L
cp
f
GR
GS
[0.75 0 0 0.75 0 0] CT
0 1 0 RC
10.0 ML
N
416.38 282.62 M
416.38 276.38 L
422.62 276.38 L
422.62 282.62 L
cp
S
GR
GS
[0.75 0 0 0.75 0 0] CT
0 1 0 RC
N
447.38 318.62 M
447.38 312.38 L
453.62 312.38 L
453.62 318.62 L
cp
f
GR
GS
[0.75 0 0 0.75 0 0] CT
0 1 0 RC
10.0 ML
N
447.38 318.62 M
447.38 312.38 L
453.62 312.38 L
453.62 318.62 L
cp
S
GR
GS
[0.75 0 0 0.75 0 0] CT
0 1 0 RC
N
478.38 301.62 M
478.38 295.38 L
484.62 295.38 L
484.62 301.62 L
cp
f
GR
GS
[0.75 0 0 0.75 0 0] CT
0 1 0 RC
10.0 ML
N
478.38 301.62 M
478.38 295.38 L
484.62 295.38 L
484.62 301.62 L
cp
S
GR
GS
[0.75 0 0 0.75 0 0] CT
0 1 0 RC
N
509.38 233.62 M
509.38 227.38 L
515.62 227.38 L
515.62 233.62 L
cp
f
GR
GS
[0.75 0 0 0.75 0 0] CT
0 1 0 RC
10.0 ML
N
509.38 233.62 M
509.38 227.38 L
515.62 227.38 L
515.62 233.62 L
cp
S
GR
GS
[0.75 0 0 0.75 0 0] CT
0 1 0 RC
N
540.38 215.62 M
540.38 209.38 L
546.62 209.38 L
546.62 215.62 L
cp
f
GR
GS
[0.75 0 0 0.75 0 0] CT
0 1 0 RC
10.0 ML
N
540.38 215.62 M
540.38 209.38 L
546.62 209.38 L
546.62 215.62 L
cp
S
GR
GS
[0.75 0 0 0.75 0 0] CT
1 0 1 RC
N
78.5 523.832 M
83.118 515.834 L
73.882 515.834 L
cp
f
GR
GS
[0.75 0 0 0.75 0 0] CT
1 0 1 RC
10.0 ML
N
78.5 523.832 M
83.118 515.834 L
73.882 515.834 L
cp
S
GR
GS
[0.75 0 0 0.75 0 0] CT
1 0 1 RC
N
108.5 452.832 M
113.118 444.834 L
103.882 444.834 L
cp
f
GR
GS
[0.75 0 0 0.75 0 0] CT
1 0 1 RC
10.0 ML
N
108.5 452.832 M
113.118 444.834 L
103.882 444.834 L
cp
S
GR
GS
[0.75 0 0 0.75 0 0] CT
1 0 1 RC
N
139.5 449.832 M
144.118 441.834 L
134.882 441.834 L
cp
f
GR
GS
[0.75 0 0 0.75 0 0] CT
1 0 1 RC
10.0 ML
N
139.5 449.832 M
144.118 441.834 L
134.882 441.834 L
cp
S
GR
GS
[0.75 0 0 0.75 0 0] CT
1 0 1 RC
N
170.5 503.832 M
175.118 495.834 L
165.882 495.834 L
cp
f
GR
GS
[0.75 0 0 0.75 0 0] CT
1 0 1 RC
10.0 ML
N
170.5 503.832 M
175.118 495.834 L
165.882 495.834 L
cp
S
GR
GS
[0.75 0 0 0.75 0 0] CT
1 0 1 RC
N
201.5 494.832 M
206.118 486.834 L
196.882 486.834 L
cp
f
GR
GS
[0.75 0 0 0.75 0 0] CT
1 0 1 RC
10.0 ML
N
201.5 494.832 M
206.118 486.834 L
196.882 486.834 L
cp
S
GR
GS
[0.75 0 0 0.75 0 0] CT
1 0 1 RC
N
232.5 483.832 M
237.118 475.834 L
227.882 475.834 L
cp
f
GR
GS
[0.75 0 0 0.75 0 0] CT
1 0 1 RC
10.0 ML
N
232.5 483.832 M
237.118 475.834 L
227.882 475.834 L
cp
S
GR
GS
[0.75 0 0 0.75 0 0] CT
1 0 1 RC
N
263.5 411.832 M
268.118 403.834 L
258.882 403.834 L
cp
f
GR
GS
[0.75 0 0 0.75 0 0] CT
1 0 1 RC
10.0 ML
N
263.5 411.832 M
268.118 403.834 L
258.882 403.834 L
cp
S
GR
GS
[0.75 0 0 0.75 0 0] CT
1 0 1 RC
N
294.5 398.832 M
299.118 390.834 L
289.882 390.834 L
cp
f
GR
GS
[0.75 0 0 0.75 0 0] CT
1 0 1 RC
10.0 ML
N
294.5 398.832 M
299.118 390.834 L
289.882 390.834 L
cp
S
GR
GS
[0.75 0 0 0.75 0 0] CT
1 0 1 RC
N
326.5 439.832 M
331.118 431.834 L
321.882 431.834 L
cp
f
GR
GS
[0.75 0 0 0.75 0 0] CT
1 0 1 RC
10.0 ML
N
326.5 439.832 M
331.118 431.834 L
321.882 431.834 L
cp
S
GR
GS
[0.75 0 0 0.75 0 0] CT
1 0 1 RC
N
357.5 422.832 M
362.118 414.834 L
352.882 414.834 L
cp
f
GR
GS
[0.75 0 0 0.75 0 0] CT
1 0 1 RC
10.0 ML
N
357.5 422.832 M
362.118 414.834 L
352.882 414.834 L
cp
S
GR
GS
[0.75 0 0 0.75 0 0] CT
1 0 1 RC
N
388.5 354.832 M
393.118 346.834 L
383.882 346.834 L
cp
f
GR
GS
[0.75 0 0 0.75 0 0] CT
1 0 1 RC
10.0 ML
N
388.5 354.832 M
393.118 346.834 L
383.882 346.834 L
cp
S
GR
GS
[0.75 0 0 0.75 0 0] CT
1 0 1 RC
N
419.5 337.832 M
424.118 329.834 L
414.882 329.834 L
cp
f
GR
GS
[0.75 0 0 0.75 0 0] CT
1 0 1 RC
10.0 ML
N
419.5 337.832 M
424.118 329.834 L
414.882 329.834 L
cp
S
GR
GS
[0.75 0 0 0.75 0 0] CT
1 0 1 RC
N
450.5 356.832 M
455.118 348.834 L
445.882 348.834 L
cp
f
GR
GS
[0.75 0 0 0.75 0 0] CT
1 0 1 RC
10.0 ML
N
450.5 356.832 M
455.118 348.834 L
445.882 348.834 L
cp
S
GR
GS
[0.75 0 0 0.75 0 0] CT
1 0 1 RC
N
481.5 328.832 M
486.118 320.834 L
476.882 320.834 L
cp
f
GR
GS
[0.75 0 0 0.75 0 0] CT
1 0 1 RC
10.0 ML
N
481.5 328.832 M
486.118 320.834 L
476.882 320.834 L
cp
S
GR
GS
[0.75 0 0 0.75 0 0] CT
1 0 1 RC
N
512.5 300.832 M
517.117 292.834 L
507.882 292.834 L
cp
f
GR
GS
[0.75 0 0 0.75 0 0] CT
1 0 1 RC
10.0 ML
N
512.5 300.832 M
517.117 292.834 L
507.882 292.834 L
cp
S
GR
GS
[0.75 0 0 0.75 0 0] CT
1 0 1 RC
N
543.5 273.832 M
548.117 265.834 L
538.883 265.834 L
cp
f
GR
GS
[0.75 0 0 0.75 0 0] CT
1 0 1 RC
10.0 ML
N
543.5 273.832 M
548.117 265.834 L
538.883 265.834 L
cp
S
GR
GS
[0.75 0 0 0.75 0 0] CT
1 0 0 RC
1 LJ
N
74 586.5 M
83 586.5 L
S
GR
GS
[0.75 0 0 0.75 0 0] CT
1 0 0 RC
1 LJ
N
78.5 591 M
78.5 582 L
S
GR
GS
[0.75 0 0 0.75 0 0] CT
1 0 0 RC
1 LJ
N
104 516.5 M
113 516.5 L
S
GR
GS
[0.75 0 0 0.75 0 0] CT
1 0 0 RC
1 LJ
N
108.5 521 M
108.5 512 L
S
GR
GS
[0.75 0 0 0.75 0 0] CT
1 0 0 RC
1 LJ
N
135 568.5 M
144 568.5 L
S
GR
GS
[0.75 0 0 0.75 0 0] CT
1 0 0 RC
1 LJ
N
139.5 573 M
139.5 564 L
S
GR
GS
[0.75 0 0 0.75 0 0] CT
1 0 0 RC
1 LJ
N
166 560.5 M
175 560.5 L
S
GR
GS
[0.75 0 0 0.75 0 0] CT
1 0 0 RC
1 LJ
N
170.5 565 M
170.5 556 L
S
GR
GS
[0.75 0 0 0.75 0 0] CT
1 0 0 RC
1 LJ
N
197 547.5 M
206 547.5 L
S
GR
GS
[0.75 0 0 0.75 0 0] CT
1 0 0 RC
1 LJ
N
201.5 552 M
201.5 543 L
S
GR
GS
[0.75 0 0 0.75 0 0] CT
1 0 0 RC
1 LJ
N
228 532.5 M
237 532.5 L
S
GR
GS
[0.75 0 0 0.75 0 0] CT
1 0 0 RC
1 LJ
N
232.5 537 M
232.5 528 L
S
GR
GS
[0.75 0 0 0.75 0 0] CT
1 0 0 RC
1 LJ
N
259 464.5 M
268 464.5 L
S
GR
GS
[0.75 0 0 0.75 0 0] CT
1 0 0 RC
1 LJ
N
263.5 469 M
263.5 460 L
S
GR
GS
[0.75 0 0 0.75 0 0] CT
1 0 0 RC
1 LJ
N
290 449.5 M
299 449.5 L
S
GR
GS
[0.75 0 0 0.75 0 0] CT
1 0 0 RC
1 LJ
N
294.5 454 M
294.5 445 L
S
GR
GS
[0.75 0 0 0.75 0 0] CT
1 0 0 RC
1 LJ
N
322 466.5 M
331 466.5 L
S
GR
GS
[0.75 0 0 0.75 0 0] CT
1 0 0 RC
1 LJ
N
326.5 471 M
326.5 462 L
S
GR
GS
[0.75 0 0 0.75 0 0] CT
1 0 0 RC
1 LJ
N
353 438.5 M
362 438.5 L
S
GR
GS
[0.75 0 0 0.75 0 0] CT
1 0 0 RC
1 LJ
N
357.5 443 M
357.5 434 L
S
GR
GS
[0.75 0 0 0.75 0 0] CT
1 0 0 RC
1 LJ
N
384 411.5 M
393 411.5 L
S
GR
GS
[0.75 0 0 0.75 0 0] CT
1 0 0 RC
1 LJ
N
388.5 416 M
388.5 407 L
S
GR
GS
[0.75 0 0 0.75 0 0] CT
1 0 0 RC
1 LJ
N
415 387.5 M
424 387.5 L
S
GR
GS
[0.75 0 0 0.75 0 0] CT
1 0 0 RC
1 LJ
N
419.5 392 M
419.5 383 L
S
GR
GS
[0.75 0 0 0.75 0 0] CT
1 0 0 RC
1 LJ
N
446 368.5 M
455 368.5 L
S
GR
GS
[0.75 0 0 0.75 0 0] CT
1 0 0 RC
1 LJ
N
450.5 373 M
450.5 364 L
S
GR
GS
[0.75 0 0 0.75 0 0] CT
1 0 0 RC
1 LJ
N
477 351.5 M
486 351.5 L
S
GR
GS
[0.75 0 0 0.75 0 0] CT
1 0 0 RC
1 LJ
N
481.5 356 M
481.5 347 L
S
GR
GS
[0.75 0 0 0.75 0 0] CT
1 0 0 RC
1 LJ
N
508 334.5 M
517 334.5 L
S
GR
GS
[0.75 0 0 0.75 0 0] CT
1 0 0 RC
1 LJ
N
512.5 339 M
512.5 330 L
S
GR
GS
[0.75 0 0 0.75 0 0] CT
1 0 0 RC
1 LJ
N
539 317.5 M
548 317.5 L
S
GR
GS
[0.75 0 0 0.75 0 0] CT
1 0 0 RC
1 LJ
N
543.5 322 M
543.5 313 L
S
GR
GS
[0.75 0 0 0.75 0 0] CT
0 0 1 RC
1 LJ
N
75 655 M
82 648 L
S
GR
GS
[0.75 0 0 0.75 0 0] CT
0 0 1 RC
1 LJ
N
75 648 M
82 655 L
S
GR
GS
[0.75 0 0 0.75 0 0] CT
0 0 1 RC
1 LJ
N
105 591 M
112 584 L
S
GR
GS
[0.75 0 0 0.75 0 0] CT
0 0 1 RC
1 LJ
N
105 584 M
112 591 L
S
GR
GS
[0.75 0 0 0.75 0 0] CT
0 0 1 RC
1 LJ
N
136 630 M
143 623 L
S
GR
GS
[0.75 0 0 0.75 0 0] CT
0 0 1 RC
1 LJ
N
136 623 M
143 630 L
S
GR
GS
[0.75 0 0 0.75 0 0] CT
0 0 1 RC
1 LJ
N
167 611 M
174 604 L
S
GR
GS
[0.75 0 0 0.75 0 0] CT
0 0 1 RC
1 LJ
N
167 604 M
174 611 L
S
GR
GS
[0.75 0 0 0.75 0 0] CT
0 0 1 RC
1 LJ
N
198 586 M
205 579 L
S
GR
GS
[0.75 0 0 0.75 0 0] CT
0 0 1 RC
1 LJ
N
198 579 M
205 586 L
S
GR
GS
[0.75 0 0 0.75 0 0] CT
0 0 1 RC
1 LJ
N
229 559 M
236 552 L
S
GR
GS
[0.75 0 0 0.75 0 0] CT
0 0 1 RC
1 LJ
N
229 552 M
236 559 L
S
GR
GS
[0.75 0 0 0.75 0 0] CT
0 0 1 RC
1 LJ
N
260 532 M
267 525 L
S
GR
GS
[0.75 0 0 0.75 0 0] CT
0 0 1 RC
1 LJ
N
260 525 M
267 532 L
S
GR
GS
[0.75 0 0 0.75 0 0] CT
0 0 1 RC
1 LJ
N
291 510 M
298 503 L
S
GR
GS
[0.75 0 0 0.75 0 0] CT
0 0 1 RC
1 LJ
N
291 503 M
298 510 L
S
GR
GS
[0.75 0 0 0.75 0 0] CT
0 0 1 RC
1 LJ
N
323 492 M
330 485 L
S
GR
GS
[0.75 0 0 0.75 0 0] CT
0 0 1 RC
1 LJ
N
323 485 M
330 492 L
S
GR
GS
[0.75 0 0 0.75 0 0] CT
0 0 1 RC
1 LJ
N
354 475 M
361 468 L
S
GR
GS
[0.75 0 0 0.75 0 0] CT
0 0 1 RC
1 LJ
N
354 468 M
361 475 L
S
GR
GS
[0.75 0 0 0.75 0 0] CT
0 0 1 RC
1 LJ
N
385 458 M
392 451 L
S
GR
GS
[0.75 0 0 0.75 0 0] CT
0 0 1 RC
1 LJ
N
385 451 M
392 458 L
S
GR
GS
[0.75 0 0 0.75 0 0] CT
0 0 1 RC
1 LJ
N
416 442 M
423 435 L
S
GR
GS
[0.75 0 0 0.75 0 0] CT
0 0 1 RC
1 LJ
N
416 435 M
423 442 L
S
GR
GS
[0.75 0 0 0.75 0 0] CT
0 0 1 RC
1 LJ
N
447 425 M
454 418 L
S
GR
GS
[0.75 0 0 0.75 0 0] CT
0 0 1 RC
1 LJ
N
447 418 M
454 425 L
S
GR
GS
[0.75 0 0 0.75 0 0] CT
0 0 1 RC
1 LJ
N
478 409 M
485 402 L
S
GR
GS
[0.75 0 0 0.75 0 0] CT
0 0 1 RC
1 LJ
N
478 402 M
485 409 L
S
GR
GS
[0.75 0 0 0.75 0 0] CT
0 0 1 RC
1 LJ
N
509 393 M
516 386 L
S
GR
GS
[0.75 0 0 0.75 0 0] CT
0 0 1 RC
1 LJ
N
509 386 M
516 393 L
S
GR
GS
[0.75 0 0 0.75 0 0] CT
0 0 1 RC
1 LJ
N
540 377 M
547 370 L
S
GR
GS
[0.75 0 0 0.75 0 0] CT
0 0 1 RC
1 LJ
N
540 370 M
547 377 L
S
GR
GS
[0.75 0 0 0.75 0 0] CT
N
82.5 711.5 M
81.328 708.672 L
78.5 707.5 L
75.672 708.672 L
74.5 711.5 L
75.672 714.328 L
78.5 715.5 L
81.328 714.328 L
82.5 711.5 L
cp
f
GR
GS
[0.75 0 0 0.75 0 0] CT
1 LJ
N
82.5 711.5 M
81.736 709.149 L
79.736 707.696 L
77.264 707.696 L
75.264 709.149 L
74.5 711.5 L
75.264 713.851 L
77.264 715.304 L
79.736 715.304 L
81.736 713.851 L
cp
S
GR
GS
[0.75 0 0 0.75 0 0] CT
N
112.5 678.5 M
111.328 675.672 L
108.5 674.5 L
105.672 675.672 L
104.5 678.5 L
105.672 681.328 L
108.5 682.5 L
111.328 681.328 L
112.5 678.5 L
cp
f
GR
GS
[0.75 0 0 0.75 0 0] CT
1 LJ
N
112.5 678.5 M
111.736 676.149 L
109.736 674.696 L
107.264 674.696 L
105.264 676.149 L
104.5 678.5 L
105.264 680.851 L
107.264 682.304 L
109.736 682.304 L
111.736 680.851 L
cp
S
GR
GS
[0.75 0 0 0.75 0 0] CT
N
143.5 648.5 M
142.328 645.672 L
139.5 644.5 L
136.672 645.672 L
135.5 648.5 L
136.672 651.328 L
139.5 652.5 L
142.328 651.328 L
143.5 648.5 L
cp
f
GR
GS
[0.75 0 0 0.75 0 0] CT
1 LJ
N
143.5 648.5 M
142.736 646.149 L
140.736 644.696 L
138.264 644.696 L
136.264 646.149 L
135.5 648.5 L
136.264 650.851 L
138.264 652.304 L
140.736 652.304 L
142.736 650.851 L
cp
S
GR
GS
[0.75 0 0 0.75 0 0] CT
N
174.5 623.5 M
173.328 620.672 L
170.5 619.5 L
167.672 620.672 L
166.5 623.5 L
167.672 626.328 L
170.5 627.5 L
173.328 626.328 L
174.5 623.5 L
cp
f
GR
GS
[0.75 0 0 0.75 0 0] CT
1 LJ
N
174.5 623.5 M
173.736 621.149 L
171.736 619.696 L
169.264 619.696 L
167.264 621.149 L
166.5 623.5 L
167.264 625.851 L
169.264 627.304 L
171.736 627.304 L
173.736 625.851 L
cp
S
GR
GS
[0.75 0 0 0.75 0 0] CT
N
205.5 604.5 M
204.328 601.672 L
201.5 600.5 L
198.672 601.672 L
197.5 604.5 L
198.672 607.328 L
201.5 608.5 L
204.328 607.328 L
205.5 604.5 L
cp
f
GR
GS
[0.75 0 0 0.75 0 0] CT
1 LJ
N
205.5 604.5 M
204.736 602.149 L
202.736 600.696 L
200.264 600.696 L
198.264 602.149 L
197.5 604.5 L
198.264 606.851 L
200.264 608.304 L
202.736 608.304 L
204.736 606.851 L
cp
S
GR
GS
[0.75 0 0 0.75 0 0] CT
N
236.5 588.5 M
235.328 585.672 L
232.5 584.5 L
229.672 585.672 L
228.5 588.5 L
229.672 591.328 L
232.5 592.5 L
235.328 591.328 L
236.5 588.5 L
cp
f
GR
GS
[0.75 0 0 0.75 0 0] CT
1 LJ
N
236.5 588.5 M
235.736 586.149 L
233.736 584.696 L
231.264 584.696 L
229.264 586.149 L
228.5 588.5 L
229.264 590.851 L
231.264 592.304 L
233.736 592.304 L
235.736 590.851 L
cp
S
GR
GS
[0.75 0 0 0.75 0 0] CT
N
267.5 572.5 M
266.328 569.672 L
263.5 568.5 L
260.672 569.672 L
259.5 572.5 L
260.672 575.328 L
263.5 576.5 L
266.328 575.328 L
267.5 572.5 L
cp
f
GR
GS
[0.75 0 0 0.75 0 0] CT
1 LJ
N
267.5 572.5 M
266.736 570.149 L
264.736 568.696 L
262.264 568.696 L
260.264 570.149 L
259.5 572.5 L
260.264 574.851 L
262.264 576.304 L
264.736 576.304 L
266.736 574.851 L
cp
S
GR
GS
[0.75 0 0 0.75 0 0] CT
N
298.5 556.5 M
297.328 553.672 L
294.5 552.5 L
291.672 553.672 L
290.5 556.5 L
291.672 559.328 L
294.5 560.5 L
297.328 559.328 L
298.5 556.5 L
cp
f
GR
GS
[0.75 0 0 0.75 0 0] CT
1 LJ
N
298.5 556.5 M
297.736 554.149 L
295.736 552.696 L
293.264 552.696 L
291.264 554.149 L
290.5 556.5 L
291.264 558.851 L
293.264 560.304 L
295.736 560.304 L
297.736 558.851 L
cp
S
GR
GS
[0.75 0 0 0.75 0 0] CT
N
330.5 541.5 M
329.328 538.672 L
326.5 537.5 L
323.672 538.672 L
322.5 541.5 L
323.672 544.328 L
326.5 545.5 L
329.328 544.328 L
330.5 541.5 L
cp
f
GR
GS
[0.75 0 0 0.75 0 0] CT
1 LJ
N
330.5 541.5 M
329.736 539.149 L
327.736 537.696 L
325.264 537.696 L
323.264 539.149 L
322.5 541.5 L
323.264 543.851 L
325.264 545.304 L
327.736 545.304 L
329.736 543.851 L
cp
S
GR
GS
[0.75 0 0 0.75 0 0] CT
N
361.5 526.5 M
360.328 523.672 L
357.5 522.5 L
354.672 523.672 L
353.5 526.5 L
354.672 529.328 L
357.5 530.5 L
360.328 529.328 L
361.5 526.5 L
cp
f
GR
GS
[0.75 0 0 0.75 0 0] CT
1 LJ
N
361.5 526.5 M
360.736 524.149 L
358.736 522.696 L
356.264 522.696 L
354.264 524.149 L
353.5 526.5 L
354.264 528.851 L
356.264 530.304 L
358.736 530.304 L
360.736 528.851 L
cp
S
GR
GS
[0.75 0 0 0.75 0 0] CT
N
392.5 510.5 M
391.328 507.672 L
388.5 506.5 L
385.672 507.672 L
384.5 510.5 L
385.672 513.328 L
388.5 514.5 L
391.328 513.328 L
392.5 510.5 L
cp
f
GR
GS
[0.75 0 0 0.75 0 0] CT
1 LJ
N
392.5 510.5 M
391.736 508.149 L
389.736 506.696 L
387.264 506.696 L
385.264 508.149 L
384.5 510.5 L
385.264 512.851 L
387.264 514.304 L
389.736 514.304 L
391.736 512.851 L
cp
S
GR
GS
[0.75 0 0 0.75 0 0] CT
N
423.5 495.5 M
422.328 492.672 L
419.5 491.5 L
416.672 492.672 L
415.5 495.5 L
416.672 498.328 L
419.5 499.5 L
422.328 498.328 L
423.5 495.5 L
cp
f
GR
GS
[0.75 0 0 0.75 0 0] CT
1 LJ
N
423.5 495.5 M
422.736 493.149 L
420.736 491.696 L
418.264 491.696 L
416.264 493.149 L
415.5 495.5 L
416.264 497.851 L
418.264 499.304 L
420.736 499.304 L
422.736 497.851 L
cp
S
GR
GS
[0.75 0 0 0.75 0 0] CT
N
454.5 480.5 M
453.328 477.672 L
450.5 476.5 L
447.672 477.672 L
446.5 480.5 L
447.672 483.328 L
450.5 484.5 L
453.328 483.328 L
454.5 480.5 L
cp
f
GR
GS
[0.75 0 0 0.75 0 0] CT
1 LJ
N
454.5 480.5 M
453.736 478.149 L
451.736 476.696 L
449.264 476.696 L
447.264 478.149 L
446.5 480.5 L
447.264 482.851 L
449.264 484.304 L
451.736 484.304 L
453.736 482.851 L
cp
S
GR
GS
[0.75 0 0 0.75 0 0] CT
N
485.5 465.5 M
484.328 462.672 L
481.5 461.5 L
478.672 462.672 L
477.5 465.5 L
478.672 468.328 L
481.5 469.5 L
484.328 468.328 L
485.5 465.5 L
cp
f
GR
GS
[0.75 0 0 0.75 0 0] CT
1 LJ
N
485.5 465.5 M
484.736 463.149 L
482.736 461.696 L
480.264 461.696 L
478.264 463.149 L
477.5 465.5 L
478.264 467.851 L
480.264 469.304 L
482.736 469.304 L
484.736 467.851 L
cp
S
GR
GS
[0.75 0 0 0.75 0 0] CT
N
516.5 450.5 M
515.328 447.672 L
512.5 446.5 L
509.672 447.672 L
508.5 450.5 L
509.672 453.328 L
512.5 454.5 L
515.328 453.328 L
516.5 450.5 L
cp
f
GR
GS
[0.75 0 0 0.75 0 0] CT
1 LJ
N
516.5 450.5 M
515.736 448.149 L
513.736 446.696 L
511.264 446.696 L
509.264 448.149 L
508.5 450.5 L
509.264 452.851 L
511.264 454.304 L
513.736 454.304 L
515.736 452.851 L
cp
S
GR
GS
[0.75 0 0 0.75 0 0] CT
N
547.5 435.5 M
546.328 432.672 L
543.5 431.5 L
540.672 432.672 L
539.5 435.5 L
540.672 438.328 L
543.5 439.5 L
546.328 438.328 L
547.5 435.5 L
cp
f
GR
GS
[0.75 0 0 0.75 0 0] CT
1 LJ
N
547.5 435.5 M
546.736 433.149 L
544.736 431.696 L
542.264 431.696 L
540.264 433.149 L
539.5 435.5 L
540.264 437.851 L
542.264 439.304 L
544.736 439.304 L
546.736 437.851 L
cp
S
GR
GS
[0.75 0 0 0.75 0 0] CT
1 GC
N
463 186 M
463 89 L
530 89 L
530 186 L
cp
f
GR
GS
[0.75 0 0 0.75 375 73.91192] CT
/Helvetica 12 F
GS
[1 0 0 1 0 0] CT
0 4.5 moveto 
1 -1 scale
(n=5) t 
GR
GR
GS
[0.75 0 0 0.75 0 0] CT
N
478.696 97.264 M
481.56 97.264 L
482.5 94.5 L
483.44 97.264 L
486.304 97.264 L
484.022 98.994 L
484.851 101.736 L
482.5 100.1 L
480.149 101.736 L
480.978 98.994 L
478.696 97.264 L
cp
f
GR
GS
[0.75 0 0 0.75 0 0] CT
10.0 ML
N
478.696 97.264 M
481.56 97.264 L
482.5 94.5 L
483.44 97.264 L
486.304 97.264 L
484.022 98.994 L
484.851 101.736 L
482.5 100.1 L
480.149 101.736 L
480.978 98.994 L
cp
S
GR
GS
[0.75 0 0 0.75 375 85.59715] CT
/Helvetica 12 F
GS
[1 0 0 1 0 0] CT
0 4.5 moveto 
1 -1 scale
(4) t 
GR
GR
GS
[0.75 0 0 0.75 0 0] CT
0 1 0 RC
N
479.38 117.62 M
479.38 111.38 L
485.62 111.38 L
485.62 117.62 L
cp
f
GR
GS
[0.75 0 0 0.75 0 0] CT
0 1 0 RC
10.0 ML
N
479.38 117.62 M
479.38 111.38 L
485.62 111.38 L
485.62 117.62 L
cp
S
GR
GS
[0.75 0 0 0.75 375 97.28238] CT
/Helvetica 12 F
GS
[1 0 0 1 0 0] CT
0 4.5 moveto 
1 -1 scale
(3) t 
GR
GR
GS
[0.75 0 0 0.75 0 0] CT
1 0 1 RC
N
482.5 134.832 M
487.118 126.834 L
477.882 126.834 L
cp
f
GR
GS
[0.75 0 0 0.75 0 0] CT
1 0 1 RC
10.0 ML
N
482.5 134.832 M
487.118 126.834 L
477.882 126.834 L
cp
S
GR
GS
[0.75 0 0 0.75 375 108.96762] CT
/Helvetica 12 F
GS
[1 0 0 1 0 0] CT
0 4.5 moveto 
1 -1 scale
(2) t 
GR
GR
GS
[0.75 0 0 0.75 0 0] CT
1 0 0 RC
1 LJ
N
478 145.5 M
487 145.5 L
S
GR
GS
[0.75 0 0 0.75 0 0] CT
1 0 0 RC
1 LJ
N
482.5 150 M
482.5 141 L
S
GR
GS
[0.75 0 0 0.75 375 120.65285] CT
/Helvetica 12 F
GS
[1 0 0 1 0 0] CT
0 4.5 moveto 
1 -1 scale
(1) t 
GR
GR
GS
[0.75 0 0 0.75 0 0] CT
0 0 1 RC
1 LJ
N
479 164 M
486 157 L
S
GR
GS
[0.75 0 0 0.75 0 0] CT
0 0 1 RC
1 LJ
N
479 157 M
486 164 L
S
GR
GS
[0.75 0 0 0.75 375 132.33808] CT
/Helvetica 12 F
GS
[1 0 0 1 0 0] CT
0 4.5 moveto 
1 -1 scale
(0) t 
GR
GR
GS
[0.75 0 0 0.75 0 0] CT
N
486.5 176.5 M
485.328 173.672 L
482.5 172.5 L
479.672 173.672 L
478.5 176.5 L
479.672 179.328 L
482.5 180.5 L
485.328 179.328 L
486.5 176.5 L
cp
f
GR
GS
[0.75 0 0 0.75 0 0] CT
1 LJ
N
486.5 176.5 M
485.736 174.149 L
483.736 172.696 L
481.264 172.696 L
479.264 174.149 L
478.5 176.5 L
479.264 178.851 L
481.264 180.304 L
483.736 180.304 L
485.736 178.851 L
cp
S
GR
GS
[0.75 0 0 0.75 0 0] CT
0.149 GC
10.0 ML
0.667 LW
N
463 186 M
463 89 L
530 89 L
530 186 L
cp
S
GR
%%Trailer
%%Pages: 1
%%EOF
