%!PS-Adobe-3.0 EPSF-3.0
%%Creator: (MATLAB, The Mathworks, Inc. Version 9.0.0.341360 \(R2016a\). Operating System: Linux)
%%Title: /data/geodynamo/natafh/Dynamo/Acoustics/elastic_shell/Figures/Ledoux/DTS-air.eps
%%CreationDate: 2016-05-19T16:59:07
%%Pages: (atend)
%%BoundingBox: 0 0 572 435
%%LanguageLevel: 3
%%EndComments
%%BeginProlog
%%BeginResource: procset (Apache XML Graphics Std ProcSet) 1.2 0
%%Version: 1.2 0
%%Copyright: (Copyright 2001-2003,2010 The Apache Software Foundation. License terms: http://www.apache.org/licenses/LICENSE-2.0)
/bd{bind def}bind def
/ld{load def}bd
/GR/grestore ld
/M/moveto ld
/LJ/setlinejoin ld
/C/curveto ld
/f/fill ld
/LW/setlinewidth ld
/GC/setgray ld
/t/show ld
/N/newpath ld
/CT/concat ld
/cp/closepath ld
/S/stroke ld
/L/lineto ld
/CC/setcmykcolor ld
/A/ashow ld
/GS/gsave ld
/RC/setrgbcolor ld
/RM/rmoveto ld
/ML/setmiterlimit ld
/re {4 2 roll M
1 index 0 rlineto
0 exch rlineto
neg 0 rlineto
cp } bd
/_ctm matrix def
/_tm matrix def
/BT { _ctm currentmatrix pop matrix _tm copy pop 0 0 moveto } bd
/ET { _ctm setmatrix } bd
/iTm { _ctm setmatrix _tm concat } bd
/Tm { _tm astore pop iTm 0 0 moveto } bd
/ux 0.0 def
/uy 0.0 def
/F {
  /Tp exch def
  /Tf exch def
  Tf findfont Tp scalefont setfont
  /cf Tf def  /cs Tp def
} bd
/ULS {currentpoint /uy exch def /ux exch def} bd
/ULE {
  /Tcx currentpoint pop def
  gsave
  newpath
  cf findfont cs scalefont dup
  /FontMatrix get 0 get /Ts exch def /FontInfo get dup
  /UnderlinePosition get Ts mul /To exch def
  /UnderlineThickness get Ts mul /Tt exch def
  ux uy To add moveto  Tcx uy To add lineto
  Tt setlinewidth stroke
  grestore
} bd
/OLE {
  /Tcx currentpoint pop def
  gsave
  newpath
  cf findfont cs scalefont dup
  /FontMatrix get 0 get /Ts exch def /FontInfo get dup
  /UnderlinePosition get Ts mul /To exch def
  /UnderlineThickness get Ts mul /Tt exch def
  ux uy To add cs add moveto Tcx uy To add cs add lineto
  Tt setlinewidth stroke
  grestore
} bd
/SOE {
  /Tcx currentpoint pop def
  gsave
  newpath
  cf findfont cs scalefont dup
  /FontMatrix get 0 get /Ts exch def /FontInfo get dup
  /UnderlinePosition get Ts mul /To exch def
  /UnderlineThickness get Ts mul /Tt exch def
  ux uy To add cs 10 mul 26 idiv add moveto Tcx uy To add cs 10 mul 26 idiv add lineto
  Tt setlinewidth stroke
  grestore
} bd
/QT {
/Y22 exch store
/X22 exch store
/Y21 exch store
/X21 exch store
currentpoint
/Y21 load 2 mul add 3 div exch
/X21 load 2 mul add 3 div exch
/X21 load 2 mul /X22 load add 3 div
/Y21 load 2 mul /Y22 load add 3 div
/X22 load /Y22 load curveto
} bd
/SSPD {
dup length /d exch dict def
{
/v exch def
/k exch def
currentpagedevice k known {
/cpdv currentpagedevice k get def
v cpdv ne {
/upd false def
/nullv v type /nulltype eq def
/nullcpdv cpdv type /nulltype eq def
nullv nullcpdv or
{
/upd true def
} {
/sametype v type cpdv type eq def
sametype {
v type /arraytype eq {
/vlen v length def
/cpdvlen cpdv length def
vlen cpdvlen eq {
0 1 vlen 1 sub {
/i exch def
/obj v i get def
/cpdobj cpdv i get def
obj cpdobj ne {
/upd true def
exit
} if
} for
} {
/upd true def
} ifelse
} {
v type /dicttype eq {
v {
/dv exch def
/dk exch def
/cpddv cpdv dk get def
dv cpddv ne {
/upd true def
exit
} if
} forall
} {
/upd true def
} ifelse
} ifelse
} if
} ifelse
upd true eq {
d k v put
} if
} if
} if
} forall
d length 0 gt {
d setpagedevice
} if
} bd
%%EndResource
%%BeginResource: procset (Apache XML Graphics EPS ProcSet) 1.0 0
%%Version: 1.0 0
%%Copyright: (Copyright 2002-2003 The Apache Software Foundation. License terms: http://www.apache.org/licenses/LICENSE-2.0)
/BeginEPSF { %def
/b4_Inc_state save def         % Save state for cleanup
/dict_count countdictstack def % Count objects on dict stack
/op_count count 1 sub def      % Count objects on operand stack
userdict begin                 % Push userdict on dict stack
/showpage { } def              % Redefine showpage, { } = null proc
0 setgray 0 setlinecap         % Prepare graphics state
1 setlinewidth 0 setlinejoin
10 setmiterlimit [ ] 0 setdash newpath
/languagelevel where           % If level not equal to 1 then
{pop languagelevel             % set strokeadjust and
1 ne                           % overprint to their defaults.
{false setstrokeadjust false setoverprint
} if
} if
} bd
/EndEPSF { %def
count op_count sub {pop} repeat            % Clean up stacks
countdictstack dict_count sub {end} repeat
b4_Inc_state restore
} bd
%%EndResource
%FOPBeginFontDict
%%IncludeResource: font Courier-Bold
%%IncludeResource: font Helvetica
%%IncludeResource: font Courier-BoldOblique
%%IncludeResource: font Courier-Oblique
%%IncludeResource: font Times-Roman
%%IncludeResource: font Helvetica-BoldOblique
%%IncludeResource: font Helvetica-Bold
%%IncludeResource: font Helvetica-Oblique
%%IncludeResource: font Times-BoldItalic
%%IncludeResource: font Courier
%%IncludeResource: font Times-Italic
%%IncludeResource: font Times-Bold
%%IncludeResource: font Symbol
%%IncludeResource: font ZapfDingbats
%FOPEndFontDict
%%BeginResource: encoding WinAnsiEncoding
/WinAnsiEncoding [
/.notdef /.notdef /.notdef /.notdef /.notdef
/.notdef /.notdef /.notdef /.notdef /.notdef
/.notdef /.notdef /.notdef /.notdef /.notdef
/.notdef /.notdef /.notdef /.notdef /.notdef
/.notdef /.notdef /.notdef /.notdef /.notdef
/.notdef /.notdef /.notdef /.notdef /.notdef
/.notdef /.notdef /space /exclam /quotedbl
/numbersign /dollar /percent /ampersand /quotesingle
/parenleft /parenright /asterisk /plus /comma
/hyphen /period /slash /zero /one
/two /three /four /five /six
/seven /eight /nine /colon /semicolon
/less /equal /greater /question /at
/A /B /C /D /E
/F /G /H /I /J
/K /L /M /N /O
/P /Q /R /S /T
/U /V /W /X /Y
/Z /bracketleft /backslash /bracketright /asciicircum
/underscore /quoteleft /a /b /c
/d /e /f /g /h
/i /j /k /l /m
/n /o /p /q /r
/s /t /u /v /w
/x /y /z /braceleft /bar
/braceright /asciitilde /bullet /Euro /bullet
/quotesinglbase /florin /quotedblbase /ellipsis /dagger
/daggerdbl /circumflex /perthousand /Scaron /guilsinglleft
/OE /bullet /Zcaron /bullet /bullet
/quoteleft /quoteright /quotedblleft /quotedblright /bullet
/endash /emdash /asciitilde /trademark /scaron
/guilsinglright /oe /bullet /zcaron /Ydieresis
/space /exclamdown /cent /sterling /currency
/yen /brokenbar /section /dieresis /copyright
/ordfeminine /guillemotleft /logicalnot /sfthyphen /registered
/macron /degree /plusminus /twosuperior /threesuperior
/acute /mu /paragraph /middot /cedilla
/onesuperior /ordmasculine /guillemotright /onequarter /onehalf
/threequarters /questiondown /Agrave /Aacute /Acircumflex
/Atilde /Adieresis /Aring /AE /Ccedilla
/Egrave /Eacute /Ecircumflex /Edieresis /Igrave
/Iacute /Icircumflex /Idieresis /Eth /Ntilde
/Ograve /Oacute /Ocircumflex /Otilde /Odieresis
/multiply /Oslash /Ugrave /Uacute /Ucircumflex
/Udieresis /Yacute /Thorn /germandbls /agrave
/aacute /acircumflex /atilde /adieresis /aring
/ae /ccedilla /egrave /eacute /ecircumflex
/edieresis /igrave /iacute /icircumflex /idieresis
/eth /ntilde /ograve /oacute /ocircumflex
/otilde /odieresis /divide /oslash /ugrave
/uacute /ucircumflex /udieresis /yacute /thorn
/ydieresis
] def
%%EndResource
%FOPBeginFontReencode
/Courier-Bold findfont
dup length dict begin
  {1 index /FID ne {def} {pop pop} ifelse} forall
  /Encoding WinAnsiEncoding def
  currentdict
end
/Courier-Bold exch definefont pop
/Helvetica findfont
dup length dict begin
  {1 index /FID ne {def} {pop pop} ifelse} forall
  /Encoding WinAnsiEncoding def
  currentdict
end
/Helvetica exch definefont pop
/Courier-BoldOblique findfont
dup length dict begin
  {1 index /FID ne {def} {pop pop} ifelse} forall
  /Encoding WinAnsiEncoding def
  currentdict
end
/Courier-BoldOblique exch definefont pop
/Courier-Oblique findfont
dup length dict begin
  {1 index /FID ne {def} {pop pop} ifelse} forall
  /Encoding WinAnsiEncoding def
  currentdict
end
/Courier-Oblique exch definefont pop
/Times-Roman findfont
dup length dict begin
  {1 index /FID ne {def} {pop pop} ifelse} forall
  /Encoding WinAnsiEncoding def
  currentdict
end
/Times-Roman exch definefont pop
/Helvetica-BoldOblique findfont
dup length dict begin
  {1 index /FID ne {def} {pop pop} ifelse} forall
  /Encoding WinAnsiEncoding def
  currentdict
end
/Helvetica-BoldOblique exch definefont pop
/Helvetica-Bold findfont
dup length dict begin
  {1 index /FID ne {def} {pop pop} ifelse} forall
  /Encoding WinAnsiEncoding def
  currentdict
end
/Helvetica-Bold exch definefont pop
/Helvetica-Oblique findfont
dup length dict begin
  {1 index /FID ne {def} {pop pop} ifelse} forall
  /Encoding WinAnsiEncoding def
  currentdict
end
/Helvetica-Oblique exch definefont pop
/Times-BoldItalic findfont
dup length dict begin
  {1 index /FID ne {def} {pop pop} ifelse} forall
  /Encoding WinAnsiEncoding def
  currentdict
end
/Times-BoldItalic exch definefont pop
/Courier findfont
dup length dict begin
  {1 index /FID ne {def} {pop pop} ifelse} forall
  /Encoding WinAnsiEncoding def
  currentdict
end
/Courier exch definefont pop
/Times-Italic findfont
dup length dict begin
  {1 index /FID ne {def} {pop pop} ifelse} forall
  /Encoding WinAnsiEncoding def
  currentdict
end
/Times-Italic exch definefont pop
/Times-Bold findfont
dup length dict begin
  {1 index /FID ne {def} {pop pop} ifelse} forall
  /Encoding WinAnsiEncoding def
  currentdict
end
/Times-Bold exch definefont pop
%FOPEndFontReencode
%%EndProlog
%%Page: 1 1
%%PageBoundingBox: 0 0 572 435
%%BeginPageSetup
[1 0 0 -1 0 435] CT
%%EndPageSetup
GS
[0.75 0 0 0.75 0 0] CT
1 GC
N
0 0 762 580 re
f
GR
GS
[0.75 0 0 0.75 0 0] CT
1 GC
N
0 0 762 580 re
f
GR
GS
[0.75 0 0 0.75 0 0] CT
1 GC
N
99 516 M
690 516 L
690 64 L
99 64 L
cp
f
GR
GS
[0.75 0 0 0.75 0 0] CT
0.873 GC
1 LJ
0.667 LW
N
99 516 M
99 64 L
S
GR
GS
[0.75 0 0 0.75 0 0] CT
0.873 GC
1 LJ
0.667 LW
N
296 516 M
296 64 L
S
GR
GS
[0.75 0 0 0.75 0 0] CT
0.873 GC
1 LJ
0.667 LW
N
493 516 M
493 64 L
S
GR
GS
[0.75 0 0 0.75 0 0] CT
0.873 GC
1 LJ
0.667 LW
N
690 516 M
690 64 L
S
GR
GS
[0.75 0 0 0.75 0 0] CT
0.873 GC
1 LJ
0.667 LW
N
690 516 M
99 516 L
S
GR
GS
[0.75 0 0 0.75 0 0] CT
0.873 GC
1 LJ
0.667 LW
N
690 451.429 M
99 451.429 L
S
GR
GS
[0.75 0 0 0.75 0 0] CT
0.873 GC
1 LJ
0.667 LW
N
690 386.857 M
99 386.857 L
S
GR
GS
[0.75 0 0 0.75 0 0] CT
0.873 GC
1 LJ
0.667 LW
N
690 322.286 M
99 322.286 L
S
GR
GS
[0.75 0 0 0.75 0 0] CT
0.873 GC
1 LJ
0.667 LW
N
690 257.714 M
99 257.714 L
S
GR
GS
[0.75 0 0 0.75 0 0] CT
0.873 GC
1 LJ
0.667 LW
N
690 193.143 M
99 193.143 L
S
GR
GS
[0.75 0 0 0.75 0 0] CT
0.873 GC
1 LJ
0.667 LW
N
690 128.571 M
99 128.571 L
S
GR
GS
[0.75 0 0 0.75 0 0] CT
0.873 GC
1 LJ
0.667 LW
N
690 64 M
99 64 L
S
GR
GS
[0.75 0 0 0.75 0 0] CT
0.149 GC
2 setlinecap
1 LJ
0.667 LW
N
99 516 M
690 516 L
S
GR
GS
[0.75 0 0 0.75 0 0] CT
0.149 GC
2 setlinecap
1 LJ
0.667 LW
N
99 64 M
690 64 L
S
GR
GS
[0.75 0 0 0.75 0 0] CT
0.149 GC
2 setlinecap
1 LJ
0.667 LW
N
99 516 M
99 510.09 L
S
GR
GS
[0.75 0 0 0.75 0 0] CT
0.149 GC
2 setlinecap
1 LJ
0.667 LW
N
296 516 M
296 510.09 L
S
GR
GS
[0.75 0 0 0.75 0 0] CT
0.149 GC
2 setlinecap
1 LJ
0.667 LW
N
493 516 M
493 510.09 L
S
GR
GS
[0.75 0 0 0.75 0 0] CT
0.149 GC
2 setlinecap
1 LJ
0.667 LW
N
690 516 M
690 510.09 L
S
GR
GS
[0.75 0 0 0.75 0 0] CT
0.149 GC
2 setlinecap
1 LJ
0.667 LW
N
99 64 M
99 69.91 L
S
GR
GS
[0.75 0 0 0.75 0 0] CT
0.149 GC
2 setlinecap
1 LJ
0.667 LW
N
296 64 M
296 69.91 L
S
GR
GS
[0.75 0 0 0.75 0 0] CT
0.149 GC
2 setlinecap
1 LJ
0.667 LW
N
493 64 M
493 69.91 L
S
GR
GS
[0.75 0 0 0.75 0 0] CT
0.149 GC
2 setlinecap
1 LJ
0.667 LW
N
690 64 M
690 69.91 L
S
GR
GS
[0.75 0 0 0.75 74.25 390.99998] CT
0.149 GC
/Helvetica 13.333 F
GS
[1 0 0 1 0 0] CT
-4.5 13 moveto 
1 -1 scale
(0) t 
GR
GR
GS
[0.75 0 0 0.75 222 390.99998] CT
0.149 GC
/Helvetica 13.333 F
GS
[1 0 0 1 0 0] CT
-4.5 13 moveto 
1 -1 scale
(5) t 
GR
GR
GS
[0.75 0 0 0.75 369.75 390.99998] CT
0.149 GC
/Helvetica 13.333 F
GS
[1 0 0 1 0 0] CT
-8.5 13 moveto 
1 -1 scale
(10) t 
GR
GR
GS
[0.75 0 0 0.75 517.5 390.99998] CT
0.149 GC
/Helvetica 13.333 F
GS
[1 0 0 1 0 0] CT
-8.5 13 moveto 
1 -1 scale
(15) t 
GR
GR
GS
[0.75 0 0 0.75 295.87521 404.75002] CT
0.149 GC
/Helvetica 14.667 F
GS
[1 0 0 1 0 0] CT
-88.5 14 moveto 
1 -1 scale
(mode angular number l) t 
GR
GR
GS
[0.75 0 0 0.75 0 0] CT
0.149 GC
2 setlinecap
1 LJ
0.667 LW
N
99 516 M
99 64 L
S
GR
GS
[0.75 0 0 0.75 0 0] CT
0.149 GC
2 setlinecap
1 LJ
0.667 LW
N
690 516 M
690 64 L
S
GR
GS
[0.75 0 0 0.75 0 0] CT
0.149 GC
2 setlinecap
1 LJ
0.667 LW
N
99 516 M
104.91 516 L
S
GR
GS
[0.75 0 0 0.75 0 0] CT
0.149 GC
2 setlinecap
1 LJ
0.667 LW
N
99 451.429 M
104.91 451.429 L
S
GR
GS
[0.75 0 0 0.75 0 0] CT
0.149 GC
2 setlinecap
1 LJ
0.667 LW
N
99 386.857 M
104.91 386.857 L
S
GR
GS
[0.75 0 0 0.75 0 0] CT
0.149 GC
2 setlinecap
1 LJ
0.667 LW
N
99 322.286 M
104.91 322.286 L
S
GR
GS
[0.75 0 0 0.75 0 0] CT
0.149 GC
2 setlinecap
1 LJ
0.667 LW
N
99 257.714 M
104.91 257.714 L
S
GR
GS
[0.75 0 0 0.75 0 0] CT
0.149 GC
2 setlinecap
1 LJ
0.667 LW
N
99 193.143 M
104.91 193.143 L
S
GR
GS
[0.75 0 0 0.75 0 0] CT
0.149 GC
2 setlinecap
1 LJ
0.667 LW
N
99 128.571 M
104.91 128.571 L
S
GR
GS
[0.75 0 0 0.75 0 0] CT
0.149 GC
2 setlinecap
1 LJ
0.667 LW
N
99 64 M
104.91 64 L
S
GR
GS
[0.75 0 0 0.75 0 0] CT
0.149 GC
2 setlinecap
1 LJ
0.667 LW
N
690 516 M
684.09 516 L
S
GR
GS
[0.75 0 0 0.75 0 0] CT
0.149 GC
2 setlinecap
1 LJ
0.667 LW
N
690 451.429 M
684.09 451.429 L
S
GR
GS
[0.75 0 0 0.75 0 0] CT
0.149 GC
2 setlinecap
1 LJ
0.667 LW
N
690 386.857 M
684.09 386.857 L
S
GR
GS
[0.75 0 0 0.75 0 0] CT
0.149 GC
2 setlinecap
1 LJ
0.667 LW
N
690 322.286 M
684.09 322.286 L
S
GR
GS
[0.75 0 0 0.75 0 0] CT
0.149 GC
2 setlinecap
1 LJ
0.667 LW
N
690 257.714 M
684.09 257.714 L
S
GR
GS
[0.75 0 0 0.75 0 0] CT
0.149 GC
2 setlinecap
1 LJ
0.667 LW
N
690 193.143 M
684.09 193.143 L
S
GR
GS
[0.75 0 0 0.75 0 0] CT
0.149 GC
2 setlinecap
1 LJ
0.667 LW
N
690 128.571 M
684.09 128.571 L
S
GR
GS
[0.75 0 0 0.75 0 0] CT
0.149 GC
2 setlinecap
1 LJ
0.667 LW
N
690 64 M
684.09 64 L
S
GR
GS
[0.75 0 0 0.75 70.25 387] CT
0.149 GC
/Helvetica 13.333 F
GS
[1 0 0 1 0 0] CT
-26 4.5 moveto 
1 -1 scale
(-0.1) t 
GR
GR
GS
[0.75 0 0 0.75 70.25 338.57142] CT
0.149 GC
/Helvetica 13.333 F
GS
[1 0 0 1 0 0] CT
-9 4.5 moveto 
1 -1 scale
(0) t 
GR
GR
GS
[0.75 0 0 0.75 70.25 290.14286] CT
0.149 GC
/Helvetica 13.333 F
GS
[1 0 0 1 0 0] CT
-21 4.5 moveto 
1 -1 scale
(0.1) t 
GR
GR
GS
[0.75 0 0 0.75 70.25 241.71428] CT
0.149 GC
/Helvetica 13.333 F
GS
[1 0 0 1 0 0] CT
-21 4.5 moveto 
1 -1 scale
(0.2) t 
GR
GR
GS
[0.75 0 0 0.75 70.25 193.2857] CT
0.149 GC
/Helvetica 13.333 F
GS
[1 0 0 1 0 0] CT
-21 4.5 moveto 
1 -1 scale
(0.3) t 
GR
GR
GS
[0.75 0 0 0.75 70.25 144.85714] CT
0.149 GC
/Helvetica 13.333 F
GS
[1 0 0 1 0 0] CT
-21 4.5 moveto 
1 -1 scale
(0.4) t 
GR
GR
GS
[0.75 0 0 0.75 70.25 96.42857] CT
0.149 GC
/Helvetica 13.333 F
GS
[1 0 0 1 0 0] CT
-21 4.5 moveto 
1 -1 scale
(0.5) t 
GR
GR
GS
[0.75 0 0 0.75 70.25 47.99999] CT
0.149 GC
/Helvetica 13.333 F
GS
[1 0 0 1 0 0] CT
-21 4.5 moveto 
1 -1 scale
(0.6) t 
GR
GR
GS
[0 -0.75 0.75 0 47.75 217.49982] CT
0.149 GC
/Helvetica 14.667 F
GS
[1 0 0 1 0 0] CT
-69 -4 moveto 
1 -1 scale
(Ledoux coefficient) t 
GR
GR
GS
[0.75 0 0 0.75 156 11.25] CT
/Helvetica-Bold 14.667 F
GS
[1 0 0 1 0 0] CT
0 0 moveto 
1 -1 scale
(C) t 
GR
GR
GS
[0.75 0 0 0.75 165 16.5] CT
/Helvetica-Bold 10.667 F
GS
[1 0 0 1 0 0] CT
0 0 moveto 
1 -1 scale
(nl) t 
GR
GR
GS
[0.75 0 0 0.75 174 11.25] CT
/Helvetica-Bold 14.667 F
GS
[1 0 0 1 0 0] CT
0 0 moveto 
1 -1 scale
( Ledoux coefficients for modes ) t 
GR
GR
GS
[0.75 0 0 0.75 373.5 16.5] CT
/Helvetica-Bold 10.667 F
GS
[1 0 0 1 0 0] CT
0 0 moveto 
1 -1 scale
(n) t 
GR
GR
GS
[0.75 0 0 0.75 379.5 11.25] CT
/Helvetica-Bold 14.667 F
GS
[1 0 0 1 0 0] CT
0 0 moveto 
1 -1 scale
(S) t 
GR
GR
GS
[0.75 0 0 0.75 387.75 16.5] CT
/Helvetica-Bold 10.667 F
GS
[1 0 0 1 0 0] CT
0 0 moveto 
1 -1 scale
(l) t 
GR
GR
GS
[0.75 0 0 0.75 390.75 11.25] CT
/Helvetica-Bold 14.667 F
GS
[1 0 0 1 0 0] CT
0 0 moveto 
1 -1 scale
( modes) t 
GR
GR
GS
[0.75 0 0 0.75 63.75 29.25] CT
/Helvetica-Bold 14.667 F
GS
[1 0 0 1 0 0] CT
0 0 moveto 
1 -1 scale
(in a spherical shell of fluid enclosed between inner and outer solid shells) t 
GR
GR
GS
[0.75 0 0 0.75 228.75 42.75] CT
/Helvetica-Bold 14.667 F
GS
[1 0 0 1 0 0] CT
0 0 moveto 
1 -1 scale
(sphere type : DTS-air) t 
GR
GR
GS
[0.75 0 0 0.75 0 0] CT
N
134.696 151.264 M
137.56 151.264 L
138.5 148.5 L
139.44 151.264 L
142.304 151.264 L
140.022 152.994 L
140.851 155.736 L
138.5 154.1 L
136.149 155.736 L
136.978 152.994 L
134.696 151.264 L
cp
f
GR
GS
[0.75 0 0 0.75 0 0] CT
10.0 ML
N
134.696 151.264 M
137.56 151.264 L
138.5 148.5 L
139.44 151.264 L
142.304 151.264 L
140.022 152.994 L
140.851 155.736 L
138.5 154.1 L
136.149 155.736 L
136.978 152.994 L
cp
S
GR
GS
[0.75 0 0 0.75 0 0] CT
N
173.696 354.264 M
176.56 354.264 L
177.5 351.5 L
178.44 354.264 L
181.304 354.264 L
179.022 355.994 L
179.851 358.736 L
177.5 357.1 L
175.149 358.736 L
175.978 355.994 L
173.696 354.264 L
cp
f
GR
GS
[0.75 0 0 0.75 0 0] CT
10.0 ML
N
173.696 354.264 M
176.56 354.264 L
177.5 351.5 L
178.44 354.264 L
181.304 354.264 L
179.022 355.994 L
179.851 358.736 L
177.5 357.1 L
175.149 358.736 L
175.978 355.994 L
cp
S
GR
GS
[0.75 0 0 0.75 0 0] CT
N
213.696 398.264 M
216.56 398.264 L
217.5 395.5 L
218.44 398.264 L
221.304 398.264 L
219.022 399.994 L
219.851 402.736 L
217.5 401.1 L
215.149 402.736 L
215.978 399.994 L
213.696 398.264 L
cp
f
GR
GS
[0.75 0 0 0.75 0 0] CT
10.0 ML
N
213.696 398.264 M
216.56 398.264 L
217.5 395.5 L
218.44 398.264 L
221.304 398.264 L
219.022 399.994 L
219.851 402.736 L
217.5 401.1 L
215.149 402.736 L
215.978 399.994 L
cp
S
GR
GS
[0.75 0 0 0.75 0 0] CT
N
252.696 424.264 M
255.56 424.264 L
256.5 421.5 L
257.44 424.264 L
260.304 424.264 L
258.022 425.994 L
258.851 428.736 L
256.5 427.1 L
254.149 428.736 L
254.978 425.994 L
252.696 424.264 L
cp
f
GR
GS
[0.75 0 0 0.75 0 0] CT
10.0 ML
N
252.696 424.264 M
255.56 424.264 L
256.5 421.5 L
257.44 424.264 L
260.304 424.264 L
258.022 425.994 L
258.851 428.736 L
256.5 427.1 L
254.149 428.736 L
254.978 425.994 L
cp
S
GR
GS
[0.75 0 0 0.75 0 0] CT
N
291.696 435.264 M
294.56 435.264 L
295.5 432.5 L
296.44 435.264 L
299.304 435.264 L
297.022 436.994 L
297.851 439.736 L
295.5 438.1 L
293.149 439.736 L
293.978 436.994 L
291.696 435.264 L
cp
f
GR
GS
[0.75 0 0 0.75 0 0] CT
10.0 ML
N
291.696 435.264 M
294.56 435.264 L
295.5 432.5 L
296.44 435.264 L
299.304 435.264 L
297.022 436.994 L
297.851 439.736 L
295.5 438.1 L
293.149 439.736 L
293.978 436.994 L
cp
S
GR
GS
[0.75 0 0 0.75 0 0] CT
N
331.696 440.264 M
334.56 440.264 L
335.5 437.5 L
336.44 440.264 L
339.304 440.264 L
337.022 441.994 L
337.851 444.736 L
335.5 443.1 L
333.149 444.736 L
333.978 441.994 L
331.696 440.264 L
cp
f
GR
GS
[0.75 0 0 0.75 0 0] CT
10.0 ML
N
331.696 440.264 M
334.56 440.264 L
335.5 437.5 L
336.44 440.264 L
339.304 440.264 L
337.022 441.994 L
337.851 444.736 L
335.5 443.1 L
333.149 444.736 L
333.978 441.994 L
cp
S
GR
GS
[0.75 0 0 0.75 0 0] CT
N
370.696 442.264 M
373.56 442.264 L
374.5 439.5 L
375.44 442.264 L
378.304 442.264 L
376.022 443.994 L
376.851 446.736 L
374.5 445.1 L
372.149 446.736 L
372.978 443.994 L
370.696 442.264 L
cp
f
GR
GS
[0.75 0 0 0.75 0 0] CT
10.0 ML
N
370.696 442.264 M
373.56 442.264 L
374.5 439.5 L
375.44 442.264 L
378.304 442.264 L
376.022 443.994 L
376.851 446.736 L
374.5 445.1 L
372.149 446.736 L
372.978 443.994 L
cp
S
GR
GS
[0.75 0 0 0.75 0 0] CT
N
410.696 444.264 M
413.56 444.264 L
414.5 441.5 L
415.44 444.264 L
418.304 444.264 L
416.022 445.994 L
416.851 448.736 L
414.5 447.1 L
412.149 448.736 L
412.978 445.994 L
410.696 444.264 L
cp
f
GR
GS
[0.75 0 0 0.75 0 0] CT
10.0 ML
N
410.696 444.264 M
413.56 444.264 L
414.5 441.5 L
415.44 444.264 L
418.304 444.264 L
416.022 445.994 L
416.851 448.736 L
414.5 447.1 L
412.149 448.736 L
412.978 445.994 L
cp
S
GR
GS
[0.75 0 0 0.75 0 0] CT
N
449.696 446.264 M
452.56 446.264 L
453.5 443.5 L
454.44 446.264 L
457.304 446.264 L
455.022 447.994 L
455.851 450.736 L
453.5 449.1 L
451.149 450.736 L
451.978 447.994 L
449.696 446.264 L
cp
f
GR
GS
[0.75 0 0 0.75 0 0] CT
10.0 ML
N
449.696 446.264 M
452.56 446.264 L
453.5 443.5 L
454.44 446.264 L
457.304 446.264 L
455.022 447.994 L
455.851 450.736 L
453.5 449.1 L
451.149 450.736 L
451.978 447.994 L
cp
S
GR
GS
[0.75 0 0 0.75 0 0] CT
N
489.696 447.264 M
492.56 447.264 L
493.5 444.5 L
494.44 447.264 L
497.304 447.264 L
495.022 448.994 L
495.851 451.736 L
493.5 450.1 L
491.149 451.736 L
491.978 448.994 L
489.696 447.264 L
cp
f
GR
GS
[0.75 0 0 0.75 0 0] CT
10.0 ML
N
489.696 447.264 M
492.56 447.264 L
493.5 444.5 L
494.44 447.264 L
497.304 447.264 L
495.022 448.994 L
495.851 451.736 L
493.5 450.1 L
491.149 451.736 L
491.978 448.994 L
cp
S
GR
GS
[0.75 0 0 0.75 0 0] CT
N
528.696 447.264 M
531.56 447.264 L
532.5 444.5 L
533.44 447.264 L
536.304 447.264 L
534.022 448.994 L
534.851 451.736 L
532.5 450.1 L
530.149 451.736 L
530.978 448.994 L
528.696 447.264 L
cp
f
GR
GS
[0.75 0 0 0.75 0 0] CT
10.0 ML
N
528.696 447.264 M
531.56 447.264 L
532.5 444.5 L
533.44 447.264 L
536.304 447.264 L
534.022 448.994 L
534.851 451.736 L
532.5 450.1 L
530.149 451.736 L
530.978 448.994 L
cp
S
GR
GS
[0.75 0 0 0.75 0 0] CT
N
567.696 448.264 M
570.56 448.264 L
571.5 445.5 L
572.44 448.264 L
575.304 448.264 L
573.022 449.994 L
573.851 452.736 L
571.5 451.1 L
569.149 452.736 L
569.978 449.994 L
567.696 448.264 L
cp
f
GR
GS
[0.75 0 0 0.75 0 0] CT
10.0 ML
N
567.696 448.264 M
570.56 448.264 L
571.5 445.5 L
572.44 448.264 L
575.304 448.264 L
573.022 449.994 L
573.851 452.736 L
571.5 451.1 L
569.149 452.736 L
569.978 449.994 L
cp
S
GR
GS
[0.75 0 0 0.75 0 0] CT
N
607.696 448.264 M
610.56 448.264 L
611.5 445.5 L
612.44 448.264 L
615.304 448.264 L
613.022 449.994 L
613.851 452.736 L
611.5 451.1 L
609.149 452.736 L
609.978 449.994 L
607.696 448.264 L
cp
f
GR
GS
[0.75 0 0 0.75 0 0] CT
10.0 ML
N
607.696 448.264 M
610.56 448.264 L
611.5 445.5 L
612.44 448.264 L
615.304 448.264 L
613.022 449.994 L
613.851 452.736 L
611.5 451.1 L
609.149 452.736 L
609.978 449.994 L
cp
S
GR
GS
[0.75 0 0 0.75 0 0] CT
N
646.696 449.264 M
649.56 449.264 L
650.5 446.5 L
651.44 449.264 L
654.304 449.264 L
652.022 450.994 L
652.851 453.736 L
650.5 452.1 L
648.149 453.736 L
648.978 450.994 L
646.696 449.264 L
cp
f
GR
GS
[0.75 0 0 0.75 0 0] CT
10.0 ML
N
646.696 449.264 M
649.56 449.264 L
650.5 446.5 L
651.44 449.264 L
654.304 449.264 L
652.022 450.994 L
652.851 453.736 L
650.5 452.1 L
648.149 453.736 L
648.978 450.994 L
cp
S
GR
GS
[0.75 0 0 0.75 0 0] CT
N
686.696 449.264 M
689.56 449.264 L
690.5 446.5 L
691.44 449.264 L
694.304 449.264 L
692.022 450.994 L
692.851 453.736 L
690.5 452.1 L
688.149 453.736 L
688.978 450.994 L
686.696 449.264 L
cp
f
GR
GS
[0.75 0 0 0.75 0 0] CT
10.0 ML
N
686.696 449.264 M
689.56 449.264 L
690.5 446.5 L
691.44 449.264 L
694.304 449.264 L
692.022 450.994 L
692.851 453.736 L
690.5 452.1 L
688.149 453.736 L
688.978 450.994 L
cp
S
GR
GS
[0.75 0 0 0.75 0 0] CT
0 1 0 RC
N
135.38 140.62 M
135.38 134.38 L
141.62 134.38 L
141.62 140.62 L
cp
f
GR
GS
[0.75 0 0 0.75 0 0] CT
0 1 0 RC
10.0 ML
N
135.38 140.62 M
135.38 134.38 L
141.62 134.38 L
141.62 140.62 L
cp
S
GR
GS
[0.75 0 0 0.75 0 0] CT
0 1 0 RC
N
174.38 350.62 M
174.38 344.38 L
180.62 344.38 L
180.62 350.62 L
cp
f
GR
GS
[0.75 0 0 0.75 0 0] CT
0 1 0 RC
10.0 ML
N
174.38 350.62 M
174.38 344.38 L
180.62 344.38 L
180.62 350.62 L
cp
S
GR
GS
[0.75 0 0 0.75 0 0] CT
0 1 0 RC
N
214.38 410.62 M
214.38 404.38 L
220.62 404.38 L
220.62 410.62 L
cp
f
GR
GS
[0.75 0 0 0.75 0 0] CT
0 1 0 RC
10.0 ML
N
214.38 410.62 M
214.38 404.38 L
220.62 404.38 L
220.62 410.62 L
cp
S
GR
GS
[0.75 0 0 0.75 0 0] CT
0 1 0 RC
N
253.38 430.62 M
253.38 424.38 L
259.62 424.38 L
259.62 430.62 L
cp
f
GR
GS
[0.75 0 0 0.75 0 0] CT
0 1 0 RC
10.0 ML
N
253.38 430.62 M
253.38 424.38 L
259.62 424.38 L
259.62 430.62 L
cp
S
GR
GS
[0.75 0 0 0.75 0 0] CT
0 1 0 RC
N
292.38 441.62 M
292.38 435.38 L
298.62 435.38 L
298.62 441.62 L
cp
f
GR
GS
[0.75 0 0 0.75 0 0] CT
0 1 0 RC
10.0 ML
N
292.38 441.62 M
292.38 435.38 L
298.62 435.38 L
298.62 441.62 L
cp
S
GR
GS
[0.75 0 0 0.75 0 0] CT
0 1 0 RC
N
332.38 446.62 M
332.38 440.38 L
338.62 440.38 L
338.62 446.62 L
cp
f
GR
GS
[0.75 0 0 0.75 0 0] CT
0 1 0 RC
10.0 ML
N
332.38 446.62 M
332.38 440.38 L
338.62 440.38 L
338.62 446.62 L
cp
S
GR
GS
[0.75 0 0 0.75 0 0] CT
0 1 0 RC
N
371.38 447.62 M
371.38 441.38 L
377.62 441.38 L
377.62 447.62 L
cp
f
GR
GS
[0.75 0 0 0.75 0 0] CT
0 1 0 RC
10.0 ML
N
371.38 447.62 M
371.38 441.38 L
377.62 441.38 L
377.62 447.62 L
cp
S
GR
GS
[0.75 0 0 0.75 0 0] CT
0 1 0 RC
N
411.38 449.62 M
411.38 443.38 L
417.62 443.38 L
417.62 449.62 L
cp
f
GR
GS
[0.75 0 0 0.75 0 0] CT
0 1 0 RC
10.0 ML
N
411.38 449.62 M
411.38 443.38 L
417.62 443.38 L
417.62 449.62 L
cp
S
GR
GS
[0.75 0 0 0.75 0 0] CT
0 1 0 RC
N
450.38 451.62 M
450.38 445.38 L
456.62 445.38 L
456.62 451.62 L
cp
f
GR
GS
[0.75 0 0 0.75 0 0] CT
0 1 0 RC
10.0 ML
N
450.38 451.62 M
450.38 445.38 L
456.62 445.38 L
456.62 451.62 L
cp
S
GR
GS
[0.75 0 0 0.75 0 0] CT
0 1 0 RC
N
490.38 451.62 M
490.38 445.38 L
496.62 445.38 L
496.62 451.62 L
cp
f
GR
GS
[0.75 0 0 0.75 0 0] CT
0 1 0 RC
10.0 ML
N
490.38 451.62 M
490.38 445.38 L
496.62 445.38 L
496.62 451.62 L
cp
S
GR
GS
[0.75 0 0 0.75 0 0] CT
0 1 0 RC
N
529.38 452.62 M
529.38 446.38 L
535.62 446.38 L
535.62 452.62 L
cp
f
GR
GS
[0.75 0 0 0.75 0 0] CT
0 1 0 RC
10.0 ML
N
529.38 452.62 M
529.38 446.38 L
535.62 446.38 L
535.62 452.62 L
cp
S
GR
GS
[0.75 0 0 0.75 0 0] CT
0 1 0 RC
N
568.38 452.62 M
568.38 446.38 L
574.62 446.38 L
574.62 452.62 L
cp
f
GR
GS
[0.75 0 0 0.75 0 0] CT
0 1 0 RC
10.0 ML
N
568.38 452.62 M
568.38 446.38 L
574.62 446.38 L
574.62 452.62 L
cp
S
GR
GS
[0.75 0 0 0.75 0 0] CT
0 1 0 RC
N
608.38 453.62 M
608.38 447.38 L
614.62 447.38 L
614.62 453.62 L
cp
f
GR
GS
[0.75 0 0 0.75 0 0] CT
0 1 0 RC
10.0 ML
N
608.38 453.62 M
608.38 447.38 L
614.62 447.38 L
614.62 453.62 L
cp
S
GR
GS
[0.75 0 0 0.75 0 0] CT
0 1 0 RC
N
647.38 453.62 M
647.38 447.38 L
653.62 447.38 L
653.62 453.62 L
cp
f
GR
GS
[0.75 0 0 0.75 0 0] CT
0 1 0 RC
10.0 ML
N
647.38 453.62 M
647.38 447.38 L
653.62 447.38 L
653.62 453.62 L
cp
S
GR
GS
[0.75 0 0 0.75 0 0] CT
0 1 0 RC
N
687.38 453.62 M
687.38 447.38 L
693.62 447.38 L
693.62 453.62 L
cp
f
GR
GS
[0.75 0 0 0.75 0 0] CT
0 1 0 RC
10.0 ML
N
687.38 453.62 M
687.38 447.38 L
693.62 447.38 L
693.62 453.62 L
cp
S
GR
GS
[0.75 0 0 0.75 0 0] CT
1 0 1 RC
N
138.5 166.832 M
143.118 158.834 L
133.882 158.834 L
cp
f
GR
GS
[0.75 0 0 0.75 0 0] CT
1 0 1 RC
10.0 ML
N
138.5 166.832 M
143.118 158.834 L
133.882 158.834 L
cp
S
GR
GS
[0.75 0 0 0.75 0 0] CT
1 0 1 RC
N
177.5 370.832 M
182.118 362.834 L
172.882 362.834 L
cp
f
GR
GS
[0.75 0 0 0.75 0 0] CT
1 0 1 RC
10.0 ML
N
177.5 370.832 M
182.118 362.834 L
172.882 362.834 L
cp
S
GR
GS
[0.75 0 0 0.75 0 0] CT
1 0 1 RC
N
217.5 418.832 M
222.118 410.834 L
212.882 410.834 L
cp
f
GR
GS
[0.75 0 0 0.75 0 0] CT
1 0 1 RC
10.0 ML
N
217.5 418.832 M
222.118 410.834 L
212.882 410.834 L
cp
S
GR
GS
[0.75 0 0 0.75 0 0] CT
1 0 1 RC
N
256.5 435.832 M
261.118 427.834 L
251.882 427.834 L
cp
f
GR
GS
[0.75 0 0 0.75 0 0] CT
1 0 1 RC
10.0 ML
N
256.5 435.832 M
261.118 427.834 L
251.882 427.834 L
cp
S
GR
GS
[0.75 0 0 0.75 0 0] CT
1 0 1 RC
N
295.5 446.832 M
300.118 438.834 L
290.882 438.834 L
cp
f
GR
GS
[0.75 0 0 0.75 0 0] CT
1 0 1 RC
10.0 ML
N
295.5 446.832 M
300.118 438.834 L
290.882 438.834 L
cp
S
GR
GS
[0.75 0 0 0.75 0 0] CT
1 0 1 RC
N
335.5 449.832 M
340.118 441.834 L
330.882 441.834 L
cp
f
GR
GS
[0.75 0 0 0.75 0 0] CT
1 0 1 RC
10.0 ML
N
335.5 449.832 M
340.118 441.834 L
330.882 441.834 L
cp
S
GR
GS
[0.75 0 0 0.75 0 0] CT
1 0 1 RC
N
374.5 450.832 M
379.118 442.834 L
369.882 442.834 L
cp
f
GR
GS
[0.75 0 0 0.75 0 0] CT
1 0 1 RC
10.0 ML
N
374.5 450.832 M
379.118 442.834 L
369.882 442.834 L
cp
S
GR
GS
[0.75 0 0 0.75 0 0] CT
1 0 1 RC
N
414.5 452.832 M
419.118 444.834 L
409.882 444.834 L
cp
f
GR
GS
[0.75 0 0 0.75 0 0] CT
1 0 1 RC
10.0 ML
N
414.5 452.832 M
419.118 444.834 L
409.882 444.834 L
cp
S
GR
GS
[0.75 0 0 0.75 0 0] CT
1 0 1 RC
N
453.5 453.832 M
458.118 445.834 L
448.882 445.834 L
cp
f
GR
GS
[0.75 0 0 0.75 0 0] CT
1 0 1 RC
10.0 ML
N
453.5 453.832 M
458.118 445.834 L
448.882 445.834 L
cp
S
GR
GS
[0.75 0 0 0.75 0 0] CT
1 0 1 RC
N
493.5 454.832 M
498.118 446.834 L
488.882 446.834 L
cp
f
GR
GS
[0.75 0 0 0.75 0 0] CT
1 0 1 RC
10.0 ML
N
493.5 454.832 M
498.118 446.834 L
488.882 446.834 L
cp
S
GR
GS
[0.75 0 0 0.75 0 0] CT
1 0 1 RC
N
532.5 454.832 M
537.117 446.834 L
527.883 446.834 L
cp
f
GR
GS
[0.75 0 0 0.75 0 0] CT
1 0 1 RC
10.0 ML
N
532.5 454.832 M
537.117 446.834 L
527.883 446.834 L
cp
S
GR
GS
[0.75 0 0 0.75 0 0] CT
1 0 1 RC
N
571.5 454.832 M
576.117 446.834 L
566.883 446.834 L
cp
f
GR
GS
[0.75 0 0 0.75 0 0] CT
1 0 1 RC
10.0 ML
N
571.5 454.832 M
576.117 446.834 L
566.883 446.834 L
cp
S
GR
GS
[0.75 0 0 0.75 0 0] CT
1 0 1 RC
N
611.5 455.832 M
616.117 447.834 L
606.883 447.834 L
cp
f
GR
GS
[0.75 0 0 0.75 0 0] CT
1 0 1 RC
10.0 ML
N
611.5 455.832 M
616.117 447.834 L
606.883 447.834 L
cp
S
GR
GS
[0.75 0 0 0.75 0 0] CT
1 0 1 RC
N
650.5 455.832 M
655.117 447.834 L
645.883 447.834 L
cp
f
GR
GS
[0.75 0 0 0.75 0 0] CT
1 0 1 RC
10.0 ML
N
650.5 455.832 M
655.117 447.834 L
645.883 447.834 L
cp
S
GR
GS
[0.75 0 0 0.75 0 0] CT
1 0 1 RC
N
690.5 455.832 M
695.117 447.834 L
685.883 447.834 L
cp
f
GR
GS
[0.75 0 0 0.75 0 0] CT
1 0 1 RC
10.0 ML
N
690.5 455.832 M
695.117 447.834 L
685.883 447.834 L
cp
S
GR
GS
[0.75 0 0 0.75 0 0] CT
1 0 0 RC
1 LJ
N
134 214.5 M
143 214.5 L
S
GR
GS
[0.75 0 0 0.75 0 0] CT
1 0 0 RC
1 LJ
N
138.5 219 M
138.5 210 L
S
GR
GS
[0.75 0 0 0.75 0 0] CT
1 0 0 RC
1 LJ
N
173 384.5 M
182 384.5 L
S
GR
GS
[0.75 0 0 0.75 0 0] CT
1 0 0 RC
1 LJ
N
177.5 389 M
177.5 380 L
S
GR
GS
[0.75 0 0 0.75 0 0] CT
1 0 0 RC
1 LJ
N
213 419.5 M
222 419.5 L
S
GR
GS
[0.75 0 0 0.75 0 0] CT
1 0 0 RC
1 LJ
N
217.5 424 M
217.5 415 L
S
GR
GS
[0.75 0 0 0.75 0 0] CT
1 0 0 RC
1 LJ
N
252 434.5 M
261 434.5 L
S
GR
GS
[0.75 0 0 0.75 0 0] CT
1 0 0 RC
1 LJ
N
256.5 439 M
256.5 430 L
S
GR
GS
[0.75 0 0 0.75 0 0] CT
1 0 0 RC
1 LJ
N
291 442.5 M
300 442.5 L
S
GR
GS
[0.75 0 0 0.75 0 0] CT
1 0 0 RC
1 LJ
N
295.5 447 M
295.5 438 L
S
GR
GS
[0.75 0 0 0.75 0 0] CT
1 0 0 RC
1 LJ
N
331 446.5 M
340 446.5 L
S
GR
GS
[0.75 0 0 0.75 0 0] CT
1 0 0 RC
1 LJ
N
335.5 451 M
335.5 442 L
S
GR
GS
[0.75 0 0 0.75 0 0] CT
1 0 0 RC
1 LJ
N
370 446.5 M
379 446.5 L
S
GR
GS
[0.75 0 0 0.75 0 0] CT
1 0 0 RC
1 LJ
N
374.5 451 M
374.5 442 L
S
GR
GS
[0.75 0 0 0.75 0 0] CT
1 0 0 RC
1 LJ
N
410 447.5 M
419 447.5 L
S
GR
GS
[0.75 0 0 0.75 0 0] CT
1 0 0 RC
1 LJ
N
414.5 452 M
414.5 443 L
S
GR
GS
[0.75 0 0 0.75 0 0] CT
1 0 0 RC
1 LJ
N
449 449.5 M
458 449.5 L
S
GR
GS
[0.75 0 0 0.75 0 0] CT
1 0 0 RC
1 LJ
N
453.5 454 M
453.5 445 L
S
GR
GS
[0.75 0 0 0.75 0 0] CT
1 0 0 RC
1 LJ
N
489 450.5 M
498 450.5 L
S
GR
GS
[0.75 0 0 0.75 0 0] CT
1 0 0 RC
1 LJ
N
493.5 455 M
493.5 446 L
S
GR
GS
[0.75 0 0 0.75 0 0] CT
1 0 0 RC
1 LJ
N
528 449.5 M
537 449.5 L
S
GR
GS
[0.75 0 0 0.75 0 0] CT
1 0 0 RC
1 LJ
N
532.5 454 M
532.5 445 L
S
GR
GS
[0.75 0 0 0.75 0 0] CT
1 0 0 RC
1 LJ
N
567 450.5 M
576 450.5 L
S
GR
GS
[0.75 0 0 0.75 0 0] CT
1 0 0 RC
1 LJ
N
571.5 455 M
571.5 446 L
S
GR
GS
[0.75 0 0 0.75 0 0] CT
1 0 0 RC
1 LJ
N
607 450.5 M
616 450.5 L
S
GR
GS
[0.75 0 0 0.75 0 0] CT
1 0 0 RC
1 LJ
N
611.5 455 M
611.5 446 L
S
GR
GS
[0.75 0 0 0.75 0 0] CT
1 0 0 RC
1 LJ
N
646 451.5 M
655 451.5 L
S
GR
GS
[0.75 0 0 0.75 0 0] CT
1 0 0 RC
1 LJ
N
650.5 456 M
650.5 447 L
S
GR
GS
[0.75 0 0 0.75 0 0] CT
1 0 0 RC
1 LJ
N
686 450.5 M
695 450.5 L
S
GR
GS
[0.75 0 0 0.75 0 0] CT
1 0 0 RC
1 LJ
N
690.5 455 M
690.5 446 L
S
GR
GS
[0.75 0 0 0.75 0 0] CT
0 0 1 RC
1 LJ
N
135 71 M
142 64 L
S
GR
GS
[0.75 0 0 0.75 0 0] CT
0 0 1 RC
1 LJ
N
135 64 M
142 71 L
S
GR
GS
[0.75 0 0 0.75 0 0] CT
0 0 1 RC
1 LJ
N
174 401 M
181 394 L
S
GR
GS
[0.75 0 0 0.75 0 0] CT
0 0 1 RC
1 LJ
N
174 394 M
181 401 L
S
GR
GS
[0.75 0 0 0.75 0 0] CT
0 0 1 RC
1 LJ
N
214 433 M
221 426 L
S
GR
GS
[0.75 0 0 0.75 0 0] CT
0 0 1 RC
1 LJ
N
214 426 M
221 433 L
S
GR
GS
[0.75 0 0 0.75 0 0] CT
0 0 1 RC
1 LJ
N
253 443 M
260 436 L
S
GR
GS
[0.75 0 0 0.75 0 0] CT
0 0 1 RC
1 LJ
N
253 436 M
260 443 L
S
GR
GS
[0.75 0 0 0.75 0 0] CT
0 0 1 RC
1 LJ
N
292 448 M
299 441 L
S
GR
GS
[0.75 0 0 0.75 0 0] CT
0 0 1 RC
1 LJ
N
292 441 M
299 448 L
S
GR
GS
[0.75 0 0 0.75 0 0] CT
0 0 1 RC
1 LJ
N
332 451 M
339 444 L
S
GR
GS
[0.75 0 0 0.75 0 0] CT
0 0 1 RC
1 LJ
N
332 444 M
339 451 L
S
GR
GS
[0.75 0 0 0.75 0 0] CT
0 0 1 RC
1 LJ
N
371 452 M
378 445 L
S
GR
GS
[0.75 0 0 0.75 0 0] CT
0 0 1 RC
1 LJ
N
371 445 M
378 452 L
S
GR
GS
[0.75 0 0 0.75 0 0] CT
0 0 1 RC
1 LJ
N
411 453 M
418 446 L
S
GR
GS
[0.75 0 0 0.75 0 0] CT
0 0 1 RC
1 LJ
N
411 446 M
418 453 L
S
GR
GS
[0.75 0 0 0.75 0 0] CT
0 0 1 RC
1 LJ
N
450 454 M
457 447 L
S
GR
GS
[0.75 0 0 0.75 0 0] CT
0 0 1 RC
1 LJ
N
450 447 M
457 454 L
S
GR
GS
[0.75 0 0 0.75 0 0] CT
0 0 1 RC
1 LJ
N
490 455 M
497 448 L
S
GR
GS
[0.75 0 0 0.75 0 0] CT
0 0 1 RC
1 LJ
N
490 448 M
497 455 L
S
GR
GS
[0.75 0 0 0.75 0 0] CT
0 0 1 RC
1 LJ
N
529 454 M
536 447 L
S
GR
GS
[0.75 0 0 0.75 0 0] CT
0 0 1 RC
1 LJ
N
529 447 M
536 454 L
S
GR
GS
[0.75 0 0 0.75 0 0] CT
0 0 1 RC
1 LJ
N
568 454 M
575 447 L
S
GR
GS
[0.75 0 0 0.75 0 0] CT
0 0 1 RC
1 LJ
N
568 447 M
575 454 L
S
GR
GS
[0.75 0 0 0.75 0 0] CT
0 0 1 RC
1 LJ
N
608 455 M
615 448 L
S
GR
GS
[0.75 0 0 0.75 0 0] CT
0 0 1 RC
1 LJ
N
608 448 M
615 455 L
S
GR
GS
[0.75 0 0 0.75 0 0] CT
0 0 1 RC
1 LJ
N
647 455 M
654 448 L
S
GR
GS
[0.75 0 0 0.75 0 0] CT
0 0 1 RC
1 LJ
N
647 448 M
654 455 L
S
GR
GS
[0.75 0 0 0.75 0 0] CT
0 0 1 RC
1 LJ
N
687 455 M
694 448 L
S
GR
GS
[0.75 0 0 0.75 0 0] CT
0 0 1 RC
1 LJ
N
687 448 M
694 455 L
S
GR
GS
[0.75 0 0 0.75 0 0] CT
N
142.5 487.5 M
141.328 484.672 L
138.5 483.5 L
135.672 484.672 L
134.5 487.5 L
135.672 490.328 L
138.5 491.5 L
141.328 490.328 L
142.5 487.5 L
cp
f
GR
GS
[0.75 0 0 0.75 0 0] CT
1 LJ
N
142.5 487.5 M
141.736 485.149 L
139.736 483.696 L
137.264 483.696 L
135.264 485.149 L
134.5 487.5 L
135.264 489.851 L
137.264 491.304 L
139.736 491.304 L
141.736 489.851 L
cp
S
GR
GS
[0.75 0 0 0.75 0 0] CT
N
181.5 465.5 M
180.328 462.672 L
177.5 461.5 L
174.672 462.672 L
173.5 465.5 L
174.672 468.328 L
177.5 469.5 L
180.328 468.328 L
181.5 465.5 L
cp
f
GR
GS
[0.75 0 0 0.75 0 0] CT
1 LJ
N
181.5 465.5 M
180.736 463.149 L
178.736 461.696 L
176.264 461.696 L
174.264 463.149 L
173.5 465.5 L
174.264 467.851 L
176.264 469.304 L
178.736 469.304 L
180.736 467.851 L
cp
S
GR
GS
[0.75 0 0 0.75 0 0] CT
N
221.5 457.5 M
220.328 454.672 L
217.5 453.5 L
214.672 454.672 L
213.5 457.5 L
214.672 460.328 L
217.5 461.5 L
220.328 460.328 L
221.5 457.5 L
cp
f
GR
GS
[0.75 0 0 0.75 0 0] CT
1 LJ
N
221.5 457.5 M
220.736 455.149 L
218.736 453.696 L
216.264 453.696 L
214.264 455.149 L
213.5 457.5 L
214.264 459.851 L
216.264 461.304 L
218.736 461.304 L
220.736 459.851 L
cp
S
GR
GS
[0.75 0 0 0.75 0 0] CT
N
260.5 455.5 M
259.328 452.672 L
256.5 451.5 L
253.672 452.672 L
252.5 455.5 L
253.672 458.328 L
256.5 459.5 L
259.328 458.328 L
260.5 455.5 L
cp
f
GR
GS
[0.75 0 0 0.75 0 0] CT
1 LJ
N
260.5 455.5 M
259.736 453.149 L
257.736 451.696 L
255.264 451.696 L
253.264 453.149 L
252.5 455.5 L
253.264 457.851 L
255.264 459.304 L
257.736 459.304 L
259.736 457.851 L
cp
S
GR
GS
[0.75 0 0 0.75 0 0] CT
N
299.5 454.5 M
298.328 451.672 L
295.5 450.5 L
292.672 451.672 L
291.5 454.5 L
292.672 457.328 L
295.5 458.5 L
298.328 457.328 L
299.5 454.5 L
cp
f
GR
GS
[0.75 0 0 0.75 0 0] CT
1 LJ
N
299.5 454.5 M
298.736 452.149 L
296.736 450.696 L
294.264 450.696 L
292.264 452.149 L
291.5 454.5 L
292.264 456.851 L
294.264 458.304 L
296.736 458.304 L
298.736 456.851 L
cp
S
GR
GS
[0.75 0 0 0.75 0 0] CT
N
339.5 453.5 M
338.328 450.672 L
335.5 449.5 L
332.672 450.672 L
331.5 453.5 L
332.672 456.328 L
335.5 457.5 L
338.328 456.328 L
339.5 453.5 L
cp
f
GR
GS
[0.75 0 0 0.75 0 0] CT
1 LJ
N
339.5 453.5 M
338.736 451.149 L
336.736 449.696 L
334.264 449.696 L
332.264 451.149 L
331.5 453.5 L
332.264 455.851 L
334.264 457.304 L
336.736 457.304 L
338.736 455.851 L
cp
S
GR
GS
[0.75 0 0 0.75 0 0] CT
N
378.5 452.5 M
377.328 449.672 L
374.5 448.5 L
371.672 449.672 L
370.5 452.5 L
371.672 455.328 L
374.5 456.5 L
377.328 455.328 L
378.5 452.5 L
cp
f
GR
GS
[0.75 0 0 0.75 0 0] CT
1 LJ
N
378.5 452.5 M
377.736 450.149 L
375.736 448.696 L
373.264 448.696 L
371.264 450.149 L
370.5 452.5 L
371.264 454.851 L
373.264 456.304 L
375.736 456.304 L
377.736 454.851 L
cp
S
GR
GS
[0.75 0 0 0.75 0 0] CT
N
418.5 452.5 M
417.328 449.672 L
414.5 448.5 L
411.672 449.672 L
410.5 452.5 L
411.672 455.328 L
414.5 456.5 L
417.328 455.328 L
418.5 452.5 L
cp
f
GR
GS
[0.75 0 0 0.75 0 0] CT
1 LJ
N
418.5 452.5 M
417.736 450.149 L
415.736 448.696 L
413.264 448.696 L
411.264 450.149 L
410.5 452.5 L
411.264 454.851 L
413.264 456.304 L
415.736 456.304 L
417.736 454.851 L
cp
S
GR
GS
[0.75 0 0 0.75 0 0] CT
N
457.5 452.5 M
456.328 449.672 L
453.5 448.5 L
450.672 449.672 L
449.5 452.5 L
450.672 455.328 L
453.5 456.5 L
456.328 455.328 L
457.5 452.5 L
cp
f
GR
GS
[0.75 0 0 0.75 0 0] CT
1 LJ
N
457.5 452.5 M
456.736 450.149 L
454.736 448.696 L
452.264 448.696 L
450.264 450.149 L
449.5 452.5 L
450.264 454.851 L
452.264 456.304 L
454.736 456.304 L
456.736 454.851 L
cp
S
GR
GS
[0.75 0 0 0.75 0 0] CT
N
497.5 452.5 M
496.328 449.672 L
493.5 448.5 L
490.672 449.672 L
489.5 452.5 L
490.672 455.328 L
493.5 456.5 L
496.328 455.328 L
497.5 452.5 L
cp
f
GR
GS
[0.75 0 0 0.75 0 0] CT
1 LJ
N
497.5 452.5 M
496.736 450.149 L
494.736 448.696 L
492.264 448.696 L
490.264 450.149 L
489.5 452.5 L
490.264 454.851 L
492.264 456.304 L
494.736 456.304 L
496.736 454.851 L
cp
S
GR
GS
[0.75 0 0 0.75 0 0] CT
N
536.5 452.5 M
535.328 449.672 L
532.5 448.5 L
529.672 449.672 L
528.5 452.5 L
529.672 455.328 L
532.5 456.5 L
535.328 455.328 L
536.5 452.5 L
cp
f
GR
GS
[0.75 0 0 0.75 0 0] CT
1 LJ
N
536.5 452.5 M
535.736 450.149 L
533.736 448.696 L
531.264 448.696 L
529.264 450.149 L
528.5 452.5 L
529.264 454.851 L
531.264 456.304 L
533.736 456.304 L
535.736 454.851 L
cp
S
GR
GS
[0.75 0 0 0.75 0 0] CT
N
575.5 452.5 M
574.328 449.672 L
571.5 448.5 L
568.672 449.672 L
567.5 452.5 L
568.672 455.328 L
571.5 456.5 L
574.328 455.328 L
575.5 452.5 L
cp
f
GR
GS
[0.75 0 0 0.75 0 0] CT
1 LJ
N
575.5 452.5 M
574.736 450.149 L
572.736 448.696 L
570.264 448.696 L
568.264 450.149 L
567.5 452.5 L
568.264 454.851 L
570.264 456.304 L
572.736 456.304 L
574.736 454.851 L
cp
S
GR
GS
[0.75 0 0 0.75 0 0] CT
N
615.5 452.5 M
614.328 449.672 L
611.5 448.5 L
608.672 449.672 L
607.5 452.5 L
608.672 455.328 L
611.5 456.5 L
614.328 455.328 L
615.5 452.5 L
cp
f
GR
GS
[0.75 0 0 0.75 0 0] CT
1 LJ
N
615.5 452.5 M
614.736 450.149 L
612.736 448.696 L
610.264 448.696 L
608.264 450.149 L
607.5 452.5 L
608.264 454.851 L
610.264 456.304 L
612.736 456.304 L
614.736 454.851 L
cp
S
GR
GS
[0.75 0 0 0.75 0 0] CT
N
654.5 452.5 M
653.328 449.672 L
650.5 448.5 L
647.672 449.672 L
646.5 452.5 L
647.672 455.328 L
650.5 456.5 L
653.328 455.328 L
654.5 452.5 L
cp
f
GR
GS
[0.75 0 0 0.75 0 0] CT
1 LJ
N
654.5 452.5 M
653.736 450.149 L
651.736 448.696 L
649.264 448.696 L
647.264 450.149 L
646.5 452.5 L
647.264 454.851 L
649.264 456.304 L
651.736 456.304 L
653.736 454.851 L
cp
S
GR
GS
[0.75 0 0 0.75 0 0] CT
N
694.5 451.5 M
693.328 448.672 L
690.5 447.5 L
687.672 448.672 L
686.5 451.5 L
687.672 454.328 L
690.5 455.5 L
693.328 454.328 L
694.5 451.5 L
cp
f
GR
GS
[0.75 0 0 0.75 0 0] CT
1 LJ
N
694.5 451.5 M
693.736 449.149 L
691.736 447.696 L
689.264 447.696 L
687.264 449.149 L
686.5 451.5 L
687.264 453.851 L
689.264 455.304 L
691.736 455.304 L
693.736 453.851 L
cp
S
GR
GS
[0.75 0 0 0.75 0 0] CT
1 GC
N
610 174 M
610 77 L
677 77 L
677 174 L
cp
f
GR
GS
[0.75 0 0 0.75 485.25 64.91192] CT
/Helvetica 12 F
GS
[1 0 0 1 0 0] CT
0 4.5 moveto 
1 -1 scale
(n=5) t 
GR
GR
GS
[0.75 0 0 0.75 0 0] CT
N
625.696 85.264 M
628.56 85.264 L
629.5 82.5 L
630.44 85.264 L
633.304 85.264 L
631.022 86.994 L
631.851 89.736 L
629.5 88.1 L
627.149 89.736 L
627.978 86.994 L
625.696 85.264 L
cp
f
GR
GS
[0.75 0 0 0.75 0 0] CT
10.0 ML
N
625.696 85.264 M
628.56 85.264 L
629.5 82.5 L
630.44 85.264 L
633.304 85.264 L
631.022 86.994 L
631.851 89.736 L
629.5 88.1 L
627.149 89.736 L
627.978 86.994 L
cp
S
GR
GS
[0.75 0 0 0.75 485.25 76.59715] CT
/Helvetica 12 F
GS
[1 0 0 1 0 0] CT
0 4.5 moveto 
1 -1 scale
(4) t 
GR
GR
GS
[0.75 0 0 0.75 0 0] CT
0 1 0 RC
N
626.38 105.62 M
626.38 99.38 L
632.62 99.38 L
632.62 105.62 L
cp
f
GR
GS
[0.75 0 0 0.75 0 0] CT
0 1 0 RC
10.0 ML
N
626.38 105.62 M
626.38 99.38 L
632.62 99.38 L
632.62 105.62 L
cp
S
GR
GS
[0.75 0 0 0.75 485.25 88.28238] CT
/Helvetica 12 F
GS
[1 0 0 1 0 0] CT
0 4.5 moveto 
1 -1 scale
(3) t 
GR
GR
GS
[0.75 0 0 0.75 0 0] CT
1 0 1 RC
N
629.5 122.832 M
634.117 114.834 L
624.883 114.834 L
cp
f
GR
GS
[0.75 0 0 0.75 0 0] CT
1 0 1 RC
10.0 ML
N
629.5 122.832 M
634.117 114.834 L
624.883 114.834 L
cp
S
GR
GS
[0.75 0 0 0.75 485.25 99.96762] CT
/Helvetica 12 F
GS
[1 0 0 1 0 0] CT
0 4.5 moveto 
1 -1 scale
(2) t 
GR
GR
GS
[0.75 0 0 0.75 0 0] CT
1 0 0 RC
1 LJ
N
625 133.5 M
634 133.5 L
S
GR
GS
[0.75 0 0 0.75 0 0] CT
1 0 0 RC
1 LJ
N
629.5 138 M
629.5 129 L
S
GR
GS
[0.75 0 0 0.75 485.25 111.65285] CT
/Helvetica 12 F
GS
[1 0 0 1 0 0] CT
0 4.5 moveto 
1 -1 scale
(1) t 
GR
GR
GS
[0.75 0 0 0.75 0 0] CT
0 0 1 RC
1 LJ
N
626 152 M
633 145 L
S
GR
GS
[0.75 0 0 0.75 0 0] CT
0 0 1 RC
1 LJ
N
626 145 M
633 152 L
S
GR
GS
[0.75 0 0 0.75 485.25 123.33808] CT
/Helvetica 12 F
GS
[1 0 0 1 0 0] CT
0 4.5 moveto 
1 -1 scale
(0) t 
GR
GR
GS
[0.75 0 0 0.75 0 0] CT
N
633.5 164.5 M
632.328 161.672 L
629.5 160.5 L
626.672 161.672 L
625.5 164.5 L
626.672 167.328 L
629.5 168.5 L
632.328 167.328 L
633.5 164.5 L
cp
f
GR
GS
[0.75 0 0 0.75 0 0] CT
1 LJ
N
633.5 164.5 M
632.736 162.149 L
630.736 160.696 L
628.264 160.696 L
626.264 162.149 L
625.5 164.5 L
626.264 166.851 L
628.264 168.304 L
630.736 168.304 L
632.736 166.851 L
cp
S
GR
GS
[0.75 0 0 0.75 0 0] CT
0.149 GC
10.0 ML
0.667 LW
N
610 174 M
610 77 L
677 77 L
677 174 L
cp
S
GR
%%Trailer
%%Pages: 1
%%EOF
