%!PS-Adobe-3.0 EPSF-3.0
%%Creator: (MATLAB, The Mathworks, Inc. Version 8.4.0.150421 \(R2014b\). Operating System: Linux)
%%Title: /data/geodynamo/natafh/Dynamo/Acoustics/elastic_shell/Figures/Ledoux/full_sphere.eps
%%CreationDate: 2015-09-03T17:02:46
%%Pages: (atend)
%%BoundingBox: 0 0 512 389
%%LanguageLevel: 2
%%EndComments
%%BeginProlog
%%BeginResource: procset (Apache XML Graphics Std ProcSet) 1.2 0
%%Version: 1.2 0
%%Copyright: (Copyright 2001-2003,2010 The Apache Software Foundation. License terms: http://www.apache.org/licenses/LICENSE-2.0)
/bd{bind def}bind def
/ld{load def}bd
/GR/grestore ld
/M/moveto ld
/LJ/setlinejoin ld
/C/curveto ld
/f/fill ld
/LW/setlinewidth ld
/GC/setgray ld
/t/show ld
/N/newpath ld
/CT/concat ld
/cp/closepath ld
/S/stroke ld
/L/lineto ld
/CC/setcmykcolor ld
/A/ashow ld
/GS/gsave ld
/RC/setrgbcolor ld
/RM/rmoveto ld
/ML/setmiterlimit ld
/re {4 2 roll M
1 index 0 rlineto
0 exch rlineto
neg 0 rlineto
cp } bd
/_ctm matrix def
/_tm matrix def
/BT { _ctm currentmatrix pop matrix _tm copy pop 0 0 moveto } bd
/ET { _ctm setmatrix } bd
/iTm { _ctm setmatrix _tm concat } bd
/Tm { _tm astore pop iTm 0 0 moveto } bd
/ux 0.0 def
/uy 0.0 def
/F {
  /Tp exch def
  /Tf exch def
  Tf findfont Tp scalefont setfont
  /cf Tf def  /cs Tp def
} bd
/ULS {currentpoint /uy exch def /ux exch def} bd
/ULE {
  /Tcx currentpoint pop def
  gsave
  newpath
  cf findfont cs scalefont dup
  /FontMatrix get 0 get /Ts exch def /FontInfo get dup
  /UnderlinePosition get Ts mul /To exch def
  /UnderlineThickness get Ts mul /Tt exch def
  ux uy To add moveto  Tcx uy To add lineto
  Tt setlinewidth stroke
  grestore
} bd
/OLE {
  /Tcx currentpoint pop def
  gsave
  newpath
  cf findfont cs scalefont dup
  /FontMatrix get 0 get /Ts exch def /FontInfo get dup
  /UnderlinePosition get Ts mul /To exch def
  /UnderlineThickness get Ts mul /Tt exch def
  ux uy To add cs add moveto Tcx uy To add cs add lineto
  Tt setlinewidth stroke
  grestore
} bd
/SOE {
  /Tcx currentpoint pop def
  gsave
  newpath
  cf findfont cs scalefont dup
  /FontMatrix get 0 get /Ts exch def /FontInfo get dup
  /UnderlinePosition get Ts mul /To exch def
  /UnderlineThickness get Ts mul /Tt exch def
  ux uy To add cs 10 mul 26 idiv add moveto Tcx uy To add cs 10 mul 26 idiv add lineto
  Tt setlinewidth stroke
  grestore
} bd
/QT {
/Y22 exch store
/X22 exch store
/Y21 exch store
/X21 exch store
currentpoint
/Y21 load 2 mul add 3 div exch
/X21 load 2 mul add 3 div exch
/X21 load 2 mul /X22 load add 3 div
/Y21 load 2 mul /Y22 load add 3 div
/X22 load /Y22 load curveto
} bd
/SSPD {
dup length /d exch dict def
{
/v exch def
/k exch def
currentpagedevice k known {
/cpdv currentpagedevice k get def
v cpdv ne {
/upd false def
/nullv v type /nulltype eq def
/nullcpdv cpdv type /nulltype eq def
nullv nullcpdv or
{
/upd true def
} {
/sametype v type cpdv type eq def
sametype {
v type /arraytype eq {
/vlen v length def
/cpdvlen cpdv length def
vlen cpdvlen eq {
0 1 vlen 1 sub {
/i exch def
/obj v i get def
/cpdobj cpdv i get def
obj cpdobj ne {
/upd true def
exit
} if
} for
} {
/upd true def
} ifelse
} {
v type /dicttype eq {
v {
/dv exch def
/dk exch def
/cpddv cpdv dk get def
dv cpddv ne {
/upd true def
exit
} if
} forall
} {
/upd true def
} ifelse
} ifelse
} if
} ifelse
upd true eq {
d k v put
} if
} if
} if
} forall
d length 0 gt {
d setpagedevice
} if
} bd
%%EndResource
%%BeginResource: procset (Apache XML Graphics EPS ProcSet) 1.0 0
%%Version: 1.0 0
%%Copyright: (Copyright 2002-2003 The Apache Software Foundation. License terms: http://www.apache.org/licenses/LICENSE-2.0)
/BeginEPSF { %def
/b4_Inc_state save def         % Save state for cleanup
/dict_count countdictstack def % Count objects on dict stack
/op_count count 1 sub def      % Count objects on operand stack
userdict begin                 % Push userdict on dict stack
/showpage { } def              % Redefine showpage, { } = null proc
0 setgray 0 setlinecap         % Prepare graphics state
1 setlinewidth 0 setlinejoin
10 setmiterlimit [ ] 0 setdash newpath
/languagelevel where           % If level not equal to 1 then
{pop languagelevel             % set strokeadjust and
1 ne                           % overprint to their defaults.
{false setstrokeadjust false setoverprint
} if
} if
} bd
/EndEPSF { %def
count op_count sub {pop} repeat            % Clean up stacks
countdictstack dict_count sub {end} repeat
b4_Inc_state restore
} bd
%%EndResource
%FOPBeginFontDict
%%IncludeResource: font Courier-Bold
%%IncludeResource: font Helvetica
%%IncludeResource: font Courier-BoldOblique
%%IncludeResource: font Courier-Oblique
%%IncludeResource: font Times-Roman
%%IncludeResource: font Helvetica-BoldOblique
%%IncludeResource: font Helvetica-Bold
%%IncludeResource: font Helvetica-Oblique
%%IncludeResource: font Times-BoldItalic
%%IncludeResource: font Courier
%%IncludeResource: font Times-Italic
%%IncludeResource: font Times-Bold
%%IncludeResource: font Symbol
%%IncludeResource: font ZapfDingbats
%FOPEndFontDict
%%BeginResource: encoding WinAnsiEncoding
/WinAnsiEncoding [
/.notdef /.notdef /.notdef /.notdef /.notdef
/.notdef /.notdef /.notdef /.notdef /.notdef
/.notdef /.notdef /.notdef /.notdef /.notdef
/.notdef /.notdef /.notdef /.notdef /.notdef
/.notdef /.notdef /.notdef /.notdef /.notdef
/.notdef /.notdef /.notdef /.notdef /.notdef
/.notdef /.notdef /space /exclam /quotedbl
/numbersign /dollar /percent /ampersand /quotesingle
/parenleft /parenright /asterisk /plus /comma
/hyphen /period /slash /zero /one
/two /three /four /five /six
/seven /eight /nine /colon /semicolon
/less /equal /greater /question /at
/A /B /C /D /E
/F /G /H /I /J
/K /L /M /N /O
/P /Q /R /S /T
/U /V /W /X /Y
/Z /bracketleft /backslash /bracketright /asciicircum
/underscore /quoteleft /a /b /c
/d /e /f /g /h
/i /j /k /l /m
/n /o /p /q /r
/s /t /u /v /w
/x /y /z /braceleft /bar
/braceright /asciitilde /bullet /Euro /bullet
/quotesinglbase /florin /quotedblbase /ellipsis /dagger
/daggerdbl /circumflex /perthousand /Scaron /guilsinglleft
/OE /bullet /Zcaron /bullet /bullet
/quoteleft /quoteright /quotedblleft /quotedblright /bullet
/endash /emdash /asciitilde /trademark /scaron
/guilsinglright /oe /bullet /zcaron /Ydieresis
/space /exclamdown /cent /sterling /currency
/yen /brokenbar /section /dieresis /copyright
/ordfeminine /guillemotleft /logicalnot /sfthyphen /registered
/macron /degree /plusminus /twosuperior /threesuperior
/acute /mu /paragraph /middot /cedilla
/onesuperior /ordmasculine /guillemotright /onequarter /onehalf
/threequarters /questiondown /Agrave /Aacute /Acircumflex
/Atilde /Adieresis /Aring /AE /Ccedilla
/Egrave /Eacute /Ecircumflex /Edieresis /Igrave
/Iacute /Icircumflex /Idieresis /Eth /Ntilde
/Ograve /Oacute /Ocircumflex /Otilde /Odieresis
/multiply /Oslash /Ugrave /Uacute /Ucircumflex
/Udieresis /Yacute /Thorn /germandbls /agrave
/aacute /acircumflex /atilde /adieresis /aring
/ae /ccedilla /egrave /eacute /ecircumflex
/edieresis /igrave /iacute /icircumflex /idieresis
/eth /ntilde /ograve /oacute /ocircumflex
/otilde /odieresis /divide /oslash /ugrave
/uacute /ucircumflex /udieresis /yacute /thorn
/ydieresis
] def
%%EndResource
%FOPBeginFontReencode
/Courier-Bold findfont
dup length dict begin
  {1 index /FID ne {def} {pop pop} ifelse} forall
  /Encoding WinAnsiEncoding def
  currentdict
end
/Courier-Bold exch definefont pop
/Helvetica findfont
dup length dict begin
  {1 index /FID ne {def} {pop pop} ifelse} forall
  /Encoding WinAnsiEncoding def
  currentdict
end
/Helvetica exch definefont pop
/Courier-BoldOblique findfont
dup length dict begin
  {1 index /FID ne {def} {pop pop} ifelse} forall
  /Encoding WinAnsiEncoding def
  currentdict
end
/Courier-BoldOblique exch definefont pop
/Courier-Oblique findfont
dup length dict begin
  {1 index /FID ne {def} {pop pop} ifelse} forall
  /Encoding WinAnsiEncoding def
  currentdict
end
/Courier-Oblique exch definefont pop
/Times-Roman findfont
dup length dict begin
  {1 index /FID ne {def} {pop pop} ifelse} forall
  /Encoding WinAnsiEncoding def
  currentdict
end
/Times-Roman exch definefont pop
/Helvetica-BoldOblique findfont
dup length dict begin
  {1 index /FID ne {def} {pop pop} ifelse} forall
  /Encoding WinAnsiEncoding def
  currentdict
end
/Helvetica-BoldOblique exch definefont pop
/Helvetica-Bold findfont
dup length dict begin
  {1 index /FID ne {def} {pop pop} ifelse} forall
  /Encoding WinAnsiEncoding def
  currentdict
end
/Helvetica-Bold exch definefont pop
/Helvetica-Oblique findfont
dup length dict begin
  {1 index /FID ne {def} {pop pop} ifelse} forall
  /Encoding WinAnsiEncoding def
  currentdict
end
/Helvetica-Oblique exch definefont pop
/Times-BoldItalic findfont
dup length dict begin
  {1 index /FID ne {def} {pop pop} ifelse} forall
  /Encoding WinAnsiEncoding def
  currentdict
end
/Times-BoldItalic exch definefont pop
/Courier findfont
dup length dict begin
  {1 index /FID ne {def} {pop pop} ifelse} forall
  /Encoding WinAnsiEncoding def
  currentdict
end
/Courier exch definefont pop
/Times-Italic findfont
dup length dict begin
  {1 index /FID ne {def} {pop pop} ifelse} forall
  /Encoding WinAnsiEncoding def
  currentdict
end
/Times-Italic exch definefont pop
/Times-Bold findfont
dup length dict begin
  {1 index /FID ne {def} {pop pop} ifelse} forall
  /Encoding WinAnsiEncoding def
  currentdict
end
/Times-Bold exch definefont pop
%FOPEndFontReencode
%%EndProlog
%%Page: 1 1
%%PageBoundingBox: 0 0 512 389
%%BeginPageSetup
[1 0 0 -1 0 389] CT
%%EndPageSetup
GS
[0.75 0 0 0.75 0 0.5] CT
1 GC
N
0 0 683 518 re
f
GR
GS
[0.75 0 0 0.75 0 0.5] CT
1 GC
N
0 0 683 518 re
f
GR
GS
[0.75 0 0 0.75 0 0.5] CT
1 GC
N
89 461 M
618 461 L
618 46 L
89 46 L
cp
f
GR
GS
[0.75 0 0 0.75 0 0.5] CT
0.873 GC
2 setlinecap
10.0 ML
N
89 461 M
89 46 L
S
GR
GS
[0.75 0 0 0.75 0 0.5] CT
0.873 GC
2 setlinecap
10.0 ML
N
124.267 461 M
124.267 46 L
S
GR
GS
[0.75 0 0 0.75 0 0.5] CT
0.873 GC
2 setlinecap
10.0 ML
N
159.533 461 M
159.533 46 L
S
GR
GS
[0.75 0 0 0.75 0 0.5] CT
0.873 GC
2 setlinecap
10.0 ML
N
194.8 461 M
194.8 46 L
S
GR
GS
[0.75 0 0 0.75 0 0.5] CT
0.873 GC
2 setlinecap
10.0 ML
N
230.067 461 M
230.067 46 L
S
GR
GS
[0.75 0 0 0.75 0 0.5] CT
0.873 GC
2 setlinecap
10.0 ML
N
265.333 461 M
265.333 46 L
S
GR
GS
[0.75 0 0 0.75 0 0.5] CT
0.873 GC
2 setlinecap
10.0 ML
N
300.6 461 M
300.6 46 L
S
GR
GS
[0.75 0 0 0.75 0 0.5] CT
0.873 GC
2 setlinecap
10.0 ML
N
335.867 461 M
335.867 46 L
S
GR
GS
[0.75 0 0 0.75 0 0.5] CT
0.873 GC
2 setlinecap
10.0 ML
N
371.133 461 M
371.133 46 L
S
GR
GS
[0.75 0 0 0.75 0 0.5] CT
0.873 GC
2 setlinecap
10.0 ML
N
406.4 461 M
406.4 46 L
S
GR
GS
[0.75 0 0 0.75 0 0.5] CT
0.873 GC
2 setlinecap
10.0 ML
N
441.667 461 M
441.667 46 L
S
GR
GS
[0.75 0 0 0.75 0 0.5] CT
0.873 GC
2 setlinecap
10.0 ML
N
476.933 461 M
476.933 46 L
S
GR
GS
[0.75 0 0 0.75 0 0.5] CT
0.873 GC
2 setlinecap
10.0 ML
N
512.2 461 M
512.2 46 L
S
GR
GS
[0.75 0 0 0.75 0 0.5] CT
0.873 GC
2 setlinecap
10.0 ML
N
547.467 461 M
547.467 46 L
S
GR
GS
[0.75 0 0 0.75 0 0.5] CT
0.873 GC
2 setlinecap
10.0 ML
N
582.733 461 M
582.733 46 L
S
GR
GS
[0.75 0 0 0.75 0 0.5] CT
0.873 GC
2 setlinecap
10.0 ML
N
618 461 M
618 46 L
S
GR
GS
[0.75 0 0 0.75 0 0.5] CT
0.873 GC
2 setlinecap
10.0 ML
N
618 461 M
89 461 L
S
GR
GS
[0.75 0 0 0.75 0 0.5] CT
0.873 GC
2 setlinecap
10.0 ML
N
618 409.125 M
89 409.125 L
S
GR
GS
[0.75 0 0 0.75 0 0.5] CT
0.873 GC
2 setlinecap
10.0 ML
N
618 357.25 M
89 357.25 L
S
GR
GS
[0.75 0 0 0.75 0 0.5] CT
0.873 GC
2 setlinecap
10.0 ML
N
618 305.375 M
89 305.375 L
S
GR
GS
[0.75 0 0 0.75 0 0.5] CT
0.873 GC
2 setlinecap
10.0 ML
N
618 253.5 M
89 253.5 L
S
GR
GS
[0.75 0 0 0.75 0 0.5] CT
0.873 GC
2 setlinecap
10.0 ML
N
618 201.625 M
89 201.625 L
S
GR
GS
[0.75 0 0 0.75 0 0.5] CT
0.873 GC
2 setlinecap
10.0 ML
N
618 149.75 M
89 149.75 L
S
GR
GS
[0.75 0 0 0.75 0 0.5] CT
0.873 GC
2 setlinecap
10.0 ML
N
618 97.875 M
89 97.875 L
S
GR
GS
[0.75 0 0 0.75 0 0.5] CT
0.873 GC
2 setlinecap
10.0 ML
N
618 46 M
89 46 L
S
GR
GS
[0.75 0 0 0.75 265.125 364.86876] CT
0.149 GC
/Helvetica-Bold 18 F
GS
[1 0 0 1 0 0] CT
-83.914 16.708 moveto 
1 -1 scale
(angular degree l) t 
GR
GR
GS
[0.75 0 0 0.75 0 0.5] CT
0.149 GC
2 setlinecap
10.0 ML
N
89 461 M
618 461 L
S
GR
GS
[0.75 0 0 0.75 0 0.5] CT
0.149 GC
2 setlinecap
10.0 ML
N
89 46 M
618 46 L
S
GR
GS
[0.75 0 0 0.75 0 0.5] CT
0.149 GC
2 setlinecap
10.0 ML
N
89 461 M
89 455.71 L
S
GR
GS
[0.75 0 0 0.75 0 0.5] CT
0.149 GC
2 setlinecap
10.0 ML
N
89 46 M
89 51.29 L
S
GR
GS
[0.75 0 0 0.75 0 0.5] CT
0.149 GC
2 setlinecap
10.0 ML
N
124.267 461 M
124.267 455.71 L
S
GR
GS
[0.75 0 0 0.75 0 0.5] CT
0.149 GC
2 setlinecap
10.0 ML
N
124.267 46 M
124.267 51.29 L
S
GR
GS
[0.75 0 0 0.75 0 0.5] CT
0.149 GC
2 setlinecap
10.0 ML
N
159.533 461 M
159.533 455.71 L
S
GR
GS
[0.75 0 0 0.75 0 0.5] CT
0.149 GC
2 setlinecap
10.0 ML
N
159.533 46 M
159.533 51.29 L
S
GR
GS
[0.75 0 0 0.75 0 0.5] CT
0.149 GC
2 setlinecap
10.0 ML
N
194.8 461 M
194.8 455.71 L
S
GR
GS
[0.75 0 0 0.75 0 0.5] CT
0.149 GC
2 setlinecap
10.0 ML
N
194.8 46 M
194.8 51.29 L
S
GR
GS
[0.75 0 0 0.75 0 0.5] CT
0.149 GC
2 setlinecap
10.0 ML
N
230.067 461 M
230.067 455.71 L
S
GR
GS
[0.75 0 0 0.75 0 0.5] CT
0.149 GC
2 setlinecap
10.0 ML
N
230.067 46 M
230.067 51.29 L
S
GR
GS
[0.75 0 0 0.75 0 0.5] CT
0.149 GC
2 setlinecap
10.0 ML
N
265.333 461 M
265.333 455.71 L
S
GR
GS
[0.75 0 0 0.75 0 0.5] CT
0.149 GC
2 setlinecap
10.0 ML
N
265.333 46 M
265.333 51.29 L
S
GR
GS
[0.75 0 0 0.75 0 0.5] CT
0.149 GC
2 setlinecap
10.0 ML
N
300.6 461 M
300.6 455.71 L
S
GR
GS
[0.75 0 0 0.75 0 0.5] CT
0.149 GC
2 setlinecap
10.0 ML
N
300.6 46 M
300.6 51.29 L
S
GR
GS
[0.75 0 0 0.75 0 0.5] CT
0.149 GC
2 setlinecap
10.0 ML
N
335.867 461 M
335.867 455.71 L
S
GR
GS
[0.75 0 0 0.75 0 0.5] CT
0.149 GC
2 setlinecap
10.0 ML
N
335.867 46 M
335.867 51.29 L
S
GR
GS
[0.75 0 0 0.75 0 0.5] CT
0.149 GC
2 setlinecap
10.0 ML
N
371.133 461 M
371.133 455.71 L
S
GR
GS
[0.75 0 0 0.75 0 0.5] CT
0.149 GC
2 setlinecap
10.0 ML
N
371.133 46 M
371.133 51.29 L
S
GR
GS
[0.75 0 0 0.75 0 0.5] CT
0.149 GC
2 setlinecap
10.0 ML
N
406.4 461 M
406.4 455.71 L
S
GR
GS
[0.75 0 0 0.75 0 0.5] CT
0.149 GC
2 setlinecap
10.0 ML
N
406.4 46 M
406.4 51.29 L
S
GR
GS
[0.75 0 0 0.75 0 0.5] CT
0.149 GC
2 setlinecap
10.0 ML
N
441.667 461 M
441.667 455.71 L
S
GR
GS
[0.75 0 0 0.75 0 0.5] CT
0.149 GC
2 setlinecap
10.0 ML
N
441.667 46 M
441.667 51.29 L
S
GR
GS
[0.75 0 0 0.75 0 0.5] CT
0.149 GC
2 setlinecap
10.0 ML
N
476.933 461 M
476.933 455.71 L
S
GR
GS
[0.75 0 0 0.75 0 0.5] CT
0.149 GC
2 setlinecap
10.0 ML
N
476.933 46 M
476.933 51.29 L
S
GR
GS
[0.75 0 0 0.75 0 0.5] CT
0.149 GC
2 setlinecap
10.0 ML
N
512.2 461 M
512.2 455.71 L
S
GR
GS
[0.75 0 0 0.75 0 0.5] CT
0.149 GC
2 setlinecap
10.0 ML
N
512.2 46 M
512.2 51.29 L
S
GR
GS
[0.75 0 0 0.75 0 0.5] CT
0.149 GC
2 setlinecap
10.0 ML
N
547.467 461 M
547.467 455.71 L
S
GR
GS
[0.75 0 0 0.75 0 0.5] CT
0.149 GC
2 setlinecap
10.0 ML
N
547.467 46 M
547.467 51.29 L
S
GR
GS
[0.75 0 0 0.75 0 0.5] CT
0.149 GC
2 setlinecap
10.0 ML
N
582.733 461 M
582.733 455.71 L
S
GR
GS
[0.75 0 0 0.75 0 0.5] CT
0.149 GC
2 setlinecap
10.0 ML
N
582.733 46 M
582.733 51.29 L
S
GR
GS
[0.75 0 0 0.75 0 0.5] CT
0.149 GC
2 setlinecap
10.0 ML
N
618 461 M
618 455.71 L
S
GR
GS
[0.75 0 0 0.75 0 0.5] CT
0.149 GC
2 setlinecap
10.0 ML
N
618 46 M
618 51.29 L
S
GR
GS
[0.75 0 0 0.75 66.75 350.65] CT
0.149 GC
/Helvetica-Bold 16 F
GS
[1 0 0 1 0 0] CT
-5.566 14.852 moveto 
1 -1 scale
(0) t 
GR
GR
GS
[0.75 0 0 0.75 93.2 350.65] CT
0.149 GC
/Helvetica-Bold 16 F
GS
[1 0 0 1 0 0] CT
-5.566 14.852 moveto 
1 -1 scale
(1) t 
GR
GR
GS
[0.75 0 0 0.75 119.65001 350.65] CT
0.149 GC
/Helvetica-Bold 16 F
GS
[1 0 0 1 0 0] CT
-5.566 14.852 moveto 
1 -1 scale
(2) t 
GR
GR
GS
[0.75 0 0 0.75 146.1 350.65] CT
0.149 GC
/Helvetica-Bold 16 F
GS
[1 0 0 1 0 0] CT
-5.566 14.852 moveto 
1 -1 scale
(3) t 
GR
GR
GS
[0.75 0 0 0.75 172.55 350.65] CT
0.149 GC
/Helvetica-Bold 16 F
GS
[1 0 0 1 0 0] CT
-5.566 14.852 moveto 
1 -1 scale
(4) t 
GR
GR
GS
[0.75 0 0 0.75 199.00001 350.65] CT
0.149 GC
/Helvetica-Bold 16 F
GS
[1 0 0 1 0 0] CT
-5.566 14.852 moveto 
1 -1 scale
(5) t 
GR
GR
GS
[0.75 0 0 0.75 225.45 350.65] CT
0.149 GC
/Helvetica-Bold 16 F
GS
[1 0 0 1 0 0] CT
-5.566 14.852 moveto 
1 -1 scale
(6) t 
GR
GR
GS
[0.75 0 0 0.75 251.9 350.65] CT
0.149 GC
/Helvetica-Bold 16 F
GS
[1 0 0 1 0 0] CT
-5.566 14.852 moveto 
1 -1 scale
(7) t 
GR
GR
GS
[0.75 0 0 0.75 278.35 350.65] CT
0.149 GC
/Helvetica-Bold 16 F
GS
[1 0 0 1 0 0] CT
-5.566 14.852 moveto 
1 -1 scale
(8) t 
GR
GR
GS
[0.75 0 0 0.75 304.8 350.65] CT
0.149 GC
/Helvetica-Bold 16 F
GS
[1 0 0 1 0 0] CT
-5.566 14.852 moveto 
1 -1 scale
(9) t 
GR
GR
GS
[0.75 0 0 0.75 331.24999 350.65] CT
0.149 GC
/Helvetica-Bold 16 F
GS
[1 0 0 1 0 0] CT
-11.133 14.852 moveto 
1 -1 scale
(10) t 
GR
GR
GS
[0.75 0 0 0.75 357.69999 350.65] CT
0.149 GC
/Helvetica-Bold 16 F
GS
[1 0 0 1 0 0] CT
-11.133 14.852 moveto 
1 -1 scale
(11) t 
GR
GR
GS
[0.75 0 0 0.75 384.15001 350.65] CT
0.149 GC
/Helvetica-Bold 16 F
GS
[1 0 0 1 0 0] CT
-11.133 14.852 moveto 
1 -1 scale
(12) t 
GR
GR
GS
[0.75 0 0 0.75 410.60001 350.65] CT
0.149 GC
/Helvetica-Bold 16 F
GS
[1 0 0 1 0 0] CT
-11.133 14.852 moveto 
1 -1 scale
(13) t 
GR
GR
GS
[0.75 0 0 0.75 437.05 350.65] CT
0.149 GC
/Helvetica-Bold 16 F
GS
[1 0 0 1 0 0] CT
-11.133 14.852 moveto 
1 -1 scale
(14) t 
GR
GR
GS
[0.75 0 0 0.75 463.5 350.65] CT
0.149 GC
/Helvetica-Bold 16 F
GS
[1 0 0 1 0 0] CT
-11.133 14.852 moveto 
1 -1 scale
(15) t 
GR
GR
GS
[0 -0.75 0.75 0 29.25 241.25] CT
0.149 GC
/Helvetica-Bold 17 F
GS
[1 0 0 1 0 0] CT
0 0 moveto 
1 -1 scale
(C) t 
GR
GR
GS
[0 -0.75 0.75 0 35.25 231.5] CT
0.149 GC
/Helvetica-Bold 13 F
GS
[1 0 0 1 0 0] CT
0 0 moveto 
1 -1 scale
(n) t 
GR
GR
GS
[0 -0.75 0.75 0 35.25 224] CT
0.149 GC
/Helvetica-Bold 13 F
GS
[1 0 0 1 0 0] CT
0 0 moveto 
1 -1 scale
(l) t 
GR
GR
GS
[0 -0.75 0.75 0 29.25 220.25] CT
0.149 GC
/Helvetica-Bold 17 F
GS
[1 0 0 1 0 0] CT
0 0 moveto 
1 -1 scale
( coefficient) t 
GR
GR
GS
[0.75 0 0 0.75 0 0.5] CT
0.149 GC
2 setlinecap
10.0 ML
N
89 461 M
89 46 L
S
GR
GS
[0.75 0 0 0.75 0 0.5] CT
0.149 GC
2 setlinecap
10.0 ML
N
618 461 M
618 46 L
S
GR
GS
[0.75 0 0 0.75 0 0.5] CT
0.149 GC
2 setlinecap
10.0 ML
N
89 461 M
94.29 461 L
S
GR
GS
[0.75 0 0 0.75 0 0.5] CT
0.149 GC
2 setlinecap
10.0 ML
N
618 461 M
612.71 461 L
S
GR
GS
[0.75 0 0 0.75 0 0.5] CT
0.149 GC
2 setlinecap
10.0 ML
N
89 409.125 M
94.29 409.125 L
S
GR
GS
[0.75 0 0 0.75 0 0.5] CT
0.149 GC
2 setlinecap
10.0 ML
N
618 409.125 M
612.71 409.125 L
S
GR
GS
[0.75 0 0 0.75 0 0.5] CT
0.149 GC
2 setlinecap
10.0 ML
N
89 357.25 M
94.29 357.25 L
S
GR
GS
[0.75 0 0 0.75 0 0.5] CT
0.149 GC
2 setlinecap
10.0 ML
N
618 357.25 M
612.71 357.25 L
S
GR
GS
[0.75 0 0 0.75 0 0.5] CT
0.149 GC
2 setlinecap
10.0 ML
N
89 305.375 M
94.29 305.375 L
S
GR
GS
[0.75 0 0 0.75 0 0.5] CT
0.149 GC
2 setlinecap
10.0 ML
N
618 305.375 M
612.71 305.375 L
S
GR
GS
[0.75 0 0 0.75 0 0.5] CT
0.149 GC
2 setlinecap
10.0 ML
N
89 253.5 M
94.29 253.5 L
S
GR
GS
[0.75 0 0 0.75 0 0.5] CT
0.149 GC
2 setlinecap
10.0 ML
N
618 253.5 M
612.71 253.5 L
S
GR
GS
[0.75 0 0 0.75 0 0.5] CT
0.149 GC
2 setlinecap
10.0 ML
N
89 201.625 M
94.29 201.625 L
S
GR
GS
[0.75 0 0 0.75 0 0.5] CT
0.149 GC
2 setlinecap
10.0 ML
N
618 201.625 M
612.71 201.625 L
S
GR
GS
[0.75 0 0 0.75 0 0.5] CT
0.149 GC
2 setlinecap
10.0 ML
N
89 149.75 M
94.29 149.75 L
S
GR
GS
[0.75 0 0 0.75 0 0.5] CT
0.149 GC
2 setlinecap
10.0 ML
N
618 149.75 M
612.71 149.75 L
S
GR
GS
[0.75 0 0 0.75 0 0.5] CT
0.149 GC
2 setlinecap
10.0 ML
N
89 97.875 M
94.29 97.875 L
S
GR
GS
[0.75 0 0 0.75 0 0.5] CT
0.149 GC
2 setlinecap
10.0 ML
N
618 97.875 M
612.71 97.875 L
S
GR
GS
[0.75 0 0 0.75 0 0.5] CT
0.149 GC
2 setlinecap
10.0 ML
N
89 46 M
94.29 46 L
S
GR
GS
[0.75 0 0 0.75 0 0.5] CT
0.149 GC
2 setlinecap
10.0 ML
N
618 46 M
612.71 46 L
S
GR
GS
[0.75 0 0 0.75 62.35 346.25] CT
0.149 GC
/Helvetica-Bold 16 F
GS
[1 0 0 1 0 0] CT
-11.133 6.039 moveto 
1 -1 scale
(0) t 
GR
GR
GS
[0.75 0 0 0.75 62.35 307.34375] CT
0.149 GC
/Helvetica-Bold 16 F
GS
[1 0 0 1 0 0] CT
-28.344 6.039 moveto 
1 -1 scale
(0.1) t 
GR
GR
GS
[0.75 0 0 0.75 62.35 268.4375] CT
0.149 GC
/Helvetica-Bold 16 F
GS
[1 0 0 1 0 0] CT
-28.344 6.039 moveto 
1 -1 scale
(0.2) t 
GR
GR
GS
[0.75 0 0 0.75 62.35 229.53125] CT
0.149 GC
/Helvetica-Bold 16 F
GS
[1 0 0 1 0 0] CT
-28.344 6.039 moveto 
1 -1 scale
(0.3) t 
GR
GR
GS
[0.75 0 0 0.75 62.35 190.625] CT
0.149 GC
/Helvetica-Bold 16 F
GS
[1 0 0 1 0 0] CT
-28.344 6.039 moveto 
1 -1 scale
(0.4) t 
GR
GR
GS
[0.75 0 0 0.75 62.35 151.71875] CT
0.149 GC
/Helvetica-Bold 16 F
GS
[1 0 0 1 0 0] CT
-28.344 6.039 moveto 
1 -1 scale
(0.5) t 
GR
GR
GS
[0.75 0 0 0.75 62.35 112.81249] CT
0.149 GC
/Helvetica-Bold 16 F
GS
[1 0 0 1 0 0] CT
-28.344 6.039 moveto 
1 -1 scale
(0.6) t 
GR
GR
GS
[0.75 0 0 0.75 62.35 73.90626] CT
0.149 GC
/Helvetica-Bold 16 F
GS
[1 0 0 1 0 0] CT
-28.344 6.039 moveto 
1 -1 scale
(0.7) t 
GR
GR
GS
[0.75 0 0 0.75 62.35 34.99999] CT
0.149 GC
/Helvetica-Bold 16 F
GS
[1 0 0 1 0 0] CT
-28.344 6.039 moveto 
1 -1 scale
(0.8) t 
GR
GR
GS
[0.75 0 0 0.75 0 0.5] CT
0 0 1 RC
2 setlinecap
10.0 ML
N
121 171 M
128 164 L
S
GR
GS
[0.75 0 0 0.75 0 0.5] CT
0 0 1 RC
2 setlinecap
10.0 ML
N
121 164 M
128 171 L
S
GR
GS
[0.75 0 0 0.75 0 0.5] CT
0 0 1 RC
2 setlinecap
10.0 ML
N
156 356 M
163 349 L
S
GR
GS
[0.75 0 0 0.75 0 0.5] CT
0 0 1 RC
2 setlinecap
10.0 ML
N
156 349 M
163 356 L
S
GR
GS
[0.75 0 0 0.75 0 0.5] CT
0 0 1 RC
2 setlinecap
10.0 ML
N
191 406 M
198 399 L
S
GR
GS
[0.75 0 0 0.75 0 0.5] CT
0 0 1 RC
2 setlinecap
10.0 ML
N
191 399 M
198 406 L
S
GR
GS
[0.75 0 0 0.75 0 0.5] CT
0 0 1 RC
2 setlinecap
10.0 ML
N
227 427 M
234 420 L
S
GR
GS
[0.75 0 0 0.75 0 0.5] CT
0 0 1 RC
2 setlinecap
10.0 ML
N
227 420 M
234 427 L
S
GR
GS
[0.75 0 0 0.75 0 0.5] CT
0 0 1 RC
2 setlinecap
10.0 ML
N
262 439 M
269 432 L
S
GR
GS
[0.75 0 0 0.75 0 0.5] CT
0 0 1 RC
2 setlinecap
10.0 ML
N
262 432 M
269 439 L
S
GR
GS
[0.75 0 0 0.75 0 0.5] CT
0 0 1 RC
2 setlinecap
10.0 ML
N
297 446 M
304 439 L
S
GR
GS
[0.75 0 0 0.75 0 0.5] CT
0 0 1 RC
2 setlinecap
10.0 ML
N
297 439 M
304 446 L
S
GR
GS
[0.75 0 0 0.75 0 0.5] CT
0 0 1 RC
2 setlinecap
10.0 ML
N
332 450 M
339 443 L
S
GR
GS
[0.75 0 0 0.75 0 0.5] CT
0 0 1 RC
2 setlinecap
10.0 ML
N
332 443 M
339 450 L
S
GR
GS
[0.75 0 0 0.75 0 0.5] CT
0 0 1 RC
2 setlinecap
10.0 ML
N
368 453 M
375 446 L
S
GR
GS
[0.75 0 0 0.75 0 0.5] CT
0 0 1 RC
2 setlinecap
10.0 ML
N
368 446 M
375 453 L
S
GR
GS
[0.75 0 0 0.75 0 0.5] CT
0 0 1 RC
2 setlinecap
10.0 ML
N
403 455 M
410 448 L
S
GR
GS
[0.75 0 0 0.75 0 0.5] CT
0 0 1 RC
2 setlinecap
10.0 ML
N
403 448 M
410 455 L
S
GR
GS
[0.75 0 0 0.75 0 0.5] CT
0 0 1 RC
2 setlinecap
10.0 ML
N
438 457 M
445 450 L
S
GR
GS
[0.75 0 0 0.75 0 0.5] CT
0 0 1 RC
2 setlinecap
10.0 ML
N
438 450 M
445 457 L
S
GR
GS
[0.75 0 0 0.75 0 0.5] CT
0 0 1 RC
2 setlinecap
10.0 ML
N
473 458 M
480 451 L
S
GR
GS
[0.75 0 0 0.75 0 0.5] CT
0 0 1 RC
2 setlinecap
10.0 ML
N
473 451 M
480 458 L
S
GR
GS
[0.75 0 0 0.75 0 0.5] CT
0 0 1 RC
2 setlinecap
10.0 ML
N
509 459 M
516 452 L
S
GR
GS
[0.75 0 0 0.75 0 0.5] CT
0 0 1 RC
2 setlinecap
10.0 ML
N
509 452 M
516 459 L
S
GR
GS
[0.75 0 0 0.75 0 0.5] CT
0 0 1 RC
2 setlinecap
10.0 ML
N
544 460 M
551 453 L
S
GR
GS
[0.75 0 0 0.75 0 0.5] CT
0 0 1 RC
2 setlinecap
10.0 ML
N
544 453 M
551 460 L
S
GR
GS
[0.75 0 0 0.75 0 0.5] CT
0 0 1 RC
2 setlinecap
10.0 ML
N
579 460 M
586 453 L
S
GR
GS
[0.75 0 0 0.75 0 0.5] CT
0 0 1 RC
2 setlinecap
10.0 ML
N
579 453 M
586 460 L
S
GR
GS
[0.75 0 0 0.75 0 0.5] CT
0 0 1 RC
2 setlinecap
10.0 ML
N
615 461 M
622 454 L
S
GR
GS
[0.75 0 0 0.75 0 0.5] CT
0 0 1 RC
2 setlinecap
10.0 ML
N
615 454 M
622 461 L
S
GR
GS
[0.75 0 0 0.75 0 0.5] CT
1 0 0 RC
2 setlinecap
10.0 ML
N
120 196.5 M
129 196.5 L
S
GR
GS
[0.75 0 0 0.75 0 0.5] CT
1 0 0 RC
2 setlinecap
10.0 ML
N
124.5 201 M
124.5 192 L
S
GR
GS
[0.75 0 0 0.75 0 0.5] CT
1 0 0 RC
2 setlinecap
10.0 ML
N
155 364.5 M
164 364.5 L
S
GR
GS
[0.75 0 0 0.75 0 0.5] CT
1 0 0 RC
2 setlinecap
10.0 ML
N
159.5 369 M
159.5 360 L
S
GR
GS
[0.75 0 0 0.75 0 0.5] CT
1 0 0 RC
2 setlinecap
10.0 ML
N
190 409.5 M
199 409.5 L
S
GR
GS
[0.75 0 0 0.75 0 0.5] CT
1 0 0 RC
2 setlinecap
10.0 ML
N
194.5 414 M
194.5 405 L
S
GR
GS
[0.75 0 0 0.75 0 0.5] CT
1 0 0 RC
2 setlinecap
10.0 ML
N
226 428.5 M
235 428.5 L
S
GR
GS
[0.75 0 0 0.75 0 0.5] CT
1 0 0 RC
2 setlinecap
10.0 ML
N
230.5 433 M
230.5 424 L
S
GR
GS
[0.75 0 0 0.75 0 0.5] CT
1 0 0 RC
2 setlinecap
10.0 ML
N
261 438.5 M
270 438.5 L
S
GR
GS
[0.75 0 0 0.75 0 0.5] CT
1 0 0 RC
2 setlinecap
10.0 ML
N
265.5 443 M
265.5 434 L
S
GR
GS
[0.75 0 0 0.75 0 0.5] CT
1 0 0 RC
2 setlinecap
10.0 ML
N
296 444.5 M
305 444.5 L
S
GR
GS
[0.75 0 0 0.75 0 0.5] CT
1 0 0 RC
2 setlinecap
10.0 ML
N
300.5 449 M
300.5 440 L
S
GR
GS
[0.75 0 0 0.75 0 0.5] CT
1 0 0 RC
2 setlinecap
10.0 ML
N
331 447.5 M
340 447.5 L
S
GR
GS
[0.75 0 0 0.75 0 0.5] CT
1 0 0 RC
2 setlinecap
10.0 ML
N
335.5 452 M
335.5 443 L
S
GR
GS
[0.75 0 0 0.75 0 0.5] CT
1 0 0 RC
2 setlinecap
10.0 ML
N
367 450.5 M
376 450.5 L
S
GR
GS
[0.75 0 0 0.75 0 0.5] CT
1 0 0 RC
2 setlinecap
10.0 ML
N
371.5 455 M
371.5 446 L
S
GR
GS
[0.75 0 0 0.75 0 0.5] CT
1 0 0 RC
2 setlinecap
10.0 ML
N
402 452.5 M
411 452.5 L
S
GR
GS
[0.75 0 0 0.75 0 0.5] CT
1 0 0 RC
2 setlinecap
10.0 ML
N
406.5 457 M
406.5 448 L
S
GR
GS
[0.75 0 0 0.75 0 0.5] CT
1 0 0 RC
2 setlinecap
10.0 ML
N
437 453.5 M
446 453.5 L
S
GR
GS
[0.75 0 0 0.75 0 0.5] CT
1 0 0 RC
2 setlinecap
10.0 ML
N
441.5 458 M
441.5 449 L
S
GR
GS
[0.75 0 0 0.75 0 0.5] CT
1 0 0 RC
2 setlinecap
10.0 ML
N
472 454.5 M
481 454.5 L
S
GR
GS
[0.75 0 0 0.75 0 0.5] CT
1 0 0 RC
2 setlinecap
10.0 ML
N
476.5 459 M
476.5 450 L
S
GR
GS
[0.75 0 0 0.75 0 0.5] CT
1 0 0 RC
2 setlinecap
10.0 ML
N
508 455.5 M
517 455.5 L
S
GR
GS
[0.75 0 0 0.75 0 0.5] CT
1 0 0 RC
2 setlinecap
10.0 ML
N
512.5 460 M
512.5 451 L
S
GR
GS
[0.75 0 0 0.75 0 0.5] CT
1 0 0 RC
2 setlinecap
10.0 ML
N
543 456.5 M
552 456.5 L
S
GR
GS
[0.75 0 0 0.75 0 0.5] CT
1 0 0 RC
2 setlinecap
10.0 ML
N
547.5 461 M
547.5 452 L
S
GR
GS
[0.75 0 0 0.75 0 0.5] CT
1 0 0 RC
2 setlinecap
10.0 ML
N
578 457.5 M
587 457.5 L
S
GR
GS
[0.75 0 0 0.75 0 0.5] CT
1 0 0 RC
2 setlinecap
10.0 ML
N
582.5 462 M
582.5 453 L
S
GR
GS
[0.75 0 0 0.75 0 0.5] CT
1 0 0 RC
2 setlinecap
10.0 ML
N
614 457.5 M
623 457.5 L
S
GR
GS
[0.75 0 0 0.75 0 0.5] CT
1 0 0 RC
2 setlinecap
10.0 ML
N
618.5 462 M
618.5 453 L
S
GR
GS
[0.75 0 0 0.75 0 0.5] CT
1 0 1 RC
N
124.5 216.832 M
129.118 208.834 L
119.882 208.834 L
cp
f
GR
GS
[0.75 0 0 0.75 0 0.5] CT
1 0 1 RC
2 setlinecap
10.0 ML
N
124.5 216.832 M
129.118 208.834 L
119.882 208.834 L
124.5 216.832 L
S
GR
GS
[0.75 0 0 0.75 0 0.5] CT
1 0 1 RC
N
159.5 377.832 M
164.118 369.834 L
154.882 369.834 L
cp
f
GR
GS
[0.75 0 0 0.75 0 0.5] CT
1 0 1 RC
2 setlinecap
10.0 ML
N
159.5 377.832 M
164.118 369.834 L
154.882 369.834 L
159.5 377.832 L
S
GR
GS
[0.75 0 0 0.75 0 0.5] CT
1 0 1 RC
N
194.5 418.832 M
199.118 410.834 L
189.882 410.834 L
cp
f
GR
GS
[0.75 0 0 0.75 0 0.5] CT
1 0 1 RC
2 setlinecap
10.0 ML
N
194.5 418.832 M
199.118 410.834 L
189.882 410.834 L
194.5 418.832 L
S
GR
GS
[0.75 0 0 0.75 0 0.5] CT
1 0 1 RC
N
230.5 436.832 M
235.118 428.834 L
225.882 428.834 L
cp
f
GR
GS
[0.75 0 0 0.75 0 0.5] CT
1 0 1 RC
2 setlinecap
10.0 ML
N
230.5 436.832 M
235.118 428.834 L
225.882 428.834 L
230.5 436.832 L
S
GR
GS
[0.75 0 0 0.75 0 0.5] CT
1 0 1 RC
N
265.5 445.832 M
270.118 437.834 L
260.882 437.834 L
cp
f
GR
GS
[0.75 0 0 0.75 0 0.5] CT
1 0 1 RC
2 setlinecap
10.0 ML
N
265.5 445.832 M
270.118 437.834 L
260.882 437.834 L
265.5 445.832 L
S
GR
GS
[0.75 0 0 0.75 0 0.5] CT
1 0 1 RC
N
300.5 450.832 M
305.118 442.834 L
295.882 442.834 L
cp
f
GR
GS
[0.75 0 0 0.75 0 0.5] CT
1 0 1 RC
2 setlinecap
10.0 ML
N
300.5 450.832 M
305.118 442.834 L
295.882 442.834 L
300.5 450.832 L
S
GR
GS
[0.75 0 0 0.75 0 0.5] CT
1 0 1 RC
N
335.5 453.832 M
340.118 445.834 L
330.882 445.834 L
cp
f
GR
GS
[0.75 0 0 0.75 0 0.5] CT
1 0 1 RC
2 setlinecap
10.0 ML
N
335.5 453.832 M
340.118 445.834 L
330.882 445.834 L
335.5 453.832 L
S
GR
GS
[0.75 0 0 0.75 0 0.5] CT
1 0 1 RC
N
371.5 456.832 M
376.118 448.834 L
366.882 448.834 L
cp
f
GR
GS
[0.75 0 0 0.75 0 0.5] CT
1 0 1 RC
2 setlinecap
10.0 ML
N
371.5 456.832 M
376.118 448.834 L
366.882 448.834 L
371.5 456.832 L
S
GR
GS
[0.75 0 0 0.75 0 0.5] CT
1 0 1 RC
N
406.5 458.832 M
411.118 450.834 L
401.882 450.834 L
cp
f
GR
GS
[0.75 0 0 0.75 0 0.5] CT
1 0 1 RC
2 setlinecap
10.0 ML
N
406.5 458.832 M
411.118 450.834 L
401.882 450.834 L
406.5 458.832 L
S
GR
GS
[0.75 0 0 0.75 0 0.5] CT
1 0 1 RC
N
441.5 459.832 M
446.118 451.834 L
436.882 451.834 L
cp
f
GR
GS
[0.75 0 0 0.75 0 0.5] CT
1 0 1 RC
2 setlinecap
10.0 ML
N
441.5 459.832 M
446.118 451.834 L
436.882 451.834 L
441.5 459.832 L
S
GR
GS
[0.75 0 0 0.75 0 0.5] CT
1 0 1 RC
N
476.5 460.832 M
481.118 452.834 L
471.882 452.834 L
cp
f
GR
GS
[0.75 0 0 0.75 0 0.5] CT
1 0 1 RC
2 setlinecap
10.0 ML
N
476.5 460.832 M
481.118 452.834 L
471.882 452.834 L
476.5 460.832 L
S
GR
GS
[0.75 0 0 0.75 0 0.5] CT
1 0 1 RC
N
512.5 461.832 M
517.117 453.834 L
507.882 453.834 L
cp
f
GR
GS
[0.75 0 0 0.75 0 0.5] CT
1 0 1 RC
2 setlinecap
10.0 ML
N
512.5 461.832 M
517.117 453.834 L
507.882 453.834 L
512.5 461.832 L
S
GR
GS
[0.75 0 0 0.75 0 0.5] CT
1 0 1 RC
N
547.5 461.832 M
552.117 453.834 L
542.883 453.834 L
cp
f
GR
GS
[0.75 0 0 0.75 0 0.5] CT
1 0 1 RC
2 setlinecap
10.0 ML
N
547.5 461.832 M
552.117 453.834 L
542.883 453.834 L
547.5 461.832 L
S
GR
GS
[0.75 0 0 0.75 0 0.5] CT
1 0 1 RC
N
582.5 462.832 M
587.117 454.834 L
577.883 454.834 L
cp
f
GR
GS
[0.75 0 0 0.75 0 0.5] CT
1 0 1 RC
2 setlinecap
10.0 ML
N
582.5 462.832 M
587.117 454.834 L
577.883 454.834 L
582.5 462.832 L
S
GR
GS
[0.75 0 0 0.75 0 0.5] CT
1 0 1 RC
N
618.5 462.832 M
623.117 454.834 L
613.883 454.834 L
cp
f
GR
GS
[0.75 0 0 0.75 0 0.5] CT
1 0 1 RC
2 setlinecap
10.0 ML
N
618.5 462.832 M
623.117 454.834 L
613.883 454.834 L
618.5 462.832 L
S
GR
GS
[0.75 0 0 0.75 0 0.5] CT
0 1 0 RC
N
121.38 215.62 M
121.38 209.38 L
127.62 209.38 L
127.62 215.62 L
cp
f
GR
GS
[0.75 0 0 0.75 0 0.5] CT
0 1 0 RC
2 setlinecap
10.0 ML
N
121.38 215.62 M
121.38 209.38 L
127.62 209.38 L
127.62 215.62 L
121.38 215.62 L
S
GR
GS
[0.75 0 0 0.75 0 0.5] CT
0 1 0 RC
N
156.38 379.62 M
156.38 373.38 L
162.62 373.38 L
162.62 379.62 L
cp
f
GR
GS
[0.75 0 0 0.75 0 0.5] CT
0 1 0 RC
2 setlinecap
10.0 ML
N
156.38 379.62 M
156.38 373.38 L
162.62 373.38 L
162.62 379.62 L
156.38 379.62 L
S
GR
GS
[0.75 0 0 0.75 0 0.5] CT
0 1 0 RC
N
191.38 420.62 M
191.38 414.38 L
197.62 414.38 L
197.62 420.62 L
cp
f
GR
GS
[0.75 0 0 0.75 0 0.5] CT
0 1 0 RC
2 setlinecap
10.0 ML
N
191.38 420.62 M
191.38 414.38 L
197.62 414.38 L
197.62 420.62 L
191.38 420.62 L
S
GR
GS
[0.75 0 0 0.75 0 0.5] CT
0 1 0 RC
N
227.38 436.62 M
227.38 430.38 L
233.62 430.38 L
233.62 436.62 L
cp
f
GR
GS
[0.75 0 0 0.75 0 0.5] CT
0 1 0 RC
2 setlinecap
10.0 ML
N
227.38 436.62 M
227.38 430.38 L
233.62 430.38 L
233.62 436.62 L
227.38 436.62 L
S
GR
GS
[0.75 0 0 0.75 0 0.5] CT
0 1 0 RC
N
262.38 444.62 M
262.38 438.38 L
268.62 438.38 L
268.62 444.62 L
cp
f
GR
GS
[0.75 0 0 0.75 0 0.5] CT
0 1 0 RC
2 setlinecap
10.0 ML
N
262.38 444.62 M
262.38 438.38 L
268.62 438.38 L
268.62 444.62 L
262.38 444.62 L
S
GR
GS
[0.75 0 0 0.75 0 0.5] CT
0 1 0 RC
N
297.38 449.62 M
297.38 443.38 L
303.62 443.38 L
303.62 449.62 L
cp
f
GR
GS
[0.75 0 0 0.75 0 0.5] CT
0 1 0 RC
2 setlinecap
10.0 ML
N
297.38 449.62 M
297.38 443.38 L
303.62 443.38 L
303.62 449.62 L
297.38 449.62 L
S
GR
GS
[0.75 0 0 0.75 0 0.5] CT
0 1 0 RC
N
332.38 452.62 M
332.38 446.38 L
338.62 446.38 L
338.62 452.62 L
cp
f
GR
GS
[0.75 0 0 0.75 0 0.5] CT
0 1 0 RC
2 setlinecap
10.0 ML
N
332.38 452.62 M
332.38 446.38 L
338.62 446.38 L
338.62 452.62 L
332.38 452.62 L
S
GR
GS
[0.75 0 0 0.75 0 0.5] CT
0 1 0 RC
N
368.38 454.62 M
368.38 448.38 L
374.62 448.38 L
374.62 454.62 L
cp
f
GR
GS
[0.75 0 0 0.75 0 0.5] CT
0 1 0 RC
2 setlinecap
10.0 ML
N
368.38 454.62 M
368.38 448.38 L
374.62 448.38 L
374.62 454.62 L
368.38 454.62 L
S
GR
GS
[0.75 0 0 0.75 0 0.5] CT
0 1 0 RC
N
403.38 456.62 M
403.38 450.38 L
409.62 450.38 L
409.62 456.62 L
cp
f
GR
GS
[0.75 0 0 0.75 0 0.5] CT
0 1 0 RC
2 setlinecap
10.0 ML
N
403.38 456.62 M
403.38 450.38 L
409.62 450.38 L
409.62 456.62 L
403.38 456.62 L
S
GR
GS
[0.75 0 0 0.75 0 0.5] CT
0 1 0 RC
N
438.38 457.62 M
438.38 451.38 L
444.62 451.38 L
444.62 457.62 L
cp
f
GR
GS
[0.75 0 0 0.75 0 0.5] CT
0 1 0 RC
2 setlinecap
10.0 ML
N
438.38 457.62 M
438.38 451.38 L
444.62 451.38 L
444.62 457.62 L
438.38 457.62 L
S
GR
GS
[0.75 0 0 0.75 0 0.5] CT
0 1 0 RC
N
473.38 458.62 M
473.38 452.38 L
479.62 452.38 L
479.62 458.62 L
cp
f
GR
GS
[0.75 0 0 0.75 0 0.5] CT
0 1 0 RC
2 setlinecap
10.0 ML
N
473.38 458.62 M
473.38 452.38 L
479.62 452.38 L
479.62 458.62 L
473.38 458.62 L
S
GR
GS
[0.75 0 0 0.75 0 0.5] CT
0 1 0 RC
N
509.38 459.62 M
509.38 453.38 L
515.62 453.38 L
515.62 459.62 L
cp
f
GR
GS
[0.75 0 0 0.75 0 0.5] CT
0 1 0 RC
2 setlinecap
10.0 ML
N
509.38 459.62 M
509.38 453.38 L
515.62 453.38 L
515.62 459.62 L
509.38 459.62 L
S
GR
GS
[0.75 0 0 0.75 0 0.5] CT
0 1 0 RC
N
544.38 460.62 M
544.38 454.38 L
550.62 454.38 L
550.62 460.62 L
cp
f
GR
GS
[0.75 0 0 0.75 0 0.5] CT
0 1 0 RC
2 setlinecap
10.0 ML
N
544.38 460.62 M
544.38 454.38 L
550.62 454.38 L
550.62 460.62 L
544.38 460.62 L
S
GR
GS
[0.75 0 0 0.75 0 0.5] CT
0 1 0 RC
N
579.38 460.62 M
579.38 454.38 L
585.62 454.38 L
585.62 460.62 L
cp
f
GR
GS
[0.75 0 0 0.75 0 0.5] CT
0 1 0 RC
2 setlinecap
10.0 ML
N
579.38 460.62 M
579.38 454.38 L
585.62 454.38 L
585.62 460.62 L
579.38 460.62 L
S
GR
GS
[0.75 0 0 0.75 0 0.5] CT
0 1 0 RC
N
615.38 460.62 M
615.38 454.38 L
621.62 454.38 L
621.62 460.62 L
cp
f
GR
GS
[0.75 0 0 0.75 0 0.5] CT
0 1 0 RC
2 setlinecap
10.0 ML
N
615.38 460.62 M
615.38 454.38 L
621.62 454.38 L
621.62 460.62 L
615.38 460.62 L
S
GR
GS
[0.75 0 0 0.75 0 0.5] CT
N
124.5 208.5 M
120.696 207.264 L
123.56 207.264 L
cp
f
GR
GS
[0.75 0 0 0.75 0 0.5] CT
N
124.5 208.5 M
123.56 207.264 L
124.5 204.5 L
cp
f
GR
GS
[0.75 0 0 0.75 0 0.5] CT
N
124.5 208.5 M
124.5 204.5 L
125.44 207.264 L
cp
f
GR
GS
[0.75 0 0 0.75 0 0.5] CT
N
124.5 208.5 M
125.44 207.264 L
128.304 207.264 L
cp
f
GR
GS
[0.75 0 0 0.75 0 0.5] CT
N
124.5 208.5 M
128.304 207.264 L
126.022 208.994 L
cp
f
GR
GS
[0.75 0 0 0.75 0 0.5] CT
N
124.5 208.5 M
126.022 208.994 L
126.851 211.736 L
cp
f
GR
GS
[0.75 0 0 0.75 0 0.5] CT
N
124.5 208.5 M
126.851 211.736 L
124.5 210.1 L
cp
f
GR
GS
[0.75 0 0 0.75 0 0.5] CT
N
124.5 208.5 M
124.5 210.1 L
122.149 211.736 L
cp
f
GR
GS
[0.75 0 0 0.75 0 0.5] CT
N
124.5 208.5 M
122.149 211.736 L
122.978 208.994 L
cp
f
GR
GS
[0.75 0 0 0.75 0 0.5] CT
N
124.5 208.5 M
122.978 208.994 L
120.696 207.264 L
cp
f
GR
GS
[0.75 0 0 0.75 0 0.5] CT
2 setlinecap
10.0 ML
N
120.696 207.264 M
123.56 207.264 L
124.5 204.5 L
125.44 207.264 L
128.304 207.264 L
126.022 208.994 L
126.851 211.736 L
124.5 210.1 L
122.149 211.736 L
122.978 208.994 L
120.696 207.264 L
S
GR
GS
[0.75 0 0 0.75 0 0.5] CT
N
159.5 377.5 M
155.696 376.264 L
158.56 376.264 L
cp
f
GR
GS
[0.75 0 0 0.75 0 0.5] CT
N
159.5 377.5 M
158.56 376.264 L
159.5 373.5 L
cp
f
GR
GS
[0.75 0 0 0.75 0 0.5] CT
N
159.5 377.5 M
159.5 373.5 L
160.44 376.264 L
cp
f
GR
GS
[0.75 0 0 0.75 0 0.5] CT
N
159.5 377.5 M
160.44 376.264 L
163.304 376.264 L
cp
f
GR
GS
[0.75 0 0 0.75 0 0.5] CT
N
159.5 377.5 M
163.304 376.264 L
161.022 377.994 L
cp
f
GR
GS
[0.75 0 0 0.75 0 0.5] CT
N
159.5 377.5 M
161.022 377.994 L
161.851 380.736 L
cp
f
GR
GS
[0.75 0 0 0.75 0 0.5] CT
N
159.5 377.5 M
161.851 380.736 L
159.5 379.1 L
cp
f
GR
GS
[0.75 0 0 0.75 0 0.5] CT
N
159.5 377.5 M
159.5 379.1 L
157.149 380.736 L
cp
f
GR
GS
[0.75 0 0 0.75 0 0.5] CT
N
159.5 377.5 M
157.149 380.736 L
157.978 377.994 L
cp
f
GR
GS
[0.75 0 0 0.75 0 0.5] CT
N
159.5 377.5 M
157.978 377.994 L
155.696 376.264 L
cp
f
GR
GS
[0.75 0 0 0.75 0 0.5] CT
2 setlinecap
10.0 ML
N
155.696 376.264 M
158.56 376.264 L
159.5 373.5 L
160.44 376.264 L
163.304 376.264 L
161.022 377.994 L
161.851 380.736 L
159.5 379.1 L
157.149 380.736 L
157.978 377.994 L
155.696 376.264 L
S
GR
GS
[0.75 0 0 0.75 0 0.5] CT
N
194.5 418.5 M
190.696 417.264 L
193.56 417.264 L
cp
f
GR
GS
[0.75 0 0 0.75 0 0.5] CT
N
194.5 418.5 M
193.56 417.264 L
194.5 414.5 L
cp
f
GR
GS
[0.75 0 0 0.75 0 0.5] CT
N
194.5 418.5 M
194.5 414.5 L
195.44 417.264 L
cp
f
GR
GS
[0.75 0 0 0.75 0 0.5] CT
N
194.5 418.5 M
195.44 417.264 L
198.304 417.264 L
cp
f
GR
GS
[0.75 0 0 0.75 0 0.5] CT
N
194.5 418.5 M
198.304 417.264 L
196.022 418.994 L
cp
f
GR
GS
[0.75 0 0 0.75 0 0.5] CT
N
194.5 418.5 M
196.022 418.994 L
196.851 421.736 L
cp
f
GR
GS
[0.75 0 0 0.75 0 0.5] CT
N
194.5 418.5 M
196.851 421.736 L
194.5 420.1 L
cp
f
GR
GS
[0.75 0 0 0.75 0 0.5] CT
N
194.5 418.5 M
194.5 420.1 L
192.149 421.736 L
cp
f
GR
GS
[0.75 0 0 0.75 0 0.5] CT
N
194.5 418.5 M
192.149 421.736 L
192.978 418.994 L
cp
f
GR
GS
[0.75 0 0 0.75 0 0.5] CT
N
194.5 418.5 M
192.978 418.994 L
190.696 417.264 L
cp
f
GR
GS
[0.75 0 0 0.75 0 0.5] CT
2 setlinecap
10.0 ML
N
190.696 417.264 M
193.56 417.264 L
194.5 414.5 L
195.44 417.264 L
198.304 417.264 L
196.022 418.994 L
196.851 421.736 L
194.5 420.1 L
192.149 421.736 L
192.978 418.994 L
190.696 417.264 L
S
GR
GS
[0.75 0 0 0.75 0 0.5] CT
N
230.5 434.5 M
226.696 433.264 L
229.56 433.264 L
cp
f
GR
GS
[0.75 0 0 0.75 0 0.5] CT
N
230.5 434.5 M
229.56 433.264 L
230.5 430.5 L
cp
f
GR
GS
[0.75 0 0 0.75 0 0.5] CT
N
230.5 434.5 M
230.5 430.5 L
231.44 433.264 L
cp
f
GR
GS
[0.75 0 0 0.75 0 0.5] CT
N
230.5 434.5 M
231.44 433.264 L
234.304 433.264 L
cp
f
GR
GS
[0.75 0 0 0.75 0 0.5] CT
N
230.5 434.5 M
234.304 433.264 L
232.022 434.994 L
cp
f
GR
GS
[0.75 0 0 0.75 0 0.5] CT
N
230.5 434.5 M
232.022 434.994 L
232.851 437.736 L
cp
f
GR
GS
[0.75 0 0 0.75 0 0.5] CT
N
230.5 434.5 M
232.851 437.736 L
230.5 436.1 L
cp
f
GR
GS
[0.75 0 0 0.75 0 0.5] CT
N
230.5 434.5 M
230.5 436.1 L
228.149 437.736 L
cp
f
GR
GS
[0.75 0 0 0.75 0 0.5] CT
N
230.5 434.5 M
228.149 437.736 L
228.978 434.994 L
cp
f
GR
GS
[0.75 0 0 0.75 0 0.5] CT
N
230.5 434.5 M
228.978 434.994 L
226.696 433.264 L
cp
f
GR
GS
[0.75 0 0 0.75 0 0.5] CT
2 setlinecap
10.0 ML
N
226.696 433.264 M
229.56 433.264 L
230.5 430.5 L
231.44 433.264 L
234.304 433.264 L
232.022 434.994 L
232.851 437.736 L
230.5 436.1 L
228.149 437.736 L
228.978 434.994 L
226.696 433.264 L
S
GR
GS
[0.75 0 0 0.75 0 0.5] CT
N
265.5 442.5 M
261.696 441.264 L
264.56 441.264 L
cp
f
GR
GS
[0.75 0 0 0.75 0 0.5] CT
N
265.5 442.5 M
264.56 441.264 L
265.5 438.5 L
cp
f
GR
GS
[0.75 0 0 0.75 0 0.5] CT
N
265.5 442.5 M
265.5 438.5 L
266.44 441.264 L
cp
f
GR
GS
[0.75 0 0 0.75 0 0.5] CT
N
265.5 442.5 M
266.44 441.264 L
269.304 441.264 L
cp
f
GR
GS
[0.75 0 0 0.75 0 0.5] CT
N
265.5 442.5 M
269.304 441.264 L
267.022 442.994 L
cp
f
GR
GS
[0.75 0 0 0.75 0 0.5] CT
N
265.5 442.5 M
267.022 442.994 L
267.851 445.736 L
cp
f
GR
GS
[0.75 0 0 0.75 0 0.5] CT
N
265.5 442.5 M
267.851 445.736 L
265.5 444.1 L
cp
f
GR
GS
[0.75 0 0 0.75 0 0.5] CT
N
265.5 442.5 M
265.5 444.1 L
263.149 445.736 L
cp
f
GR
GS
[0.75 0 0 0.75 0 0.5] CT
N
265.5 442.5 M
263.149 445.736 L
263.978 442.994 L
cp
f
GR
GS
[0.75 0 0 0.75 0 0.5] CT
N
265.5 442.5 M
263.978 442.994 L
261.696 441.264 L
cp
f
GR
GS
[0.75 0 0 0.75 0 0.5] CT
2 setlinecap
10.0 ML
N
261.696 441.264 M
264.56 441.264 L
265.5 438.5 L
266.44 441.264 L
269.304 441.264 L
267.022 442.994 L
267.851 445.736 L
265.5 444.1 L
263.149 445.736 L
263.978 442.994 L
261.696 441.264 L
S
GR
GS
[0.75 0 0 0.75 0 0.5] CT
N
300.5 447.5 M
296.696 446.264 L
299.56 446.264 L
cp
f
GR
GS
[0.75 0 0 0.75 0 0.5] CT
N
300.5 447.5 M
299.56 446.264 L
300.5 443.5 L
cp
f
GR
GS
[0.75 0 0 0.75 0 0.5] CT
N
300.5 447.5 M
300.5 443.5 L
301.44 446.264 L
cp
f
GR
GS
[0.75 0 0 0.75 0 0.5] CT
N
300.5 447.5 M
301.44 446.264 L
304.304 446.264 L
cp
f
GR
GS
[0.75 0 0 0.75 0 0.5] CT
N
300.5 447.5 M
304.304 446.264 L
302.022 447.994 L
cp
f
GR
GS
[0.75 0 0 0.75 0 0.5] CT
N
300.5 447.5 M
302.022 447.994 L
302.851 450.736 L
cp
f
GR
GS
[0.75 0 0 0.75 0 0.5] CT
N
300.5 447.5 M
302.851 450.736 L
300.5 449.1 L
cp
f
GR
GS
[0.75 0 0 0.75 0 0.5] CT
N
300.5 447.5 M
300.5 449.1 L
298.149 450.736 L
cp
f
GR
GS
[0.75 0 0 0.75 0 0.5] CT
N
300.5 447.5 M
298.149 450.736 L
298.978 447.994 L
cp
f
GR
GS
[0.75 0 0 0.75 0 0.5] CT
N
300.5 447.5 M
298.978 447.994 L
296.696 446.264 L
cp
f
GR
GS
[0.75 0 0 0.75 0 0.5] CT
2 setlinecap
10.0 ML
N
296.696 446.264 M
299.56 446.264 L
300.5 443.5 L
301.44 446.264 L
304.304 446.264 L
302.022 447.994 L
302.851 450.736 L
300.5 449.1 L
298.149 450.736 L
298.978 447.994 L
296.696 446.264 L
S
GR
GS
[0.75 0 0 0.75 0 0.5] CT
N
335.5 450.5 M
331.696 449.264 L
334.56 449.264 L
cp
f
GR
GS
[0.75 0 0 0.75 0 0.5] CT
N
335.5 450.5 M
334.56 449.264 L
335.5 446.5 L
cp
f
GR
GS
[0.75 0 0 0.75 0 0.5] CT
N
335.5 450.5 M
335.5 446.5 L
336.44 449.264 L
cp
f
GR
GS
[0.75 0 0 0.75 0 0.5] CT
N
335.5 450.5 M
336.44 449.264 L
339.304 449.264 L
cp
f
GR
GS
[0.75 0 0 0.75 0 0.5] CT
N
335.5 450.5 M
339.304 449.264 L
337.022 450.994 L
cp
f
GR
GS
[0.75 0 0 0.75 0 0.5] CT
N
335.5 450.5 M
337.022 450.994 L
337.851 453.736 L
cp
f
GR
GS
[0.75 0 0 0.75 0 0.5] CT
N
335.5 450.5 M
337.851 453.736 L
335.5 452.1 L
cp
f
GR
GS
[0.75 0 0 0.75 0 0.5] CT
N
335.5 450.5 M
335.5 452.1 L
333.149 453.736 L
cp
f
GR
GS
[0.75 0 0 0.75 0 0.5] CT
N
335.5 450.5 M
333.149 453.736 L
333.978 450.994 L
cp
f
GR
GS
[0.75 0 0 0.75 0 0.5] CT
N
335.5 450.5 M
333.978 450.994 L
331.696 449.264 L
cp
f
GR
GS
[0.75 0 0 0.75 0 0.5] CT
2 setlinecap
10.0 ML
N
331.696 449.264 M
334.56 449.264 L
335.5 446.5 L
336.44 449.264 L
339.304 449.264 L
337.022 450.994 L
337.851 453.736 L
335.5 452.1 L
333.149 453.736 L
333.978 450.994 L
331.696 449.264 L
S
GR
GS
[0.75 0 0 0.75 0 0.5] CT
N
371.5 452.5 M
367.696 451.264 L
370.56 451.264 L
cp
f
GR
GS
[0.75 0 0 0.75 0 0.5] CT
N
371.5 452.5 M
370.56 451.264 L
371.5 448.5 L
cp
f
GR
GS
[0.75 0 0 0.75 0 0.5] CT
N
371.5 452.5 M
371.5 448.5 L
372.44 451.264 L
cp
f
GR
GS
[0.75 0 0 0.75 0 0.5] CT
N
371.5 452.5 M
372.44 451.264 L
375.304 451.264 L
cp
f
GR
GS
[0.75 0 0 0.75 0 0.5] CT
N
371.5 452.5 M
375.304 451.264 L
373.022 452.994 L
cp
f
GR
GS
[0.75 0 0 0.75 0 0.5] CT
N
371.5 452.5 M
373.022 452.994 L
373.851 455.736 L
cp
f
GR
GS
[0.75 0 0 0.75 0 0.5] CT
N
371.5 452.5 M
373.851 455.736 L
371.5 454.1 L
cp
f
GR
GS
[0.75 0 0 0.75 0 0.5] CT
N
371.5 452.5 M
371.5 454.1 L
369.149 455.736 L
cp
f
GR
GS
[0.75 0 0 0.75 0 0.5] CT
N
371.5 452.5 M
369.149 455.736 L
369.978 452.994 L
cp
f
GR
GS
[0.75 0 0 0.75 0 0.5] CT
N
371.5 452.5 M
369.978 452.994 L
367.696 451.264 L
cp
f
GR
GS
[0.75 0 0 0.75 0 0.5] CT
2 setlinecap
10.0 ML
N
367.696 451.264 M
370.56 451.264 L
371.5 448.5 L
372.44 451.264 L
375.304 451.264 L
373.022 452.994 L
373.851 455.736 L
371.5 454.1 L
369.149 455.736 L
369.978 452.994 L
367.696 451.264 L
S
GR
GS
[0.75 0 0 0.75 0 0.5] CT
N
406.5 453.5 M
402.696 452.264 L
405.56 452.264 L
cp
f
GR
GS
[0.75 0 0 0.75 0 0.5] CT
N
406.5 453.5 M
405.56 452.264 L
406.5 449.5 L
cp
f
GR
GS
[0.75 0 0 0.75 0 0.5] CT
N
406.5 453.5 M
406.5 449.5 L
407.44 452.264 L
cp
f
GR
GS
[0.75 0 0 0.75 0 0.5] CT
N
406.5 453.5 M
407.44 452.264 L
410.304 452.264 L
cp
f
GR
GS
[0.75 0 0 0.75 0 0.5] CT
N
406.5 453.5 M
410.304 452.264 L
408.022 453.994 L
cp
f
GR
GS
[0.75 0 0 0.75 0 0.5] CT
N
406.5 453.5 M
408.022 453.994 L
408.851 456.736 L
cp
f
GR
GS
[0.75 0 0 0.75 0 0.5] CT
N
406.5 453.5 M
408.851 456.736 L
406.5 455.1 L
cp
f
GR
GS
[0.75 0 0 0.75 0 0.5] CT
N
406.5 453.5 M
406.5 455.1 L
404.149 456.736 L
cp
f
GR
GS
[0.75 0 0 0.75 0 0.5] CT
N
406.5 453.5 M
404.149 456.736 L
404.978 453.994 L
cp
f
GR
GS
[0.75 0 0 0.75 0 0.5] CT
N
406.5 453.5 M
404.978 453.994 L
402.696 452.264 L
cp
f
GR
GS
[0.75 0 0 0.75 0 0.5] CT
2 setlinecap
10.0 ML
N
402.696 452.264 M
405.56 452.264 L
406.5 449.5 L
407.44 452.264 L
410.304 452.264 L
408.022 453.994 L
408.851 456.736 L
406.5 455.1 L
404.149 456.736 L
404.978 453.994 L
402.696 452.264 L
S
GR
GS
[0.75 0 0 0.75 0 0.5] CT
N
441.5 455.5 M
437.696 454.264 L
440.56 454.264 L
cp
f
GR
GS
[0.75 0 0 0.75 0 0.5] CT
N
441.5 455.5 M
440.56 454.264 L
441.5 451.5 L
cp
f
GR
GS
[0.75 0 0 0.75 0 0.5] CT
N
441.5 455.5 M
441.5 451.5 L
442.44 454.264 L
cp
f
GR
GS
[0.75 0 0 0.75 0 0.5] CT
N
441.5 455.5 M
442.44 454.264 L
445.304 454.264 L
cp
f
GR
GS
[0.75 0 0 0.75 0 0.5] CT
N
441.5 455.5 M
445.304 454.264 L
443.022 455.994 L
cp
f
GR
GS
[0.75 0 0 0.75 0 0.5] CT
N
441.5 455.5 M
443.022 455.994 L
443.851 458.736 L
cp
f
GR
GS
[0.75 0 0 0.75 0 0.5] CT
N
441.5 455.5 M
443.851 458.736 L
441.5 457.1 L
cp
f
GR
GS
[0.75 0 0 0.75 0 0.5] CT
N
441.5 455.5 M
441.5 457.1 L
439.149 458.736 L
cp
f
GR
GS
[0.75 0 0 0.75 0 0.5] CT
N
441.5 455.5 M
439.149 458.736 L
439.978 455.994 L
cp
f
GR
GS
[0.75 0 0 0.75 0 0.5] CT
N
441.5 455.5 M
439.978 455.994 L
437.696 454.264 L
cp
f
GR
GS
[0.75 0 0 0.75 0 0.5] CT
2 setlinecap
10.0 ML
N
437.696 454.264 M
440.56 454.264 L
441.5 451.5 L
442.44 454.264 L
445.304 454.264 L
443.022 455.994 L
443.851 458.736 L
441.5 457.1 L
439.149 458.736 L
439.978 455.994 L
437.696 454.264 L
S
GR
GS
[0.75 0 0 0.75 0 0.5] CT
N
476.5 455.5 M
472.696 454.264 L
475.56 454.264 L
cp
f
GR
GS
[0.75 0 0 0.75 0 0.5] CT
N
476.5 455.5 M
475.56 454.264 L
476.5 451.5 L
cp
f
GR
GS
[0.75 0 0 0.75 0 0.5] CT
N
476.5 455.5 M
476.5 451.5 L
477.44 454.264 L
cp
f
GR
GS
[0.75 0 0 0.75 0 0.5] CT
N
476.5 455.5 M
477.44 454.264 L
480.304 454.264 L
cp
f
GR
GS
[0.75 0 0 0.75 0 0.5] CT
N
476.5 455.5 M
480.304 454.264 L
478.022 455.994 L
cp
f
GR
GS
[0.75 0 0 0.75 0 0.5] CT
N
476.5 455.5 M
478.022 455.994 L
478.851 458.736 L
cp
f
GR
GS
[0.75 0 0 0.75 0 0.5] CT
N
476.5 455.5 M
478.851 458.736 L
476.5 457.1 L
cp
f
GR
GS
[0.75 0 0 0.75 0 0.5] CT
N
476.5 455.5 M
476.5 457.1 L
474.149 458.736 L
cp
f
GR
GS
[0.75 0 0 0.75 0 0.5] CT
N
476.5 455.5 M
474.149 458.736 L
474.978 455.994 L
cp
f
GR
GS
[0.75 0 0 0.75 0 0.5] CT
N
476.5 455.5 M
474.978 455.994 L
472.696 454.264 L
cp
f
GR
GS
[0.75 0 0 0.75 0 0.5] CT
2 setlinecap
10.0 ML
N
472.696 454.264 M
475.56 454.264 L
476.5 451.5 L
477.44 454.264 L
480.304 454.264 L
478.022 455.994 L
478.851 458.736 L
476.5 457.1 L
474.149 458.736 L
474.978 455.994 L
472.696 454.264 L
S
GR
GS
[0.75 0 0 0.75 0 0.5] CT
N
512.5 456.5 M
508.696 455.264 L
511.56 455.264 L
cp
f
GR
GS
[0.75 0 0 0.75 0 0.5] CT
N
512.5 456.5 M
511.56 455.264 L
512.5 452.5 L
cp
f
GR
GS
[0.75 0 0 0.75 0 0.5] CT
N
512.5 456.5 M
512.5 452.5 L
513.44 455.264 L
cp
f
GR
GS
[0.75 0 0 0.75 0 0.5] CT
N
512.5 456.5 M
513.44 455.264 L
516.304 455.264 L
cp
f
GR
GS
[0.75 0 0 0.75 0 0.5] CT
N
512.5 456.5 M
516.304 455.264 L
514.022 456.994 L
cp
f
GR
GS
[0.75 0 0 0.75 0 0.5] CT
N
512.5 456.5 M
514.022 456.994 L
514.851 459.736 L
cp
f
GR
GS
[0.75 0 0 0.75 0 0.5] CT
N
512.5 456.5 M
514.851 459.736 L
512.5 458.1 L
cp
f
GR
GS
[0.75 0 0 0.75 0 0.5] CT
N
512.5 456.5 M
512.5 458.1 L
510.149 459.736 L
cp
f
GR
GS
[0.75 0 0 0.75 0 0.5] CT
N
512.5 456.5 M
510.149 459.736 L
510.978 456.994 L
cp
f
GR
GS
[0.75 0 0 0.75 0 0.5] CT
N
512.5 456.5 M
510.978 456.994 L
508.696 455.264 L
cp
f
GR
GS
[0.75 0 0 0.75 0 0.5] CT
2 setlinecap
10.0 ML
N
508.696 455.264 M
511.56 455.264 L
512.5 452.5 L
513.44 455.264 L
516.304 455.264 L
514.022 456.994 L
514.851 459.736 L
512.5 458.1 L
510.149 459.736 L
510.978 456.994 L
508.696 455.264 L
S
GR
GS
[0.75 0 0 0.75 0 0.5] CT
N
547.5 457.5 M
543.696 456.264 L
546.56 456.264 L
cp
f
GR
GS
[0.75 0 0 0.75 0 0.5] CT
N
547.5 457.5 M
546.56 456.264 L
547.5 453.5 L
cp
f
GR
GS
[0.75 0 0 0.75 0 0.5] CT
N
547.5 457.5 M
547.5 453.5 L
548.44 456.264 L
cp
f
GR
GS
[0.75 0 0 0.75 0 0.5] CT
N
547.5 457.5 M
548.44 456.264 L
551.304 456.264 L
cp
f
GR
GS
[0.75 0 0 0.75 0 0.5] CT
N
547.5 457.5 M
551.304 456.264 L
549.022 457.994 L
cp
f
GR
GS
[0.75 0 0 0.75 0 0.5] CT
N
547.5 457.5 M
549.022 457.994 L
549.851 460.736 L
cp
f
GR
GS
[0.75 0 0 0.75 0 0.5] CT
N
547.5 457.5 M
549.851 460.736 L
547.5 459.1 L
cp
f
GR
GS
[0.75 0 0 0.75 0 0.5] CT
N
547.5 457.5 M
547.5 459.1 L
545.149 460.736 L
cp
f
GR
GS
[0.75 0 0 0.75 0 0.5] CT
N
547.5 457.5 M
545.149 460.736 L
545.978 457.994 L
cp
f
GR
GS
[0.75 0 0 0.75 0 0.5] CT
N
547.5 457.5 M
545.978 457.994 L
543.696 456.264 L
cp
f
GR
GS
[0.75 0 0 0.75 0 0.5] CT
2 setlinecap
10.0 ML
N
543.696 456.264 M
546.56 456.264 L
547.5 453.5 L
548.44 456.264 L
551.304 456.264 L
549.022 457.994 L
549.851 460.736 L
547.5 459.1 L
545.149 460.736 L
545.978 457.994 L
543.696 456.264 L
S
GR
GS
[0.75 0 0 0.75 0 0.5] CT
N
582.5 457.5 M
578.696 456.264 L
581.56 456.264 L
cp
f
GR
GS
[0.75 0 0 0.75 0 0.5] CT
N
582.5 457.5 M
581.56 456.264 L
582.5 453.5 L
cp
f
GR
GS
[0.75 0 0 0.75 0 0.5] CT
N
582.5 457.5 M
582.5 453.5 L
583.44 456.264 L
cp
f
GR
GS
[0.75 0 0 0.75 0 0.5] CT
N
582.5 457.5 M
583.44 456.264 L
586.304 456.264 L
cp
f
GR
GS
[0.75 0 0 0.75 0 0.5] CT
N
582.5 457.5 M
586.304 456.264 L
584.022 457.994 L
cp
f
GR
GS
[0.75 0 0 0.75 0 0.5] CT
N
582.5 457.5 M
584.022 457.994 L
584.851 460.736 L
cp
f
GR
GS
[0.75 0 0 0.75 0 0.5] CT
N
582.5 457.5 M
584.851 460.736 L
582.5 459.1 L
cp
f
GR
GS
[0.75 0 0 0.75 0 0.5] CT
N
582.5 457.5 M
582.5 459.1 L
580.149 460.736 L
cp
f
GR
GS
[0.75 0 0 0.75 0 0.5] CT
N
582.5 457.5 M
580.149 460.736 L
580.978 457.994 L
cp
f
GR
GS
[0.75 0 0 0.75 0 0.5] CT
N
582.5 457.5 M
580.978 457.994 L
578.696 456.264 L
cp
f
GR
GS
[0.75 0 0 0.75 0 0.5] CT
2 setlinecap
10.0 ML
N
578.696 456.264 M
581.56 456.264 L
582.5 453.5 L
583.44 456.264 L
586.304 456.264 L
584.022 457.994 L
584.851 460.736 L
582.5 459.1 L
580.149 460.736 L
580.978 457.994 L
578.696 456.264 L
S
GR
GS
[0.75 0 0 0.75 0 0.5] CT
N
618.5 458.5 M
614.696 457.264 L
617.56 457.264 L
cp
f
GR
GS
[0.75 0 0 0.75 0 0.5] CT
N
618.5 458.5 M
617.56 457.264 L
618.5 454.5 L
cp
f
GR
GS
[0.75 0 0 0.75 0 0.5] CT
N
618.5 458.5 M
618.5 454.5 L
619.44 457.264 L
cp
f
GR
GS
[0.75 0 0 0.75 0 0.5] CT
N
618.5 458.5 M
619.44 457.264 L
622.304 457.264 L
cp
f
GR
GS
[0.75 0 0 0.75 0 0.5] CT
N
618.5 458.5 M
622.304 457.264 L
620.022 458.994 L
cp
f
GR
GS
[0.75 0 0 0.75 0 0.5] CT
N
618.5 458.5 M
620.022 458.994 L
620.851 461.736 L
cp
f
GR
GS
[0.75 0 0 0.75 0 0.5] CT
N
618.5 458.5 M
620.851 461.736 L
618.5 460.1 L
cp
f
GR
GS
[0.75 0 0 0.75 0 0.5] CT
N
618.5 458.5 M
618.5 460.1 L
616.149 461.736 L
cp
f
GR
GS
[0.75 0 0 0.75 0 0.5] CT
N
618.5 458.5 M
616.149 461.736 L
616.978 458.994 L
cp
f
GR
GS
[0.75 0 0 0.75 0 0.5] CT
N
618.5 458.5 M
616.978 458.994 L
614.696 457.264 L
cp
f
GR
GS
[0.75 0 0 0.75 0 0.5] CT
2 setlinecap
10.0 ML
N
614.696 457.264 M
617.56 457.264 L
618.5 454.5 L
619.44 457.264 L
622.304 457.264 L
620.022 458.994 L
620.851 461.736 L
618.5 460.1 L
616.149 461.736 L
616.978 458.994 L
614.696 457.264 L
S
GR
GS
[0.75 0 0 0.75 0 0.5] CT
N
124.5 72.832 M
128.5 67.5 L
124.5 62.168 L
120.5 67.5 L
cp
f
GR
GS
[0.75 0 0 0.75 0 0.5] CT
2 setlinecap
10.0 ML
N
124.5 72.832 M
128.5 67.5 L
124.5 62.168 L
120.5 67.5 L
124.5 72.832 L
S
GR
GS
[0.75 0 0 0.75 0 0.5] CT
N
159.5 320.832 M
163.5 315.5 L
159.5 310.168 L
155.5 315.5 L
cp
f
GR
GS
[0.75 0 0 0.75 0 0.5] CT
2 setlinecap
10.0 ML
N
159.5 320.832 M
163.5 315.5 L
159.5 310.168 L
155.5 315.5 L
159.5 320.832 L
S
GR
GS
[0.75 0 0 0.75 0 0.5] CT
N
194.5 389.832 M
198.5 384.5 L
194.5 379.168 L
190.5 384.5 L
cp
f
GR
GS
[0.75 0 0 0.75 0 0.5] CT
2 setlinecap
10.0 ML
N
194.5 389.832 M
198.5 384.5 L
194.5 379.168 L
190.5 384.5 L
194.5 389.832 L
S
GR
GS
[0.75 0 0 0.75 0 0.5] CT
N
230.5 418.832 M
234.5 413.5 L
230.5 408.168 L
226.5 413.5 L
cp
f
GR
GS
[0.75 0 0 0.75 0 0.5] CT
2 setlinecap
10.0 ML
N
230.5 418.832 M
234.5 413.5 L
230.5 408.168 L
226.5 413.5 L
230.5 418.832 L
S
GR
GS
[0.75 0 0 0.75 0 0.5] CT
N
265.5 433.832 M
269.5 428.5 L
265.5 423.168 L
261.5 428.5 L
cp
f
GR
GS
[0.75 0 0 0.75 0 0.5] CT
2 setlinecap
10.0 ML
N
265.5 433.832 M
269.5 428.5 L
265.5 423.168 L
261.5 428.5 L
265.5 433.832 L
S
GR
GS
[0.75 0 0 0.75 0 0.5] CT
N
300.5 442.832 M
304.5 437.5 L
300.5 432.168 L
296.5 437.5 L
cp
f
GR
GS
[0.75 0 0 0.75 0 0.5] CT
2 setlinecap
10.0 ML
N
300.5 442.832 M
304.5 437.5 L
300.5 432.168 L
296.5 437.5 L
300.5 442.832 L
S
GR
GS
[0.75 0 0 0.75 0 0.5] CT
N
335.5 448.832 M
339.5 443.5 L
335.5 438.168 L
331.5 443.5 L
cp
f
GR
GS
[0.75 0 0 0.75 0 0.5] CT
2 setlinecap
10.0 ML
N
335.5 448.832 M
339.5 443.5 L
335.5 438.168 L
331.5 443.5 L
335.5 448.832 L
S
GR
GS
[0.75 0 0 0.75 0 0.5] CT
N
371.5 451.832 M
375.5 446.5 L
371.5 441.168 L
367.5 446.5 L
cp
f
GR
GS
[0.75 0 0 0.75 0 0.5] CT
2 setlinecap
10.0 ML
N
371.5 451.832 M
375.5 446.5 L
371.5 441.168 L
367.5 446.5 L
371.5 451.832 L
S
GR
GS
[0.75 0 0 0.75 0 0.5] CT
N
406.5 454.832 M
410.5 449.5 L
406.5 444.168 L
402.5 449.5 L
cp
f
GR
GS
[0.75 0 0 0.75 0 0.5] CT
2 setlinecap
10.0 ML
N
406.5 454.832 M
410.5 449.5 L
406.5 444.168 L
402.5 449.5 L
406.5 454.832 L
S
GR
GS
[0.75 0 0 0.75 0 0.5] CT
N
441.5 456.832 M
445.5 451.5 L
441.5 446.168 L
437.5 451.5 L
cp
f
GR
GS
[0.75 0 0 0.75 0 0.5] CT
2 setlinecap
10.0 ML
N
441.5 456.832 M
445.5 451.5 L
441.5 446.168 L
437.5 451.5 L
441.5 456.832 L
S
GR
GS
[0.75 0 0 0.75 0 0.5] CT
N
476.5 458.832 M
480.5 453.5 L
476.5 448.168 L
472.5 453.5 L
cp
f
GR
GS
[0.75 0 0 0.75 0 0.5] CT
2 setlinecap
10.0 ML
N
476.5 458.832 M
480.5 453.5 L
476.5 448.168 L
472.5 453.5 L
476.5 458.832 L
S
GR
GS
[0.75 0 0 0.75 0 0.5] CT
N
512.5 459.832 M
516.5 454.5 L
512.5 449.168 L
508.5 454.5 L
cp
f
GR
GS
[0.75 0 0 0.75 0 0.5] CT
2 setlinecap
10.0 ML
N
512.5 459.832 M
516.5 454.5 L
512.5 449.168 L
508.5 454.5 L
512.5 459.832 L
S
GR
GS
[0.75 0 0 0.75 0 0.5] CT
N
547.5 460.832 M
551.5 455.5 L
547.5 450.168 L
543.5 455.5 L
cp
f
GR
GS
[0.75 0 0 0.75 0 0.5] CT
2 setlinecap
10.0 ML
N
547.5 460.832 M
551.5 455.5 L
547.5 450.168 L
543.5 455.5 L
547.5 460.832 L
S
GR
GS
[0.75 0 0 0.75 0 0.5] CT
N
582.5 460.832 M
586.5 455.5 L
582.5 450.168 L
578.5 455.5 L
cp
f
GR
GS
[0.75 0 0 0.75 0 0.5] CT
2 setlinecap
10.0 ML
N
582.5 460.832 M
586.5 455.5 L
582.5 450.168 L
578.5 455.5 L
582.5 460.832 L
S
GR
GS
[0.75 0 0 0.75 0 0.5] CT
N
618.5 461.832 M
622.5 456.5 L
618.5 451.168 L
614.5 456.5 L
cp
f
GR
GS
[0.75 0 0 0.75 0 0.5] CT
2 setlinecap
10.0 ML
N
618.5 461.832 M
622.5 456.5 L
618.5 451.168 L
614.5 456.5 L
618.5 461.832 L
S
GR
GS
[0.75 0 0 0.75 265.125 31.7] CT
/Helvetica-Bold 18 F
GS
[1 0 0 1 0 0] CT
-280.134 -25.198 moveto 
1 -1 scale
(Ledoux coefficient for splitting of acoustic modes         ) t 
GR
GR
GS
[0.75 0 0 0.75 265.125 31.7] CT
/Helvetica-Bold 18 F
GS
[1 0 0 1 0 0] CT
-261.642 -4.245 moveto 
1 -1 scale
(rotating full sphere with rigid boundary                   ) t 
GR
GR
GS
[0.75 0 0 0.75 0 0.5] CT
1 GC
N
507 160 M
507 59 L
605 59 L
605 160 L
cp
f
GR
GS
[0.75 0 0 0.75 419.57643 52.52885] CT
/Helvetica-Bold 14 F
GS
[1 0 0 1 0 0] CT
0 5.347 moveto 
1 -1 scale
(n = 1) t 
GR
GR
GS
[0.75 0 0 0.75 0 0.5] CT
0 0 1 RC
2 setlinecap
10.0 ML
N
532 73 M
539 66 L
S
GR
GS
[0.75 0 0 0.75 0 0.5] CT
0 0 1 RC
2 setlinecap
10.0 ML
N
532 66 M
539 73 L
S
GR
GS
[0.75 0 0 0.75 419.57643 64.56731] CT
/Helvetica-Bold 14 F
GS
[1 0 0 1 0 0] CT
0 5.347 moveto 
1 -1 scale
(2) t 
GR
GR
GS
[0.75 0 0 0.75 0 0.5] CT
1 0 0 RC
2 setlinecap
10.0 ML
N
531 85.5 M
540 85.5 L
S
GR
GS
[0.75 0 0 0.75 0 0.5] CT
1 0 0 RC
2 setlinecap
10.0 ML
N
535.5 90 M
535.5 81 L
S
GR
GS
[0.75 0 0 0.75 419.57643 76.60577] CT
/Helvetica-Bold 14 F
GS
[1 0 0 1 0 0] CT
0 5.347 moveto 
1 -1 scale
(3) t 
GR
GR
GS
[0.75 0 0 0.75 0 0.5] CT
1 0 1 RC
N
535.5 106.832 M
540.117 98.834 L
530.883 98.834 L
cp
f
GR
GS
[0.75 0 0 0.75 0 0.5] CT
1 0 1 RC
2 setlinecap
10.0 ML
N
535.5 106.832 M
540.117 98.834 L
530.883 98.834 L
535.5 106.832 L
S
GR
GS
[0.75 0 0 0.75 419.57643 88.64423] CT
/Helvetica-Bold 14 F
GS
[1 0 0 1 0 0] CT
0 5.347 moveto 
1 -1 scale
(4) t 
GR
GR
GS
[0.75 0 0 0.75 0 0.5] CT
0 1 0 RC
N
532.38 120.62 M
532.38 114.38 L
538.62 114.38 L
538.62 120.62 L
cp
f
GR
GS
[0.75 0 0 0.75 0 0.5] CT
0 1 0 RC
2 setlinecap
10.0 ML
N
532.38 120.62 M
532.38 114.38 L
538.62 114.38 L
538.62 120.62 L
532.38 120.62 L
S
GR
GS
[0.75 0 0 0.75 419.57643 100.68269] CT
/Helvetica-Bold 14 F
GS
[1 0 0 1 0 0] CT
0 5.347 moveto 
1 -1 scale
(5) t 
GR
GR
GS
[0.75 0 0 0.75 0 0.5] CT
N
535.5 133.5 M
531.696 132.264 L
534.56 132.264 L
cp
f
GR
GS
[0.75 0 0 0.75 0 0.5] CT
N
535.5 133.5 M
534.56 132.264 L
535.5 129.5 L
cp
f
GR
GS
[0.75 0 0 0.75 0 0.5] CT
N
535.5 133.5 M
535.5 129.5 L
536.44 132.264 L
cp
f
GR
GS
[0.75 0 0 0.75 0 0.5] CT
N
535.5 133.5 M
536.44 132.264 L
539.304 132.264 L
cp
f
GR
GS
[0.75 0 0 0.75 0 0.5] CT
N
535.5 133.5 M
539.304 132.264 L
537.022 133.994 L
cp
f
GR
GS
[0.75 0 0 0.75 0 0.5] CT
N
535.5 133.5 M
537.022 133.994 L
537.851 136.736 L
cp
f
GR
GS
[0.75 0 0 0.75 0 0.5] CT
N
535.5 133.5 M
537.851 136.736 L
535.5 135.1 L
cp
f
GR
GS
[0.75 0 0 0.75 0 0.5] CT
N
535.5 133.5 M
535.5 135.1 L
533.149 136.736 L
cp
f
GR
GS
[0.75 0 0 0.75 0 0.5] CT
N
535.5 133.5 M
533.149 136.736 L
533.978 133.994 L
cp
f
GR
GS
[0.75 0 0 0.75 0 0.5] CT
N
535.5 133.5 M
533.978 133.994 L
531.696 132.264 L
cp
f
GR
GS
[0.75 0 0 0.75 0 0.5] CT
2 setlinecap
10.0 ML
N
531.696 132.264 M
534.56 132.264 L
535.5 129.5 L
536.44 132.264 L
539.304 132.264 L
537.022 133.994 L
537.851 136.736 L
535.5 135.1 L
533.149 136.736 L
533.978 133.994 L
531.696 132.264 L
S
GR
GS
[0.75 0 0 0.75 419.57643 112.72115] CT
/Helvetica-Bold 14 F
GS
[1 0 0 1 0 0] CT
0 5.347 moveto 
1 -1 scale
(0) t 
GR
GR
GS
[0.75 0 0 0.75 0 0.5] CT
N
535.5 154.832 M
539.5 149.5 L
535.5 144.168 L
531.5 149.5 L
cp
f
GR
GS
[0.75 0 0 0.75 0 0.5] CT
2 setlinecap
10.0 ML
N
535.5 154.832 M
539.5 149.5 L
535.5 144.168 L
531.5 149.5 L
535.5 154.832 L
S
GR
GS
[0.75 0 0 0.75 0 0.5] CT
0.149 GC
2 setlinecap
10.0 ML
N
507 160 M
507 59 L
605 59 L
605 160 L
507 160 L
S
GR
%%Trailer
%%Pages: 1
%%EOF
