%!PS-Adobe-3.0 EPSF-3.0
%%Creator: (MATLAB, The Mathworks, Inc. Version 9.0.0.341360 \(R2016a\). Operating System: Linux)
%%Title: /data/geodynamo/natafh/Dynamo/Acoustics/elastic_shell/Figures/Ledoux/30cm-water.eps
%%CreationDate: 2016-08-08T15:00:52
%%Pages: (atend)
%%BoundingBox: 0 0 521 677
%%LanguageLevel: 3
%%EndComments
%%BeginProlog
%%BeginResource: procset (Apache XML Graphics Std ProcSet) 1.2 0
%%Version: 1.2 0
%%Copyright: (Copyright 2001-2003,2010 The Apache Software Foundation. License terms: http://www.apache.org/licenses/LICENSE-2.0)
/bd{bind def}bind def
/ld{load def}bd
/GR/grestore ld
/M/moveto ld
/LJ/setlinejoin ld
/C/curveto ld
/f/fill ld
/LW/setlinewidth ld
/GC/setgray ld
/t/show ld
/N/newpath ld
/CT/concat ld
/cp/closepath ld
/S/stroke ld
/L/lineto ld
/CC/setcmykcolor ld
/A/ashow ld
/GS/gsave ld
/RC/setrgbcolor ld
/RM/rmoveto ld
/ML/setmiterlimit ld
/re {4 2 roll M
1 index 0 rlineto
0 exch rlineto
neg 0 rlineto
cp } bd
/_ctm matrix def
/_tm matrix def
/BT { _ctm currentmatrix pop matrix _tm copy pop 0 0 moveto } bd
/ET { _ctm setmatrix } bd
/iTm { _ctm setmatrix _tm concat } bd
/Tm { _tm astore pop iTm 0 0 moveto } bd
/ux 0.0 def
/uy 0.0 def
/F {
  /Tp exch def
  /Tf exch def
  Tf findfont Tp scalefont setfont
  /cf Tf def  /cs Tp def
} bd
/ULS {currentpoint /uy exch def /ux exch def} bd
/ULE {
  /Tcx currentpoint pop def
  gsave
  newpath
  cf findfont cs scalefont dup
  /FontMatrix get 0 get /Ts exch def /FontInfo get dup
  /UnderlinePosition get Ts mul /To exch def
  /UnderlineThickness get Ts mul /Tt exch def
  ux uy To add moveto  Tcx uy To add lineto
  Tt setlinewidth stroke
  grestore
} bd
/OLE {
  /Tcx currentpoint pop def
  gsave
  newpath
  cf findfont cs scalefont dup
  /FontMatrix get 0 get /Ts exch def /FontInfo get dup
  /UnderlinePosition get Ts mul /To exch def
  /UnderlineThickness get Ts mul /Tt exch def
  ux uy To add cs add moveto Tcx uy To add cs add lineto
  Tt setlinewidth stroke
  grestore
} bd
/SOE {
  /Tcx currentpoint pop def
  gsave
  newpath
  cf findfont cs scalefont dup
  /FontMatrix get 0 get /Ts exch def /FontInfo get dup
  /UnderlinePosition get Ts mul /To exch def
  /UnderlineThickness get Ts mul /Tt exch def
  ux uy To add cs 10 mul 26 idiv add moveto Tcx uy To add cs 10 mul 26 idiv add lineto
  Tt setlinewidth stroke
  grestore
} bd
/QT {
/Y22 exch store
/X22 exch store
/Y21 exch store
/X21 exch store
currentpoint
/Y21 load 2 mul add 3 div exch
/X21 load 2 mul add 3 div exch
/X21 load 2 mul /X22 load add 3 div
/Y21 load 2 mul /Y22 load add 3 div
/X22 load /Y22 load curveto
} bd
/SSPD {
dup length /d exch dict def
{
/v exch def
/k exch def
currentpagedevice k known {
/cpdv currentpagedevice k get def
v cpdv ne {
/upd false def
/nullv v type /nulltype eq def
/nullcpdv cpdv type /nulltype eq def
nullv nullcpdv or
{
/upd true def
} {
/sametype v type cpdv type eq def
sametype {
v type /arraytype eq {
/vlen v length def
/cpdvlen cpdv length def
vlen cpdvlen eq {
0 1 vlen 1 sub {
/i exch def
/obj v i get def
/cpdobj cpdv i get def
obj cpdobj ne {
/upd true def
exit
} if
} for
} {
/upd true def
} ifelse
} {
v type /dicttype eq {
v {
/dv exch def
/dk exch def
/cpddv cpdv dk get def
dv cpddv ne {
/upd true def
exit
} if
} forall
} {
/upd true def
} ifelse
} ifelse
} if
} ifelse
upd true eq {
d k v put
} if
} if
} if
} forall
d length 0 gt {
d setpagedevice
} if
} bd
%%EndResource
%%BeginResource: procset (Apache XML Graphics EPS ProcSet) 1.0 0
%%Version: 1.0 0
%%Copyright: (Copyright 2002-2003 The Apache Software Foundation. License terms: http://www.apache.org/licenses/LICENSE-2.0)
/BeginEPSF { %def
/b4_Inc_state save def         % Save state for cleanup
/dict_count countdictstack def % Count objects on dict stack
/op_count count 1 sub def      % Count objects on operand stack
userdict begin                 % Push userdict on dict stack
/showpage { } def              % Redefine showpage, { } = null proc
0 setgray 0 setlinecap         % Prepare graphics state
1 setlinewidth 0 setlinejoin
10 setmiterlimit [ ] 0 setdash newpath
/languagelevel where           % If level not equal to 1 then
{pop languagelevel             % set strokeadjust and
1 ne                           % overprint to their defaults.
{false setstrokeadjust false setoverprint
} if
} if
} bd
/EndEPSF { %def
count op_count sub {pop} repeat            % Clean up stacks
countdictstack dict_count sub {end} repeat
b4_Inc_state restore
} bd
%%EndResource
%FOPBeginFontDict
%%IncludeResource: font Courier-Bold
%%IncludeResource: font Helvetica
%%IncludeResource: font Courier-BoldOblique
%%IncludeResource: font Courier-Oblique
%%IncludeResource: font Times-Roman
%%IncludeResource: font Helvetica-BoldOblique
%%IncludeResource: font Helvetica-Bold
%%IncludeResource: font Helvetica-Oblique
%%IncludeResource: font Times-BoldItalic
%%IncludeResource: font Courier
%%IncludeResource: font Times-Italic
%%IncludeResource: font Times-Bold
%%IncludeResource: font Symbol
%%IncludeResource: font ZapfDingbats
%FOPEndFontDict
%%BeginResource: encoding WinAnsiEncoding
/WinAnsiEncoding [
/.notdef /.notdef /.notdef /.notdef /.notdef
/.notdef /.notdef /.notdef /.notdef /.notdef
/.notdef /.notdef /.notdef /.notdef /.notdef
/.notdef /.notdef /.notdef /.notdef /.notdef
/.notdef /.notdef /.notdef /.notdef /.notdef
/.notdef /.notdef /.notdef /.notdef /.notdef
/.notdef /.notdef /space /exclam /quotedbl
/numbersign /dollar /percent /ampersand /quotesingle
/parenleft /parenright /asterisk /plus /comma
/hyphen /period /slash /zero /one
/two /three /four /five /six
/seven /eight /nine /colon /semicolon
/less /equal /greater /question /at
/A /B /C /D /E
/F /G /H /I /J
/K /L /M /N /O
/P /Q /R /S /T
/U /V /W /X /Y
/Z /bracketleft /backslash /bracketright /asciicircum
/underscore /quoteleft /a /b /c
/d /e /f /g /h
/i /j /k /l /m
/n /o /p /q /r
/s /t /u /v /w
/x /y /z /braceleft /bar
/braceright /asciitilde /bullet /Euro /bullet
/quotesinglbase /florin /quotedblbase /ellipsis /dagger
/daggerdbl /circumflex /perthousand /Scaron /guilsinglleft
/OE /bullet /Zcaron /bullet /bullet
/quoteleft /quoteright /quotedblleft /quotedblright /bullet
/endash /emdash /asciitilde /trademark /scaron
/guilsinglright /oe /bullet /zcaron /Ydieresis
/space /exclamdown /cent /sterling /currency
/yen /brokenbar /section /dieresis /copyright
/ordfeminine /guillemotleft /logicalnot /sfthyphen /registered
/macron /degree /plusminus /twosuperior /threesuperior
/acute /mu /paragraph /middot /cedilla
/onesuperior /ordmasculine /guillemotright /onequarter /onehalf
/threequarters /questiondown /Agrave /Aacute /Acircumflex
/Atilde /Adieresis /Aring /AE /Ccedilla
/Egrave /Eacute /Ecircumflex /Edieresis /Igrave
/Iacute /Icircumflex /Idieresis /Eth /Ntilde
/Ograve /Oacute /Ocircumflex /Otilde /Odieresis
/multiply /Oslash /Ugrave /Uacute /Ucircumflex
/Udieresis /Yacute /Thorn /germandbls /agrave
/aacute /acircumflex /atilde /adieresis /aring
/ae /ccedilla /egrave /eacute /ecircumflex
/edieresis /igrave /iacute /icircumflex /idieresis
/eth /ntilde /ograve /oacute /ocircumflex
/otilde /odieresis /divide /oslash /ugrave
/uacute /ucircumflex /udieresis /yacute /thorn
/ydieresis
] def
%%EndResource
%FOPBeginFontReencode
/Courier-Bold findfont
dup length dict begin
  {1 index /FID ne {def} {pop pop} ifelse} forall
  /Encoding WinAnsiEncoding def
  currentdict
end
/Courier-Bold exch definefont pop
/Helvetica findfont
dup length dict begin
  {1 index /FID ne {def} {pop pop} ifelse} forall
  /Encoding WinAnsiEncoding def
  currentdict
end
/Helvetica exch definefont pop
/Courier-BoldOblique findfont
dup length dict begin
  {1 index /FID ne {def} {pop pop} ifelse} forall
  /Encoding WinAnsiEncoding def
  currentdict
end
/Courier-BoldOblique exch definefont pop
/Courier-Oblique findfont
dup length dict begin
  {1 index /FID ne {def} {pop pop} ifelse} forall
  /Encoding WinAnsiEncoding def
  currentdict
end
/Courier-Oblique exch definefont pop
/Times-Roman findfont
dup length dict begin
  {1 index /FID ne {def} {pop pop} ifelse} forall
  /Encoding WinAnsiEncoding def
  currentdict
end
/Times-Roman exch definefont pop
/Helvetica-BoldOblique findfont
dup length dict begin
  {1 index /FID ne {def} {pop pop} ifelse} forall
  /Encoding WinAnsiEncoding def
  currentdict
end
/Helvetica-BoldOblique exch definefont pop
/Helvetica-Bold findfont
dup length dict begin
  {1 index /FID ne {def} {pop pop} ifelse} forall
  /Encoding WinAnsiEncoding def
  currentdict
end
/Helvetica-Bold exch definefont pop
/Helvetica-Oblique findfont
dup length dict begin
  {1 index /FID ne {def} {pop pop} ifelse} forall
  /Encoding WinAnsiEncoding def
  currentdict
end
/Helvetica-Oblique exch definefont pop
/Times-BoldItalic findfont
dup length dict begin
  {1 index /FID ne {def} {pop pop} ifelse} forall
  /Encoding WinAnsiEncoding def
  currentdict
end
/Times-BoldItalic exch definefont pop
/Courier findfont
dup length dict begin
  {1 index /FID ne {def} {pop pop} ifelse} forall
  /Encoding WinAnsiEncoding def
  currentdict
end
/Courier exch definefont pop
/Times-Italic findfont
dup length dict begin
  {1 index /FID ne {def} {pop pop} ifelse} forall
  /Encoding WinAnsiEncoding def
  currentdict
end
/Times-Italic exch definefont pop
/Times-Bold findfont
dup length dict begin
  {1 index /FID ne {def} {pop pop} ifelse} forall
  /Encoding WinAnsiEncoding def
  currentdict
end
/Times-Bold exch definefont pop
%FOPEndFontReencode
%%EndProlog
%%Page: 1 1
%%PageBoundingBox: 0 0 521 677
%%BeginPageSetup
[1 0 0 -1 0 677] CT
%%EndPageSetup
GS
[0.75 0 0 0.75 0 0.5] CT
1 GC
N
0 0 695 902 re
f
GR
GS
[0.75 0 0 0.75 0 0.5] CT
1 GC
N
0 0 695 902 re
f
GR
GS
[0.75 0 0 0.75 0 0.5] CT
1 GC
N
90 803 M
629 803 L
629 110 L
90 110 L
cp
f
GR
GS
[0.75 0 0 0.75 0 0.5] CT
0.873 GC
1 LJ
0.667 LW
N
90 803 M
90 110 L
S
GR
GS
[0.75 0 0 0.75 0 0.5] CT
0.873 GC
1 LJ
0.667 LW
N
269.667 803 M
269.667 110 L
S
GR
GS
[0.75 0 0 0.75 0 0.5] CT
0.873 GC
1 LJ
0.667 LW
N
449.333 803 M
449.333 110 L
S
GR
GS
[0.75 0 0 0.75 0 0.5] CT
0.873 GC
1 LJ
0.667 LW
N
629 803 M
629 110 L
S
GR
GS
[0.75 0 0 0.75 0 0.5] CT
0.873 GC
1 LJ
0.667 LW
N
629 803 M
90 803 L
S
GR
GS
[0.75 0 0 0.75 0 0.5] CT
0.873 GC
1 LJ
0.667 LW
N
629 704 M
90 704 L
S
GR
GS
[0.75 0 0 0.75 0 0.5] CT
0.873 GC
1 LJ
0.667 LW
N
629 605 M
90 605 L
S
GR
GS
[0.75 0 0 0.75 0 0.5] CT
0.873 GC
1 LJ
0.667 LW
N
629 506 M
90 506 L
S
GR
GS
[0.75 0 0 0.75 0 0.5] CT
0.873 GC
1 LJ
0.667 LW
N
629 407 M
90 407 L
S
GR
GS
[0.75 0 0 0.75 0 0.5] CT
0.873 GC
1 LJ
0.667 LW
N
629 308 M
90 308 L
S
GR
GS
[0.75 0 0 0.75 0 0.5] CT
0.873 GC
1 LJ
0.667 LW
N
629 209 M
90 209 L
S
GR
GS
[0.75 0 0 0.75 0 0.5] CT
0.873 GC
1 LJ
0.667 LW
N
629 110 M
90 110 L
S
GR
GS
[0.75 0 0 0.75 0 0.5] CT
0.149 GC
2 setlinecap
1 LJ
0.667 LW
N
90 803 M
629 803 L
S
GR
GS
[0.75 0 0 0.75 0 0.5] CT
0.149 GC
2 setlinecap
1 LJ
0.667 LW
N
90 110 M
629 110 L
S
GR
GS
[0.75 0 0 0.75 0 0.5] CT
0.149 GC
2 setlinecap
1 LJ
0.667 LW
N
90 803 M
90 796.07 L
S
GR
GS
[0.75 0 0 0.75 0 0.5] CT
0.149 GC
2 setlinecap
1 LJ
0.667 LW
N
269.667 803 M
269.667 796.07 L
S
GR
GS
[0.75 0 0 0.75 0 0.5] CT
0.149 GC
2 setlinecap
1 LJ
0.667 LW
N
449.333 803 M
449.333 796.07 L
S
GR
GS
[0.75 0 0 0.75 0 0.5] CT
0.149 GC
2 setlinecap
1 LJ
0.667 LW
N
629 803 M
629 796.07 L
S
GR
GS
[0.75 0 0 0.75 0 0.5] CT
0.149 GC
2 setlinecap
1 LJ
0.667 LW
N
90 110 M
90 116.93 L
S
GR
GS
[0.75 0 0 0.75 0 0.5] CT
0.149 GC
2 setlinecap
1 LJ
0.667 LW
N
269.667 110 M
269.667 116.93 L
S
GR
GS
[0.75 0 0 0.75 0 0.5] CT
0.149 GC
2 setlinecap
1 LJ
0.667 LW
N
449.333 110 M
449.333 116.93 L
S
GR
GS
[0.75 0 0 0.75 0 0.5] CT
0.149 GC
2 setlinecap
1 LJ
0.667 LW
N
629 110 M
629 116.93 L
S
GR
GS
[0.75 0 0 0.75 67.5 607.55002] CT
0.149 GC
/Helvetica 18.667 F
GS
[1 0 0 1 0 0] CT
-6.5 18 moveto 
1 -1 scale
(0) t 
GR
GR
GS
[0.75 0 0 0.75 202.24999 607.55002] CT
0.149 GC
/Helvetica 18.667 F
GS
[1 0 0 1 0 0] CT
-6.5 18 moveto 
1 -1 scale
(5) t 
GR
GR
GS
[0.75 0 0 0.75 337.00001 607.55002] CT
0.149 GC
/Helvetica 18.667 F
GS
[1 0 0 1 0 0] CT
-12.5 18 moveto 
1 -1 scale
(10) t 
GR
GR
GS
[0.75 0 0 0.75 471.75 607.55002] CT
0.149 GC
/Helvetica 18.667 F
GS
[1 0 0 1 0 0] CT
-12.5 18 moveto 
1 -1 scale
(15) t 
GR
GR
GS
[0.75 0 0 0.75 269.62518 625.8] CT
0.149 GC
/Helvetica 20.533 F
GS
[1 0 0 1 0 0] CT
-124 20 moveto 
1 -1 scale
(mode angular number l) t 
GR
GR
GS
[0.75 0 0 0.75 0 0.5] CT
0.149 GC
2 setlinecap
1 LJ
0.667 LW
N
90 803 M
90 110 L
S
GR
GS
[0.75 0 0 0.75 0 0.5] CT
0.149 GC
2 setlinecap
1 LJ
0.667 LW
N
629 803 M
629 110 L
S
GR
GS
[0.75 0 0 0.75 0 0.5] CT
0.149 GC
2 setlinecap
1 LJ
0.667 LW
N
90 803 M
96.93 803 L
S
GR
GS
[0.75 0 0 0.75 0 0.5] CT
0.149 GC
2 setlinecap
1 LJ
0.667 LW
N
90 704 M
96.93 704 L
S
GR
GS
[0.75 0 0 0.75 0 0.5] CT
0.149 GC
2 setlinecap
1 LJ
0.667 LW
N
90 605 M
96.93 605 L
S
GR
GS
[0.75 0 0 0.75 0 0.5] CT
0.149 GC
2 setlinecap
1 LJ
0.667 LW
N
90 506 M
96.93 506 L
S
GR
GS
[0.75 0 0 0.75 0 0.5] CT
0.149 GC
2 setlinecap
1 LJ
0.667 LW
N
90 407 M
96.93 407 L
S
GR
GS
[0.75 0 0 0.75 0 0.5] CT
0.149 GC
2 setlinecap
1 LJ
0.667 LW
N
90 308 M
96.93 308 L
S
GR
GS
[0.75 0 0 0.75 0 0.5] CT
0.149 GC
2 setlinecap
1 LJ
0.667 LW
N
90 209 M
96.93 209 L
S
GR
GS
[0.75 0 0 0.75 0 0.5] CT
0.149 GC
2 setlinecap
1 LJ
0.667 LW
N
90 110 M
96.93 110 L
S
GR
GS
[0.75 0 0 0.75 0 0.5] CT
0.149 GC
2 setlinecap
1 LJ
0.667 LW
N
629 803 M
622.07 803 L
S
GR
GS
[0.75 0 0 0.75 0 0.5] CT
0.149 GC
2 setlinecap
1 LJ
0.667 LW
N
629 704 M
622.07 704 L
S
GR
GS
[0.75 0 0 0.75 0 0.5] CT
0.149 GC
2 setlinecap
1 LJ
0.667 LW
N
629 605 M
622.07 605 L
S
GR
GS
[0.75 0 0 0.75 0 0.5] CT
0.149 GC
2 setlinecap
1 LJ
0.667 LW
N
629 506 M
622.07 506 L
S
GR
GS
[0.75 0 0 0.75 0 0.5] CT
0.149 GC
2 setlinecap
1 LJ
0.667 LW
N
629 407 M
622.07 407 L
S
GR
GS
[0.75 0 0 0.75 0 0.5] CT
0.149 GC
2 setlinecap
1 LJ
0.667 LW
N
629 308 M
622.07 308 L
S
GR
GS
[0.75 0 0 0.75 0 0.5] CT
0.149 GC
2 setlinecap
1 LJ
0.667 LW
N
629 209 M
622.07 209 L
S
GR
GS
[0.75 0 0 0.75 0 0.5] CT
0.149 GC
2 setlinecap
1 LJ
0.667 LW
N
629 110 M
622.07 110 L
S
GR
GS
[0.75 0 0 0.75 62.7 602.75] CT
0.149 GC
/Helvetica 18.667 F
GS
[1 0 0 1 0 0] CT
-38 6.5 moveto 
1 -1 scale
(-0.2) t 
GR
GR
GS
[0.75 0 0 0.75 62.7 528.5] CT
0.149 GC
/Helvetica 18.667 F
GS
[1 0 0 1 0 0] CT
-38 6.5 moveto 
1 -1 scale
(-0.1) t 
GR
GR
GS
[0.75 0 0 0.75 62.7 454.25] CT
0.149 GC
/Helvetica 18.667 F
GS
[1 0 0 1 0 0] CT
-13 6.5 moveto 
1 -1 scale
(0) t 
GR
GR
GS
[0.75 0 0 0.75 62.7 380] CT
0.149 GC
/Helvetica 18.667 F
GS
[1 0 0 1 0 0] CT
-31 6.5 moveto 
1 -1 scale
(0.1) t 
GR
GR
GS
[0.75 0 0 0.75 62.7 305.75] CT
0.149 GC
/Helvetica 18.667 F
GS
[1 0 0 1 0 0] CT
-31 6.5 moveto 
1 -1 scale
(0.2) t 
GR
GR
GS
[0.75 0 0 0.75 62.7 231.5] CT
0.149 GC
/Helvetica 18.667 F
GS
[1 0 0 1 0 0] CT
-31 6.5 moveto 
1 -1 scale
(0.3) t 
GR
GR
GS
[0.75 0 0 0.75 62.7 157.25] CT
0.149 GC
/Helvetica 18.667 F
GS
[1 0 0 1 0 0] CT
-31 6.5 moveto 
1 -1 scale
(0.4) t 
GR
GR
GS
[0.75 0 0 0.75 62.7 83] CT
0.149 GC
/Helvetica 18.667 F
GS
[1 0 0 1 0 0] CT
-31 6.5 moveto 
1 -1 scale
(0.5) t 
GR
GR
GS
[0 -0.75 0.75 0 31.2 342.87475] CT
0.149 GC
/Helvetica 20.533 F
GS
[1 0 0 1 0 0] CT
-96.5 -5 moveto 
1 -1 scale
(Ledoux coefficient) t 
GR
GR
GS
[0.75 0 0 0.75 112.5 15.5] CT
/Helvetica-Bold 20 F
GS
[1 0 0 1 0 0] CT
0 0 moveto 
1 -1 scale
(C) t 
GR
GR
GS
[0.75 0 0 0.75 123.75 23] CT
/Helvetica-Bold 16 F
GS
[1 0 0 1 0 0] CT
0 0 moveto 
1 -1 scale
(nl) t 
GR
GR
GS
[0.75 0 0 0.75 136.5 15.5] CT
/Helvetica-Bold 20 F
GS
[1 0 0 1 0 0] CT
0 0 moveto 
1 -1 scale
( Ledoux coefficients for modes ) t 
GR
GR
GS
[0.75 0 0 0.75 402.75 23] CT
/Helvetica-Bold 16 F
GS
[1 0 0 1 0 0] CT
0 0 moveto 
1 -1 scale
(n) t 
GR
GR
GS
[0.75 0 0 0.75 411.75 15.5] CT
/Helvetica-Bold 20 F
GS
[1 0 0 1 0 0] CT
0 0 moveto 
1 -1 scale
(S) t 
GR
GR
GS
[0.75 0 0 0.75 423 23] CT
/Helvetica-Bold 16 F
GS
[1 0 0 1 0 0] CT
0 0 moveto 
1 -1 scale
(l) t 
GR
GR
GS
[0.75 0 0 0.75 117 40.25] CT
/Helvetica-Bold 20 F
GS
[1 0 0 1 0 0] CT
0 0 moveto 
1 -1 scale
(in a spherical shell of fluid enclosed) t 
GR
GR
GS
[0.75 0 0 0.75 84.75 58.25] CT
/Helvetica-Bold 20 F
GS
[1 0 0 1 0 0] CT
0 0 moveto 
1 -1 scale
(between inner rigid and outer elastic shells) t 
GR
GR
GS
[0.75 0 0 0.75 160.5 76.25] CT
/Helvetica-Bold 20 F
GS
[1 0 0 1 0 0] CT
0 0 moveto 
1 -1 scale
(sphere type : 30cm-water) t 
GR
GR
GS
[0.75 0 0 0.75 0 0.5] CT
N
121.696 141.264 M
124.56 141.264 L
125.5 138.5 L
126.44 141.264 L
129.304 141.264 L
127.022 142.994 L
127.851 145.736 L
125.5 144.1 L
123.149 145.736 L
123.978 142.994 L
121.696 141.264 L
cp
f
GR
GS
[0.75 0 0 0.75 0 0.5] CT
10.0 ML
N
121.696 141.264 M
124.56 141.264 L
125.5 138.5 L
126.44 141.264 L
129.304 141.264 L
127.022 142.994 L
127.851 145.736 L
125.5 144.1 L
123.149 145.736 L
123.978 142.994 L
cp
S
GR
GS
[0.75 0 0 0.75 0 0.5] CT
N
157.696 475.264 M
160.56 475.264 L
161.5 472.5 L
162.44 475.264 L
165.304 475.264 L
163.022 476.994 L
163.851 479.736 L
161.5 478.1 L
159.149 479.736 L
159.978 476.994 L
157.696 475.264 L
cp
f
GR
GS
[0.75 0 0 0.75 0 0.5] CT
10.0 ML
N
157.696 475.264 M
160.56 475.264 L
161.5 472.5 L
162.44 475.264 L
165.304 475.264 L
163.022 476.994 L
163.851 479.736 L
161.5 478.1 L
159.149 479.736 L
159.978 476.994 L
cp
S
GR
GS
[0.75 0 0 0.75 0 0.5] CT
N
193.696 530.264 M
196.56 530.264 L
197.5 527.5 L
198.44 530.264 L
201.304 530.264 L
199.022 531.994 L
199.851 534.736 L
197.5 533.1 L
195.149 534.736 L
195.978 531.994 L
193.696 530.264 L
cp
f
GR
GS
[0.75 0 0 0.75 0 0.5] CT
10.0 ML
N
193.696 530.264 M
196.56 530.264 L
197.5 527.5 L
198.44 530.264 L
201.304 530.264 L
199.022 531.994 L
199.851 534.736 L
197.5 533.1 L
195.149 534.736 L
195.978 531.994 L
cp
S
GR
GS
[0.75 0 0 0.75 0 0.5] CT
N
229.696 568.264 M
232.56 568.264 L
233.5 565.5 L
234.44 568.264 L
237.304 568.264 L
235.022 569.994 L
235.851 572.736 L
233.5 571.1 L
231.149 572.736 L
231.978 569.994 L
229.696 568.264 L
cp
f
GR
GS
[0.75 0 0 0.75 0 0.5] CT
10.0 ML
N
229.696 568.264 M
232.56 568.264 L
233.5 565.5 L
234.44 568.264 L
237.304 568.264 L
235.022 569.994 L
235.851 572.736 L
233.5 571.1 L
231.149 572.736 L
231.978 569.994 L
cp
S
GR
GS
[0.75 0 0 0.75 0 0.5] CT
N
265.696 582.264 M
268.56 582.264 L
269.5 579.5 L
270.44 582.264 L
273.304 582.264 L
271.022 583.994 L
271.851 586.736 L
269.5 585.1 L
267.149 586.736 L
267.978 583.994 L
265.696 582.264 L
cp
f
GR
GS
[0.75 0 0 0.75 0 0.5] CT
10.0 ML
N
265.696 582.264 M
268.56 582.264 L
269.5 579.5 L
270.44 582.264 L
273.304 582.264 L
271.022 583.994 L
271.851 586.736 L
269.5 585.1 L
267.149 586.736 L
267.978 583.994 L
cp
S
GR
GS
[0.75 0 0 0.75 0 0.5] CT
N
301.696 588.264 M
304.56 588.264 L
305.5 585.5 L
306.44 588.264 L
309.304 588.264 L
307.022 589.994 L
307.851 592.736 L
305.5 591.1 L
303.149 592.736 L
303.978 589.994 L
301.696 588.264 L
cp
f
GR
GS
[0.75 0 0 0.75 0 0.5] CT
10.0 ML
N
301.696 588.264 M
304.56 588.264 L
305.5 585.5 L
306.44 588.264 L
309.304 588.264 L
307.022 589.994 L
307.851 592.736 L
305.5 591.1 L
303.149 592.736 L
303.978 589.994 L
cp
S
GR
GS
[0.75 0 0 0.75 0 0.5] CT
N
337.696 593.264 M
340.56 593.264 L
341.5 590.5 L
342.44 593.264 L
345.304 593.264 L
343.022 594.994 L
343.851 597.736 L
341.5 596.1 L
339.149 597.736 L
339.978 594.994 L
337.696 593.264 L
cp
f
GR
GS
[0.75 0 0 0.75 0 0.5] CT
10.0 ML
N
337.696 593.264 M
340.56 593.264 L
341.5 590.5 L
342.44 593.264 L
345.304 593.264 L
343.022 594.994 L
343.851 597.736 L
341.5 596.1 L
339.149 597.736 L
339.978 594.994 L
cp
S
GR
GS
[0.75 0 0 0.75 0 0.5] CT
N
373.696 595.264 M
376.56 595.264 L
377.5 592.5 L
378.44 595.264 L
381.304 595.264 L
379.022 596.994 L
379.851 599.736 L
377.5 598.1 L
375.149 599.736 L
375.978 596.994 L
373.696 595.264 L
cp
f
GR
GS
[0.75 0 0 0.75 0 0.5] CT
10.0 ML
N
373.696 595.264 M
376.56 595.264 L
377.5 592.5 L
378.44 595.264 L
381.304 595.264 L
379.022 596.994 L
379.851 599.736 L
377.5 598.1 L
375.149 599.736 L
375.978 596.994 L
cp
S
GR
GS
[0.75 0 0 0.75 0 0.5] CT
N
409.696 597.264 M
412.56 597.264 L
413.5 594.5 L
414.44 597.264 L
417.304 597.264 L
415.022 598.994 L
415.851 601.736 L
413.5 600.1 L
411.149 601.736 L
411.978 598.994 L
409.696 597.264 L
cp
f
GR
GS
[0.75 0 0 0.75 0 0.5] CT
10.0 ML
N
409.696 597.264 M
412.56 597.264 L
413.5 594.5 L
414.44 597.264 L
417.304 597.264 L
415.022 598.994 L
415.851 601.736 L
413.5 600.1 L
411.149 601.736 L
411.978 598.994 L
cp
S
GR
GS
[0.75 0 0 0.75 0 0.5] CT
N
445.696 599.264 M
448.56 599.264 L
449.5 596.5 L
450.44 599.264 L
453.304 599.264 L
451.022 600.994 L
451.851 603.736 L
449.5 602.1 L
447.149 603.736 L
447.978 600.994 L
445.696 599.264 L
cp
f
GR
GS
[0.75 0 0 0.75 0 0.5] CT
10.0 ML
N
445.696 599.264 M
448.56 599.264 L
449.5 596.5 L
450.44 599.264 L
453.304 599.264 L
451.022 600.994 L
451.851 603.736 L
449.5 602.1 L
447.149 603.736 L
447.978 600.994 L
cp
S
GR
GS
[0.75 0 0 0.75 0 0.5] CT
N
481.696 600.264 M
484.56 600.264 L
485.5 597.5 L
486.44 600.264 L
489.304 600.264 L
487.022 601.994 L
487.851 604.736 L
485.5 603.1 L
483.149 604.736 L
483.978 601.994 L
481.696 600.264 L
cp
f
GR
GS
[0.75 0 0 0.75 0 0.5] CT
10.0 ML
N
481.696 600.264 M
484.56 600.264 L
485.5 597.5 L
486.44 600.264 L
489.304 600.264 L
487.022 601.994 L
487.851 604.736 L
485.5 603.1 L
483.149 604.736 L
483.978 601.994 L
cp
S
GR
GS
[0.75 0 0 0.75 0 0.5] CT
N
517.696 600.264 M
520.56 600.264 L
521.5 597.5 L
522.44 600.264 L
525.304 600.264 L
523.022 601.994 L
523.851 604.736 L
521.5 603.1 L
519.149 604.736 L
519.978 601.994 L
517.696 600.264 L
cp
f
GR
GS
[0.75 0 0 0.75 0 0.5] CT
10.0 ML
N
517.696 600.264 M
520.56 600.264 L
521.5 597.5 L
522.44 600.264 L
525.304 600.264 L
523.022 601.994 L
523.851 604.736 L
521.5 603.1 L
519.149 604.736 L
519.978 601.994 L
cp
S
GR
GS
[0.75 0 0 0.75 0 0.5] CT
N
553.696 601.264 M
556.56 601.264 L
557.5 598.5 L
558.44 601.264 L
561.304 601.264 L
559.022 602.994 L
559.851 605.736 L
557.5 604.1 L
555.149 605.736 L
555.978 602.994 L
553.696 601.264 L
cp
f
GR
GS
[0.75 0 0 0.75 0 0.5] CT
10.0 ML
N
553.696 601.264 M
556.56 601.264 L
557.5 598.5 L
558.44 601.264 L
561.304 601.264 L
559.022 602.994 L
559.851 605.736 L
557.5 604.1 L
555.149 605.736 L
555.978 602.994 L
cp
S
GR
GS
[0.75 0 0 0.75 0 0.5] CT
N
589.696 601.264 M
592.56 601.264 L
593.5 598.5 L
594.44 601.264 L
597.304 601.264 L
595.022 602.994 L
595.851 605.736 L
593.5 604.1 L
591.149 605.736 L
591.978 602.994 L
589.696 601.264 L
cp
f
GR
GS
[0.75 0 0 0.75 0 0.5] CT
10.0 ML
N
589.696 601.264 M
592.56 601.264 L
593.5 598.5 L
594.44 601.264 L
597.304 601.264 L
595.022 602.994 L
595.851 605.736 L
593.5 604.1 L
591.149 605.736 L
591.978 602.994 L
cp
S
GR
GS
[0.75 0 0 0.75 0 0.5] CT
N
625.696 602.264 M
628.56 602.264 L
629.5 599.5 L
630.44 602.264 L
633.304 602.264 L
631.022 603.994 L
631.851 606.736 L
629.5 605.1 L
627.149 606.736 L
627.978 603.994 L
625.696 602.264 L
cp
f
GR
GS
[0.75 0 0 0.75 0 0.5] CT
10.0 ML
N
625.696 602.264 M
628.56 602.264 L
629.5 599.5 L
630.44 602.264 L
633.304 602.264 L
631.022 603.994 L
631.851 606.736 L
629.5 605.1 L
627.149 606.736 L
627.978 603.994 L
cp
S
GR
GS
[0.75 0 0 0.75 0 0.5] CT
0 1 0 RC
N
122.38 164.62 M
122.38 158.38 L
128.62 158.38 L
128.62 164.62 L
cp
f
GR
GS
[0.75 0 0 0.75 0 0.5] CT
0 1 0 RC
10.0 ML
N
122.38 164.62 M
122.38 158.38 L
128.62 158.38 L
128.62 164.62 L
cp
S
GR
GS
[0.75 0 0 0.75 0 0.5] CT
0 1 0 RC
N
158.38 497.62 M
158.38 491.38 L
164.62 491.38 L
164.62 497.62 L
cp
f
GR
GS
[0.75 0 0 0.75 0 0.5] CT
0 1 0 RC
10.0 ML
N
158.38 497.62 M
158.38 491.38 L
164.62 491.38 L
164.62 497.62 L
cp
S
GR
GS
[0.75 0 0 0.75 0 0.5] CT
0 1 0 RC
N
194.38 544.62 M
194.38 538.38 L
200.62 538.38 L
200.62 544.62 L
cp
f
GR
GS
[0.75 0 0 0.75 0 0.5] CT
0 1 0 RC
10.0 ML
N
194.38 544.62 M
194.38 538.38 L
200.62 538.38 L
200.62 544.62 L
cp
S
GR
GS
[0.75 0 0 0.75 0 0.5] CT
0 1 0 RC
N
230.38 576.62 M
230.38 570.38 L
236.62 570.38 L
236.62 576.62 L
cp
f
GR
GS
[0.75 0 0 0.75 0 0.5] CT
0 1 0 RC
10.0 ML
N
230.38 576.62 M
230.38 570.38 L
236.62 570.38 L
236.62 576.62 L
cp
S
GR
GS
[0.75 0 0 0.75 0 0.5] CT
0 1 0 RC
N
266.38 588.62 M
266.38 582.38 L
272.62 582.38 L
272.62 588.62 L
cp
f
GR
GS
[0.75 0 0 0.75 0 0.5] CT
0 1 0 RC
10.0 ML
N
266.38 588.62 M
266.38 582.38 L
272.62 582.38 L
272.62 588.62 L
cp
S
GR
GS
[0.75 0 0 0.75 0 0.5] CT
0 1 0 RC
N
302.38 593.62 M
302.38 587.38 L
308.62 587.38 L
308.62 593.62 L
cp
f
GR
GS
[0.75 0 0 0.75 0 0.5] CT
0 1 0 RC
10.0 ML
N
302.38 593.62 M
302.38 587.38 L
308.62 587.38 L
308.62 593.62 L
cp
S
GR
GS
[0.75 0 0 0.75 0 0.5] CT
0 1 0 RC
N
338.38 597.62 M
338.38 591.38 L
344.62 591.38 L
344.62 597.62 L
cp
f
GR
GS
[0.75 0 0 0.75 0 0.5] CT
0 1 0 RC
10.0 ML
N
338.38 597.62 M
338.38 591.38 L
344.62 591.38 L
344.62 597.62 L
cp
S
GR
GS
[0.75 0 0 0.75 0 0.5] CT
0 1 0 RC
N
374.38 600.62 M
374.38 594.38 L
380.62 594.38 L
380.62 600.62 L
cp
f
GR
GS
[0.75 0 0 0.75 0 0.5] CT
0 1 0 RC
10.0 ML
N
374.38 600.62 M
374.38 594.38 L
380.62 594.38 L
380.62 600.62 L
cp
S
GR
GS
[0.75 0 0 0.75 0 0.5] CT
0 1 0 RC
N
410.38 602.62 M
410.38 596.38 L
416.62 596.38 L
416.62 602.62 L
cp
f
GR
GS
[0.75 0 0 0.75 0 0.5] CT
0 1 0 RC
10.0 ML
N
410.38 602.62 M
410.38 596.38 L
416.62 596.38 L
416.62 602.62 L
cp
S
GR
GS
[0.75 0 0 0.75 0 0.5] CT
0 1 0 RC
N
446.38 603.62 M
446.38 597.38 L
452.62 597.38 L
452.62 603.62 L
cp
f
GR
GS
[0.75 0 0 0.75 0 0.5] CT
0 1 0 RC
10.0 ML
N
446.38 603.62 M
446.38 597.38 L
452.62 597.38 L
452.62 603.62 L
cp
S
GR
GS
[0.75 0 0 0.75 0 0.5] CT
0 1 0 RC
N
482.38 604.62 M
482.38 598.38 L
488.62 598.38 L
488.62 604.62 L
cp
f
GR
GS
[0.75 0 0 0.75 0 0.5] CT
0 1 0 RC
10.0 ML
N
482.38 604.62 M
482.38 598.38 L
488.62 598.38 L
488.62 604.62 L
cp
S
GR
GS
[0.75 0 0 0.75 0 0.5] CT
0 1 0 RC
N
518.38 605.62 M
518.38 599.38 L
524.62 599.38 L
524.62 605.62 L
cp
f
GR
GS
[0.75 0 0 0.75 0 0.5] CT
0 1 0 RC
10.0 ML
N
518.38 605.62 M
518.38 599.38 L
524.62 599.38 L
524.62 605.62 L
cp
S
GR
GS
[0.75 0 0 0.75 0 0.5] CT
0 1 0 RC
N
554.38 605.62 M
554.38 599.38 L
560.62 599.38 L
560.62 605.62 L
cp
f
GR
GS
[0.75 0 0 0.75 0 0.5] CT
0 1 0 RC
10.0 ML
N
554.38 605.62 M
554.38 599.38 L
560.62 599.38 L
560.62 605.62 L
cp
S
GR
GS
[0.75 0 0 0.75 0 0.5] CT
0 1 0 RC
N
590.38 606.62 M
590.38 600.38 L
596.62 600.38 L
596.62 606.62 L
cp
f
GR
GS
[0.75 0 0 0.75 0 0.5] CT
0 1 0 RC
10.0 ML
N
590.38 606.62 M
590.38 600.38 L
596.62 600.38 L
596.62 606.62 L
cp
S
GR
GS
[0.75 0 0 0.75 0 0.5] CT
0 1 0 RC
N
626.38 606.62 M
626.38 600.38 L
632.62 600.38 L
632.62 606.62 L
cp
f
GR
GS
[0.75 0 0 0.75 0 0.5] CT
0 1 0 RC
10.0 ML
N
626.38 606.62 M
626.38 600.38 L
632.62 600.38 L
632.62 606.62 L
cp
S
GR
GS
[0.75 0 0 0.75 0 0.5] CT
1 0 1 RC
N
125.5 230.832 M
130.118 222.834 L
120.882 222.834 L
cp
f
GR
GS
[0.75 0 0 0.75 0 0.5] CT
1 0 1 RC
10.0 ML
N
125.5 230.832 M
130.118 222.834 L
120.882 222.834 L
cp
S
GR
GS
[0.75 0 0 0.75 0 0.5] CT
1 0 1 RC
N
161.5 508.832 M
166.118 500.834 L
156.882 500.834 L
cp
f
GR
GS
[0.75 0 0 0.75 0 0.5] CT
1 0 1 RC
10.0 ML
N
161.5 508.832 M
166.118 500.834 L
156.882 500.834 L
cp
S
GR
GS
[0.75 0 0 0.75 0 0.5] CT
1 0 1 RC
N
197.5 552.832 M
202.118 544.834 L
192.882 544.834 L
cp
f
GR
GS
[0.75 0 0 0.75 0 0.5] CT
1 0 1 RC
10.0 ML
N
197.5 552.832 M
202.118 544.834 L
192.882 544.834 L
cp
S
GR
GS
[0.75 0 0 0.75 0 0.5] CT
1 0 1 RC
N
233.5 580.832 M
238.118 572.834 L
228.882 572.834 L
cp
f
GR
GS
[0.75 0 0 0.75 0 0.5] CT
1 0 1 RC
10.0 ML
N
233.5 580.832 M
238.118 572.834 L
228.882 572.834 L
cp
S
GR
GS
[0.75 0 0 0.75 0 0.5] CT
1 0 1 RC
N
269.5 590.832 M
274.118 582.834 L
264.882 582.834 L
cp
f
GR
GS
[0.75 0 0 0.75 0 0.5] CT
1 0 1 RC
10.0 ML
N
269.5 590.832 M
274.118 582.834 L
264.882 582.834 L
cp
S
GR
GS
[0.75 0 0 0.75 0 0.5] CT
1 0 1 RC
N
305.5 597.832 M
310.118 589.834 L
300.882 589.834 L
cp
f
GR
GS
[0.75 0 0 0.75 0 0.5] CT
1 0 1 RC
10.0 ML
N
305.5 597.832 M
310.118 589.834 L
300.882 589.834 L
cp
S
GR
GS
[0.75 0 0 0.75 0 0.5] CT
1 0 1 RC
N
341.5 601.832 M
346.118 593.834 L
336.882 593.834 L
cp
f
GR
GS
[0.75 0 0 0.75 0 0.5] CT
1 0 1 RC
10.0 ML
N
341.5 601.832 M
346.118 593.834 L
336.882 593.834 L
cp
S
GR
GS
[0.75 0 0 0.75 0 0.5] CT
1 0 1 RC
N
377.5 603.832 M
382.118 595.834 L
372.882 595.834 L
cp
f
GR
GS
[0.75 0 0 0.75 0 0.5] CT
1 0 1 RC
10.0 ML
N
377.5 603.832 M
382.118 595.834 L
372.882 595.834 L
cp
S
GR
GS
[0.75 0 0 0.75 0 0.5] CT
1 0 1 RC
N
413.5 605.832 M
418.118 597.834 L
408.882 597.834 L
cp
f
GR
GS
[0.75 0 0 0.75 0 0.5] CT
1 0 1 RC
10.0 ML
N
413.5 605.832 M
418.118 597.834 L
408.882 597.834 L
cp
S
GR
GS
[0.75 0 0 0.75 0 0.5] CT
1 0 1 RC
N
449.5 606.832 M
454.118 598.834 L
444.882 598.834 L
cp
f
GR
GS
[0.75 0 0 0.75 0 0.5] CT
1 0 1 RC
10.0 ML
N
449.5 606.832 M
454.118 598.834 L
444.882 598.834 L
cp
S
GR
GS
[0.75 0 0 0.75 0 0.5] CT
1 0 1 RC
N
485.5 606.832 M
490.118 598.834 L
480.882 598.834 L
cp
f
GR
GS
[0.75 0 0 0.75 0 0.5] CT
1 0 1 RC
10.0 ML
N
485.5 606.832 M
490.118 598.834 L
480.882 598.834 L
cp
S
GR
GS
[0.75 0 0 0.75 0 0.5] CT
1 0 1 RC
N
521.5 607.832 M
526.117 599.834 L
516.883 599.834 L
cp
f
GR
GS
[0.75 0 0 0.75 0 0.5] CT
1 0 1 RC
10.0 ML
N
521.5 607.832 M
526.117 599.834 L
516.883 599.834 L
cp
S
GR
GS
[0.75 0 0 0.75 0 0.5] CT
1 0 1 RC
N
557.5 607.832 M
562.117 599.834 L
552.883 599.834 L
cp
f
GR
GS
[0.75 0 0 0.75 0 0.5] CT
1 0 1 RC
10.0 ML
N
557.5 607.832 M
562.117 599.834 L
552.883 599.834 L
cp
S
GR
GS
[0.75 0 0 0.75 0 0.5] CT
1 0 1 RC
N
593.5 608.832 M
598.117 600.834 L
588.883 600.834 L
cp
f
GR
GS
[0.75 0 0 0.75 0 0.5] CT
1 0 1 RC
10.0 ML
N
593.5 608.832 M
598.117 600.834 L
588.883 600.834 L
cp
S
GR
GS
[0.75 0 0 0.75 0 0.5] CT
1 0 1 RC
N
629.5 608.832 M
634.117 600.834 L
624.883 600.834 L
cp
f
GR
GS
[0.75 0 0 0.75 0 0.5] CT
1 0 1 RC
10.0 ML
N
629.5 608.832 M
634.117 600.834 L
624.883 600.834 L
cp
S
GR
GS
[0.75 0 0 0.75 0 0.5] CT
1 0 0 RC
1 LJ
N
121 325.5 M
130 325.5 L
S
GR
GS
[0.75 0 0 0.75 0 0.5] CT
1 0 0 RC
1 LJ
N
125.5 330 M
125.5 321 L
S
GR
GS
[0.75 0 0 0.75 0 0.5] CT
1 0 0 RC
1 LJ
N
157 526.5 M
166 526.5 L
S
GR
GS
[0.75 0 0 0.75 0 0.5] CT
1 0 0 RC
1 LJ
N
161.5 531 M
161.5 522 L
S
GR
GS
[0.75 0 0 0.75 0 0.5] CT
1 0 0 RC
1 LJ
N
193 557.5 M
202 557.5 L
S
GR
GS
[0.75 0 0 0.75 0 0.5] CT
1 0 0 RC
1 LJ
N
197.5 562 M
197.5 553 L
S
GR
GS
[0.75 0 0 0.75 0 0.5] CT
1 0 0 RC
1 LJ
N
229 579.5 M
238 579.5 L
S
GR
GS
[0.75 0 0 0.75 0 0.5] CT
1 0 0 RC
1 LJ
N
233.5 584 M
233.5 575 L
S
GR
GS
[0.75 0 0 0.75 0 0.5] CT
1 0 0 RC
1 LJ
N
265 589.5 M
274 589.5 L
S
GR
GS
[0.75 0 0 0.75 0 0.5] CT
1 0 0 RC
1 LJ
N
269.5 594 M
269.5 585 L
S
GR
GS
[0.75 0 0 0.75 0 0.5] CT
1 0 0 RC
1 LJ
N
301 594.5 M
310 594.5 L
S
GR
GS
[0.75 0 0 0.75 0 0.5] CT
1 0 0 RC
1 LJ
N
305.5 599 M
305.5 590 L
S
GR
GS
[0.75 0 0 0.75 0 0.5] CT
1 0 0 RC
1 LJ
N
337 597.5 M
346 597.5 L
S
GR
GS
[0.75 0 0 0.75 0 0.5] CT
1 0 0 RC
1 LJ
N
341.5 602 M
341.5 593 L
S
GR
GS
[0.75 0 0 0.75 0 0.5] CT
1 0 0 RC
1 LJ
N
373 599.5 M
382 599.5 L
S
GR
GS
[0.75 0 0 0.75 0 0.5] CT
1 0 0 RC
1 LJ
N
377.5 604 M
377.5 595 L
S
GR
GS
[0.75 0 0 0.75 0 0.5] CT
1 0 0 RC
1 LJ
N
409 601.5 M
418 601.5 L
S
GR
GS
[0.75 0 0 0.75 0 0.5] CT
1 0 0 RC
1 LJ
N
413.5 606 M
413.5 597 L
S
GR
GS
[0.75 0 0 0.75 0 0.5] CT
1 0 0 RC
1 LJ
N
445 601.5 M
454 601.5 L
S
GR
GS
[0.75 0 0 0.75 0 0.5] CT
1 0 0 RC
1 LJ
N
449.5 606 M
449.5 597 L
S
GR
GS
[0.75 0 0 0.75 0 0.5] CT
1 0 0 RC
1 LJ
N
481 602.5 M
490 602.5 L
S
GR
GS
[0.75 0 0 0.75 0 0.5] CT
1 0 0 RC
1 LJ
N
485.5 607 M
485.5 598 L
S
GR
GS
[0.75 0 0 0.75 0 0.5] CT
1 0 0 RC
1 LJ
N
517 603.5 M
526 603.5 L
S
GR
GS
[0.75 0 0 0.75 0 0.5] CT
1 0 0 RC
1 LJ
N
521.5 608 M
521.5 599 L
S
GR
GS
[0.75 0 0 0.75 0 0.5] CT
1 0 0 RC
1 LJ
N
553 603.5 M
562 603.5 L
S
GR
GS
[0.75 0 0 0.75 0 0.5] CT
1 0 0 RC
1 LJ
N
557.5 608 M
557.5 599 L
S
GR
GS
[0.75 0 0 0.75 0 0.5] CT
1 0 0 RC
1 LJ
N
589 603.5 M
598 603.5 L
S
GR
GS
[0.75 0 0 0.75 0 0.5] CT
1 0 0 RC
1 LJ
N
593.5 608 M
593.5 599 L
S
GR
GS
[0.75 0 0 0.75 0 0.5] CT
1 0 0 RC
1 LJ
N
625 603.5 M
634 603.5 L
S
GR
GS
[0.75 0 0 0.75 0 0.5] CT
1 0 0 RC
1 LJ
N
629.5 608 M
629.5 599 L
S
GR
GS
[0.75 0 0 0.75 0 0.5] CT
0 0 1 RC
1 LJ
N
122 256 M
129 249 L
S
GR
GS
[0.75 0 0 0.75 0 0.5] CT
0 0 1 RC
1 LJ
N
122 249 M
129 256 L
S
GR
GS
[0.75 0 0 0.75 0 0.5] CT
0 0 1 RC
1 LJ
N
158 592 M
165 585 L
S
GR
GS
[0.75 0 0 0.75 0 0.5] CT
0 0 1 RC
1 LJ
N
158 585 M
165 592 L
S
GR
GS
[0.75 0 0 0.75 0 0.5] CT
0 0 1 RC
1 LJ
N
194 574 M
201 567 L
S
GR
GS
[0.75 0 0 0.75 0 0.5] CT
0 0 1 RC
1 LJ
N
194 567 M
201 574 L
S
GR
GS
[0.75 0 0 0.75 0 0.5] CT
0 0 1 RC
1 LJ
N
230 590 M
237 583 L
S
GR
GS
[0.75 0 0 0.75 0 0.5] CT
0 0 1 RC
1 LJ
N
230 583 M
237 590 L
S
GR
GS
[0.75 0 0 0.75 0 0.5] CT
0 0 1 RC
1 LJ
N
266 598 M
273 591 L
S
GR
GS
[0.75 0 0 0.75 0 0.5] CT
0 0 1 RC
1 LJ
N
266 591 M
273 598 L
S
GR
GS
[0.75 0 0 0.75 0 0.5] CT
0 0 1 RC
1 LJ
N
302 602 M
309 595 L
S
GR
GS
[0.75 0 0 0.75 0 0.5] CT
0 0 1 RC
1 LJ
N
302 595 M
309 602 L
S
GR
GS
[0.75 0 0 0.75 0 0.5] CT
0 0 1 RC
1 LJ
N
338 604 M
345 597 L
S
GR
GS
[0.75 0 0 0.75 0 0.5] CT
0 0 1 RC
1 LJ
N
338 597 M
345 604 L
S
GR
GS
[0.75 0 0 0.75 0 0.5] CT
0 0 1 RC
1 LJ
N
374 605 M
381 598 L
S
GR
GS
[0.75 0 0 0.75 0 0.5] CT
0 0 1 RC
1 LJ
N
374 598 M
381 605 L
S
GR
GS
[0.75 0 0 0.75 0 0.5] CT
0 0 1 RC
1 LJ
N
410 606 M
417 599 L
S
GR
GS
[0.75 0 0 0.75 0 0.5] CT
0 0 1 RC
1 LJ
N
410 599 M
417 606 L
S
GR
GS
[0.75 0 0 0.75 0 0.5] CT
0 0 1 RC
1 LJ
N
446 607 M
453 600 L
S
GR
GS
[0.75 0 0 0.75 0 0.5] CT
0 0 1 RC
1 LJ
N
446 600 M
453 607 L
S
GR
GS
[0.75 0 0 0.75 0 0.5] CT
0 0 1 RC
1 LJ
N
482 607 M
489 600 L
S
GR
GS
[0.75 0 0 0.75 0 0.5] CT
0 0 1 RC
1 LJ
N
482 600 M
489 607 L
S
GR
GS
[0.75 0 0 0.75 0 0.5] CT
0 0 1 RC
1 LJ
N
518 608 M
525 601 L
S
GR
GS
[0.75 0 0 0.75 0 0.5] CT
0 0 1 RC
1 LJ
N
518 601 M
525 608 L
S
GR
GS
[0.75 0 0 0.75 0 0.5] CT
0 0 1 RC
1 LJ
N
554 608 M
561 601 L
S
GR
GS
[0.75 0 0 0.75 0 0.5] CT
0 0 1 RC
1 LJ
N
554 601 M
561 608 L
S
GR
GS
[0.75 0 0 0.75 0 0.5] CT
0 0 1 RC
1 LJ
N
590 608 M
597 601 L
S
GR
GS
[0.75 0 0 0.75 0 0.5] CT
0 0 1 RC
1 LJ
N
590 601 M
597 608 L
S
GR
GS
[0.75 0 0 0.75 0 0.5] CT
0 0 1 RC
1 LJ
N
626 608 M
633 601 L
S
GR
GS
[0.75 0 0 0.75 0 0.5] CT
0 0 1 RC
1 LJ
N
626 601 M
633 608 L
S
GR
GS
[0.75 0 0 0.75 0 0.5] CT
N
129.5 607.5 M
128.328 604.672 L
125.5 603.5 L
122.672 604.672 L
121.5 607.5 L
122.672 610.328 L
125.5 611.5 L
128.328 610.328 L
129.5 607.5 L
cp
f
GR
GS
[0.75 0 0 0.75 0 0.5] CT
1 LJ
N
129.5 607.5 M
128.736 605.149 L
126.736 603.696 L
124.264 603.696 L
122.264 605.149 L
121.5 607.5 L
122.264 609.851 L
124.264 611.304 L
126.736 611.304 L
128.736 609.851 L
cp
S
GR
GS
[0.75 0 0 0.75 0 0.5] CT
N
165.5 781.5 M
164.328 778.672 L
161.5 777.5 L
158.672 778.672 L
157.5 781.5 L
158.672 784.328 L
161.5 785.5 L
164.328 784.328 L
165.5 781.5 L
cp
f
GR
GS
[0.75 0 0 0.75 0 0.5] CT
1 LJ
N
165.5 781.5 M
164.736 779.149 L
162.736 777.696 L
160.264 777.696 L
158.264 779.149 L
157.5 781.5 L
158.264 783.851 L
160.264 785.304 L
162.736 785.304 L
164.736 783.851 L
cp
S
GR
GS
[0.75 0 0 0.75 0 0.5] CT
N
201.5 599.5 M
200.328 596.672 L
197.5 595.5 L
194.672 596.672 L
193.5 599.5 L
194.672 602.328 L
197.5 603.5 L
200.328 602.328 L
201.5 599.5 L
cp
f
GR
GS
[0.75 0 0 0.75 0 0.5] CT
1 LJ
N
201.5 599.5 M
200.736 597.149 L
198.736 595.696 L
196.264 595.696 L
194.264 597.149 L
193.5 599.5 L
194.264 601.851 L
196.264 603.304 L
198.736 603.304 L
200.736 601.851 L
cp
S
GR
GS
[0.75 0 0 0.75 0 0.5] CT
N
237.5 603.5 M
236.328 600.672 L
233.5 599.5 L
230.672 600.672 L
229.5 603.5 L
230.672 606.328 L
233.5 607.5 L
236.328 606.328 L
237.5 603.5 L
cp
f
GR
GS
[0.75 0 0 0.75 0 0.5] CT
1 LJ
N
237.5 603.5 M
236.736 601.149 L
234.736 599.696 L
232.264 599.696 L
230.264 601.149 L
229.5 603.5 L
230.264 605.851 L
232.264 607.304 L
234.736 607.304 L
236.736 605.851 L
cp
S
GR
GS
[0.75 0 0 0.75 0 0.5] CT
N
273.5 605.5 M
272.328 602.672 L
269.5 601.5 L
266.672 602.672 L
265.5 605.5 L
266.672 608.328 L
269.5 609.5 L
272.328 608.328 L
273.5 605.5 L
cp
f
GR
GS
[0.75 0 0 0.75 0 0.5] CT
1 LJ
N
273.5 605.5 M
272.736 603.149 L
270.736 601.696 L
268.264 601.696 L
266.264 603.149 L
265.5 605.5 L
266.264 607.851 L
268.264 609.304 L
270.736 609.304 L
272.736 607.851 L
cp
S
GR
GS
[0.75 0 0 0.75 0 0.5] CT
N
309.5 605.5 M
308.328 602.672 L
305.5 601.5 L
302.672 602.672 L
301.5 605.5 L
302.672 608.328 L
305.5 609.5 L
308.328 608.328 L
309.5 605.5 L
cp
f
GR
GS
[0.75 0 0 0.75 0 0.5] CT
1 LJ
N
309.5 605.5 M
308.736 603.149 L
306.736 601.696 L
304.264 601.696 L
302.264 603.149 L
301.5 605.5 L
302.264 607.851 L
304.264 609.304 L
306.736 609.304 L
308.736 607.851 L
cp
S
GR
GS
[0.75 0 0 0.75 0 0.5] CT
N
345.5 605.5 M
344.328 602.672 L
341.5 601.5 L
338.672 602.672 L
337.5 605.5 L
338.672 608.328 L
341.5 609.5 L
344.328 608.328 L
345.5 605.5 L
cp
f
GR
GS
[0.75 0 0 0.75 0 0.5] CT
1 LJ
N
345.5 605.5 M
344.736 603.149 L
342.736 601.696 L
340.264 601.696 L
338.264 603.149 L
337.5 605.5 L
338.264 607.851 L
340.264 609.304 L
342.736 609.304 L
344.736 607.851 L
cp
S
GR
GS
[0.75 0 0 0.75 0 0.5] CT
N
381.5 605.5 M
380.328 602.672 L
377.5 601.5 L
374.672 602.672 L
373.5 605.5 L
374.672 608.328 L
377.5 609.5 L
380.328 608.328 L
381.5 605.5 L
cp
f
GR
GS
[0.75 0 0 0.75 0 0.5] CT
1 LJ
N
381.5 605.5 M
380.736 603.149 L
378.736 601.696 L
376.264 601.696 L
374.264 603.149 L
373.5 605.5 L
374.264 607.851 L
376.264 609.304 L
378.736 609.304 L
380.736 607.851 L
cp
S
GR
GS
[0.75 0 0 0.75 0 0.5] CT
N
417.5 605.5 M
416.328 602.672 L
413.5 601.5 L
410.672 602.672 L
409.5 605.5 L
410.672 608.328 L
413.5 609.5 L
416.328 608.328 L
417.5 605.5 L
cp
f
GR
GS
[0.75 0 0 0.75 0 0.5] CT
1 LJ
N
417.5 605.5 M
416.736 603.149 L
414.736 601.696 L
412.264 601.696 L
410.264 603.149 L
409.5 605.5 L
410.264 607.851 L
412.264 609.304 L
414.736 609.304 L
416.736 607.851 L
cp
S
GR
GS
[0.75 0 0 0.75 0 0.5] CT
N
453.5 605.5 M
452.328 602.672 L
449.5 601.5 L
446.672 602.672 L
445.5 605.5 L
446.672 608.328 L
449.5 609.5 L
452.328 608.328 L
453.5 605.5 L
cp
f
GR
GS
[0.75 0 0 0.75 0 0.5] CT
1 LJ
N
453.5 605.5 M
452.736 603.149 L
450.736 601.696 L
448.264 601.696 L
446.264 603.149 L
445.5 605.5 L
446.264 607.851 L
448.264 609.304 L
450.736 609.304 L
452.736 607.851 L
cp
S
GR
GS
[0.75 0 0 0.75 0 0.5] CT
N
489.5 605.5 M
488.328 602.672 L
485.5 601.5 L
482.672 602.672 L
481.5 605.5 L
482.672 608.328 L
485.5 609.5 L
488.328 608.328 L
489.5 605.5 L
cp
f
GR
GS
[0.75 0 0 0.75 0 0.5] CT
1 LJ
N
489.5 605.5 M
488.736 603.149 L
486.736 601.696 L
484.264 601.696 L
482.264 603.149 L
481.5 605.5 L
482.264 607.851 L
484.264 609.304 L
486.736 609.304 L
488.736 607.851 L
cp
S
GR
GS
[0.75 0 0 0.75 0 0.5] CT
N
525.5 605.5 M
524.328 602.672 L
521.5 601.5 L
518.672 602.672 L
517.5 605.5 L
518.672 608.328 L
521.5 609.5 L
524.328 608.328 L
525.5 605.5 L
cp
f
GR
GS
[0.75 0 0 0.75 0 0.5] CT
1 LJ
N
525.5 605.5 M
524.736 603.149 L
522.736 601.696 L
520.264 601.696 L
518.264 603.149 L
517.5 605.5 L
518.264 607.851 L
520.264 609.304 L
522.736 609.304 L
524.736 607.851 L
cp
S
GR
GS
[0.75 0 0 0.75 0 0.5] CT
N
561.5 605.5 M
560.328 602.672 L
557.5 601.5 L
554.672 602.672 L
553.5 605.5 L
554.672 608.328 L
557.5 609.5 L
560.328 608.328 L
561.5 605.5 L
cp
f
GR
GS
[0.75 0 0 0.75 0 0.5] CT
1 LJ
N
561.5 605.5 M
560.736 603.149 L
558.736 601.696 L
556.264 601.696 L
554.264 603.149 L
553.5 605.5 L
554.264 607.851 L
556.264 609.304 L
558.736 609.304 L
560.736 607.851 L
cp
S
GR
GS
[0.75 0 0 0.75 0 0.5] CT
N
597.5 605.5 M
596.328 602.672 L
593.5 601.5 L
590.672 602.672 L
589.5 605.5 L
590.672 608.328 L
593.5 609.5 L
596.328 608.328 L
597.5 605.5 L
cp
f
GR
GS
[0.75 0 0 0.75 0 0.5] CT
1 LJ
N
597.5 605.5 M
596.736 603.149 L
594.736 601.696 L
592.264 601.696 L
590.264 603.149 L
589.5 605.5 L
590.264 607.851 L
592.264 609.304 L
594.736 609.304 L
596.736 607.851 L
cp
S
GR
GS
[0.75 0 0 0.75 0 0.5] CT
N
633.5 605.5 M
632.328 602.672 L
629.5 601.5 L
626.672 602.672 L
625.5 605.5 L
626.672 608.328 L
629.5 609.5 L
632.328 608.328 L
633.5 605.5 L
cp
f
GR
GS
[0.75 0 0 0.75 0 0.5] CT
1 LJ
N
633.5 605.5 M
632.736 603.149 L
630.736 601.696 L
628.264 601.696 L
626.264 603.149 L
625.5 605.5 L
626.264 607.851 L
628.264 609.304 L
630.736 609.304 L
632.736 607.851 L
cp
S
GR
GS
[0.75 0 0 0.75 0 0.5] CT
1 GC
N
539 256 M
539 123 L
616 123 L
616 256 L
cp
f
GR
GS
[0.75 0 0 0.75 432 102.16037] CT
/Helvetica 16.8 F
GS
[1 0 0 1 0 0] CT
0 5.5 moveto 
1 -1 scale
(n=5) t 
GR
GR
GS
[0.75 0 0 0.75 0 0.5] CT
N
553.696 134.264 M
556.56 134.264 L
557.5 131.5 L
558.44 134.264 L
561.304 134.264 L
559.022 135.994 L
559.851 138.736 L
557.5 137.1 L
555.149 138.736 L
555.978 135.994 L
553.696 134.264 L
cp
f
GR
GS
[0.75 0 0 0.75 0 0.5] CT
10.0 ML
N
553.696 134.264 M
556.56 134.264 L
557.5 131.5 L
558.44 134.264 L
561.304 134.264 L
559.022 135.994 L
559.851 138.736 L
557.5 137.1 L
555.149 138.736 L
555.978 135.994 L
cp
S
GR
GS
[0.75 0 0 0.75 432 118.34622] CT
/Helvetica 16.8 F
GS
[1 0 0 1 0 0] CT
0 5.5 moveto 
1 -1 scale
(4) t 
GR
GR
GS
[0.75 0 0 0.75 0 0.5] CT
0 1 0 RC
N
554.38 160.62 M
554.38 154.38 L
560.62 154.38 L
560.62 160.62 L
cp
f
GR
GS
[0.75 0 0 0.75 0 0.5] CT
0 1 0 RC
10.0 ML
N
554.38 160.62 M
554.38 154.38 L
560.62 154.38 L
560.62 160.62 L
cp
S
GR
GS
[0.75 0 0 0.75 432 134.53208] CT
/Helvetica 16.8 F
GS
[1 0 0 1 0 0] CT
0 5.5 moveto 
1 -1 scale
(3) t 
GR
GR
GS
[0.75 0 0 0.75 0 0.5] CT
1 0 1 RC
N
557.5 183.832 M
562.117 175.834 L
552.883 175.834 L
cp
f
GR
GS
[0.75 0 0 0.75 0 0.5] CT
1 0 1 RC
10.0 ML
N
557.5 183.832 M
562.117 175.834 L
552.883 175.834 L
cp
S
GR
GS
[0.75 0 0 0.75 432 150.71793] CT
/Helvetica 16.8 F
GS
[1 0 0 1 0 0] CT
0 5.5 moveto 
1 -1 scale
(2) t 
GR
GR
GS
[0.75 0 0 0.75 0 0.5] CT
1 0 0 RC
1 LJ
N
553 200.5 M
562 200.5 L
S
GR
GS
[0.75 0 0 0.75 0 0.5] CT
1 0 0 RC
1 LJ
N
557.5 205 M
557.5 196 L
S
GR
GS
[0.75 0 0 0.75 432 166.90378] CT
/Helvetica 16.8 F
GS
[1 0 0 1 0 0] CT
0 5.5 moveto 
1 -1 scale
(1) t 
GR
GR
GS
[0.75 0 0 0.75 0 0.5] CT
0 0 1 RC
1 LJ
N
554 225 M
561 218 L
S
GR
GS
[0.75 0 0 0.75 0 0.5] CT
0 0 1 RC
1 LJ
N
554 218 M
561 225 L
S
GR
GS
[0.75 0 0 0.75 432 183.08963] CT
/Helvetica 16.8 F
GS
[1 0 0 1 0 0] CT
0 5.5 moveto 
1 -1 scale
(0) t 
GR
GR
GS
[0.75 0 0 0.75 0 0.5] CT
N
561.5 243.5 M
560.328 240.672 L
557.5 239.5 L
554.672 240.672 L
553.5 243.5 L
554.672 246.328 L
557.5 247.5 L
560.328 246.328 L
561.5 243.5 L
cp
f
GR
GS
[0.75 0 0 0.75 0 0.5] CT
1 LJ
N
561.5 243.5 M
560.736 241.149 L
558.736 239.696 L
556.264 239.696 L
554.264 241.149 L
553.5 243.5 L
554.264 245.851 L
556.264 247.304 L
558.736 247.304 L
560.736 245.851 L
cp
S
GR
GS
[0.75 0 0 0.75 0 0.5] CT
0.149 GC
10.0 ML
0.667 LW
N
539 256 M
539 123 L
616 123 L
616 256 L
cp
S
GR
%%Trailer
%%Pages: 1
%%EOF
