%!PS-Adobe-3.0 EPSF-3.0
%%Creator: (MATLAB, The Mathworks, Inc. Version 8.4.0.150421 \(R2014b\). Operating System: Linux)
%%Title: /data/geodynamo/natafh/Dynamo/Acoustics/elastic_shell/Figures/Ledoux/plexi-shell_zoom.eps
%%CreationDate: 2015-09-03T14:43:43
%%Pages: (atend)
%%BoundingBox: 0 0 455 396
%%LanguageLevel: 2
%%EndComments
%%BeginProlog
%%BeginResource: procset (Apache XML Graphics Std ProcSet) 1.2 0
%%Version: 1.2 0
%%Copyright: (Copyright 2001-2003,2010 The Apache Software Foundation. License terms: http://www.apache.org/licenses/LICENSE-2.0)
/bd{bind def}bind def
/ld{load def}bd
/GR/grestore ld
/M/moveto ld
/LJ/setlinejoin ld
/C/curveto ld
/f/fill ld
/LW/setlinewidth ld
/GC/setgray ld
/t/show ld
/N/newpath ld
/CT/concat ld
/cp/closepath ld
/S/stroke ld
/L/lineto ld
/CC/setcmykcolor ld
/A/ashow ld
/GS/gsave ld
/RC/setrgbcolor ld
/RM/rmoveto ld
/ML/setmiterlimit ld
/re {4 2 roll M
1 index 0 rlineto
0 exch rlineto
neg 0 rlineto
cp } bd
/_ctm matrix def
/_tm matrix def
/BT { _ctm currentmatrix pop matrix _tm copy pop 0 0 moveto } bd
/ET { _ctm setmatrix } bd
/iTm { _ctm setmatrix _tm concat } bd
/Tm { _tm astore pop iTm 0 0 moveto } bd
/ux 0.0 def
/uy 0.0 def
/F {
  /Tp exch def
  /Tf exch def
  Tf findfont Tp scalefont setfont
  /cf Tf def  /cs Tp def
} bd
/ULS {currentpoint /uy exch def /ux exch def} bd
/ULE {
  /Tcx currentpoint pop def
  gsave
  newpath
  cf findfont cs scalefont dup
  /FontMatrix get 0 get /Ts exch def /FontInfo get dup
  /UnderlinePosition get Ts mul /To exch def
  /UnderlineThickness get Ts mul /Tt exch def
  ux uy To add moveto  Tcx uy To add lineto
  Tt setlinewidth stroke
  grestore
} bd
/OLE {
  /Tcx currentpoint pop def
  gsave
  newpath
  cf findfont cs scalefont dup
  /FontMatrix get 0 get /Ts exch def /FontInfo get dup
  /UnderlinePosition get Ts mul /To exch def
  /UnderlineThickness get Ts mul /Tt exch def
  ux uy To add cs add moveto Tcx uy To add cs add lineto
  Tt setlinewidth stroke
  grestore
} bd
/SOE {
  /Tcx currentpoint pop def
  gsave
  newpath
  cf findfont cs scalefont dup
  /FontMatrix get 0 get /Ts exch def /FontInfo get dup
  /UnderlinePosition get Ts mul /To exch def
  /UnderlineThickness get Ts mul /Tt exch def
  ux uy To add cs 10 mul 26 idiv add moveto Tcx uy To add cs 10 mul 26 idiv add lineto
  Tt setlinewidth stroke
  grestore
} bd
/QT {
/Y22 exch store
/X22 exch store
/Y21 exch store
/X21 exch store
currentpoint
/Y21 load 2 mul add 3 div exch
/X21 load 2 mul add 3 div exch
/X21 load 2 mul /X22 load add 3 div
/Y21 load 2 mul /Y22 load add 3 div
/X22 load /Y22 load curveto
} bd
/SSPD {
dup length /d exch dict def
{
/v exch def
/k exch def
currentpagedevice k known {
/cpdv currentpagedevice k get def
v cpdv ne {
/upd false def
/nullv v type /nulltype eq def
/nullcpdv cpdv type /nulltype eq def
nullv nullcpdv or
{
/upd true def
} {
/sametype v type cpdv type eq def
sametype {
v type /arraytype eq {
/vlen v length def
/cpdvlen cpdv length def
vlen cpdvlen eq {
0 1 vlen 1 sub {
/i exch def
/obj v i get def
/cpdobj cpdv i get def
obj cpdobj ne {
/upd true def
exit
} if
} for
} {
/upd true def
} ifelse
} {
v type /dicttype eq {
v {
/dv exch def
/dk exch def
/cpddv cpdv dk get def
dv cpddv ne {
/upd true def
exit
} if
} forall
} {
/upd true def
} ifelse
} ifelse
} if
} ifelse
upd true eq {
d k v put
} if
} if
} if
} forall
d length 0 gt {
d setpagedevice
} if
} bd
%%EndResource
%%BeginResource: procset (Apache XML Graphics EPS ProcSet) 1.0 0
%%Version: 1.0 0
%%Copyright: (Copyright 2002-2003 The Apache Software Foundation. License terms: http://www.apache.org/licenses/LICENSE-2.0)
/BeginEPSF { %def
/b4_Inc_state save def         % Save state for cleanup
/dict_count countdictstack def % Count objects on dict stack
/op_count count 1 sub def      % Count objects on operand stack
userdict begin                 % Push userdict on dict stack
/showpage { } def              % Redefine showpage, { } = null proc
0 setgray 0 setlinecap         % Prepare graphics state
1 setlinewidth 0 setlinejoin
10 setmiterlimit [ ] 0 setdash newpath
/languagelevel where           % If level not equal to 1 then
{pop languagelevel             % set strokeadjust and
1 ne                           % overprint to their defaults.
{false setstrokeadjust false setoverprint
} if
} if
} bd
/EndEPSF { %def
count op_count sub {pop} repeat            % Clean up stacks
countdictstack dict_count sub {end} repeat
b4_Inc_state restore
} bd
%%EndResource
%FOPBeginFontDict
%%IncludeResource: font Courier-Bold
%%IncludeResource: font Helvetica
%%IncludeResource: font Courier-BoldOblique
%%IncludeResource: font Courier-Oblique
%%IncludeResource: font Times-Roman
%%IncludeResource: font Helvetica-BoldOblique
%%IncludeResource: font Helvetica-Bold
%%IncludeResource: font Helvetica-Oblique
%%IncludeResource: font Times-BoldItalic
%%IncludeResource: font Courier
%%IncludeResource: font Times-Italic
%%IncludeResource: font Times-Bold
%%IncludeResource: font Symbol
%%IncludeResource: font ZapfDingbats
%FOPEndFontDict
%%BeginResource: encoding WinAnsiEncoding
/WinAnsiEncoding [
/.notdef /.notdef /.notdef /.notdef /.notdef
/.notdef /.notdef /.notdef /.notdef /.notdef
/.notdef /.notdef /.notdef /.notdef /.notdef
/.notdef /.notdef /.notdef /.notdef /.notdef
/.notdef /.notdef /.notdef /.notdef /.notdef
/.notdef /.notdef /.notdef /.notdef /.notdef
/.notdef /.notdef /space /exclam /quotedbl
/numbersign /dollar /percent /ampersand /quotesingle
/parenleft /parenright /asterisk /plus /comma
/hyphen /period /slash /zero /one
/two /three /four /five /six
/seven /eight /nine /colon /semicolon
/less /equal /greater /question /at
/A /B /C /D /E
/F /G /H /I /J
/K /L /M /N /O
/P /Q /R /S /T
/U /V /W /X /Y
/Z /bracketleft /backslash /bracketright /asciicircum
/underscore /quoteleft /a /b /c
/d /e /f /g /h
/i /j /k /l /m
/n /o /p /q /r
/s /t /u /v /w
/x /y /z /braceleft /bar
/braceright /asciitilde /bullet /Euro /bullet
/quotesinglbase /florin /quotedblbase /ellipsis /dagger
/daggerdbl /circumflex /perthousand /Scaron /guilsinglleft
/OE /bullet /Zcaron /bullet /bullet
/quoteleft /quoteright /quotedblleft /quotedblright /bullet
/endash /emdash /asciitilde /trademark /scaron
/guilsinglright /oe /bullet /zcaron /Ydieresis
/space /exclamdown /cent /sterling /currency
/yen /brokenbar /section /dieresis /copyright
/ordfeminine /guillemotleft /logicalnot /sfthyphen /registered
/macron /degree /plusminus /twosuperior /threesuperior
/acute /mu /paragraph /middot /cedilla
/onesuperior /ordmasculine /guillemotright /onequarter /onehalf
/threequarters /questiondown /Agrave /Aacute /Acircumflex
/Atilde /Adieresis /Aring /AE /Ccedilla
/Egrave /Eacute /Ecircumflex /Edieresis /Igrave
/Iacute /Icircumflex /Idieresis /Eth /Ntilde
/Ograve /Oacute /Ocircumflex /Otilde /Odieresis
/multiply /Oslash /Ugrave /Uacute /Ucircumflex
/Udieresis /Yacute /Thorn /germandbls /agrave
/aacute /acircumflex /atilde /adieresis /aring
/ae /ccedilla /egrave /eacute /ecircumflex
/edieresis /igrave /iacute /icircumflex /idieresis
/eth /ntilde /ograve /oacute /ocircumflex
/otilde /odieresis /divide /oslash /ugrave
/uacute /ucircumflex /udieresis /yacute /thorn
/ydieresis
] def
%%EndResource
%FOPBeginFontReencode
/Courier-Bold findfont
dup length dict begin
  {1 index /FID ne {def} {pop pop} ifelse} forall
  /Encoding WinAnsiEncoding def
  currentdict
end
/Courier-Bold exch definefont pop
/Helvetica findfont
dup length dict begin
  {1 index /FID ne {def} {pop pop} ifelse} forall
  /Encoding WinAnsiEncoding def
  currentdict
end
/Helvetica exch definefont pop
/Courier-BoldOblique findfont
dup length dict begin
  {1 index /FID ne {def} {pop pop} ifelse} forall
  /Encoding WinAnsiEncoding def
  currentdict
end
/Courier-BoldOblique exch definefont pop
/Courier-Oblique findfont
dup length dict begin
  {1 index /FID ne {def} {pop pop} ifelse} forall
  /Encoding WinAnsiEncoding def
  currentdict
end
/Courier-Oblique exch definefont pop
/Times-Roman findfont
dup length dict begin
  {1 index /FID ne {def} {pop pop} ifelse} forall
  /Encoding WinAnsiEncoding def
  currentdict
end
/Times-Roman exch definefont pop
/Helvetica-BoldOblique findfont
dup length dict begin
  {1 index /FID ne {def} {pop pop} ifelse} forall
  /Encoding WinAnsiEncoding def
  currentdict
end
/Helvetica-BoldOblique exch definefont pop
/Helvetica-Bold findfont
dup length dict begin
  {1 index /FID ne {def} {pop pop} ifelse} forall
  /Encoding WinAnsiEncoding def
  currentdict
end
/Helvetica-Bold exch definefont pop
/Helvetica-Oblique findfont
dup length dict begin
  {1 index /FID ne {def} {pop pop} ifelse} forall
  /Encoding WinAnsiEncoding def
  currentdict
end
/Helvetica-Oblique exch definefont pop
/Times-BoldItalic findfont
dup length dict begin
  {1 index /FID ne {def} {pop pop} ifelse} forall
  /Encoding WinAnsiEncoding def
  currentdict
end
/Times-BoldItalic exch definefont pop
/Courier findfont
dup length dict begin
  {1 index /FID ne {def} {pop pop} ifelse} forall
  /Encoding WinAnsiEncoding def
  currentdict
end
/Courier exch definefont pop
/Times-Italic findfont
dup length dict begin
  {1 index /FID ne {def} {pop pop} ifelse} forall
  /Encoding WinAnsiEncoding def
  currentdict
end
/Times-Italic exch definefont pop
/Times-Bold findfont
dup length dict begin
  {1 index /FID ne {def} {pop pop} ifelse} forall
  /Encoding WinAnsiEncoding def
  currentdict
end
/Times-Bold exch definefont pop
%FOPEndFontReencode
%%EndProlog
%%Page: 1 1
%%PageBoundingBox: 0 0 455 396
%%BeginPageSetup
[1 0 0 -1 0 396] CT
%%EndPageSetup
GS
[0.75 0 0 0.75 0 0] CT
1 GC
N
0 0 607 528 re
f
GR
GS
[0.75 0 0 0.75 0 0] CT
1 GC
N
0 0 607 528 re
f
GR
GS
[0.75 0 0 0.75 0 0] CT
1 GC
N
79 470 M
549 470 L
549 49 L
79 49 L
cp
f
GR
GS
[0.75 0 0 0.75 0 0] CT
0.873 GC
2 setlinecap
10.0 ML
N
79 470 M
79 49 L
S
GR
GS
[0.75 0 0 0.75 0 0] CT
0.873 GC
2 setlinecap
10.0 ML
N
173 470 M
173 49 L
S
GR
GS
[0.75 0 0 0.75 0 0] CT
0.873 GC
2 setlinecap
10.0 ML
N
267 470 M
267 49 L
S
GR
GS
[0.75 0 0 0.75 0 0] CT
0.873 GC
2 setlinecap
10.0 ML
N
361 470 M
361 49 L
S
GR
GS
[0.75 0 0 0.75 0 0] CT
0.873 GC
2 setlinecap
10.0 ML
N
455 470 M
455 49 L
S
GR
GS
[0.75 0 0 0.75 0 0] CT
0.873 GC
2 setlinecap
10.0 ML
N
549 470 M
549 49 L
S
GR
GS
[0.75 0 0 0.75 0 0] CT
0.873 GC
2 setlinecap
10.0 ML
N
549 470 M
79 470 L
S
GR
GS
[0.75 0 0 0.75 0 0] CT
0.873 GC
2 setlinecap
10.0 ML
N
549 409.857 M
79 409.857 L
S
GR
GS
[0.75 0 0 0.75 0 0] CT
0.873 GC
2 setlinecap
10.0 ML
N
549 349.714 M
79 349.714 L
S
GR
GS
[0.75 0 0 0.75 0 0] CT
0.873 GC
2 setlinecap
10.0 ML
N
549 289.571 M
79 289.571 L
S
GR
GS
[0.75 0 0 0.75 0 0] CT
0.873 GC
2 setlinecap
10.0 ML
N
549 229.429 M
79 229.429 L
S
GR
GS
[0.75 0 0 0.75 0 0] CT
0.873 GC
2 setlinecap
10.0 ML
N
549 169.286 M
79 169.286 L
S
GR
GS
[0.75 0 0 0.75 0 0] CT
0.873 GC
2 setlinecap
10.0 ML
N
549 109.143 M
79 109.143 L
S
GR
GS
[0.75 0 0 0.75 0 0] CT
0.873 GC
2 setlinecap
10.0 ML
N
549 49 M
79 49 L
S
GR
GS
[0.75 0 0 0.75 235.5 371.11876] CT
0.149 GC
/Helvetica-Bold 18 F
GS
[1 0 0 1 0 0] CT
-118.696 16.708 moveto 
1 -1 scale
(angular mode number l) t 
GR
GR
GS
[0.75 0 0 0.75 0 0] CT
0.149 GC
2 setlinecap
10.0 ML
N
79 470 M
549 470 L
S
GR
GS
[0.75 0 0 0.75 0 0] CT
0.149 GC
2 setlinecap
10.0 ML
N
79 49 M
549 49 L
S
GR
GS
[0.75 0 0 0.75 0 0] CT
0.149 GC
2 setlinecap
10.0 ML
N
79 470 M
79 465.3 L
S
GR
GS
[0.75 0 0 0.75 0 0] CT
0.149 GC
2 setlinecap
10.0 ML
N
79 49 M
79 53.7 L
S
GR
GS
[0.75 0 0 0.75 0 0] CT
0.149 GC
2 setlinecap
10.0 ML
N
173 470 M
173 465.3 L
S
GR
GS
[0.75 0 0 0.75 0 0] CT
0.149 GC
2 setlinecap
10.0 ML
N
173 49 M
173 53.7 L
S
GR
GS
[0.75 0 0 0.75 0 0] CT
0.149 GC
2 setlinecap
10.0 ML
N
267 470 M
267 465.3 L
S
GR
GS
[0.75 0 0 0.75 0 0] CT
0.149 GC
2 setlinecap
10.0 ML
N
267 49 M
267 53.7 L
S
GR
GS
[0.75 0 0 0.75 0 0] CT
0.149 GC
2 setlinecap
10.0 ML
N
361 470 M
361 465.3 L
S
GR
GS
[0.75 0 0 0.75 0 0] CT
0.149 GC
2 setlinecap
10.0 ML
N
361 49 M
361 53.7 L
S
GR
GS
[0.75 0 0 0.75 0 0] CT
0.149 GC
2 setlinecap
10.0 ML
N
455 470 M
455 465.3 L
S
GR
GS
[0.75 0 0 0.75 0 0] CT
0.149 GC
2 setlinecap
10.0 ML
N
455 49 M
455 53.7 L
S
GR
GS
[0.75 0 0 0.75 0 0] CT
0.149 GC
2 setlinecap
10.0 ML
N
549 470 M
549 465.3 L
S
GR
GS
[0.75 0 0 0.75 0 0] CT
0.149 GC
2 setlinecap
10.0 ML
N
549 49 M
549 53.7 L
S
GR
GS
[0.75 0 0 0.75 59.25 356.9] CT
0.149 GC
/Helvetica 16 F
GS
[1 0 0 1 0 0] CT
-5.09 14.852 moveto 
1 -1 scale
(0) t 
GR
GR
GS
[0.75 0 0 0.75 129.75 356.9] CT
0.149 GC
/Helvetica 16 F
GS
[1 0 0 1 0 0] CT
-5.09 14.852 moveto 
1 -1 scale
(1) t 
GR
GR
GS
[0.75 0 0 0.75 200.25 356.9] CT
0.149 GC
/Helvetica 16 F
GS
[1 0 0 1 0 0] CT
-5.09 14.852 moveto 
1 -1 scale
(2) t 
GR
GR
GS
[0.75 0 0 0.75 270.75 356.9] CT
0.149 GC
/Helvetica 16 F
GS
[1 0 0 1 0 0] CT
-5.09 14.852 moveto 
1 -1 scale
(3) t 
GR
GR
GS
[0.75 0 0 0.75 341.25 356.9] CT
0.149 GC
/Helvetica 16 F
GS
[1 0 0 1 0 0] CT
-5.09 14.852 moveto 
1 -1 scale
(4) t 
GR
GR
GS
[0.75 0 0 0.75 411.75 356.9] CT
0.149 GC
/Helvetica 16 F
GS
[1 0 0 1 0 0] CT
-5.09 14.852 moveto 
1 -1 scale
(5) t 
GR
GR
GS
[0 -0.75 0.75 0 19.5 273.75] CT
0.149 GC
/Helvetica-Bold 17 F
GS
[1 0 0 1 0 0] CT
0 0 moveto 
1 -1 scale
(Ledoux coefficient C) t 
GR
GR
GS
[0 -0.75 0.75 0 25.5 126.75] CT
0.149 GC
/Helvetica-Bold 13 F
GS
[1 0 0 1 0 0] CT
0 0 moveto 
1 -1 scale
(n) t 
GR
GR
GS
[0 -0.75 0.75 0 25.5 119.25] CT
0.149 GC
/Helvetica-Bold 13 F
GS
[1 0 0 1 0 0] CT
0 0 moveto 
1 -1 scale
(l) t 
GR
GR
GS
[0.75 0 0 0.75 0 0] CT
0.149 GC
2 setlinecap
10.0 ML
N
79 470 M
79 49 L
S
GR
GS
[0.75 0 0 0.75 0 0] CT
0.149 GC
2 setlinecap
10.0 ML
N
549 470 M
549 49 L
S
GR
GS
[0.75 0 0 0.75 0 0] CT
0.149 GC
2 setlinecap
10.0 ML
N
79 470 M
83.7 470 L
S
GR
GS
[0.75 0 0 0.75 0 0] CT
0.149 GC
2 setlinecap
10.0 ML
N
549 470 M
544.3 470 L
S
GR
GS
[0.75 0 0 0.75 0 0] CT
0.149 GC
2 setlinecap
10.0 ML
N
79 409.857 M
83.7 409.857 L
S
GR
GS
[0.75 0 0 0.75 0 0] CT
0.149 GC
2 setlinecap
10.0 ML
N
549 409.857 M
544.3 409.857 L
S
GR
GS
[0.75 0 0 0.75 0 0] CT
0.149 GC
2 setlinecap
10.0 ML
N
79 349.714 M
83.7 349.714 L
S
GR
GS
[0.75 0 0 0.75 0 0] CT
0.149 GC
2 setlinecap
10.0 ML
N
549 349.714 M
544.3 349.714 L
S
GR
GS
[0.75 0 0 0.75 0 0] CT
0.149 GC
2 setlinecap
10.0 ML
N
79 289.571 M
83.7 289.571 L
S
GR
GS
[0.75 0 0 0.75 0 0] CT
0.149 GC
2 setlinecap
10.0 ML
N
549 289.571 M
544.3 289.571 L
S
GR
GS
[0.75 0 0 0.75 0 0] CT
0.149 GC
2 setlinecap
10.0 ML
N
79 229.429 M
83.7 229.429 L
S
GR
GS
[0.75 0 0 0.75 0 0] CT
0.149 GC
2 setlinecap
10.0 ML
N
549 229.429 M
544.3 229.429 L
S
GR
GS
[0.75 0 0 0.75 0 0] CT
0.149 GC
2 setlinecap
10.0 ML
N
79 169.286 M
83.7 169.286 L
S
GR
GS
[0.75 0 0 0.75 0 0] CT
0.149 GC
2 setlinecap
10.0 ML
N
549 169.286 M
544.3 169.286 L
S
GR
GS
[0.75 0 0 0.75 0 0] CT
0.149 GC
2 setlinecap
10.0 ML
N
79 109.143 M
83.7 109.143 L
S
GR
GS
[0.75 0 0 0.75 0 0] CT
0.149 GC
2 setlinecap
10.0 ML
N
549 109.143 M
544.3 109.143 L
S
GR
GS
[0.75 0 0 0.75 0 0] CT
0.149 GC
2 setlinecap
10.0 ML
N
79 49 M
83.7 49 L
S
GR
GS
[0.75 0 0 0.75 0 0] CT
0.149 GC
2 setlinecap
10.0 ML
N
549 49 M
544.3 49 L
S
GR
GS
[0.75 0 0 0.75 54.85 352.5] CT
0.149 GC
/Helvetica 16 F
GS
[1 0 0 1 0 0] CT
-31.219 6.039 moveto 
1 -1 scale
(-0.1) t 
GR
GR
GS
[0.75 0 0 0.75 54.85 307.39286] CT
0.149 GC
/Helvetica 16 F
GS
[1 0 0 1 0 0] CT
-10.18 6.039 moveto 
1 -1 scale
(0) t 
GR
GR
GS
[0.75 0 0 0.75 54.85 262.28572] CT
0.149 GC
/Helvetica 16 F
GS
[1 0 0 1 0 0] CT
-25.445 6.039 moveto 
1 -1 scale
(0.1) t 
GR
GR
GS
[0.75 0 0 0.75 54.85 217.17858] CT
0.149 GC
/Helvetica 16 F
GS
[1 0 0 1 0 0] CT
-25.445 6.039 moveto 
1 -1 scale
(0.2) t 
GR
GR
GS
[0.75 0 0 0.75 54.85 172.07142] CT
0.149 GC
/Helvetica 16 F
GS
[1 0 0 1 0 0] CT
-25.445 6.039 moveto 
1 -1 scale
(0.3) t 
GR
GR
GS
[0.75 0 0 0.75 54.85 126.96428] CT
0.149 GC
/Helvetica 16 F
GS
[1 0 0 1 0 0] CT
-25.445 6.039 moveto 
1 -1 scale
(0.4) t 
GR
GR
GS
[0.75 0 0 0.75 54.85 81.85715] CT
0.149 GC
/Helvetica 16 F
GS
[1 0 0 1 0 0] CT
-25.445 6.039 moveto 
1 -1 scale
(0.5) t 
GR
GR
GS
[0.75 0 0 0.75 54.85 36.74999] CT
0.149 GC
/Helvetica 16 F
GS
[1 0 0 1 0 0] CT
-25.445 6.039 moveto 
1 -1 scale
(0.6) t 
GR
GR
GS
[0.75 0 0 0.75 0 0] CT
N
172.5 410.832 M
176.5 405.5 L
172.5 400.168 L
168.5 405.5 L
cp
f
GR
GS
[0.75 0 0 0.75 0 0] CT
2 setlinecap
10.0 ML
N
172.5 410.832 M
176.5 405.5 L
172.5 400.168 L
168.5 405.5 L
172.5 410.832 L
S
GR
GS
[0.75 0 0 0.75 0 0] CT
N
266.5 430.832 M
270.5 425.5 L
266.5 420.168 L
262.5 425.5 L
cp
f
GR
GS
[0.75 0 0 0.75 0 0] CT
2 setlinecap
10.0 ML
N
266.5 430.832 M
270.5 425.5 L
266.5 420.168 L
262.5 425.5 L
266.5 430.832 L
S
GR
GS
[0.75 0 0 0.75 0 0] CT
N
361.5 423.832 M
365.5 418.5 L
361.5 413.168 L
357.5 418.5 L
cp
f
GR
GS
[0.75 0 0 0.75 0 0] CT
2 setlinecap
10.0 ML
N
361.5 423.832 M
365.5 418.5 L
361.5 413.168 L
357.5 418.5 L
361.5 423.832 L
S
GR
GS
[0.75 0 0 0.75 0 0] CT
N
455.5 422.832 M
459.5 417.5 L
455.5 412.168 L
451.5 417.5 L
cp
f
GR
GS
[0.75 0 0 0.75 0 0] CT
2 setlinecap
10.0 ML
N
455.5 422.832 M
459.5 417.5 L
455.5 412.168 L
451.5 417.5 L
455.5 422.832 L
S
GR
GS
[0.75 0 0 0.75 0 0] CT
N
549.5 423.832 M
553.5 418.5 L
549.5 413.168 L
545.5 418.5 L
cp
f
GR
GS
[0.75 0 0 0.75 0 0] CT
2 setlinecap
10.0 ML
N
549.5 423.832 M
553.5 418.5 L
549.5 413.168 L
545.5 418.5 L
549.5 423.832 L
S
GR
GS
[0.75 0 0 0.75 0 0] CT
0 0 1 RC
2 setlinecap
10.0 ML
N
169 193 M
176 186 L
S
GR
GS
[0.75 0 0 0.75 0 0] CT
0 0 1 RC
2 setlinecap
10.0 ML
N
169 186 M
176 193 L
S
GR
GS
[0.75 0 0 0.75 0 0] CT
0 0 1 RC
2 setlinecap
10.0 ML
N
263 402 M
270 395 L
S
GR
GS
[0.75 0 0 0.75 0 0] CT
0 0 1 RC
2 setlinecap
10.0 ML
N
263 395 M
270 402 L
S
GR
GS
[0.75 0 0 0.75 0 0] CT
0 0 1 RC
2 setlinecap
10.0 ML
N
358 393 M
365 386 L
S
GR
GS
[0.75 0 0 0.75 0 0] CT
0 0 1 RC
2 setlinecap
10.0 ML
N
358 386 M
365 393 L
S
GR
GS
[0.75 0 0 0.75 0 0] CT
0 0 1 RC
2 setlinecap
10.0 ML
N
452 403 M
459 396 L
S
GR
GS
[0.75 0 0 0.75 0 0] CT
0 0 1 RC
2 setlinecap
10.0 ML
N
452 396 M
459 403 L
S
GR
GS
[0.75 0 0 0.75 0 0] CT
0 0 1 RC
2 setlinecap
10.0 ML
N
546 415 M
553 408 L
S
GR
GS
[0.75 0 0 0.75 0 0] CT
0 0 1 RC
2 setlinecap
10.0 ML
N
546 408 M
553 415 L
S
GR
GS
[0.75 0 0 0.75 0 0] CT
1 0 0 RC
2 setlinecap
10.0 ML
N
168 89.5 M
177 89.5 L
S
GR
GS
[0.75 0 0 0.75 0 0] CT
1 0 0 RC
2 setlinecap
10.0 ML
N
172.5 94 M
172.5 85 L
S
GR
GS
[0.75 0 0 0.75 0 0] CT
1 0 0 RC
2 setlinecap
10.0 ML
N
262 360.5 M
271 360.5 L
S
GR
GS
[0.75 0 0 0.75 0 0] CT
1 0 0 RC
2 setlinecap
10.0 ML
N
266.5 365 M
266.5 356 L
S
GR
GS
[0.75 0 0 0.75 0 0] CT
1 0 0 RC
2 setlinecap
10.0 ML
N
357 380.5 M
366 380.5 L
S
GR
GS
[0.75 0 0 0.75 0 0] CT
1 0 0 RC
2 setlinecap
10.0 ML
N
361.5 385 M
361.5 376 L
S
GR
GS
[0.75 0 0 0.75 0 0] CT
1 0 0 RC
2 setlinecap
10.0 ML
N
451 394.5 M
460 394.5 L
S
GR
GS
[0.75 0 0 0.75 0 0] CT
1 0 0 RC
2 setlinecap
10.0 ML
N
455.5 399 M
455.5 390 L
S
GR
GS
[0.75 0 0 0.75 0 0] CT
1 0 0 RC
2 setlinecap
10.0 ML
N
545 403.5 M
554 403.5 L
S
GR
GS
[0.75 0 0 0.75 0 0] CT
1 0 0 RC
2 setlinecap
10.0 ML
N
549.5 408 M
549.5 399 L
S
GR
GS
[0.75 0 0 0.75 0 0] CT
1 0 1 RC
N
172.5 155.832 M
177.118 147.834 L
167.882 147.834 L
cp
f
GR
GS
[0.75 0 0 0.75 0 0] CT
1 0 1 RC
2 setlinecap
10.0 ML
N
172.5 155.832 M
177.118 147.834 L
167.882 147.834 L
172.5 155.832 L
S
GR
GS
[0.75 0 0 0.75 0 0] CT
1 0 1 RC
N
266.5 347.832 M
271.118 339.834 L
261.882 339.834 L
cp
f
GR
GS
[0.75 0 0 0.75 0 0] CT
1 0 1 RC
2 setlinecap
10.0 ML
N
266.5 347.832 M
271.118 339.834 L
261.882 339.834 L
266.5 347.832 L
S
GR
GS
[0.75 0 0 0.75 0 0] CT
1 0 1 RC
N
361.5 381.832 M
366.118 373.834 L
356.882 373.834 L
cp
f
GR
GS
[0.75 0 0 0.75 0 0] CT
1 0 1 RC
2 setlinecap
10.0 ML
N
361.5 381.832 M
366.118 373.834 L
356.882 373.834 L
361.5 381.832 L
S
GR
GS
[0.75 0 0 0.75 0 0] CT
1 0 1 RC
N
455.5 396.832 M
460.118 388.834 L
450.882 388.834 L
cp
f
GR
GS
[0.75 0 0 0.75 0 0] CT
1 0 1 RC
2 setlinecap
10.0 ML
N
455.5 396.832 M
460.118 388.834 L
450.882 388.834 L
455.5 396.832 L
S
GR
GS
[0.75 0 0 0.75 0 0] CT
1 0 1 RC
N
549.5 405.832 M
554.117 397.834 L
544.883 397.834 L
cp
f
GR
GS
[0.75 0 0 0.75 0 0] CT
1 0 1 RC
2 setlinecap
10.0 ML
N
549.5 405.832 M
554.117 397.834 L
544.883 397.834 L
549.5 405.832 L
S
GR
GS
[0.75 0 0 0.75 0 0] CT
0 1 0 RC
N
169.38 154.62 M
169.38 148.38 L
175.62 148.38 L
175.62 154.62 L
cp
f
GR
GS
[0.75 0 0 0.75 0 0] CT
0 1 0 RC
2 setlinecap
10.0 ML
N
169.38 154.62 M
169.38 148.38 L
175.62 148.38 L
175.62 154.62 L
169.38 154.62 L
S
GR
GS
[0.75 0 0 0.75 0 0] CT
0 1 0 RC
N
263.38 324.62 M
263.38 318.38 L
269.62 318.38 L
269.62 324.62 L
cp
f
GR
GS
[0.75 0 0 0.75 0 0] CT
0 1 0 RC
2 setlinecap
10.0 ML
N
263.38 324.62 M
263.38 318.38 L
269.62 318.38 L
269.62 324.62 L
263.38 324.62 L
S
GR
GS
[0.75 0 0 0.75 0 0] CT
0 1 0 RC
N
358.38 374.62 M
358.38 368.38 L
364.62 368.38 L
364.62 374.62 L
cp
f
GR
GS
[0.75 0 0 0.75 0 0] CT
0 1 0 RC
2 setlinecap
10.0 ML
N
358.38 374.62 M
358.38 368.38 L
364.62 368.38 L
364.62 374.62 L
358.38 374.62 L
S
GR
GS
[0.75 0 0 0.75 0 0] CT
0 1 0 RC
N
452.38 392.62 M
452.38 386.38 L
458.62 386.38 L
458.62 392.62 L
cp
f
GR
GS
[0.75 0 0 0.75 0 0] CT
0 1 0 RC
2 setlinecap
10.0 ML
N
452.38 392.62 M
452.38 386.38 L
458.62 386.38 L
458.62 392.62 L
452.38 392.62 L
S
GR
GS
[0.75 0 0 0.75 0 0] CT
0 1 0 RC
N
546.38 401.62 M
546.38 395.38 L
552.62 395.38 L
552.62 401.62 L
cp
f
GR
GS
[0.75 0 0 0.75 0 0] CT
0 1 0 RC
2 setlinecap
10.0 ML
N
546.38 401.62 M
546.38 395.38 L
552.62 395.38 L
552.62 401.62 L
546.38 401.62 L
S
GR
GS
[0.75 0 0 0.75 0 0] CT
N
172.5 137.5 M
168.696 136.264 L
171.56 136.264 L
cp
f
GR
GS
[0.75 0 0 0.75 0 0] CT
N
172.5 137.5 M
171.56 136.264 L
172.5 133.5 L
cp
f
GR
GS
[0.75 0 0 0.75 0 0] CT
N
172.5 137.5 M
172.5 133.5 L
173.44 136.264 L
cp
f
GR
GS
[0.75 0 0 0.75 0 0] CT
N
172.5 137.5 M
173.44 136.264 L
176.304 136.264 L
cp
f
GR
GS
[0.75 0 0 0.75 0 0] CT
N
172.5 137.5 M
176.304 136.264 L
174.022 137.994 L
cp
f
GR
GS
[0.75 0 0 0.75 0 0] CT
N
172.5 137.5 M
174.022 137.994 L
174.851 140.736 L
cp
f
GR
GS
[0.75 0 0 0.75 0 0] CT
N
172.5 137.5 M
174.851 140.736 L
172.5 139.1 L
cp
f
GR
GS
[0.75 0 0 0.75 0 0] CT
N
172.5 137.5 M
172.5 139.1 L
170.149 140.736 L
cp
f
GR
GS
[0.75 0 0 0.75 0 0] CT
N
172.5 137.5 M
170.149 140.736 L
170.978 137.994 L
cp
f
GR
GS
[0.75 0 0 0.75 0 0] CT
N
172.5 137.5 M
170.978 137.994 L
168.696 136.264 L
cp
f
GR
GS
[0.75 0 0 0.75 0 0] CT
2 setlinecap
10.0 ML
N
168.696 136.264 M
171.56 136.264 L
172.5 133.5 L
173.44 136.264 L
176.304 136.264 L
174.022 137.994 L
174.851 140.736 L
172.5 139.1 L
170.149 140.736 L
170.978 137.994 L
168.696 136.264 L
S
GR
GS
[0.75 0 0 0.75 0 0] CT
N
266.5 327.5 M
262.696 326.264 L
265.56 326.264 L
cp
f
GR
GS
[0.75 0 0 0.75 0 0] CT
N
266.5 327.5 M
265.56 326.264 L
266.5 323.5 L
cp
f
GR
GS
[0.75 0 0 0.75 0 0] CT
N
266.5 327.5 M
266.5 323.5 L
267.44 326.264 L
cp
f
GR
GS
[0.75 0 0 0.75 0 0] CT
N
266.5 327.5 M
267.44 326.264 L
270.304 326.264 L
cp
f
GR
GS
[0.75 0 0 0.75 0 0] CT
N
266.5 327.5 M
270.304 326.264 L
268.022 327.994 L
cp
f
GR
GS
[0.75 0 0 0.75 0 0] CT
N
266.5 327.5 M
268.022 327.994 L
268.851 330.736 L
cp
f
GR
GS
[0.75 0 0 0.75 0 0] CT
N
266.5 327.5 M
268.851 330.736 L
266.5 329.1 L
cp
f
GR
GS
[0.75 0 0 0.75 0 0] CT
N
266.5 327.5 M
266.5 329.1 L
264.149 330.736 L
cp
f
GR
GS
[0.75 0 0 0.75 0 0] CT
N
266.5 327.5 M
264.149 330.736 L
264.978 327.994 L
cp
f
GR
GS
[0.75 0 0 0.75 0 0] CT
N
266.5 327.5 M
264.978 327.994 L
262.696 326.264 L
cp
f
GR
GS
[0.75 0 0 0.75 0 0] CT
2 setlinecap
10.0 ML
N
262.696 326.264 M
265.56 326.264 L
266.5 323.5 L
267.44 326.264 L
270.304 326.264 L
268.022 327.994 L
268.851 330.736 L
266.5 329.1 L
264.149 330.736 L
264.978 327.994 L
262.696 326.264 L
S
GR
GS
[0.75 0 0 0.75 0 0] CT
N
361.5 370.5 M
357.696 369.264 L
360.56 369.264 L
cp
f
GR
GS
[0.75 0 0 0.75 0 0] CT
N
361.5 370.5 M
360.56 369.264 L
361.5 366.5 L
cp
f
GR
GS
[0.75 0 0 0.75 0 0] CT
N
361.5 370.5 M
361.5 366.5 L
362.44 369.264 L
cp
f
GR
GS
[0.75 0 0 0.75 0 0] CT
N
361.5 370.5 M
362.44 369.264 L
365.304 369.264 L
cp
f
GR
GS
[0.75 0 0 0.75 0 0] CT
N
361.5 370.5 M
365.304 369.264 L
363.022 370.994 L
cp
f
GR
GS
[0.75 0 0 0.75 0 0] CT
N
361.5 370.5 M
363.022 370.994 L
363.851 373.736 L
cp
f
GR
GS
[0.75 0 0 0.75 0 0] CT
N
361.5 370.5 M
363.851 373.736 L
361.5 372.1 L
cp
f
GR
GS
[0.75 0 0 0.75 0 0] CT
N
361.5 370.5 M
361.5 372.1 L
359.149 373.736 L
cp
f
GR
GS
[0.75 0 0 0.75 0 0] CT
N
361.5 370.5 M
359.149 373.736 L
359.978 370.994 L
cp
f
GR
GS
[0.75 0 0 0.75 0 0] CT
N
361.5 370.5 M
359.978 370.994 L
357.696 369.264 L
cp
f
GR
GS
[0.75 0 0 0.75 0 0] CT
2 setlinecap
10.0 ML
N
357.696 369.264 M
360.56 369.264 L
361.5 366.5 L
362.44 369.264 L
365.304 369.264 L
363.022 370.994 L
363.851 373.736 L
361.5 372.1 L
359.149 373.736 L
359.978 370.994 L
357.696 369.264 L
S
GR
GS
[0.75 0 0 0.75 0 0] CT
N
455.5 387.5 M
451.696 386.264 L
454.56 386.264 L
cp
f
GR
GS
[0.75 0 0 0.75 0 0] CT
N
455.5 387.5 M
454.56 386.264 L
455.5 383.5 L
cp
f
GR
GS
[0.75 0 0 0.75 0 0] CT
N
455.5 387.5 M
455.5 383.5 L
456.44 386.264 L
cp
f
GR
GS
[0.75 0 0 0.75 0 0] CT
N
455.5 387.5 M
456.44 386.264 L
459.304 386.264 L
cp
f
GR
GS
[0.75 0 0 0.75 0 0] CT
N
455.5 387.5 M
459.304 386.264 L
457.022 387.994 L
cp
f
GR
GS
[0.75 0 0 0.75 0 0] CT
N
455.5 387.5 M
457.022 387.994 L
457.851 390.736 L
cp
f
GR
GS
[0.75 0 0 0.75 0 0] CT
N
455.5 387.5 M
457.851 390.736 L
455.5 389.1 L
cp
f
GR
GS
[0.75 0 0 0.75 0 0] CT
N
455.5 387.5 M
455.5 389.1 L
453.149 390.736 L
cp
f
GR
GS
[0.75 0 0 0.75 0 0] CT
N
455.5 387.5 M
453.149 390.736 L
453.978 387.994 L
cp
f
GR
GS
[0.75 0 0 0.75 0 0] CT
N
455.5 387.5 M
453.978 387.994 L
451.696 386.264 L
cp
f
GR
GS
[0.75 0 0 0.75 0 0] CT
2 setlinecap
10.0 ML
N
451.696 386.264 M
454.56 386.264 L
455.5 383.5 L
456.44 386.264 L
459.304 386.264 L
457.022 387.994 L
457.851 390.736 L
455.5 389.1 L
453.149 390.736 L
453.978 387.994 L
451.696 386.264 L
S
GR
GS
[0.75 0 0 0.75 0 0] CT
N
549.5 396.5 M
545.696 395.264 L
548.56 395.264 L
cp
f
GR
GS
[0.75 0 0 0.75 0 0] CT
N
549.5 396.5 M
548.56 395.264 L
549.5 392.5 L
cp
f
GR
GS
[0.75 0 0 0.75 0 0] CT
N
549.5 396.5 M
549.5 392.5 L
550.44 395.264 L
cp
f
GR
GS
[0.75 0 0 0.75 0 0] CT
N
549.5 396.5 M
550.44 395.264 L
553.304 395.264 L
cp
f
GR
GS
[0.75 0 0 0.75 0 0] CT
N
549.5 396.5 M
553.304 395.264 L
551.022 396.994 L
cp
f
GR
GS
[0.75 0 0 0.75 0 0] CT
N
549.5 396.5 M
551.022 396.994 L
551.851 399.736 L
cp
f
GR
GS
[0.75 0 0 0.75 0 0] CT
N
549.5 396.5 M
551.851 399.736 L
549.5 398.1 L
cp
f
GR
GS
[0.75 0 0 0.75 0 0] CT
N
549.5 396.5 M
549.5 398.1 L
547.149 399.736 L
cp
f
GR
GS
[0.75 0 0 0.75 0 0] CT
N
549.5 396.5 M
547.149 399.736 L
547.978 396.994 L
cp
f
GR
GS
[0.75 0 0 0.75 0 0] CT
N
549.5 396.5 M
547.978 396.994 L
545.696 395.264 L
cp
f
GR
GS
[0.75 0 0 0.75 0 0] CT
2 setlinecap
10.0 ML
N
545.696 395.264 M
548.56 395.264 L
549.5 392.5 L
550.44 395.264 L
553.304 395.264 L
551.022 396.994 L
551.851 399.736 L
549.5 398.1 L
547.149 399.736 L
547.978 396.994 L
545.696 395.264 L
S
GR
GS
[0.75 0 0 0.75 42.75 10.5] CT
/Helvetica-Bold 17 F
GS
[1 0 0 1 0 0] CT
0 0 moveto 
1 -1 scale
(Ledoux coefficient for the splitting of acoustic modes) t 
GR
GR
GS
[0.75 0 0 0.75 74.25 24.75] CT
/Helvetica-Bold 17 F
GS
[1 0 0 1 0 0] CT
0 0 moveto 
1 -1 scale
(plexiglass shell \(r) t 
GR
GR
GS
[0.75 0 0 0.75 201.75 30.75] CT
/Helvetica-Bold 13 F
GS
[1 0 0 1 0 0] CT
0 0 moveto 
1 -1 scale
(i) t 
GR
GR
GS
[0.75 0 0 0.75 205.5 24.75] CT
/Helvetica-Bold 17 F
GS
[1 0 0 1 0 0] CT
0 0 moveto 
1 -1 scale
(=5, r) t 
GR
GR
GS
[0.75 0 0 0.75 240.75 30.75] CT
/Helvetica-Bold 13 F
GS
[1 0 0 1 0 0] CT
0 0 moveto 
1 -1 scale
(o) t 
GR
GR
GS
[0.75 0 0 0.75 247.5 24.75] CT
/Helvetica-Bold 17 F
GS
[1 0 0 1 0 0] CT
0 0 moveto 
1 -1 scale
(=22.2 cm\)                 ) t 
GR
GR
GS
[0.75 0 0 0.75 0 0] CT
1 GC
N
441 163 M
441 62 L
536 62 L
536 163 L
cp
f
GR
GS
[0.75 0 0 0.75 369.99326 54.27885] CT
/Helvetica 14 F
GS
[1 0 0 1 0 0] CT
0 5.347 moveto 
1 -1 scale
(n = 0) t 
GR
GR
GS
[0.75 0 0 0.75 0 0] CT
N
469.5 77.832 M
473.5 72.5 L
469.5 67.168 L
465.5 72.5 L
cp
f
GR
GS
[0.75 0 0 0.75 0 0] CT
2 setlinecap
10.0 ML
N
469.5 77.832 M
473.5 72.5 L
469.5 67.168 L
465.5 72.5 L
469.5 77.832 L
S
GR
GS
[0.75 0 0 0.75 369.99326 66.31731] CT
/Helvetica 14 F
GS
[1 0 0 1 0 0] CT
0 5.347 moveto 
1 -1 scale
(1) t 
GR
GR
GS
[0.75 0 0 0.75 0 0] CT
0 0 1 RC
2 setlinecap
10.0 ML
N
466 92 M
473 85 L
S
GR
GS
[0.75 0 0 0.75 0 0] CT
0 0 1 RC
2 setlinecap
10.0 ML
N
466 85 M
473 92 L
S
GR
GS
[0.75 0 0 0.75 369.99326 78.35577] CT
/Helvetica 14 F
GS
[1 0 0 1 0 0] CT
0 5.347 moveto 
1 -1 scale
(2) t 
GR
GR
GS
[0.75 0 0 0.75 0 0] CT
1 0 0 RC
2 setlinecap
10.0 ML
N
465 104.5 M
474 104.5 L
S
GR
GS
[0.75 0 0 0.75 0 0] CT
1 0 0 RC
2 setlinecap
10.0 ML
N
469.5 109 M
469.5 100 L
S
GR
GS
[0.75 0 0 0.75 369.99326 90.39423] CT
/Helvetica 14 F
GS
[1 0 0 1 0 0] CT
0 5.347 moveto 
1 -1 scale
(3) t 
GR
GR
GS
[0.75 0 0 0.75 0 0] CT
1 0 1 RC
N
469.5 125.832 M
474.118 117.834 L
464.882 117.834 L
cp
f
GR
GS
[0.75 0 0 0.75 0 0] CT
1 0 1 RC
2 setlinecap
10.0 ML
N
469.5 125.832 M
474.118 117.834 L
464.882 117.834 L
469.5 125.832 L
S
GR
GS
[0.75 0 0 0.75 369.99326 102.43269] CT
/Helvetica 14 F
GS
[1 0 0 1 0 0] CT
0 5.347 moveto 
1 -1 scale
(4) t 
GR
GR
GS
[0.75 0 0 0.75 0 0] CT
0 1 0 RC
N
466.38 139.62 M
466.38 133.38 L
472.62 133.38 L
472.62 139.62 L
cp
f
GR
GS
[0.75 0 0 0.75 0 0] CT
0 1 0 RC
2 setlinecap
10.0 ML
N
466.38 139.62 M
466.38 133.38 L
472.62 133.38 L
472.62 139.62 L
466.38 139.62 L
S
GR
GS
[0.75 0 0 0.75 369.99326 114.47115] CT
/Helvetica 14 F
GS
[1 0 0 1 0 0] CT
0 5.347 moveto 
1 -1 scale
(5) t 
GR
GR
GS
[0.75 0 0 0.75 0 0] CT
N
469.5 152.5 M
465.696 151.264 L
468.56 151.264 L
cp
f
GR
GS
[0.75 0 0 0.75 0 0] CT
N
469.5 152.5 M
468.56 151.264 L
469.5 148.5 L
cp
f
GR
GS
[0.75 0 0 0.75 0 0] CT
N
469.5 152.5 M
469.5 148.5 L
470.44 151.264 L
cp
f
GR
GS
[0.75 0 0 0.75 0 0] CT
N
469.5 152.5 M
470.44 151.264 L
473.304 151.264 L
cp
f
GR
GS
[0.75 0 0 0.75 0 0] CT
N
469.5 152.5 M
473.304 151.264 L
471.022 152.994 L
cp
f
GR
GS
[0.75 0 0 0.75 0 0] CT
N
469.5 152.5 M
471.022 152.994 L
471.851 155.736 L
cp
f
GR
GS
[0.75 0 0 0.75 0 0] CT
N
469.5 152.5 M
471.851 155.736 L
469.5 154.1 L
cp
f
GR
GS
[0.75 0 0 0.75 0 0] CT
N
469.5 152.5 M
469.5 154.1 L
467.149 155.736 L
cp
f
GR
GS
[0.75 0 0 0.75 0 0] CT
N
469.5 152.5 M
467.149 155.736 L
467.978 152.994 L
cp
f
GR
GS
[0.75 0 0 0.75 0 0] CT
N
469.5 152.5 M
467.978 152.994 L
465.696 151.264 L
cp
f
GR
GS
[0.75 0 0 0.75 0 0] CT
2 setlinecap
10.0 ML
N
465.696 151.264 M
468.56 151.264 L
469.5 148.5 L
470.44 151.264 L
473.304 151.264 L
471.022 152.994 L
471.851 155.736 L
469.5 154.1 L
467.149 155.736 L
467.978 152.994 L
465.696 151.264 L
S
GR
GS
[0.75 0 0 0.75 0 0] CT
0.149 GC
2 setlinecap
10.0 ML
N
441 163 M
441 62 L
536 62 L
536 163 L
441 163 L
S
GR
%%Trailer
%%Pages: 1
%%EOF
