%!PS-Adobe-3.0 EPSF-3.0
%%Creator: (MATLAB, The Mathworks, Inc. Version 8.4.0.150421 \(R2014b\). Operating System: Linux)
%%Title: /data/geodynamo/natafh/Dynamo/Acoustics/elastic_shell/Figures/Ledoux/plexi-shell.eps
%%CreationDate: 2015-09-03T14:14:03
%%Pages: (atend)
%%BoundingBox: 0 0 524 399
%%LanguageLevel: 2
%%EndComments
%%BeginProlog
%%BeginResource: procset (Apache XML Graphics Std ProcSet) 1.2 0
%%Version: 1.2 0
%%Copyright: (Copyright 2001-2003,2010 The Apache Software Foundation. License terms: http://www.apache.org/licenses/LICENSE-2.0)
/bd{bind def}bind def
/ld{load def}bd
/GR/grestore ld
/M/moveto ld
/LJ/setlinejoin ld
/C/curveto ld
/f/fill ld
/LW/setlinewidth ld
/GC/setgray ld
/t/show ld
/N/newpath ld
/CT/concat ld
/cp/closepath ld
/S/stroke ld
/L/lineto ld
/CC/setcmykcolor ld
/A/ashow ld
/GS/gsave ld
/RC/setrgbcolor ld
/RM/rmoveto ld
/ML/setmiterlimit ld
/re {4 2 roll M
1 index 0 rlineto
0 exch rlineto
neg 0 rlineto
cp } bd
/_ctm matrix def
/_tm matrix def
/BT { _ctm currentmatrix pop matrix _tm copy pop 0 0 moveto } bd
/ET { _ctm setmatrix } bd
/iTm { _ctm setmatrix _tm concat } bd
/Tm { _tm astore pop iTm 0 0 moveto } bd
/ux 0.0 def
/uy 0.0 def
/F {
  /Tp exch def
  /Tf exch def
  Tf findfont Tp scalefont setfont
  /cf Tf def  /cs Tp def
} bd
/ULS {currentpoint /uy exch def /ux exch def} bd
/ULE {
  /Tcx currentpoint pop def
  gsave
  newpath
  cf findfont cs scalefont dup
  /FontMatrix get 0 get /Ts exch def /FontInfo get dup
  /UnderlinePosition get Ts mul /To exch def
  /UnderlineThickness get Ts mul /Tt exch def
  ux uy To add moveto  Tcx uy To add lineto
  Tt setlinewidth stroke
  grestore
} bd
/OLE {
  /Tcx currentpoint pop def
  gsave
  newpath
  cf findfont cs scalefont dup
  /FontMatrix get 0 get /Ts exch def /FontInfo get dup
  /UnderlinePosition get Ts mul /To exch def
  /UnderlineThickness get Ts mul /Tt exch def
  ux uy To add cs add moveto Tcx uy To add cs add lineto
  Tt setlinewidth stroke
  grestore
} bd
/SOE {
  /Tcx currentpoint pop def
  gsave
  newpath
  cf findfont cs scalefont dup
  /FontMatrix get 0 get /Ts exch def /FontInfo get dup
  /UnderlinePosition get Ts mul /To exch def
  /UnderlineThickness get Ts mul /Tt exch def
  ux uy To add cs 10 mul 26 idiv add moveto Tcx uy To add cs 10 mul 26 idiv add lineto
  Tt setlinewidth stroke
  grestore
} bd
/QT {
/Y22 exch store
/X22 exch store
/Y21 exch store
/X21 exch store
currentpoint
/Y21 load 2 mul add 3 div exch
/X21 load 2 mul add 3 div exch
/X21 load 2 mul /X22 load add 3 div
/Y21 load 2 mul /Y22 load add 3 div
/X22 load /Y22 load curveto
} bd
/SSPD {
dup length /d exch dict def
{
/v exch def
/k exch def
currentpagedevice k known {
/cpdv currentpagedevice k get def
v cpdv ne {
/upd false def
/nullv v type /nulltype eq def
/nullcpdv cpdv type /nulltype eq def
nullv nullcpdv or
{
/upd true def
} {
/sametype v type cpdv type eq def
sametype {
v type /arraytype eq {
/vlen v length def
/cpdvlen cpdv length def
vlen cpdvlen eq {
0 1 vlen 1 sub {
/i exch def
/obj v i get def
/cpdobj cpdv i get def
obj cpdobj ne {
/upd true def
exit
} if
} for
} {
/upd true def
} ifelse
} {
v type /dicttype eq {
v {
/dv exch def
/dk exch def
/cpddv cpdv dk get def
dv cpddv ne {
/upd true def
exit
} if
} forall
} {
/upd true def
} ifelse
} ifelse
} if
} ifelse
upd true eq {
d k v put
} if
} if
} if
} forall
d length 0 gt {
d setpagedevice
} if
} bd
%%EndResource
%%BeginResource: procset (Apache XML Graphics EPS ProcSet) 1.0 0
%%Version: 1.0 0
%%Copyright: (Copyright 2002-2003 The Apache Software Foundation. License terms: http://www.apache.org/licenses/LICENSE-2.0)
/BeginEPSF { %def
/b4_Inc_state save def         % Save state for cleanup
/dict_count countdictstack def % Count objects on dict stack
/op_count count 1 sub def      % Count objects on operand stack
userdict begin                 % Push userdict on dict stack
/showpage { } def              % Redefine showpage, { } = null proc
0 setgray 0 setlinecap         % Prepare graphics state
1 setlinewidth 0 setlinejoin
10 setmiterlimit [ ] 0 setdash newpath
/languagelevel where           % If level not equal to 1 then
{pop languagelevel             % set strokeadjust and
1 ne                           % overprint to their defaults.
{false setstrokeadjust false setoverprint
} if
} if
} bd
/EndEPSF { %def
count op_count sub {pop} repeat            % Clean up stacks
countdictstack dict_count sub {end} repeat
b4_Inc_state restore
} bd
%%EndResource
%FOPBeginFontDict
%%IncludeResource: font Courier-Bold
%%IncludeResource: font Helvetica
%%IncludeResource: font Courier-BoldOblique
%%IncludeResource: font Courier-Oblique
%%IncludeResource: font Times-Roman
%%IncludeResource: font Helvetica-BoldOblique
%%IncludeResource: font Helvetica-Bold
%%IncludeResource: font Helvetica-Oblique
%%IncludeResource: font Times-BoldItalic
%%IncludeResource: font Courier
%%IncludeResource: font Times-Italic
%%IncludeResource: font Times-Bold
%%IncludeResource: font Symbol
%%IncludeResource: font ZapfDingbats
%FOPEndFontDict
%%BeginResource: encoding WinAnsiEncoding
/WinAnsiEncoding [
/.notdef /.notdef /.notdef /.notdef /.notdef
/.notdef /.notdef /.notdef /.notdef /.notdef
/.notdef /.notdef /.notdef /.notdef /.notdef
/.notdef /.notdef /.notdef /.notdef /.notdef
/.notdef /.notdef /.notdef /.notdef /.notdef
/.notdef /.notdef /.notdef /.notdef /.notdef
/.notdef /.notdef /space /exclam /quotedbl
/numbersign /dollar /percent /ampersand /quotesingle
/parenleft /parenright /asterisk /plus /comma
/hyphen /period /slash /zero /one
/two /three /four /five /six
/seven /eight /nine /colon /semicolon
/less /equal /greater /question /at
/A /B /C /D /E
/F /G /H /I /J
/K /L /M /N /O
/P /Q /R /S /T
/U /V /W /X /Y
/Z /bracketleft /backslash /bracketright /asciicircum
/underscore /quoteleft /a /b /c
/d /e /f /g /h
/i /j /k /l /m
/n /o /p /q /r
/s /t /u /v /w
/x /y /z /braceleft /bar
/braceright /asciitilde /bullet /Euro /bullet
/quotesinglbase /florin /quotedblbase /ellipsis /dagger
/daggerdbl /circumflex /perthousand /Scaron /guilsinglleft
/OE /bullet /Zcaron /bullet /bullet
/quoteleft /quoteright /quotedblleft /quotedblright /bullet
/endash /emdash /asciitilde /trademark /scaron
/guilsinglright /oe /bullet /zcaron /Ydieresis
/space /exclamdown /cent /sterling /currency
/yen /brokenbar /section /dieresis /copyright
/ordfeminine /guillemotleft /logicalnot /sfthyphen /registered
/macron /degree /plusminus /twosuperior /threesuperior
/acute /mu /paragraph /middot /cedilla
/onesuperior /ordmasculine /guillemotright /onequarter /onehalf
/threequarters /questiondown /Agrave /Aacute /Acircumflex
/Atilde /Adieresis /Aring /AE /Ccedilla
/Egrave /Eacute /Ecircumflex /Edieresis /Igrave
/Iacute /Icircumflex /Idieresis /Eth /Ntilde
/Ograve /Oacute /Ocircumflex /Otilde /Odieresis
/multiply /Oslash /Ugrave /Uacute /Ucircumflex
/Udieresis /Yacute /Thorn /germandbls /agrave
/aacute /acircumflex /atilde /adieresis /aring
/ae /ccedilla /egrave /eacute /ecircumflex
/edieresis /igrave /iacute /icircumflex /idieresis
/eth /ntilde /ograve /oacute /ocircumflex
/otilde /odieresis /divide /oslash /ugrave
/uacute /ucircumflex /udieresis /yacute /thorn
/ydieresis
] def
%%EndResource
%FOPBeginFontReencode
/Courier-Bold findfont
dup length dict begin
  {1 index /FID ne {def} {pop pop} ifelse} forall
  /Encoding WinAnsiEncoding def
  currentdict
end
/Courier-Bold exch definefont pop
/Helvetica findfont
dup length dict begin
  {1 index /FID ne {def} {pop pop} ifelse} forall
  /Encoding WinAnsiEncoding def
  currentdict
end
/Helvetica exch definefont pop
/Courier-BoldOblique findfont
dup length dict begin
  {1 index /FID ne {def} {pop pop} ifelse} forall
  /Encoding WinAnsiEncoding def
  currentdict
end
/Courier-BoldOblique exch definefont pop
/Courier-Oblique findfont
dup length dict begin
  {1 index /FID ne {def} {pop pop} ifelse} forall
  /Encoding WinAnsiEncoding def
  currentdict
end
/Courier-Oblique exch definefont pop
/Times-Roman findfont
dup length dict begin
  {1 index /FID ne {def} {pop pop} ifelse} forall
  /Encoding WinAnsiEncoding def
  currentdict
end
/Times-Roman exch definefont pop
/Helvetica-BoldOblique findfont
dup length dict begin
  {1 index /FID ne {def} {pop pop} ifelse} forall
  /Encoding WinAnsiEncoding def
  currentdict
end
/Helvetica-BoldOblique exch definefont pop
/Helvetica-Bold findfont
dup length dict begin
  {1 index /FID ne {def} {pop pop} ifelse} forall
  /Encoding WinAnsiEncoding def
  currentdict
end
/Helvetica-Bold exch definefont pop
/Helvetica-Oblique findfont
dup length dict begin
  {1 index /FID ne {def} {pop pop} ifelse} forall
  /Encoding WinAnsiEncoding def
  currentdict
end
/Helvetica-Oblique exch definefont pop
/Times-BoldItalic findfont
dup length dict begin
  {1 index /FID ne {def} {pop pop} ifelse} forall
  /Encoding WinAnsiEncoding def
  currentdict
end
/Times-BoldItalic exch definefont pop
/Courier findfont
dup length dict begin
  {1 index /FID ne {def} {pop pop} ifelse} forall
  /Encoding WinAnsiEncoding def
  currentdict
end
/Courier exch definefont pop
/Times-Italic findfont
dup length dict begin
  {1 index /FID ne {def} {pop pop} ifelse} forall
  /Encoding WinAnsiEncoding def
  currentdict
end
/Times-Italic exch definefont pop
/Times-Bold findfont
dup length dict begin
  {1 index /FID ne {def} {pop pop} ifelse} forall
  /Encoding WinAnsiEncoding def
  currentdict
end
/Times-Bold exch definefont pop
%FOPEndFontReencode
%%EndProlog
%%Page: 1 1
%%PageBoundingBox: 0 0 524 399
%%BeginPageSetup
[1 0 0 -1 0 399] CT
%%EndPageSetup
GS
[0.75 0 0 0.75 0 0] CT
1 GC
N
0 0 699 532 re
f
GR
GS
[0.75 0 0 0.75 0 0] CT
1 GC
N
0 0 699 532 re
f
GR
GS
[0.75 0 0 0.75 0 0] CT
1 GC
N
91 473 M
633 473 L
633 49 L
91 49 L
cp
f
GR
GS
[0.75 0 0 0.75 0 0] CT
0.873 GC
2 setlinecap
10.0 ML
N
91 473 M
91 49 L
S
GR
GS
[0.75 0 0 0.75 0 0] CT
0.873 GC
2 setlinecap
10.0 ML
N
127.133 473 M
127.133 49 L
S
GR
GS
[0.75 0 0 0.75 0 0] CT
0.873 GC
2 setlinecap
10.0 ML
N
163.267 473 M
163.267 49 L
S
GR
GS
[0.75 0 0 0.75 0 0] CT
0.873 GC
2 setlinecap
10.0 ML
N
199.4 473 M
199.4 49 L
S
GR
GS
[0.75 0 0 0.75 0 0] CT
0.873 GC
2 setlinecap
10.0 ML
N
235.533 473 M
235.533 49 L
S
GR
GS
[0.75 0 0 0.75 0 0] CT
0.873 GC
2 setlinecap
10.0 ML
N
271.667 473 M
271.667 49 L
S
GR
GS
[0.75 0 0 0.75 0 0] CT
0.873 GC
2 setlinecap
10.0 ML
N
307.8 473 M
307.8 49 L
S
GR
GS
[0.75 0 0 0.75 0 0] CT
0.873 GC
2 setlinecap
10.0 ML
N
343.933 473 M
343.933 49 L
S
GR
GS
[0.75 0 0 0.75 0 0] CT
0.873 GC
2 setlinecap
10.0 ML
N
380.067 473 M
380.067 49 L
S
GR
GS
[0.75 0 0 0.75 0 0] CT
0.873 GC
2 setlinecap
10.0 ML
N
416.2 473 M
416.2 49 L
S
GR
GS
[0.75 0 0 0.75 0 0] CT
0.873 GC
2 setlinecap
10.0 ML
N
452.333 473 M
452.333 49 L
S
GR
GS
[0.75 0 0 0.75 0 0] CT
0.873 GC
2 setlinecap
10.0 ML
N
488.467 473 M
488.467 49 L
S
GR
GS
[0.75 0 0 0.75 0 0] CT
0.873 GC
2 setlinecap
10.0 ML
N
524.6 473 M
524.6 49 L
S
GR
GS
[0.75 0 0 0.75 0 0] CT
0.873 GC
2 setlinecap
10.0 ML
N
560.733 473 M
560.733 49 L
S
GR
GS
[0.75 0 0 0.75 0 0] CT
0.873 GC
2 setlinecap
10.0 ML
N
596.867 473 M
596.867 49 L
S
GR
GS
[0.75 0 0 0.75 0 0] CT
0.873 GC
2 setlinecap
10.0 ML
N
633 473 M
633 49 L
S
GR
GS
[0.75 0 0 0.75 0 0] CT
0.873 GC
2 setlinecap
10.0 ML
N
633 473 M
91 473 L
S
GR
GS
[0.75 0 0 0.75 0 0] CT
0.873 GC
2 setlinecap
10.0 ML
N
633 367 M
91 367 L
S
GR
GS
[0.75 0 0 0.75 0 0] CT
0.873 GC
2 setlinecap
10.0 ML
N
633 261 M
91 261 L
S
GR
GS
[0.75 0 0 0.75 0 0] CT
0.873 GC
2 setlinecap
10.0 ML
N
633 155 M
91 155 L
S
GR
GS
[0.75 0 0 0.75 0 0] CT
0.873 GC
2 setlinecap
10.0 ML
N
633 49 M
91 49 L
S
GR
GS
[0.75 0 0 0.75 271.5 373.36876] CT
0.149 GC
/Helvetica-Bold 18 F
GS
[1 0 0 1 0 0] CT
-118.696 16.708 moveto 
1 -1 scale
(angular mode number l) t 
GR
GR
GS
[0.75 0 0 0.75 0 0] CT
0.149 GC
2 setlinecap
10.0 ML
N
91 473 M
633 473 L
S
GR
GS
[0.75 0 0 0.75 0 0] CT
0.149 GC
2 setlinecap
10.0 ML
N
91 49 M
633 49 L
S
GR
GS
[0.75 0 0 0.75 0 0] CT
0.149 GC
2 setlinecap
10.0 ML
N
91 473 M
91 467.58 L
S
GR
GS
[0.75 0 0 0.75 0 0] CT
0.149 GC
2 setlinecap
10.0 ML
N
91 49 M
91 54.42 L
S
GR
GS
[0.75 0 0 0.75 0 0] CT
0.149 GC
2 setlinecap
10.0 ML
N
127.133 473 M
127.133 467.58 L
S
GR
GS
[0.75 0 0 0.75 0 0] CT
0.149 GC
2 setlinecap
10.0 ML
N
127.133 49 M
127.133 54.42 L
S
GR
GS
[0.75 0 0 0.75 0 0] CT
0.149 GC
2 setlinecap
10.0 ML
N
163.267 473 M
163.267 467.58 L
S
GR
GS
[0.75 0 0 0.75 0 0] CT
0.149 GC
2 setlinecap
10.0 ML
N
163.267 49 M
163.267 54.42 L
S
GR
GS
[0.75 0 0 0.75 0 0] CT
0.149 GC
2 setlinecap
10.0 ML
N
199.4 473 M
199.4 467.58 L
S
GR
GS
[0.75 0 0 0.75 0 0] CT
0.149 GC
2 setlinecap
10.0 ML
N
199.4 49 M
199.4 54.42 L
S
GR
GS
[0.75 0 0 0.75 0 0] CT
0.149 GC
2 setlinecap
10.0 ML
N
235.533 473 M
235.533 467.58 L
S
GR
GS
[0.75 0 0 0.75 0 0] CT
0.149 GC
2 setlinecap
10.0 ML
N
235.533 49 M
235.533 54.42 L
S
GR
GS
[0.75 0 0 0.75 0 0] CT
0.149 GC
2 setlinecap
10.0 ML
N
271.667 473 M
271.667 467.58 L
S
GR
GS
[0.75 0 0 0.75 0 0] CT
0.149 GC
2 setlinecap
10.0 ML
N
271.667 49 M
271.667 54.42 L
S
GR
GS
[0.75 0 0 0.75 0 0] CT
0.149 GC
2 setlinecap
10.0 ML
N
307.8 473 M
307.8 467.58 L
S
GR
GS
[0.75 0 0 0.75 0 0] CT
0.149 GC
2 setlinecap
10.0 ML
N
307.8 49 M
307.8 54.42 L
S
GR
GS
[0.75 0 0 0.75 0 0] CT
0.149 GC
2 setlinecap
10.0 ML
N
343.933 473 M
343.933 467.58 L
S
GR
GS
[0.75 0 0 0.75 0 0] CT
0.149 GC
2 setlinecap
10.0 ML
N
343.933 49 M
343.933 54.42 L
S
GR
GS
[0.75 0 0 0.75 0 0] CT
0.149 GC
2 setlinecap
10.0 ML
N
380.067 473 M
380.067 467.58 L
S
GR
GS
[0.75 0 0 0.75 0 0] CT
0.149 GC
2 setlinecap
10.0 ML
N
380.067 49 M
380.067 54.42 L
S
GR
GS
[0.75 0 0 0.75 0 0] CT
0.149 GC
2 setlinecap
10.0 ML
N
416.2 473 M
416.2 467.58 L
S
GR
GS
[0.75 0 0 0.75 0 0] CT
0.149 GC
2 setlinecap
10.0 ML
N
416.2 49 M
416.2 54.42 L
S
GR
GS
[0.75 0 0 0.75 0 0] CT
0.149 GC
2 setlinecap
10.0 ML
N
452.333 473 M
452.333 467.58 L
S
GR
GS
[0.75 0 0 0.75 0 0] CT
0.149 GC
2 setlinecap
10.0 ML
N
452.333 49 M
452.333 54.42 L
S
GR
GS
[0.75 0 0 0.75 0 0] CT
0.149 GC
2 setlinecap
10.0 ML
N
488.467 473 M
488.467 467.58 L
S
GR
GS
[0.75 0 0 0.75 0 0] CT
0.149 GC
2 setlinecap
10.0 ML
N
488.467 49 M
488.467 54.42 L
S
GR
GS
[0.75 0 0 0.75 0 0] CT
0.149 GC
2 setlinecap
10.0 ML
N
524.6 473 M
524.6 467.58 L
S
GR
GS
[0.75 0 0 0.75 0 0] CT
0.149 GC
2 setlinecap
10.0 ML
N
524.6 49 M
524.6 54.42 L
S
GR
GS
[0.75 0 0 0.75 0 0] CT
0.149 GC
2 setlinecap
10.0 ML
N
560.733 473 M
560.733 467.58 L
S
GR
GS
[0.75 0 0 0.75 0 0] CT
0.149 GC
2 setlinecap
10.0 ML
N
560.733 49 M
560.733 54.42 L
S
GR
GS
[0.75 0 0 0.75 0 0] CT
0.149 GC
2 setlinecap
10.0 ML
N
596.867 473 M
596.867 467.58 L
S
GR
GS
[0.75 0 0 0.75 0 0] CT
0.149 GC
2 setlinecap
10.0 ML
N
596.867 49 M
596.867 54.42 L
S
GR
GS
[0.75 0 0 0.75 0 0] CT
0.149 GC
2 setlinecap
10.0 ML
N
633 473 M
633 467.58 L
S
GR
GS
[0.75 0 0 0.75 0 0] CT
0.149 GC
2 setlinecap
10.0 ML
N
633 49 M
633 54.42 L
S
GR
GS
[0.75 0 0 0.75 68.25 359.15] CT
0.149 GC
/Helvetica 16 F
GS
[1 0 0 1 0 0] CT
-5.09 14.852 moveto 
1 -1 scale
(0) t 
GR
GR
GS
[0.75 0 0 0.75 95.35 359.15] CT
0.149 GC
/Helvetica 16 F
GS
[1 0 0 1 0 0] CT
-5.09 14.852 moveto 
1 -1 scale
(1) t 
GR
GR
GS
[0.75 0 0 0.75 122.45 359.15] CT
0.149 GC
/Helvetica 16 F
GS
[1 0 0 1 0 0] CT
-5.09 14.852 moveto 
1 -1 scale
(2) t 
GR
GR
GS
[0.75 0 0 0.75 149.55 359.15] CT
0.149 GC
/Helvetica 16 F
GS
[1 0 0 1 0 0] CT
-5.09 14.852 moveto 
1 -1 scale
(3) t 
GR
GR
GS
[0.75 0 0 0.75 176.65001 359.15] CT
0.149 GC
/Helvetica 16 F
GS
[1 0 0 1 0 0] CT
-5.09 14.852 moveto 
1 -1 scale
(4) t 
GR
GR
GS
[0.75 0 0 0.75 203.74999 359.15] CT
0.149 GC
/Helvetica 16 F
GS
[1 0 0 1 0 0] CT
-5.09 14.852 moveto 
1 -1 scale
(5) t 
GR
GR
GS
[0.75 0 0 0.75 230.84999 359.15] CT
0.149 GC
/Helvetica 16 F
GS
[1 0 0 1 0 0] CT
-5.09 14.852 moveto 
1 -1 scale
(6) t 
GR
GR
GS
[0.75 0 0 0.75 257.94999 359.15] CT
0.149 GC
/Helvetica 16 F
GS
[1 0 0 1 0 0] CT
-5.09 14.852 moveto 
1 -1 scale
(7) t 
GR
GR
GS
[0.75 0 0 0.75 285.05001 359.15] CT
0.149 GC
/Helvetica 16 F
GS
[1 0 0 1 0 0] CT
-5.09 14.852 moveto 
1 -1 scale
(8) t 
GR
GR
GS
[0.75 0 0 0.75 312.15001 359.15] CT
0.149 GC
/Helvetica 16 F
GS
[1 0 0 1 0 0] CT
-5.09 14.852 moveto 
1 -1 scale
(9) t 
GR
GR
GS
[0.75 0 0 0.75 339.25001 359.15] CT
0.149 GC
/Helvetica 16 F
GS
[1 0 0 1 0 0] CT
-10.18 14.852 moveto 
1 -1 scale
(10) t 
GR
GR
GS
[0.75 0 0 0.75 366.35001 359.15] CT
0.149 GC
/Helvetica 16 F
GS
[1 0 0 1 0 0] CT
-10.18 14.852 moveto 
1 -1 scale
(11) t 
GR
GR
GS
[0.75 0 0 0.75 393.44998 359.15] CT
0.149 GC
/Helvetica 16 F
GS
[1 0 0 1 0 0] CT
-10.18 14.852 moveto 
1 -1 scale
(12) t 
GR
GR
GS
[0.75 0 0 0.75 420.55 359.15] CT
0.149 GC
/Helvetica 16 F
GS
[1 0 0 1 0 0] CT
-10.18 14.852 moveto 
1 -1 scale
(13) t 
GR
GR
GS
[0.75 0 0 0.75 447.64998 359.15] CT
0.149 GC
/Helvetica 16 F
GS
[1 0 0 1 0 0] CT
-10.18 14.852 moveto 
1 -1 scale
(14) t 
GR
GR
GS
[0.75 0 0 0.75 474.75 359.15] CT
0.149 GC
/Helvetica 16 F
GS
[1 0 0 1 0 0] CT
-10.18 14.852 moveto 
1 -1 scale
(15) t 
GR
GR
GS
[0 -0.75 0.75 0 21 275.25] CT
0.149 GC
/Helvetica-Bold 17 F
GS
[1 0 0 1 0 0] CT
0 0 moveto 
1 -1 scale
(Ledoux coefficient C) t 
GR
GR
GS
[0 -0.75 0.75 0 27 128.25] CT
0.149 GC
/Helvetica-Bold 13 F
GS
[1 0 0 1 0 0] CT
0 0 moveto 
1 -1 scale
(n) t 
GR
GR
GS
[0 -0.75 0.75 0 27 120.75] CT
0.149 GC
/Helvetica-Bold 13 F
GS
[1 0 0 1 0 0] CT
0 0 moveto 
1 -1 scale
(l) t 
GR
GR
GS
[0.75 0 0 0.75 0 0] CT
0.149 GC
2 setlinecap
10.0 ML
N
91 473 M
91 49 L
S
GR
GS
[0.75 0 0 0.75 0 0] CT
0.149 GC
2 setlinecap
10.0 ML
N
633 473 M
633 49 L
S
GR
GS
[0.75 0 0 0.75 0 0] CT
0.149 GC
2 setlinecap
10.0 ML
N
91 473 M
96.42 473 L
S
GR
GS
[0.75 0 0 0.75 0 0] CT
0.149 GC
2 setlinecap
10.0 ML
N
633 473 M
627.58 473 L
S
GR
GS
[0.75 0 0 0.75 0 0] CT
0.149 GC
2 setlinecap
10.0 ML
N
91 367 M
96.42 367 L
S
GR
GS
[0.75 0 0 0.75 0 0] CT
0.149 GC
2 setlinecap
10.0 ML
N
633 367 M
627.58 367 L
S
GR
GS
[0.75 0 0 0.75 0 0] CT
0.149 GC
2 setlinecap
10.0 ML
N
91 261 M
96.42 261 L
S
GR
GS
[0.75 0 0 0.75 0 0] CT
0.149 GC
2 setlinecap
10.0 ML
N
633 261 M
627.58 261 L
S
GR
GS
[0.75 0 0 0.75 0 0] CT
0.149 GC
2 setlinecap
10.0 ML
N
91 155 M
96.42 155 L
S
GR
GS
[0.75 0 0 0.75 0 0] CT
0.149 GC
2 setlinecap
10.0 ML
N
633 155 M
627.58 155 L
S
GR
GS
[0.75 0 0 0.75 0 0] CT
0.149 GC
2 setlinecap
10.0 ML
N
91 49 M
96.42 49 L
S
GR
GS
[0.75 0 0 0.75 0 0] CT
0.149 GC
2 setlinecap
10.0 ML
N
633 49 M
627.58 49 L
S
GR
GS
[0.75 0 0 0.75 63.85 354.75] CT
0.149 GC
/Helvetica 16 F
GS
[1 0 0 1 0 0] CT
-41.398 6.039 moveto 
1 -1 scale
(-0.05) t 
GR
GR
GS
[0.75 0 0 0.75 63.85 275.25] CT
0.149 GC
/Helvetica 16 F
GS
[1 0 0 1 0 0] CT
-10.18 6.039 moveto 
1 -1 scale
(0) t 
GR
GR
GS
[0.75 0 0 0.75 63.85 195.75] CT
0.149 GC
/Helvetica 16 F
GS
[1 0 0 1 0 0] CT
-35.625 6.039 moveto 
1 -1 scale
(0.05) t 
GR
GR
GS
[0.75 0 0 0.75 63.85 116.25] CT
0.149 GC
/Helvetica 16 F
GS
[1 0 0 1 0 0] CT
-25.445 6.039 moveto 
1 -1 scale
(0.1) t 
GR
GR
GS
[0.75 0 0 0.75 63.85 36.74999] CT
0.149 GC
/Helvetica 16 F
GS
[1 0 0 1 0 0] CT
-35.625 6.039 moveto 
1 -1 scale
(0.15) t 
GR
GR
GS
[0.75 0 0 0.75 0 0] CT
N
127.5 357.832 M
131.5 352.5 L
127.5 347.168 L
123.5 352.5 L
cp
f
GR
GS
[0.75 0 0 0.75 0 0] CT
2 setlinecap
10.0 ML
N
127.5 357.832 M
131.5 352.5 L
127.5 347.168 L
123.5 352.5 L
127.5 357.832 L
S
GR
GS
[0.75 0 0 0.75 0 0] CT
N
163.5 426.832 M
167.5 421.5 L
163.5 416.168 L
159.5 421.5 L
cp
f
GR
GS
[0.75 0 0 0.75 0 0] CT
2 setlinecap
10.0 ML
N
163.5 426.832 M
167.5 421.5 L
163.5 416.168 L
159.5 421.5 L
163.5 426.832 L
S
GR
GS
[0.75 0 0 0.75 0 0] CT
N
199.5 403.832 M
203.5 398.5 L
199.5 393.168 L
195.5 398.5 L
cp
f
GR
GS
[0.75 0 0 0.75 0 0] CT
2 setlinecap
10.0 ML
N
199.5 403.832 M
203.5 398.5 L
199.5 393.168 L
195.5 398.5 L
199.5 403.832 L
S
GR
GS
[0.75 0 0 0.75 0 0] CT
N
235.5 400.832 M
239.5 395.5 L
235.5 390.168 L
231.5 395.5 L
cp
f
GR
GS
[0.75 0 0 0.75 0 0] CT
2 setlinecap
10.0 ML
N
235.5 400.832 M
239.5 395.5 L
235.5 390.168 L
231.5 395.5 L
235.5 400.832 L
S
GR
GS
[0.75 0 0 0.75 0 0] CT
N
271.5 403.832 M
275.5 398.5 L
271.5 393.168 L
267.5 398.5 L
cp
f
GR
GS
[0.75 0 0 0.75 0 0] CT
2 setlinecap
10.0 ML
N
271.5 403.832 M
275.5 398.5 L
271.5 393.168 L
267.5 398.5 L
271.5 403.832 L
S
GR
GS
[0.75 0 0 0.75 0 0] CT
N
307.5 377.832 M
311.5 372.5 L
307.5 367.168 L
303.5 372.5 L
cp
f
GR
GS
[0.75 0 0 0.75 0 0] CT
2 setlinecap
10.0 ML
N
307.5 377.832 M
311.5 372.5 L
307.5 367.168 L
303.5 372.5 L
307.5 377.832 L
S
GR
GS
[0.75 0 0 0.75 0 0] CT
N
343.5 376.832 M
347.5 371.5 L
343.5 366.168 L
339.5 371.5 L
cp
f
GR
GS
[0.75 0 0 0.75 0 0] CT
2 setlinecap
10.0 ML
N
343.5 376.832 M
347.5 371.5 L
343.5 366.168 L
339.5 371.5 L
343.5 376.832 L
S
GR
GS
[0.75 0 0 0.75 0 0] CT
N
380.5 375.832 M
384.5 370.5 L
380.5 365.168 L
376.5 370.5 L
cp
f
GR
GS
[0.75 0 0 0.75 0 0] CT
2 setlinecap
10.0 ML
N
380.5 375.832 M
384.5 370.5 L
380.5 365.168 L
376.5 370.5 L
380.5 375.832 L
S
GR
GS
[0.75 0 0 0.75 0 0] CT
N
416.5 375.832 M
420.5 370.5 L
416.5 365.168 L
412.5 370.5 L
cp
f
GR
GS
[0.75 0 0 0.75 0 0] CT
2 setlinecap
10.0 ML
N
416.5 375.832 M
420.5 370.5 L
416.5 365.168 L
412.5 370.5 L
416.5 375.832 L
S
GR
GS
[0.75 0 0 0.75 0 0] CT
N
452.5 374.832 M
456.5 369.5 L
452.5 364.168 L
448.5 369.5 L
cp
f
GR
GS
[0.75 0 0 0.75 0 0] CT
2 setlinecap
10.0 ML
N
452.5 374.832 M
456.5 369.5 L
452.5 364.168 L
448.5 369.5 L
452.5 374.832 L
S
GR
GS
[0.75 0 0 0.75 0 0] CT
N
488.5 374.832 M
492.5 369.5 L
488.5 364.168 L
484.5 369.5 L
cp
f
GR
GS
[0.75 0 0 0.75 0 0] CT
2 setlinecap
10.0 ML
N
488.5 374.832 M
492.5 369.5 L
488.5 364.168 L
484.5 369.5 L
488.5 374.832 L
S
GR
GS
[0.75 0 0 0.75 0 0] CT
N
524.5 374.832 M
528.5 369.5 L
524.5 364.168 L
520.5 369.5 L
cp
f
GR
GS
[0.75 0 0 0.75 0 0] CT
2 setlinecap
10.0 ML
N
524.5 374.832 M
528.5 369.5 L
524.5 364.168 L
520.5 369.5 L
524.5 374.832 L
S
GR
GS
[0.75 0 0 0.75 0 0] CT
N
560.5 373.832 M
564.5 368.5 L
560.5 363.168 L
556.5 368.5 L
cp
f
GR
GS
[0.75 0 0 0.75 0 0] CT
2 setlinecap
10.0 ML
N
560.5 373.832 M
564.5 368.5 L
560.5 363.168 L
556.5 368.5 L
560.5 373.832 L
S
GR
GS
[0.75 0 0 0.75 0 0] CT
N
596.5 373.832 M
600.5 368.5 L
596.5 363.168 L
592.5 368.5 L
cp
f
GR
GS
[0.75 0 0 0.75 0 0] CT
2 setlinecap
10.0 ML
N
596.5 373.832 M
600.5 368.5 L
596.5 363.168 L
592.5 368.5 L
596.5 373.832 L
S
GR
GS
[0.75 0 0 0.75 0 0] CT
N
633.5 373.832 M
637.5 368.5 L
633.5 363.168 L
629.5 368.5 L
cp
f
GR
GS
[0.75 0 0 0.75 0 0] CT
2 setlinecap
10.0 ML
N
633.5 373.832 M
637.5 368.5 L
633.5 363.168 L
629.5 368.5 L
633.5 373.832 L
S
GR
GS
[0.75 0 0 0.75 0 0] CT
0 0 1 RC
2 setlinecap
10.0 ML
N
160 330 M
167 323 L
S
GR
GS
[0.75 0 0 0.75 0 0] CT
0 0 1 RC
2 setlinecap
10.0 ML
N
160 323 M
167 330 L
S
GR
GS
[0.75 0 0 0.75 0 0] CT
0 0 1 RC
2 setlinecap
10.0 ML
N
196 298 M
203 291 L
S
GR
GS
[0.75 0 0 0.75 0 0] CT
0 0 1 RC
2 setlinecap
10.0 ML
N
196 291 M
203 298 L
S
GR
GS
[0.75 0 0 0.75 0 0] CT
0 0 1 RC
2 setlinecap
10.0 ML
N
232 333 M
239 326 L
S
GR
GS
[0.75 0 0 0.75 0 0] CT
0 0 1 RC
2 setlinecap
10.0 ML
N
232 326 M
239 333 L
S
GR
GS
[0.75 0 0 0.75 0 0] CT
0 0 1 RC
2 setlinecap
10.0 ML
N
268 378 M
275 371 L
S
GR
GS
[0.75 0 0 0.75 0 0] CT
0 0 1 RC
2 setlinecap
10.0 ML
N
268 371 M
275 378 L
S
GR
GS
[0.75 0 0 0.75 0 0] CT
0 0 1 RC
2 setlinecap
10.0 ML
N
304 356 M
311 349 L
S
GR
GS
[0.75 0 0 0.75 0 0] CT
0 0 1 RC
2 setlinecap
10.0 ML
N
304 349 M
311 356 L
S
GR
GS
[0.75 0 0 0.75 0 0] CT
0 0 1 RC
2 setlinecap
10.0 ML
N
340 361 M
347 354 L
S
GR
GS
[0.75 0 0 0.75 0 0] CT
0 0 1 RC
2 setlinecap
10.0 ML
N
340 354 M
347 361 L
S
GR
GS
[0.75 0 0 0.75 0 0] CT
0 0 1 RC
2 setlinecap
10.0 ML
N
377 364 M
384 357 L
S
GR
GS
[0.75 0 0 0.75 0 0] CT
0 0 1 RC
2 setlinecap
10.0 ML
N
377 357 M
384 364 L
S
GR
GS
[0.75 0 0 0.75 0 0] CT
0 0 1 RC
2 setlinecap
10.0 ML
N
413 366 M
420 359 L
S
GR
GS
[0.75 0 0 0.75 0 0] CT
0 0 1 RC
2 setlinecap
10.0 ML
N
413 359 M
420 366 L
S
GR
GS
[0.75 0 0 0.75 0 0] CT
0 0 1 RC
2 setlinecap
10.0 ML
N
449 367 M
456 360 L
S
GR
GS
[0.75 0 0 0.75 0 0] CT
0 0 1 RC
2 setlinecap
10.0 ML
N
449 360 M
456 367 L
S
GR
GS
[0.75 0 0 0.75 0 0] CT
0 0 1 RC
2 setlinecap
10.0 ML
N
485 368 M
492 361 L
S
GR
GS
[0.75 0 0 0.75 0 0] CT
0 0 1 RC
2 setlinecap
10.0 ML
N
485 361 M
492 368 L
S
GR
GS
[0.75 0 0 0.75 0 0] CT
0 0 1 RC
2 setlinecap
10.0 ML
N
521 369 M
528 362 L
S
GR
GS
[0.75 0 0 0.75 0 0] CT
0 0 1 RC
2 setlinecap
10.0 ML
N
521 362 M
528 369 L
S
GR
GS
[0.75 0 0 0.75 0 0] CT
0 0 1 RC
2 setlinecap
10.0 ML
N
557 369 M
564 362 L
S
GR
GS
[0.75 0 0 0.75 0 0] CT
0 0 1 RC
2 setlinecap
10.0 ML
N
557 362 M
564 369 L
S
GR
GS
[0.75 0 0 0.75 0 0] CT
0 0 1 RC
2 setlinecap
10.0 ML
N
593 369 M
600 362 L
S
GR
GS
[0.75 0 0 0.75 0 0] CT
0 0 1 RC
2 setlinecap
10.0 ML
N
593 362 M
600 369 L
S
GR
GS
[0.75 0 0 0.75 0 0] CT
0 0 1 RC
2 setlinecap
10.0 ML
N
630 370 M
637 363 L
S
GR
GS
[0.75 0 0 0.75 0 0] CT
0 0 1 RC
2 setlinecap
10.0 ML
N
630 363 M
637 370 L
S
GR
GS
[0.75 0 0 0.75 0 0] CT
1 0 0 RC
2 setlinecap
10.0 ML
N
159 193.5 M
168 193.5 L
S
GR
GS
[0.75 0 0 0.75 0 0] CT
1 0 0 RC
2 setlinecap
10.0 ML
N
163.5 198 M
163.5 189 L
S
GR
GS
[0.75 0 0 0.75 0 0] CT
1 0 0 RC
2 setlinecap
10.0 ML
N
195 264.5 M
204 264.5 L
S
GR
GS
[0.75 0 0 0.75 0 0] CT
1 0 0 RC
2 setlinecap
10.0 ML
N
199.5 269 M
199.5 260 L
S
GR
GS
[0.75 0 0 0.75 0 0] CT
1 0 0 RC
2 setlinecap
10.0 ML
N
231 311.5 M
240 311.5 L
S
GR
GS
[0.75 0 0 0.75 0 0] CT
1 0 0 RC
2 setlinecap
10.0 ML
N
235.5 316 M
235.5 307 L
S
GR
GS
[0.75 0 0 0.75 0 0] CT
1 0 0 RC
2 setlinecap
10.0 ML
N
267 344.5 M
276 344.5 L
S
GR
GS
[0.75 0 0 0.75 0 0] CT
1 0 0 RC
2 setlinecap
10.0 ML
N
271.5 349 M
271.5 340 L
S
GR
GS
[0.75 0 0 0.75 0 0] CT
1 0 0 RC
2 setlinecap
10.0 ML
N
303 344.5 M
312 344.5 L
S
GR
GS
[0.75 0 0 0.75 0 0] CT
1 0 0 RC
2 setlinecap
10.0 ML
N
307.5 349 M
307.5 340 L
S
GR
GS
[0.75 0 0 0.75 0 0] CT
1 0 0 RC
2 setlinecap
10.0 ML
N
339 351.5 M
348 351.5 L
S
GR
GS
[0.75 0 0 0.75 0 0] CT
1 0 0 RC
2 setlinecap
10.0 ML
N
343.5 356 M
343.5 347 L
S
GR
GS
[0.75 0 0 0.75 0 0] CT
1 0 0 RC
2 setlinecap
10.0 ML
N
376 355.5 M
385 355.5 L
S
GR
GS
[0.75 0 0 0.75 0 0] CT
1 0 0 RC
2 setlinecap
10.0 ML
N
380.5 360 M
380.5 351 L
S
GR
GS
[0.75 0 0 0.75 0 0] CT
1 0 0 RC
2 setlinecap
10.0 ML
N
412 358.5 M
421 358.5 L
S
GR
GS
[0.75 0 0 0.75 0 0] CT
1 0 0 RC
2 setlinecap
10.0 ML
N
416.5 363 M
416.5 354 L
S
GR
GS
[0.75 0 0 0.75 0 0] CT
1 0 0 RC
2 setlinecap
10.0 ML
N
448 360.5 M
457 360.5 L
S
GR
GS
[0.75 0 0 0.75 0 0] CT
1 0 0 RC
2 setlinecap
10.0 ML
N
452.5 365 M
452.5 356 L
S
GR
GS
[0.75 0 0 0.75 0 0] CT
1 0 0 RC
2 setlinecap
10.0 ML
N
484 362.5 M
493 362.5 L
S
GR
GS
[0.75 0 0 0.75 0 0] CT
1 0 0 RC
2 setlinecap
10.0 ML
N
488.5 367 M
488.5 358 L
S
GR
GS
[0.75 0 0 0.75 0 0] CT
1 0 0 RC
2 setlinecap
10.0 ML
N
520 363.5 M
529 363.5 L
S
GR
GS
[0.75 0 0 0.75 0 0] CT
1 0 0 RC
2 setlinecap
10.0 ML
N
524.5 368 M
524.5 359 L
S
GR
GS
[0.75 0 0 0.75 0 0] CT
1 0 0 RC
2 setlinecap
10.0 ML
N
556 363.5 M
565 363.5 L
S
GR
GS
[0.75 0 0 0.75 0 0] CT
1 0 0 RC
2 setlinecap
10.0 ML
N
560.5 368 M
560.5 359 L
S
GR
GS
[0.75 0 0 0.75 0 0] CT
1 0 0 RC
2 setlinecap
10.0 ML
N
592 364.5 M
601 364.5 L
S
GR
GS
[0.75 0 0 0.75 0 0] CT
1 0 0 RC
2 setlinecap
10.0 ML
N
596.5 369 M
596.5 360 L
S
GR
GS
[0.75 0 0 0.75 0 0] CT
1 0 0 RC
2 setlinecap
10.0 ML
N
629 364.5 M
638 364.5 L
S
GR
GS
[0.75 0 0 0.75 0 0] CT
1 0 0 RC
2 setlinecap
10.0 ML
N
633.5 369 M
633.5 360 L
S
GR
GS
[0.75 0 0 0.75 0 0] CT
1 0 1 RC
N
163.5 134.832 M
168.118 126.834 L
158.882 126.834 L
cp
f
GR
GS
[0.75 0 0 0.75 0 0] CT
1 0 1 RC
2 setlinecap
10.0 ML
N
163.5 134.832 M
168.118 126.834 L
158.882 126.834 L
163.5 134.832 L
S
GR
GS
[0.75 0 0 0.75 0 0] CT
1 0 1 RC
N
199.5 252.832 M
204.118 244.834 L
194.882 244.834 L
cp
f
GR
GS
[0.75 0 0 0.75 0 0] CT
1 0 1 RC
2 setlinecap
10.0 ML
N
199.5 252.832 M
204.118 244.834 L
194.882 244.834 L
199.5 252.832 L
S
GR
GS
[0.75 0 0 0.75 0 0] CT
1 0 1 RC
N
235.5 306.832 M
240.118 298.834 L
230.882 298.834 L
cp
f
GR
GS
[0.75 0 0 0.75 0 0] CT
1 0 1 RC
2 setlinecap
10.0 ML
N
235.5 306.832 M
240.118 298.834 L
230.882 298.834 L
235.5 306.832 L
S
GR
GS
[0.75 0 0 0.75 0 0] CT
1 0 1 RC
N
271.5 337.832 M
276.118 329.834 L
266.882 329.834 L
cp
f
GR
GS
[0.75 0 0 0.75 0 0] CT
1 0 1 RC
2 setlinecap
10.0 ML
N
271.5 337.832 M
276.118 329.834 L
266.882 329.834 L
271.5 337.832 L
S
GR
GS
[0.75 0 0 0.75 0 0] CT
1 0 1 RC
N
307.5 344.832 M
312.118 336.834 L
302.882 336.834 L
cp
f
GR
GS
[0.75 0 0 0.75 0 0] CT
1 0 1 RC
2 setlinecap
10.0 ML
N
307.5 344.832 M
312.118 336.834 L
302.882 336.834 L
307.5 344.832 L
S
GR
GS
[0.75 0 0 0.75 0 0] CT
1 0 1 RC
N
343.5 352.832 M
348.118 344.834 L
338.882 344.834 L
cp
f
GR
GS
[0.75 0 0 0.75 0 0] CT
1 0 1 RC
2 setlinecap
10.0 ML
N
343.5 352.832 M
348.118 344.834 L
338.882 344.834 L
343.5 352.832 L
S
GR
GS
[0.75 0 0 0.75 0 0] CT
1 0 1 RC
N
380.5 357.832 M
385.118 349.834 L
375.882 349.834 L
cp
f
GR
GS
[0.75 0 0 0.75 0 0] CT
1 0 1 RC
2 setlinecap
10.0 ML
N
380.5 357.832 M
385.118 349.834 L
375.882 349.834 L
380.5 357.832 L
S
GR
GS
[0.75 0 0 0.75 0 0] CT
1 0 1 RC
N
416.5 361.832 M
421.118 353.834 L
411.882 353.834 L
cp
f
GR
GS
[0.75 0 0 0.75 0 0] CT
1 0 1 RC
2 setlinecap
10.0 ML
N
416.5 361.832 M
421.118 353.834 L
411.882 353.834 L
416.5 361.832 L
S
GR
GS
[0.75 0 0 0.75 0 0] CT
1 0 1 RC
N
452.5 363.832 M
457.118 355.834 L
447.882 355.834 L
cp
f
GR
GS
[0.75 0 0 0.75 0 0] CT
1 0 1 RC
2 setlinecap
10.0 ML
N
452.5 363.832 M
457.118 355.834 L
447.882 355.834 L
452.5 363.832 L
S
GR
GS
[0.75 0 0 0.75 0 0] CT
1 0 1 RC
N
488.5 365.832 M
493.118 357.834 L
483.882 357.834 L
cp
f
GR
GS
[0.75 0 0 0.75 0 0] CT
1 0 1 RC
2 setlinecap
10.0 ML
N
488.5 365.832 M
493.118 357.834 L
483.882 357.834 L
488.5 365.832 L
S
GR
GS
[0.75 0 0 0.75 0 0] CT
1 0 1 RC
N
524.5 366.832 M
529.117 358.834 L
519.883 358.834 L
cp
f
GR
GS
[0.75 0 0 0.75 0 0] CT
1 0 1 RC
2 setlinecap
10.0 ML
N
524.5 366.832 M
529.117 358.834 L
519.883 358.834 L
524.5 366.832 L
S
GR
GS
[0.75 0 0 0.75 0 0] CT
1 0 1 RC
N
560.5 367.832 M
565.117 359.834 L
555.883 359.834 L
cp
f
GR
GS
[0.75 0 0 0.75 0 0] CT
1 0 1 RC
2 setlinecap
10.0 ML
N
560.5 367.832 M
565.117 359.834 L
555.883 359.834 L
560.5 367.832 L
S
GR
GS
[0.75 0 0 0.75 0 0] CT
1 0 1 RC
N
596.5 368.832 M
601.117 360.834 L
591.883 360.834 L
cp
f
GR
GS
[0.75 0 0 0.75 0 0] CT
1 0 1 RC
2 setlinecap
10.0 ML
N
596.5 368.832 M
601.117 360.834 L
591.883 360.834 L
596.5 368.832 L
S
GR
GS
[0.75 0 0 0.75 0 0] CT
1 0 1 RC
N
633.5 369.832 M
638.117 361.834 L
628.883 361.834 L
cp
f
GR
GS
[0.75 0 0 0.75 0 0] CT
1 0 1 RC
2 setlinecap
10.0 ML
N
633.5 369.832 M
638.117 361.834 L
628.883 361.834 L
633.5 369.832 L
S
GR
GS
[0.75 0 0 0.75 0 0] CT
0 1 0 RC
N
160.38 57.62 M
160.38 51.38 L
166.62 51.38 L
166.62 57.62 L
cp
f
GR
GS
[0.75 0 0 0.75 0 0] CT
0 1 0 RC
2 setlinecap
10.0 ML
N
160.38 57.62 M
160.38 51.38 L
166.62 51.38 L
166.62 57.62 L
160.38 57.62 L
S
GR
GS
[0.75 0 0 0.75 0 0] CT
0 1 0 RC
N
196.38 236.62 M
196.38 230.38 L
202.62 230.38 L
202.62 236.62 L
cp
f
GR
GS
[0.75 0 0 0.75 0 0] CT
0 1 0 RC
2 setlinecap
10.0 ML
N
196.38 236.62 M
196.38 230.38 L
202.62 230.38 L
202.62 236.62 L
196.38 236.62 L
S
GR
GS
[0.75 0 0 0.75 0 0] CT
0 1 0 RC
N
232.38 297.62 M
232.38 291.38 L
238.62 291.38 L
238.62 297.62 L
cp
f
GR
GS
[0.75 0 0 0.75 0 0] CT
0 1 0 RC
2 setlinecap
10.0 ML
N
232.38 297.62 M
232.38 291.38 L
238.62 291.38 L
238.62 297.62 L
232.38 297.62 L
S
GR
GS
[0.75 0 0 0.75 0 0] CT
0 1 0 RC
N
268.38 329.62 M
268.38 323.38 L
274.62 323.38 L
274.62 329.62 L
cp
f
GR
GS
[0.75 0 0 0.75 0 0] CT
0 1 0 RC
2 setlinecap
10.0 ML
N
268.38 329.62 M
268.38 323.38 L
274.62 323.38 L
274.62 329.62 L
268.38 329.62 L
S
GR
GS
[0.75 0 0 0.75 0 0] CT
0 1 0 RC
N
304.38 339.62 M
304.38 333.38 L
310.62 333.38 L
310.62 339.62 L
cp
f
GR
GS
[0.75 0 0 0.75 0 0] CT
0 1 0 RC
2 setlinecap
10.0 ML
N
304.38 339.62 M
304.38 333.38 L
310.62 333.38 L
310.62 339.62 L
304.38 339.62 L
S
GR
GS
[0.75 0 0 0.75 0 0] CT
0 1 0 RC
N
340.38 348.62 M
340.38 342.38 L
346.62 342.38 L
346.62 348.62 L
cp
f
GR
GS
[0.75 0 0 0.75 0 0] CT
0 1 0 RC
2 setlinecap
10.0 ML
N
340.38 348.62 M
340.38 342.38 L
346.62 342.38 L
346.62 348.62 L
340.38 348.62 L
S
GR
GS
[0.75 0 0 0.75 0 0] CT
0 1 0 RC
N
377.38 353.62 M
377.38 347.38 L
383.62 347.38 L
383.62 353.62 L
cp
f
GR
GS
[0.75 0 0 0.75 0 0] CT
0 1 0 RC
2 setlinecap
10.0 ML
N
377.38 353.62 M
377.38 347.38 L
383.62 347.38 L
383.62 353.62 L
377.38 353.62 L
S
GR
GS
[0.75 0 0 0.75 0 0] CT
0 1 0 RC
N
413.38 357.62 M
413.38 351.38 L
419.62 351.38 L
419.62 357.62 L
cp
f
GR
GS
[0.75 0 0 0.75 0 0] CT
0 1 0 RC
2 setlinecap
10.0 ML
N
413.38 357.62 M
413.38 351.38 L
419.62 351.38 L
419.62 357.62 L
413.38 357.62 L
S
GR
GS
[0.75 0 0 0.75 0 0] CT
0 1 0 RC
N
449.38 360.62 M
449.38 354.38 L
455.62 354.38 L
455.62 360.62 L
cp
f
GR
GS
[0.75 0 0 0.75 0 0] CT
0 1 0 RC
2 setlinecap
10.0 ML
N
449.38 360.62 M
449.38 354.38 L
455.62 354.38 L
455.62 360.62 L
449.38 360.62 L
S
GR
GS
[0.75 0 0 0.75 0 0] CT
0 1 0 RC
N
485.38 362.62 M
485.38 356.38 L
491.62 356.38 L
491.62 362.62 L
cp
f
GR
GS
[0.75 0 0 0.75 0 0] CT
0 1 0 RC
2 setlinecap
10.0 ML
N
485.38 362.62 M
485.38 356.38 L
491.62 356.38 L
491.62 362.62 L
485.38 362.62 L
S
GR
GS
[0.75 0 0 0.75 0 0] CT
0 1 0 RC
N
521.38 363.62 M
521.38 357.38 L
527.62 357.38 L
527.62 363.62 L
cp
f
GR
GS
[0.75 0 0 0.75 0 0] CT
0 1 0 RC
2 setlinecap
10.0 ML
N
521.38 363.62 M
521.38 357.38 L
527.62 357.38 L
527.62 363.62 L
521.38 363.62 L
S
GR
GS
[0.75 0 0 0.75 0 0] CT
0 1 0 RC
N
557.38 364.62 M
557.38 358.38 L
563.62 358.38 L
563.62 364.62 L
cp
f
GR
GS
[0.75 0 0 0.75 0 0] CT
0 1 0 RC
2 setlinecap
10.0 ML
N
557.38 364.62 M
557.38 358.38 L
563.62 358.38 L
563.62 364.62 L
557.38 364.62 L
S
GR
GS
[0.75 0 0 0.75 0 0] CT
0 1 0 RC
N
593.38 365.62 M
593.38 359.38 L
599.62 359.38 L
599.62 365.62 L
cp
f
GR
GS
[0.75 0 0 0.75 0 0] CT
0 1 0 RC
2 setlinecap
10.0 ML
N
593.38 365.62 M
593.38 359.38 L
599.62 359.38 L
599.62 365.62 L
593.38 365.62 L
S
GR
GS
[0.75 0 0 0.75 0 0] CT
0 1 0 RC
N
630.38 366.62 M
630.38 360.38 L
636.62 360.38 L
636.62 366.62 L
cp
f
GR
GS
[0.75 0 0 0.75 0 0] CT
0 1 0 RC
2 setlinecap
10.0 ML
N
630.38 366.62 M
630.38 360.38 L
636.62 360.38 L
636.62 366.62 L
630.38 366.62 L
S
GR
GS
[0.75 0 0 0.75 0 0] CT
N
163.5 76.5 M
159.696 75.264 L
162.56 75.264 L
cp
f
GR
GS
[0.75 0 0 0.75 0 0] CT
N
163.5 76.5 M
162.56 75.264 L
163.5 72.5 L
cp
f
GR
GS
[0.75 0 0 0.75 0 0] CT
N
163.5 76.5 M
163.5 72.5 L
164.44 75.264 L
cp
f
GR
GS
[0.75 0 0 0.75 0 0] CT
N
163.5 76.5 M
164.44 75.264 L
167.304 75.264 L
cp
f
GR
GS
[0.75 0 0 0.75 0 0] CT
N
163.5 76.5 M
167.304 75.264 L
165.022 76.994 L
cp
f
GR
GS
[0.75 0 0 0.75 0 0] CT
N
163.5 76.5 M
165.022 76.994 L
165.851 79.736 L
cp
f
GR
GS
[0.75 0 0 0.75 0 0] CT
N
163.5 76.5 M
165.851 79.736 L
163.5 78.1 L
cp
f
GR
GS
[0.75 0 0 0.75 0 0] CT
N
163.5 76.5 M
163.5 78.1 L
161.149 79.736 L
cp
f
GR
GS
[0.75 0 0 0.75 0 0] CT
N
163.5 76.5 M
161.149 79.736 L
161.978 76.994 L
cp
f
GR
GS
[0.75 0 0 0.75 0 0] CT
N
163.5 76.5 M
161.978 76.994 L
159.696 75.264 L
cp
f
GR
GS
[0.75 0 0 0.75 0 0] CT
2 setlinecap
10.0 ML
N
159.696 75.264 M
162.56 75.264 L
163.5 72.5 L
164.44 75.264 L
167.304 75.264 L
165.022 76.994 L
165.851 79.736 L
163.5 78.1 L
161.149 79.736 L
161.978 76.994 L
159.696 75.264 L
S
GR
GS
[0.75 0 0 0.75 0 0] CT
N
199.5 226.5 M
195.696 225.264 L
198.56 225.264 L
cp
f
GR
GS
[0.75 0 0 0.75 0 0] CT
N
199.5 226.5 M
198.56 225.264 L
199.5 222.5 L
cp
f
GR
GS
[0.75 0 0 0.75 0 0] CT
N
199.5 226.5 M
199.5 222.5 L
200.44 225.264 L
cp
f
GR
GS
[0.75 0 0 0.75 0 0] CT
N
199.5 226.5 M
200.44 225.264 L
203.304 225.264 L
cp
f
GR
GS
[0.75 0 0 0.75 0 0] CT
N
199.5 226.5 M
203.304 225.264 L
201.022 226.994 L
cp
f
GR
GS
[0.75 0 0 0.75 0 0] CT
N
199.5 226.5 M
201.022 226.994 L
201.851 229.736 L
cp
f
GR
GS
[0.75 0 0 0.75 0 0] CT
N
199.5 226.5 M
201.851 229.736 L
199.5 228.1 L
cp
f
GR
GS
[0.75 0 0 0.75 0 0] CT
N
199.5 226.5 M
199.5 228.1 L
197.149 229.736 L
cp
f
GR
GS
[0.75 0 0 0.75 0 0] CT
N
199.5 226.5 M
197.149 229.736 L
197.978 226.994 L
cp
f
GR
GS
[0.75 0 0 0.75 0 0] CT
N
199.5 226.5 M
197.978 226.994 L
195.696 225.264 L
cp
f
GR
GS
[0.75 0 0 0.75 0 0] CT
2 setlinecap
10.0 ML
N
195.696 225.264 M
198.56 225.264 L
199.5 222.5 L
200.44 225.264 L
203.304 225.264 L
201.022 226.994 L
201.851 229.736 L
199.5 228.1 L
197.149 229.736 L
197.978 226.994 L
195.696 225.264 L
S
GR
GS
[0.75 0 0 0.75 0 0] CT
N
235.5 288.5 M
231.696 287.264 L
234.56 287.264 L
cp
f
GR
GS
[0.75 0 0 0.75 0 0] CT
N
235.5 288.5 M
234.56 287.264 L
235.5 284.5 L
cp
f
GR
GS
[0.75 0 0 0.75 0 0] CT
N
235.5 288.5 M
235.5 284.5 L
236.44 287.264 L
cp
f
GR
GS
[0.75 0 0 0.75 0 0] CT
N
235.5 288.5 M
236.44 287.264 L
239.304 287.264 L
cp
f
GR
GS
[0.75 0 0 0.75 0 0] CT
N
235.5 288.5 M
239.304 287.264 L
237.022 288.994 L
cp
f
GR
GS
[0.75 0 0 0.75 0 0] CT
N
235.5 288.5 M
237.022 288.994 L
237.851 291.736 L
cp
f
GR
GS
[0.75 0 0 0.75 0 0] CT
N
235.5 288.5 M
237.851 291.736 L
235.5 290.1 L
cp
f
GR
GS
[0.75 0 0 0.75 0 0] CT
N
235.5 288.5 M
235.5 290.1 L
233.149 291.736 L
cp
f
GR
GS
[0.75 0 0 0.75 0 0] CT
N
235.5 288.5 M
233.149 291.736 L
233.978 288.994 L
cp
f
GR
GS
[0.75 0 0 0.75 0 0] CT
N
235.5 288.5 M
233.978 288.994 L
231.696 287.264 L
cp
f
GR
GS
[0.75 0 0 0.75 0 0] CT
2 setlinecap
10.0 ML
N
231.696 287.264 M
234.56 287.264 L
235.5 284.5 L
236.44 287.264 L
239.304 287.264 L
237.022 288.994 L
237.851 291.736 L
235.5 290.1 L
233.149 291.736 L
233.978 288.994 L
231.696 287.264 L
S
GR
GS
[0.75 0 0 0.75 0 0] CT
N
271.5 321.5 M
267.696 320.264 L
270.56 320.264 L
cp
f
GR
GS
[0.75 0 0 0.75 0 0] CT
N
271.5 321.5 M
270.56 320.264 L
271.5 317.5 L
cp
f
GR
GS
[0.75 0 0 0.75 0 0] CT
N
271.5 321.5 M
271.5 317.5 L
272.44 320.264 L
cp
f
GR
GS
[0.75 0 0 0.75 0 0] CT
N
271.5 321.5 M
272.44 320.264 L
275.304 320.264 L
cp
f
GR
GS
[0.75 0 0 0.75 0 0] CT
N
271.5 321.5 M
275.304 320.264 L
273.022 321.994 L
cp
f
GR
GS
[0.75 0 0 0.75 0 0] CT
N
271.5 321.5 M
273.022 321.994 L
273.851 324.736 L
cp
f
GR
GS
[0.75 0 0 0.75 0 0] CT
N
271.5 321.5 M
273.851 324.736 L
271.5 323.1 L
cp
f
GR
GS
[0.75 0 0 0.75 0 0] CT
N
271.5 321.5 M
271.5 323.1 L
269.149 324.736 L
cp
f
GR
GS
[0.75 0 0 0.75 0 0] CT
N
271.5 321.5 M
269.149 324.736 L
269.978 321.994 L
cp
f
GR
GS
[0.75 0 0 0.75 0 0] CT
N
271.5 321.5 M
269.978 321.994 L
267.696 320.264 L
cp
f
GR
GS
[0.75 0 0 0.75 0 0] CT
2 setlinecap
10.0 ML
N
267.696 320.264 M
270.56 320.264 L
271.5 317.5 L
272.44 320.264 L
275.304 320.264 L
273.022 321.994 L
273.851 324.736 L
271.5 323.1 L
269.149 324.736 L
269.978 321.994 L
267.696 320.264 L
S
GR
GS
[0.75 0 0 0.75 0 0] CT
N
307.5 333.5 M
303.696 332.264 L
306.56 332.264 L
cp
f
GR
GS
[0.75 0 0 0.75 0 0] CT
N
307.5 333.5 M
306.56 332.264 L
307.5 329.5 L
cp
f
GR
GS
[0.75 0 0 0.75 0 0] CT
N
307.5 333.5 M
307.5 329.5 L
308.44 332.264 L
cp
f
GR
GS
[0.75 0 0 0.75 0 0] CT
N
307.5 333.5 M
308.44 332.264 L
311.304 332.264 L
cp
f
GR
GS
[0.75 0 0 0.75 0 0] CT
N
307.5 333.5 M
311.304 332.264 L
309.022 333.994 L
cp
f
GR
GS
[0.75 0 0 0.75 0 0] CT
N
307.5 333.5 M
309.022 333.994 L
309.851 336.736 L
cp
f
GR
GS
[0.75 0 0 0.75 0 0] CT
N
307.5 333.5 M
309.851 336.736 L
307.5 335.1 L
cp
f
GR
GS
[0.75 0 0 0.75 0 0] CT
N
307.5 333.5 M
307.5 335.1 L
305.149 336.736 L
cp
f
GR
GS
[0.75 0 0 0.75 0 0] CT
N
307.5 333.5 M
305.149 336.736 L
305.978 333.994 L
cp
f
GR
GS
[0.75 0 0 0.75 0 0] CT
N
307.5 333.5 M
305.978 333.994 L
303.696 332.264 L
cp
f
GR
GS
[0.75 0 0 0.75 0 0] CT
2 setlinecap
10.0 ML
N
303.696 332.264 M
306.56 332.264 L
307.5 329.5 L
308.44 332.264 L
311.304 332.264 L
309.022 333.994 L
309.851 336.736 L
307.5 335.1 L
305.149 336.736 L
305.978 333.994 L
303.696 332.264 L
S
GR
GS
[0.75 0 0 0.75 0 0] CT
N
343.5 343.5 M
339.696 342.264 L
342.56 342.264 L
cp
f
GR
GS
[0.75 0 0 0.75 0 0] CT
N
343.5 343.5 M
342.56 342.264 L
343.5 339.5 L
cp
f
GR
GS
[0.75 0 0 0.75 0 0] CT
N
343.5 343.5 M
343.5 339.5 L
344.44 342.264 L
cp
f
GR
GS
[0.75 0 0 0.75 0 0] CT
N
343.5 343.5 M
344.44 342.264 L
347.304 342.264 L
cp
f
GR
GS
[0.75 0 0 0.75 0 0] CT
N
343.5 343.5 M
347.304 342.264 L
345.022 343.994 L
cp
f
GR
GS
[0.75 0 0 0.75 0 0] CT
N
343.5 343.5 M
345.022 343.994 L
345.851 346.736 L
cp
f
GR
GS
[0.75 0 0 0.75 0 0] CT
N
343.5 343.5 M
345.851 346.736 L
343.5 345.1 L
cp
f
GR
GS
[0.75 0 0 0.75 0 0] CT
N
343.5 343.5 M
343.5 345.1 L
341.149 346.736 L
cp
f
GR
GS
[0.75 0 0 0.75 0 0] CT
N
343.5 343.5 M
341.149 346.736 L
341.978 343.994 L
cp
f
GR
GS
[0.75 0 0 0.75 0 0] CT
N
343.5 343.5 M
341.978 343.994 L
339.696 342.264 L
cp
f
GR
GS
[0.75 0 0 0.75 0 0] CT
2 setlinecap
10.0 ML
N
339.696 342.264 M
342.56 342.264 L
343.5 339.5 L
344.44 342.264 L
347.304 342.264 L
345.022 343.994 L
345.851 346.736 L
343.5 345.1 L
341.149 346.736 L
341.978 343.994 L
339.696 342.264 L
S
GR
GS
[0.75 0 0 0.75 0 0] CT
N
380.5 349.5 M
376.696 348.264 L
379.56 348.264 L
cp
f
GR
GS
[0.75 0 0 0.75 0 0] CT
N
380.5 349.5 M
379.56 348.264 L
380.5 345.5 L
cp
f
GR
GS
[0.75 0 0 0.75 0 0] CT
N
380.5 349.5 M
380.5 345.5 L
381.44 348.264 L
cp
f
GR
GS
[0.75 0 0 0.75 0 0] CT
N
380.5 349.5 M
381.44 348.264 L
384.304 348.264 L
cp
f
GR
GS
[0.75 0 0 0.75 0 0] CT
N
380.5 349.5 M
384.304 348.264 L
382.022 349.994 L
cp
f
GR
GS
[0.75 0 0 0.75 0 0] CT
N
380.5 349.5 M
382.022 349.994 L
382.851 352.736 L
cp
f
GR
GS
[0.75 0 0 0.75 0 0] CT
N
380.5 349.5 M
382.851 352.736 L
380.5 351.1 L
cp
f
GR
GS
[0.75 0 0 0.75 0 0] CT
N
380.5 349.5 M
380.5 351.1 L
378.149 352.736 L
cp
f
GR
GS
[0.75 0 0 0.75 0 0] CT
N
380.5 349.5 M
378.149 352.736 L
378.978 349.994 L
cp
f
GR
GS
[0.75 0 0 0.75 0 0] CT
N
380.5 349.5 M
378.978 349.994 L
376.696 348.264 L
cp
f
GR
GS
[0.75 0 0 0.75 0 0] CT
2 setlinecap
10.0 ML
N
376.696 348.264 M
379.56 348.264 L
380.5 345.5 L
381.44 348.264 L
384.304 348.264 L
382.022 349.994 L
382.851 352.736 L
380.5 351.1 L
378.149 352.736 L
378.978 349.994 L
376.696 348.264 L
S
GR
GS
[0.75 0 0 0.75 0 0] CT
N
416.5 353.5 M
412.696 352.264 L
415.56 352.264 L
cp
f
GR
GS
[0.75 0 0 0.75 0 0] CT
N
416.5 353.5 M
415.56 352.264 L
416.5 349.5 L
cp
f
GR
GS
[0.75 0 0 0.75 0 0] CT
N
416.5 353.5 M
416.5 349.5 L
417.44 352.264 L
cp
f
GR
GS
[0.75 0 0 0.75 0 0] CT
N
416.5 353.5 M
417.44 352.264 L
420.304 352.264 L
cp
f
GR
GS
[0.75 0 0 0.75 0 0] CT
N
416.5 353.5 M
420.304 352.264 L
418.022 353.994 L
cp
f
GR
GS
[0.75 0 0 0.75 0 0] CT
N
416.5 353.5 M
418.022 353.994 L
418.851 356.736 L
cp
f
GR
GS
[0.75 0 0 0.75 0 0] CT
N
416.5 353.5 M
418.851 356.736 L
416.5 355.1 L
cp
f
GR
GS
[0.75 0 0 0.75 0 0] CT
N
416.5 353.5 M
416.5 355.1 L
414.149 356.736 L
cp
f
GR
GS
[0.75 0 0 0.75 0 0] CT
N
416.5 353.5 M
414.149 356.736 L
414.978 353.994 L
cp
f
GR
GS
[0.75 0 0 0.75 0 0] CT
N
416.5 353.5 M
414.978 353.994 L
412.696 352.264 L
cp
f
GR
GS
[0.75 0 0 0.75 0 0] CT
2 setlinecap
10.0 ML
N
412.696 352.264 M
415.56 352.264 L
416.5 349.5 L
417.44 352.264 L
420.304 352.264 L
418.022 353.994 L
418.851 356.736 L
416.5 355.1 L
414.149 356.736 L
414.978 353.994 L
412.696 352.264 L
S
GR
GS
[0.75 0 0 0.75 0 0] CT
N
452.5 356.5 M
448.696 355.264 L
451.56 355.264 L
cp
f
GR
GS
[0.75 0 0 0.75 0 0] CT
N
452.5 356.5 M
451.56 355.264 L
452.5 352.5 L
cp
f
GR
GS
[0.75 0 0 0.75 0 0] CT
N
452.5 356.5 M
452.5 352.5 L
453.44 355.264 L
cp
f
GR
GS
[0.75 0 0 0.75 0 0] CT
N
452.5 356.5 M
453.44 355.264 L
456.304 355.264 L
cp
f
GR
GS
[0.75 0 0 0.75 0 0] CT
N
452.5 356.5 M
456.304 355.264 L
454.022 356.994 L
cp
f
GR
GS
[0.75 0 0 0.75 0 0] CT
N
452.5 356.5 M
454.022 356.994 L
454.851 359.736 L
cp
f
GR
GS
[0.75 0 0 0.75 0 0] CT
N
452.5 356.5 M
454.851 359.736 L
452.5 358.1 L
cp
f
GR
GS
[0.75 0 0 0.75 0 0] CT
N
452.5 356.5 M
452.5 358.1 L
450.149 359.736 L
cp
f
GR
GS
[0.75 0 0 0.75 0 0] CT
N
452.5 356.5 M
450.149 359.736 L
450.978 356.994 L
cp
f
GR
GS
[0.75 0 0 0.75 0 0] CT
N
452.5 356.5 M
450.978 356.994 L
448.696 355.264 L
cp
f
GR
GS
[0.75 0 0 0.75 0 0] CT
2 setlinecap
10.0 ML
N
448.696 355.264 M
451.56 355.264 L
452.5 352.5 L
453.44 355.264 L
456.304 355.264 L
454.022 356.994 L
454.851 359.736 L
452.5 358.1 L
450.149 359.736 L
450.978 356.994 L
448.696 355.264 L
S
GR
GS
[0.75 0 0 0.75 0 0] CT
N
488.5 358.5 M
484.696 357.264 L
487.56 357.264 L
cp
f
GR
GS
[0.75 0 0 0.75 0 0] CT
N
488.5 358.5 M
487.56 357.264 L
488.5 354.5 L
cp
f
GR
GS
[0.75 0 0 0.75 0 0] CT
N
488.5 358.5 M
488.5 354.5 L
489.44 357.264 L
cp
f
GR
GS
[0.75 0 0 0.75 0 0] CT
N
488.5 358.5 M
489.44 357.264 L
492.304 357.264 L
cp
f
GR
GS
[0.75 0 0 0.75 0 0] CT
N
488.5 358.5 M
492.304 357.264 L
490.022 358.994 L
cp
f
GR
GS
[0.75 0 0 0.75 0 0] CT
N
488.5 358.5 M
490.022 358.994 L
490.851 361.736 L
cp
f
GR
GS
[0.75 0 0 0.75 0 0] CT
N
488.5 358.5 M
490.851 361.736 L
488.5 360.1 L
cp
f
GR
GS
[0.75 0 0 0.75 0 0] CT
N
488.5 358.5 M
488.5 360.1 L
486.149 361.736 L
cp
f
GR
GS
[0.75 0 0 0.75 0 0] CT
N
488.5 358.5 M
486.149 361.736 L
486.978 358.994 L
cp
f
GR
GS
[0.75 0 0 0.75 0 0] CT
N
488.5 358.5 M
486.978 358.994 L
484.696 357.264 L
cp
f
GR
GS
[0.75 0 0 0.75 0 0] CT
2 setlinecap
10.0 ML
N
484.696 357.264 M
487.56 357.264 L
488.5 354.5 L
489.44 357.264 L
492.304 357.264 L
490.022 358.994 L
490.851 361.736 L
488.5 360.1 L
486.149 361.736 L
486.978 358.994 L
484.696 357.264 L
S
GR
GS
[0.75 0 0 0.75 0 0] CT
N
524.5 360.5 M
520.696 359.264 L
523.56 359.264 L
cp
f
GR
GS
[0.75 0 0 0.75 0 0] CT
N
524.5 360.5 M
523.56 359.264 L
524.5 356.5 L
cp
f
GR
GS
[0.75 0 0 0.75 0 0] CT
N
524.5 360.5 M
524.5 356.5 L
525.44 359.264 L
cp
f
GR
GS
[0.75 0 0 0.75 0 0] CT
N
524.5 360.5 M
525.44 359.264 L
528.304 359.264 L
cp
f
GR
GS
[0.75 0 0 0.75 0 0] CT
N
524.5 360.5 M
528.304 359.264 L
526.022 360.994 L
cp
f
GR
GS
[0.75 0 0 0.75 0 0] CT
N
524.5 360.5 M
526.022 360.994 L
526.851 363.736 L
cp
f
GR
GS
[0.75 0 0 0.75 0 0] CT
N
524.5 360.5 M
526.851 363.736 L
524.5 362.1 L
cp
f
GR
GS
[0.75 0 0 0.75 0 0] CT
N
524.5 360.5 M
524.5 362.1 L
522.149 363.736 L
cp
f
GR
GS
[0.75 0 0 0.75 0 0] CT
N
524.5 360.5 M
522.149 363.736 L
522.978 360.994 L
cp
f
GR
GS
[0.75 0 0 0.75 0 0] CT
N
524.5 360.5 M
522.978 360.994 L
520.696 359.264 L
cp
f
GR
GS
[0.75 0 0 0.75 0 0] CT
2 setlinecap
10.0 ML
N
520.696 359.264 M
523.56 359.264 L
524.5 356.5 L
525.44 359.264 L
528.304 359.264 L
526.022 360.994 L
526.851 363.736 L
524.5 362.1 L
522.149 363.736 L
522.978 360.994 L
520.696 359.264 L
S
GR
GS
[0.75 0 0 0.75 0 0] CT
N
560.5 361.5 M
556.696 360.264 L
559.56 360.264 L
cp
f
GR
GS
[0.75 0 0 0.75 0 0] CT
N
560.5 361.5 M
559.56 360.264 L
560.5 357.5 L
cp
f
GR
GS
[0.75 0 0 0.75 0 0] CT
N
560.5 361.5 M
560.5 357.5 L
561.44 360.264 L
cp
f
GR
GS
[0.75 0 0 0.75 0 0] CT
N
560.5 361.5 M
561.44 360.264 L
564.304 360.264 L
cp
f
GR
GS
[0.75 0 0 0.75 0 0] CT
N
560.5 361.5 M
564.304 360.264 L
562.022 361.994 L
cp
f
GR
GS
[0.75 0 0 0.75 0 0] CT
N
560.5 361.5 M
562.022 361.994 L
562.851 364.736 L
cp
f
GR
GS
[0.75 0 0 0.75 0 0] CT
N
560.5 361.5 M
562.851 364.736 L
560.5 363.1 L
cp
f
GR
GS
[0.75 0 0 0.75 0 0] CT
N
560.5 361.5 M
560.5 363.1 L
558.149 364.736 L
cp
f
GR
GS
[0.75 0 0 0.75 0 0] CT
N
560.5 361.5 M
558.149 364.736 L
558.978 361.994 L
cp
f
GR
GS
[0.75 0 0 0.75 0 0] CT
N
560.5 361.5 M
558.978 361.994 L
556.696 360.264 L
cp
f
GR
GS
[0.75 0 0 0.75 0 0] CT
2 setlinecap
10.0 ML
N
556.696 360.264 M
559.56 360.264 L
560.5 357.5 L
561.44 360.264 L
564.304 360.264 L
562.022 361.994 L
562.851 364.736 L
560.5 363.1 L
558.149 364.736 L
558.978 361.994 L
556.696 360.264 L
S
GR
GS
[0.75 0 0 0.75 0 0] CT
N
596.5 362.5 M
592.696 361.264 L
595.56 361.264 L
cp
f
GR
GS
[0.75 0 0 0.75 0 0] CT
N
596.5 362.5 M
595.56 361.264 L
596.5 358.5 L
cp
f
GR
GS
[0.75 0 0 0.75 0 0] CT
N
596.5 362.5 M
596.5 358.5 L
597.44 361.264 L
cp
f
GR
GS
[0.75 0 0 0.75 0 0] CT
N
596.5 362.5 M
597.44 361.264 L
600.304 361.264 L
cp
f
GR
GS
[0.75 0 0 0.75 0 0] CT
N
596.5 362.5 M
600.304 361.264 L
598.022 362.994 L
cp
f
GR
GS
[0.75 0 0 0.75 0 0] CT
N
596.5 362.5 M
598.022 362.994 L
598.851 365.736 L
cp
f
GR
GS
[0.75 0 0 0.75 0 0] CT
N
596.5 362.5 M
598.851 365.736 L
596.5 364.1 L
cp
f
GR
GS
[0.75 0 0 0.75 0 0] CT
N
596.5 362.5 M
596.5 364.1 L
594.149 365.736 L
cp
f
GR
GS
[0.75 0 0 0.75 0 0] CT
N
596.5 362.5 M
594.149 365.736 L
594.978 362.994 L
cp
f
GR
GS
[0.75 0 0 0.75 0 0] CT
N
596.5 362.5 M
594.978 362.994 L
592.696 361.264 L
cp
f
GR
GS
[0.75 0 0 0.75 0 0] CT
2 setlinecap
10.0 ML
N
592.696 361.264 M
595.56 361.264 L
596.5 358.5 L
597.44 361.264 L
600.304 361.264 L
598.022 362.994 L
598.851 365.736 L
596.5 364.1 L
594.149 365.736 L
594.978 362.994 L
592.696 361.264 L
S
GR
GS
[0.75 0 0 0.75 0 0] CT
N
633.5 362.5 M
629.696 361.264 L
632.56 361.264 L
cp
f
GR
GS
[0.75 0 0 0.75 0 0] CT
N
633.5 362.5 M
632.56 361.264 L
633.5 358.5 L
cp
f
GR
GS
[0.75 0 0 0.75 0 0] CT
N
633.5 362.5 M
633.5 358.5 L
634.44 361.264 L
cp
f
GR
GS
[0.75 0 0 0.75 0 0] CT
N
633.5 362.5 M
634.44 361.264 L
637.304 361.264 L
cp
f
GR
GS
[0.75 0 0 0.75 0 0] CT
N
633.5 362.5 M
637.304 361.264 L
635.022 362.994 L
cp
f
GR
GS
[0.75 0 0 0.75 0 0] CT
N
633.5 362.5 M
635.022 362.994 L
635.851 365.736 L
cp
f
GR
GS
[0.75 0 0 0.75 0 0] CT
N
633.5 362.5 M
635.851 365.736 L
633.5 364.1 L
cp
f
GR
GS
[0.75 0 0 0.75 0 0] CT
N
633.5 362.5 M
633.5 364.1 L
631.149 365.736 L
cp
f
GR
GS
[0.75 0 0 0.75 0 0] CT
N
633.5 362.5 M
631.149 365.736 L
631.978 362.994 L
cp
f
GR
GS
[0.75 0 0 0.75 0 0] CT
N
633.5 362.5 M
631.978 362.994 L
629.696 361.264 L
cp
f
GR
GS
[0.75 0 0 0.75 0 0] CT
2 setlinecap
10.0 ML
N
629.696 361.264 M
632.56 361.264 L
633.5 358.5 L
634.44 361.264 L
637.304 361.264 L
635.022 362.994 L
635.851 365.736 L
633.5 364.1 L
631.149 365.736 L
631.978 362.994 L
629.696 361.264 L
S
GR
GS
[0.75 0 0 0.75 78.75 10.5] CT
/Helvetica-Bold 17 F
GS
[1 0 0 1 0 0] CT
0 0 moveto 
1 -1 scale
(Ledoux coefficient for the splitting of acoustic modes) t 
GR
GR
GS
[0.75 0 0 0.75 110.25 24.75] CT
/Helvetica-Bold 17 F
GS
[1 0 0 1 0 0] CT
0 0 moveto 
1 -1 scale
(plexiglass shell \(r) t 
GR
GR
GS
[0.75 0 0 0.75 237.75 30.75] CT
/Helvetica-Bold 13 F
GS
[1 0 0 1 0 0] CT
0 0 moveto 
1 -1 scale
(i) t 
GR
GR
GS
[0.75 0 0 0.75 241.5 24.75] CT
/Helvetica-Bold 17 F
GS
[1 0 0 1 0 0] CT
0 0 moveto 
1 -1 scale
(=5, r) t 
GR
GR
GS
[0.75 0 0 0.75 276.75 30.75] CT
/Helvetica-Bold 13 F
GS
[1 0 0 1 0 0] CT
0 0 moveto 
1 -1 scale
(o) t 
GR
GR
GS
[0.75 0 0 0.75 283.5 24.75] CT
/Helvetica-Bold 17 F
GS
[1 0 0 1 0 0] CT
0 0 moveto 
1 -1 scale
(=22.2 cm\)                 ) t 
GR
GR
GS
[0.75 0 0 0.75 0 0] CT
1 GC
N
525 163 M
525 62 L
620 62 L
620 163 L
cp
f
GR
GS
[0.75 0 0 0.75 432.99326 54.27885] CT
/Helvetica 14 F
GS
[1 0 0 1 0 0] CT
0 5.347 moveto 
1 -1 scale
(n = 0) t 
GR
GR
GS
[0.75 0 0 0.75 0 0] CT
N
553.5 77.832 M
557.5 72.5 L
553.5 67.168 L
549.5 72.5 L
cp
f
GR
GS
[0.75 0 0 0.75 0 0] CT
2 setlinecap
10.0 ML
N
553.5 77.832 M
557.5 72.5 L
553.5 67.168 L
549.5 72.5 L
553.5 77.832 L
S
GR
GS
[0.75 0 0 0.75 432.99326 66.31731] CT
/Helvetica 14 F
GS
[1 0 0 1 0 0] CT
0 5.347 moveto 
1 -1 scale
(1) t 
GR
GR
GS
[0.75 0 0 0.75 0 0] CT
0 0 1 RC
2 setlinecap
10.0 ML
N
550 92 M
557 85 L
S
GR
GS
[0.75 0 0 0.75 0 0] CT
0 0 1 RC
2 setlinecap
10.0 ML
N
550 85 M
557 92 L
S
GR
GS
[0.75 0 0 0.75 432.99326 78.35577] CT
/Helvetica 14 F
GS
[1 0 0 1 0 0] CT
0 5.347 moveto 
1 -1 scale
(2) t 
GR
GR
GS
[0.75 0 0 0.75 0 0] CT
1 0 0 RC
2 setlinecap
10.0 ML
N
549 104.5 M
558 104.5 L
S
GR
GS
[0.75 0 0 0.75 0 0] CT
1 0 0 RC
2 setlinecap
10.0 ML
N
553.5 109 M
553.5 100 L
S
GR
GS
[0.75 0 0 0.75 432.99326 90.39423] CT
/Helvetica 14 F
GS
[1 0 0 1 0 0] CT
0 5.347 moveto 
1 -1 scale
(3) t 
GR
GR
GS
[0.75 0 0 0.75 0 0] CT
1 0 1 RC
N
553.5 125.832 M
558.117 117.834 L
548.883 117.834 L
cp
f
GR
GS
[0.75 0 0 0.75 0 0] CT
1 0 1 RC
2 setlinecap
10.0 ML
N
553.5 125.832 M
558.117 117.834 L
548.883 117.834 L
553.5 125.832 L
S
GR
GS
[0.75 0 0 0.75 432.99326 102.43269] CT
/Helvetica 14 F
GS
[1 0 0 1 0 0] CT
0 5.347 moveto 
1 -1 scale
(4) t 
GR
GR
GS
[0.75 0 0 0.75 0 0] CT
0 1 0 RC
N
550.38 139.62 M
550.38 133.38 L
556.62 133.38 L
556.62 139.62 L
cp
f
GR
GS
[0.75 0 0 0.75 0 0] CT
0 1 0 RC
2 setlinecap
10.0 ML
N
550.38 139.62 M
550.38 133.38 L
556.62 133.38 L
556.62 139.62 L
550.38 139.62 L
S
GR
GS
[0.75 0 0 0.75 432.99326 114.47115] CT
/Helvetica 14 F
GS
[1 0 0 1 0 0] CT
0 5.347 moveto 
1 -1 scale
(5) t 
GR
GR
GS
[0.75 0 0 0.75 0 0] CT
N
553.5 152.5 M
549.696 151.264 L
552.56 151.264 L
cp
f
GR
GS
[0.75 0 0 0.75 0 0] CT
N
553.5 152.5 M
552.56 151.264 L
553.5 148.5 L
cp
f
GR
GS
[0.75 0 0 0.75 0 0] CT
N
553.5 152.5 M
553.5 148.5 L
554.44 151.264 L
cp
f
GR
GS
[0.75 0 0 0.75 0 0] CT
N
553.5 152.5 M
554.44 151.264 L
557.304 151.264 L
cp
f
GR
GS
[0.75 0 0 0.75 0 0] CT
N
553.5 152.5 M
557.304 151.264 L
555.022 152.994 L
cp
f
GR
GS
[0.75 0 0 0.75 0 0] CT
N
553.5 152.5 M
555.022 152.994 L
555.851 155.736 L
cp
f
GR
GS
[0.75 0 0 0.75 0 0] CT
N
553.5 152.5 M
555.851 155.736 L
553.5 154.1 L
cp
f
GR
GS
[0.75 0 0 0.75 0 0] CT
N
553.5 152.5 M
553.5 154.1 L
551.149 155.736 L
cp
f
GR
GS
[0.75 0 0 0.75 0 0] CT
N
553.5 152.5 M
551.149 155.736 L
551.978 152.994 L
cp
f
GR
GS
[0.75 0 0 0.75 0 0] CT
N
553.5 152.5 M
551.978 152.994 L
549.696 151.264 L
cp
f
GR
GS
[0.75 0 0 0.75 0 0] CT
2 setlinecap
10.0 ML
N
549.696 151.264 M
552.56 151.264 L
553.5 148.5 L
554.44 151.264 L
557.304 151.264 L
555.022 152.994 L
555.851 155.736 L
553.5 154.1 L
551.149 155.736 L
551.978 152.994 L
549.696 151.264 L
S
GR
GS
[0.75 0 0 0.75 0 0] CT
0.149 GC
2 setlinecap
10.0 ML
N
525 163 M
525 62 L
620 62 L
620 163 L
525 163 L
S
GR
%%Trailer
%%Pages: 1
%%EOF
