%!PS-Adobe-3.0 EPSF-3.0
%%Creator: MATLAB, The MathWorks, Inc. Version 8.1.0.604 (R2013a). Operating System: Linux 3.12-0.bpo.1-amd64 #1 SMP Debian 3.12.9-1~bpo70+1 (2014-02-07) x86_64.
%%Title: /data/geodynamo/natafh/Dynamo/Acoustics/elastic_shell/Figures/plexi_and_rigid_shell.eps
%%CreationDate: 09/08/2014  15:30:47
%%DocumentNeededFonts: Helvetica
%%DocumentProcessColors: Cyan Magenta Yellow Black
%%LanguageLevel: 2
%%Pages: 1
%%BoundingBox:    32    45   578   747
%%EndComments

%%BeginProlog
% MathWorks dictionary
/MathWorks 160 dict begin
% definition operators
/bdef {bind def} bind def
/ldef {load def} bind def
/xdef {exch def} bdef
/xstore {exch store} bdef
% operator abbreviations
/c  /clip ldef
/cc /concat ldef
/cp /closepath ldef
/gr /grestore ldef
/gs /gsave ldef
/mt /moveto ldef
/np /newpath ldef
/cm /currentmatrix ldef
/sm /setmatrix ldef
/rm /rmoveto ldef
/rl /rlineto ldef
/s {show newpath} bdef
/sc {setcmykcolor} bdef
/sr /setrgbcolor ldef
/sg /setgray ldef
/w /setlinewidth ldef
/j /setlinejoin ldef
/cap /setlinecap ldef
/rc {rectclip} bdef
/rf {rectfill} bdef
% page state control
/pgsv () def
/bpage {/pgsv save def} bdef
/epage {pgsv restore} bdef
/bplot /gsave ldef
/eplot {stroke grestore} bdef
% orientation switch
/portraitMode 0 def /landscapeMode 1 def /rotateMode 2 def
% coordinate system mappings
/dpi2point 0 def
% font control
/FontSize 0 def
/FMS {/FontSize xstore findfont [FontSize 0 0 FontSize neg 0 0]
  makefont setfont} bdef
/reencode {exch dup where {pop load} {pop StandardEncoding} ifelse
  exch dup 3 1 roll findfont dup length dict begin
  { 1 index /FID ne {def}{pop pop} ifelse } forall
  /Encoding exch def currentdict end definefont pop} bdef
/isroman {findfont /CharStrings get /Agrave known} bdef
/FMSR {3 1 roll 1 index dup isroman {reencode} {pop pop} ifelse
  exch FMS} bdef
/csm {1 dpi2point div -1 dpi2point div scale neg translate
 dup landscapeMode eq {pop -90 rotate}
  {rotateMode eq {90 rotate} if} ifelse} bdef
% line types: solid, dotted, dashed, dotdash
/SO { [] 0 setdash } bdef
/DO { [.5 dpi2point mul 4 dpi2point mul] 0 setdash } bdef
/DA { [6 dpi2point mul] 0 setdash } bdef
/DD { [.5 dpi2point mul 4 dpi2point mul 6 dpi2point mul 4
  dpi2point mul] 0 setdash } bdef
% macros for lines and objects
/L {lineto stroke} bdef
/MP {3 1 roll moveto 1 sub {rlineto} repeat} bdef
/AP {{rlineto} repeat} bdef
/PDlw -1 def
/W {/PDlw currentlinewidth def setlinewidth} def
/PP {closepath eofill} bdef
/DP {closepath stroke} bdef
/MR {4 -2 roll moveto dup  0 exch rlineto exch 0 rlineto
  neg 0 exch rlineto closepath} bdef
/FR {MR stroke} bdef
/PR {MR fill} bdef
/L1i {{currentfile picstr readhexstring pop} image} bdef
/tMatrix matrix def
/MakeOval {newpath tMatrix currentmatrix pop translate scale
0 0 1 0 360 arc tMatrix setmatrix} bdef
/FO {MakeOval stroke} bdef
/PO {MakeOval fill} bdef
/PD {currentlinewidth 2 div 0 360 arc fill
   PDlw -1 eq not {PDlw w /PDlw -1 def} if} def
/FA {newpath tMatrix currentmatrix pop translate scale
  0 0 1 5 -2 roll arc tMatrix setmatrix stroke} bdef
/PA {newpath tMatrix currentmatrix pop	translate 0 0 moveto scale
  0 0 1 5 -2 roll arc closepath tMatrix setmatrix fill} bdef
/FAn {newpath tMatrix currentmatrix pop translate scale
  0 0 1 5 -2 roll arcn tMatrix setmatrix stroke} bdef
/PAn {newpath tMatrix currentmatrix pop translate 0 0 moveto scale
  0 0 1 5 -2 roll arcn closepath tMatrix setmatrix fill} bdef
/vradius 0 def /hradius 0 def /lry 0 def
/lrx 0 def /uly 0 def /ulx 0 def /rad 0 def
/MRR {/vradius xdef /hradius xdef /lry xdef /lrx xdef /uly xdef
  /ulx xdef newpath tMatrix currentmatrix pop ulx hradius add uly
  vradius add translate hradius vradius scale 0 0 1 180 270 arc 
  tMatrix setmatrix lrx hradius sub uly vradius add translate
  hradius vradius scale 0 0 1 270 360 arc tMatrix setmatrix
  lrx hradius sub lry vradius sub translate hradius vradius scale
  0 0 1 0 90 arc tMatrix setmatrix ulx hradius add lry vradius sub
  translate hradius vradius scale 0 0 1 90 180 arc tMatrix setmatrix
  closepath} bdef
/FRR {MRR stroke } bdef
/PRR {MRR fill } bdef
/MlrRR {/lry xdef /lrx xdef /uly xdef /ulx xdef /rad lry uly sub 2 div def
  newpath tMatrix currentmatrix pop ulx rad add uly rad add translate
  rad rad scale 0 0 1 90 270 arc tMatrix setmatrix lrx rad sub lry rad
  sub translate rad rad scale 0 0 1 270 90 arc tMatrix setmatrix
  closepath} bdef
/FlrRR {MlrRR stroke } bdef
/PlrRR {MlrRR fill } bdef
/MtbRR {/lry xdef /lrx xdef /uly xdef /ulx xdef /rad lrx ulx sub 2 div def
  newpath tMatrix currentmatrix pop ulx rad add uly rad add translate
  rad rad scale 0 0 1 180 360 arc tMatrix setmatrix lrx rad sub lry rad
  sub translate rad rad scale 0 0 1 0 180 arc tMatrix setmatrix
  closepath} bdef
/FtbRR {MtbRR stroke } bdef
/PtbRR {MtbRR fill } bdef
/stri 6 array def /dtri 6 array def
/smat 6 array def /dmat 6 array def
/tmat1 6 array def /tmat2 6 array def /dif 3 array def
/asub {/ind2 exch def /ind1 exch def dup dup
  ind1 get exch ind2 get sub exch } bdef
/tri_to_matrix {
  2 0 asub 3 1 asub 4 0 asub 5 1 asub
  dup 0 get exch 1 get 7 -1 roll astore } bdef
/compute_transform {
  dmat dtri tri_to_matrix tmat1 invertmatrix 
  smat stri tri_to_matrix tmat2 concatmatrix } bdef
/ds {stri astore pop} bdef
/dt {dtri astore pop} bdef
/db {2 copy /cols xdef /rows xdef mul dup 3 mul string
  currentfile 
  3 index 0 eq {/ASCIIHexDecode filter}
  {/ASCII85Decode filter 3 index 2 eq {/RunLengthDecode filter} if }
  ifelse exch readstring pop
  dup 0 3 index getinterval /rbmap xdef
  dup 2 index dup getinterval /gbmap xdef
  1 index dup 2 mul exch getinterval /bbmap xdef pop pop}bdef
/it {gs np dtri aload pop moveto lineto lineto cp c
  cols rows 8 compute_transform 
  rbmap gbmap bbmap true 3 colorimage gr}bdef
/il {newpath moveto lineto stroke}bdef
currentdict end def
%%EndProlog

%%BeginSetup
MathWorks begin

0 cap

end
%%EndSetup

%%Page: 1 1
%%BeginPageSetup
%%PageBoundingBox:    32    45   578   747
MathWorks begin
bpage
%%EndPageSetup

%%BeginObject: obj1
bplot

/dpi2point 12 def
portraitMode 0384 8964 csm

    0     0  6557  8419 rc
87 dict begin %Colortable dictionary
/c0 { 0.000000 0.000000 0.000000 sr} bdef
/c1 { 1.000000 1.000000 1.000000 sr} bdef
/c2 { 0.900000 0.000000 0.000000 sr} bdef
/c3 { 0.000000 0.820000 0.000000 sr} bdef
/c4 { 0.000000 0.000000 0.800000 sr} bdef
/c5 { 0.910000 0.820000 0.320000 sr} bdef
/c6 { 1.000000 0.260000 0.820000 sr} bdef
/c7 { 0.000000 0.820000 0.820000 sr} bdef
c0
1 j
1 sg
   0    0 6558 8420 rf
6 w
0 6862 5082 0 0 -6862 852 7493 4 MP
PP
-5082 0 0 6862 5082 0 0 -6862 852 7493 5 MP stroke
4 w
DO
0 sg
 852 7493 mt  852  631 L
 852  631 mt  852  631 L
1578 7493 mt 1578  631 L
1578  631 mt 1578  631 L
2304 7493 mt 2304  631 L
2304  631 mt 2304  631 L
3030 7493 mt 3030  631 L
3030  631 mt 3030  631 L
3756 7493 mt 3756  631 L
3756  631 mt 3756  631 L
4482 7493 mt 4482  631 L
4482  631 mt 4482  631 L
5208 7493 mt 5208  631 L
5208  631 mt 5208  631 L
5934 7493 mt 5934  631 L
5934  631 mt 5934  631 L
 852 7302 mt 5934 7302 L
5934 7302 mt 5934 7302 L
 852 6349 mt 5934 6349 L
5934 6349 mt 5934 6349 L
 852 5396 mt 5934 5396 L
5934 5396 mt 5934 5396 L
 852 4443 mt 5934 4443 L
5934 4443 mt 5934 4443 L
 852 3490 mt 5934 3490 L
5934 3490 mt 5934 3490 L
 852 2537 mt 5934 2537 L
5934 2537 mt 5934 2537 L
 852 1584 mt 5934 1584 L
5934 1584 mt 5934 1584 L
 852  631 mt 5934  631 L
5934  631 mt 5934  631 L
SO
6 w
 852 7493 mt 5934 7493 L
 852  631 mt 5934  631 L
 852 7493 mt  852  631 L
5934 7493 mt 5934  631 L
 852 7493 mt 5934 7493 L
 852 7493 mt  852  631 L
 852 7493 mt  852 7424 L
 852  631 mt  852  699 L
%%IncludeResource: font Helvetica
/Helvetica /ISOLatin1Encoding 120 FMSR

 819 7638 mt 
(0) s
1578 7493 mt 1578 7424 L
1578  631 mt 1578  699 L
1545 7638 mt 
(2) s
2304 7493 mt 2304 7424 L
2304  631 mt 2304  699 L
2271 7638 mt 
(4) s
3030 7493 mt 3030 7424 L
3030  631 mt 3030  699 L
2997 7638 mt 
(6) s
3756 7493 mt 3756 7424 L
3756  631 mt 3756  699 L
3723 7638 mt 
(8) s
4482 7493 mt 4482 7424 L
4482  631 mt 4482  699 L
4416 7638 mt 
(10) s
5208 7493 mt 5208 7424 L
5208  631 mt 5208  699 L
5142 7638 mt 
(12) s
5934 7493 mt 5934 7424 L
5934  631 mt 5934  699 L
5868 7638 mt 
(14) s
 852 7302 mt  920 7302 L
5934 7302 mt 5865 7302 L
 617 7346 mt 
(500) s
 852 6349 mt  920 6349 L
5934 6349 mt 5865 6349 L
 551 6393 mt 
(1000) s
 852 5396 mt  920 5396 L
5934 5396 mt 5865 5396 L
 551 5440 mt 
(1500) s
 852 4443 mt  920 4443 L
5934 4443 mt 5865 4443 L
 551 4487 mt 
(2000) s
 852 3490 mt  920 3490 L
5934 3490 mt 5865 3490 L
 551 3534 mt 
(2500) s
 852 2537 mt  920 2537 L
5934 2537 mt 5865 2537 L
 551 2581 mt 
(3000) s
 852 1584 mt  920 1584 L
5934 1584 mt 5865 1584 L
 551 1628 mt 
(3500) s
 852  631 mt  920  631 L
5934  631 mt 5865  631 L
 551  675 mt 
(4000) s
 852 7493 mt 5934 7493 L
 852  631 mt 5934  631 L
 852 7493 mt  852  631 L
5934 7493 mt 5934  631 L
%%IncludeResource: font Helvetica
/Helvetica /ISOLatin1Encoding 96 FMSR

 890  202 mt 
(n) s
%%IncludeResource: font Helvetica
/Helvetica /ISOLatin1Encoding 120 FMSR

 943  142 mt 
(S) s
%%IncludeResource: font Helvetica
/Helvetica /ISOLatin1Encoding 96 FMSR

1023  202 mt 
(l) s
%%IncludeResource: font Helvetica
/Helvetica /ISOLatin1Encoding 120 FMSR

1044  142 mt 
( mode frequencies for spherical shell of fluid enclosed bet\
ween inner and outer solid shells : ) s
2510  312 mt 
(r) s
%%IncludeResource: font Helvetica
/Helvetica /ISOLatin1Encoding 96 FMSR

2549  372 mt 
(i) s
%%IncludeResource: font Helvetica
/Helvetica /ISOLatin1Encoding 120 FMSR

2570  312 mt 
(=0, lambda) s
%%IncludeResource: font Helvetica
/Helvetica /ISOLatin1Encoding 96 FMSR

3167  372 mt 
(i) s
%%IncludeResource: font Helvetica
/Helvetica /ISOLatin1Encoding 120 FMSR

3188  312 mt 
(=0, kappa) s
%%IncludeResource: font Helvetica
/Helvetica /ISOLatin1Encoding 96 FMSR

3718  372 mt 
(0) s
3771  372 mt 
(i) s
%%IncludeResource: font Helvetica
/Helvetica /ISOLatin1Encoding 120 FMSR

3792  312 mt 
(=0, nu) s
%%IncludeResource: font Helvetica
/Helvetica /ISOLatin1Encoding 96 FMSR

4127  372 mt 
(i) s
%%IncludeResource: font Helvetica
/Helvetica /ISOLatin1Encoding 120 FMSR

4148  312 mt 
(=1) s
1836  482 mt 
(r) s
%%IncludeResource: font Helvetica
/Helvetica /ISOLatin1Encoding 96 FMSR

1875  542 mt 
(o) s
%%IncludeResource: font Helvetica
/Helvetica /ISOLatin1Encoding 120 FMSR

1928  482 mt 
(=0.222 lambda) s
%%IncludeResource: font Helvetica
/Helvetica /ISOLatin1Encoding 96 FMSR

2725  542 mt 
(o) s
%%IncludeResource: font Helvetica
/Helvetica /ISOLatin1Encoding 120 FMSR

2778  482 mt 
(=0.042265, kappa) s
%%IncludeResource: font Helvetica
/Helvetica /ISOLatin1Encoding 96 FMSR

3742  542 mt 
(0) s
3795  542 mt 
(o) s
%%IncludeResource: font Helvetica
/Helvetica /ISOLatin1Encoding 120 FMSR

3848  482 mt 
(=0.093277, nu) s
%%IncludeResource: font Helvetica
/Helvetica /ISOLatin1Encoding 96 FMSR

4617  542 mt 
(o) s
%%IncludeResource: font Helvetica
/Helvetica /ISOLatin1Encoding 120 FMSR

4670  482 mt 
(=0.39) s
2776 7781 mt 
(mode angular number l) s
 469 5205 mt  -90 rotate
(mode frequency \(Hz\) \(csound = 347.5 m/s\)) s
90 rotate
gs 852 631 5083 6863 rc
gr

0 j
0 -58 -58 0 0 58 58 0 823 1546 5 MP
/c8 { 0.000000 1.000000 0.000000 sr} bdef
c8
gs
PP
gr
DP
0 -58 -58 0 0 58 58 0 1186 828 5 MP
gs
PP
gr
DP
gs 852 631 5083 6863 rc
gr

41 71 -82 0 41 -71 852 3124 4 MP
/c9 { 1.000000 0.000000 1.000000 sr} bdef
c9
gs
PP
gr
DP
41 71 -82 0 41 -71 1215 2412 4 MP
gs
PP
gr
DP
41 71 -82 0 41 -71 1578 1727 4 MP
gs
PP
gr
DP
41 71 -82 0 41 -71 1941 1063 4 MP
gs
PP
gr
DP
gs 852 631 5083 6863 rc
gr

/c10 { 1.000000 0.000000 0.000000 sr} bdef
c10
 816 4586 mt  888 4586 L
 852 4550 mt  852 4622 L
1179 3883 mt 1251 3883 L
1215 3847 mt 1215 3919 L
1542 3215 mt 1614 3215 L
1578 3179 mt 1578 3251 L
1905 2570 mt 1977 2570 L
1941 2534 mt 1941 2606 L
2268 1941 mt 2340 1941 L
2304 1905 mt 2304 1977 L
2631 1326 mt 2703 1326 L
2667 1290 mt 2667 1362 L
2994  722 mt 3066  722 L
3030  686 mt 3030  758 L
gs 852 631 5083 6863 rc
gr

/c11 { 0.000000 0.000000 1.000000 sr} bdef
c11
 827 6096 mt  877 6146 L
 877 6096 mt  827 6146 L
1190 5409 mt 1240 5459 L
1240 5409 mt 1190 5459 L
1553 4768 mt 1603 4818 L
1603 4768 mt 1553 4818 L
1916 4154 mt 1966 4204 L
1966 4154 mt 1916 4204 L
2279 3557 mt 2329 3607 L
2329 3557 mt 2279 3607 L
2642 2973 mt 2692 3023 L
2692 2973 mt 2642 3023 L
3005 2399 mt 3055 2449 L
3055 2399 mt 3005 2449 L
3368 1833 mt 3418 1883 L
3418 1833 mt 3368 1883 L
3731 1273 mt 3781 1323 L
3781 1273 mt 3731 1323 L
4094  718 mt 4144  768 L
4144  718 mt 4094  768 L
gs 852 631 5083 6863 rc
gr

0 sg
  36   36 1215 7266 PO
  36   36 1578 6668 PO
  36   36 1941 6111 PO
  36   36 2304 5574 PO
  36   36 2667 5047 PO
  36   36 3030 4527 PO
  36   36 3393 4012 PO
  36   36 3756 3501 PO
  36   36 4119 2994 PO
  36   36 4482 2489 PO
  36   36 4845 1985 PO
  36   36 5208 1484 PO
  36   36 5571  984 PO
  36   36 1215 7266 FO
  36   36 1578 6668 FO
  36   36 1941 6111 FO
  36   36 2304 5574 FO
  36   36 2667 5047 FO
  36   36 3030 4527 FO
  36   36 3393 4012 FO
  36   36 3756 3501 FO
  36   36 4119 2994 FO
  36   36 4482 2489 FO
  36   36 4845 1985 FO
  36   36 5208 1484 FO
  36   36 5571  984 FO
gs 852 631 5083 6863 rc
gr

 835 7536 mt 
( ) s
5918  673 mt 
( ) s
gs 852 631 5083 6863 rc
gr

0 -94 -94 0 0 94 94 0 805 1518 5 MP
c8
DP
0 -94 -94 0 0 94 94 0 1168 799 5 MP
DP
gs 852 631 5083 6863 rc
gr

69 119 -138 0 69 -119 852 3449 4 MP
c9
DP
69 119 -138 0 69 -119 1215 2496 4 MP
DP
69 119 -138 0 69 -119 1578 1758 4 MP
DP
69 119 -138 0 69 -119 1941 1091 4 MP
DP
gs 852 631 5083 6863 rc
gr

69 119 -138 0 69 -119 2667 1399 4 MP
DP
gs 852 631 5083 6863 rc
gr

c10
 792 4598 mt  912 4598 L
 852 4538 mt  852 4658 L
1155 3886 mt 1275 3886 L
1215 3826 mt 1215 3946 L
1518 3211 mt 1638 3211 L
1578 3151 mt 1578 3271 L
1881 2564 mt 2001 2564 L
1941 2504 mt 1941 2624 L
2244 1935 mt 2364 1935 L
2304 1875 mt 2304 1995 L
2607 2988 mt 2727 2988 L
2667 2928 mt 2667 3048 L
2970  716 mt 3090  716 L
3030  656 mt 3030  776 L
gs 852 631 5083 6863 rc
gr

c11
 810 6083 mt  894 6167 L
 894 6083 mt  810 6167 L
1173 5390 mt 1257 5474 L
1257 5390 mt 1173 5474 L
1536 4741 mt 1620 4825 L
1620 4741 mt 1536 4825 L
1899 4125 mt 1983 4209 L
1983 4125 mt 1899 4209 L
2262 3529 mt 2346 3613 L
2346 3529 mt 2262 3613 L
2625 4935 mt 2709 5019 L
2709 4935 mt 2625 5019 L
2988 2373 mt 3072 2457 L
3072 2373 mt 2988 2457 L
3351 1807 mt 3435 1891 L
3435 1807 mt 3351 1891 L
3714 1247 mt 3798 1331 L
3798 1247 mt 3714 1331 L
4077  693 mt 4161  777 L
4161  693 mt 4077  777 L
gs 852 631 5083 6863 rc
gr

0 sg
  60   60 1215 7247 FO
  60   60 1578 6719 FO
  60   60 1941 6217 FO
  60   60 2304 5890 FO
  60   60 2667 5753 FO
  60   60 3030 4477 FO
  60   60 3393 3972 FO
  60   60 3756 3467 FO
  60   60 4119 2963 FO
  60   60 4482 2461 FO
  60   60 4845 1960 FO
  60   60 5208 1460 FO
  60   60 5571  961 FO
gs 852 631 5083 6863 rc
gr

1 sg
0 2073 1608 0 0 -2073 4063 7158 4 MP
PP
-1608 0 0 2073 1608 0 0 -2073 4063 7158 5 MP stroke
4 w
DO
SO
6 w
0 sg
4063 7158 mt 5671 7158 L
4063 5085 mt 5671 5085 L
4063 7158 mt 4063 5085 L
5671 7158 mt 5671 5085 L
4063 7158 mt 5671 7158 L
4063 7158 mt 4063 5085 L
4063 7158 mt 5671 7158 L
4063 5085 mt 5671 5085 L
4063 7158 mt 4063 5085 L
5671 7158 mt 5671 5085 L
4531 5233 mt 
(n=5 rigid outer shell) s
gs 4063 5085 1609 2074 rc
gr

-21 -16 8 -25 -22 15 -21 -15 8 25 -21 16 26 0 8 24 
9 -24 26 0 4280 5178 11 MP
gs
PP
gr
DP
gs 4063 5085 1609 2074 rc
gr

4531 5402 mt 
(4) s
gs 4063 5085 1609 2074 rc
gr

0 -58 -58 0 0 58 58 0 4286 5330 5 MP
c8
gs
PP
gr
DP
gs 4063 5085 1609 2074 rc
gr

0 sg
4531 5571 mt 
(3) s
gs 4063 5085 1609 2074 rc
gr

41 71 -82 0 41 -71 4315 5576 4 MP
c9
gs
PP
gr
DP
gs 4063 5085 1609 2074 rc
gr

0 sg
4531 5741 mt 
(2) s
gs 4063 5085 1609 2074 rc
gr

c10
4279 5698 mt 4351 5698 L
4315 5662 mt 4315 5734 L
gs 4063 5085 1609 2074 rc
gr

0 sg
4531 5910 mt 
(1) s
gs 4063 5085 1609 2074 rc
gr

c11
4290 5842 mt 4340 5892 L
4340 5842 mt 4290 5892 L
gs 4063 5085 1609 2074 rc
gr

0 sg
4531 6079 mt 
(0) s
gs 4063 5085 1609 2074 rc
gr

  36   36 4315 6036 PO
  36   36 4315 6036 FO
gs 4063 5085 1609 2074 rc
gr

4531 6249 mt 
(n=5 plexi outer shell) s
gs 4063 5085 1609 2074 rc
gr

-35 -26 13 -41 -36 24 -35 -24 13 41 -35 26 43 0 14 41 
15 -41 43 0 4257 6187 11 MP
DP
gs 4063 5085 1609 2074 rc
gr

4531 6418 mt 
(4) s
gs 4063 5085 1609 2074 rc
gr

0 -94 -94 0 0 94 94 0 4268 6328 5 MP
c8
DP
gs 4063 5085 1609 2074 rc
gr

0 sg
4531 6587 mt 
(3) s
gs 4063 5085 1609 2074 rc
gr

69 119 -138 0 69 -119 4315 6623 4 MP
c9
DP
gs 4063 5085 1609 2074 rc
gr

0 sg
4531 6757 mt 
(2) s
gs 4063 5085 1609 2074 rc
gr

c10
4255 6713 mt 4375 6713 L
4315 6653 mt 4315 6773 L
gs 4063 5085 1609 2074 rc
gr

0 sg
4531 6926 mt 
(1) s
gs 4063 5085 1609 2074 rc
gr

c11
4273 6841 mt 4357 6925 L
4357 6841 mt 4273 6925 L
gs 4063 5085 1609 2074 rc
gr

0 sg
4531 7095 mt 
(0) s
gs 4063 5085 1609 2074 rc
gr

  60   60 4315 7052 FO
gs 4063 5085 1609 2074 rc
gr


end %%Color Dict

eplot
%%EndObject

epage
end

showpage

%%Trailer
%%EOF
