%!PS-Adobe-3.0 EPSF-3.0
%%Creator: MATLAB, The MathWorks, Inc. Version 8.1.0.604 (R2013a). Operating System: Linux 3.12-0.bpo.1-amd64 #1 SMP Debian 3.12.9-1~bpo70+1 (2014-02-07) x86_64.
%%Title: /data/geodynamo/natafh/Dynamo/Acoustics/elastic_shell/Figures/plexi_w_and_wo_10cm-sphere.eps
%%CreationDate: 08/28/2014  13:53:44
%%DocumentNeededFonts: Helvetica
%%DocumentProcessColors: Cyan Magenta Yellow Black
%%LanguageLevel: 2
%%Pages: 1
%%BoundingBox:   -31    48   643   743
%%EndComments

%%BeginProlog
% MathWorks dictionary
/MathWorks 160 dict begin
% definition operators
/bdef {bind def} bind def
/ldef {load def} bind def
/xdef {exch def} bdef
/xstore {exch store} bdef
% operator abbreviations
/c  /clip ldef
/cc /concat ldef
/cp /closepath ldef
/gr /grestore ldef
/gs /gsave ldef
/mt /moveto ldef
/np /newpath ldef
/cm /currentmatrix ldef
/sm /setmatrix ldef
/rm /rmoveto ldef
/rl /rlineto ldef
/s {show newpath} bdef
/sc {setcmykcolor} bdef
/sr /setrgbcolor ldef
/sg /setgray ldef
/w /setlinewidth ldef
/j /setlinejoin ldef
/cap /setlinecap ldef
/rc {rectclip} bdef
/rf {rectfill} bdef
% page state control
/pgsv () def
/bpage {/pgsv save def} bdef
/epage {pgsv restore} bdef
/bplot /gsave ldef
/eplot {stroke grestore} bdef
% orientation switch
/portraitMode 0 def /landscapeMode 1 def /rotateMode 2 def
% coordinate system mappings
/dpi2point 0 def
% font control
/FontSize 0 def
/FMS {/FontSize xstore findfont [FontSize 0 0 FontSize neg 0 0]
  makefont setfont} bdef
/reencode {exch dup where {pop load} {pop StandardEncoding} ifelse
  exch dup 3 1 roll findfont dup length dict begin
  { 1 index /FID ne {def}{pop pop} ifelse } forall
  /Encoding exch def currentdict end definefont pop} bdef
/isroman {findfont /CharStrings get /Agrave known} bdef
/FMSR {3 1 roll 1 index dup isroman {reencode} {pop pop} ifelse
  exch FMS} bdef
/csm {1 dpi2point div -1 dpi2point div scale neg translate
 dup landscapeMode eq {pop -90 rotate}
  {rotateMode eq {90 rotate} if} ifelse} bdef
% line types: solid, dotted, dashed, dotdash
/SO { [] 0 setdash } bdef
/DO { [.5 dpi2point mul 4 dpi2point mul] 0 setdash } bdef
/DA { [6 dpi2point mul] 0 setdash } bdef
/DD { [.5 dpi2point mul 4 dpi2point mul 6 dpi2point mul 4
  dpi2point mul] 0 setdash } bdef
% macros for lines and objects
/L {lineto stroke} bdef
/MP {3 1 roll moveto 1 sub {rlineto} repeat} bdef
/AP {{rlineto} repeat} bdef
/PDlw -1 def
/W {/PDlw currentlinewidth def setlinewidth} def
/PP {closepath eofill} bdef
/DP {closepath stroke} bdef
/MR {4 -2 roll moveto dup  0 exch rlineto exch 0 rlineto
  neg 0 exch rlineto closepath} bdef
/FR {MR stroke} bdef
/PR {MR fill} bdef
/L1i {{currentfile picstr readhexstring pop} image} bdef
/tMatrix matrix def
/MakeOval {newpath tMatrix currentmatrix pop translate scale
0 0 1 0 360 arc tMatrix setmatrix} bdef
/FO {MakeOval stroke} bdef
/PO {MakeOval fill} bdef
/PD {currentlinewidth 2 div 0 360 arc fill
   PDlw -1 eq not {PDlw w /PDlw -1 def} if} def
/FA {newpath tMatrix currentmatrix pop translate scale
  0 0 1 5 -2 roll arc tMatrix setmatrix stroke} bdef
/PA {newpath tMatrix currentmatrix pop	translate 0 0 moveto scale
  0 0 1 5 -2 roll arc closepath tMatrix setmatrix fill} bdef
/FAn {newpath tMatrix currentmatrix pop translate scale
  0 0 1 5 -2 roll arcn tMatrix setmatrix stroke} bdef
/PAn {newpath tMatrix currentmatrix pop translate 0 0 moveto scale
  0 0 1 5 -2 roll arcn closepath tMatrix setmatrix fill} bdef
/vradius 0 def /hradius 0 def /lry 0 def
/lrx 0 def /uly 0 def /ulx 0 def /rad 0 def
/MRR {/vradius xdef /hradius xdef /lry xdef /lrx xdef /uly xdef
  /ulx xdef newpath tMatrix currentmatrix pop ulx hradius add uly
  vradius add translate hradius vradius scale 0 0 1 180 270 arc 
  tMatrix setmatrix lrx hradius sub uly vradius add translate
  hradius vradius scale 0 0 1 270 360 arc tMatrix setmatrix
  lrx hradius sub lry vradius sub translate hradius vradius scale
  0 0 1 0 90 arc tMatrix setmatrix ulx hradius add lry vradius sub
  translate hradius vradius scale 0 0 1 90 180 arc tMatrix setmatrix
  closepath} bdef
/FRR {MRR stroke } bdef
/PRR {MRR fill } bdef
/MlrRR {/lry xdef /lrx xdef /uly xdef /ulx xdef /rad lry uly sub 2 div def
  newpath tMatrix currentmatrix pop ulx rad add uly rad add translate
  rad rad scale 0 0 1 90 270 arc tMatrix setmatrix lrx rad sub lry rad
  sub translate rad rad scale 0 0 1 270 90 arc tMatrix setmatrix
  closepath} bdef
/FlrRR {MlrRR stroke } bdef
/PlrRR {MlrRR fill } bdef
/MtbRR {/lry xdef /lrx xdef /uly xdef /ulx xdef /rad lrx ulx sub 2 div def
  newpath tMatrix currentmatrix pop ulx rad add uly rad add translate
  rad rad scale 0 0 1 180 360 arc tMatrix setmatrix lrx rad sub lry rad
  sub translate rad rad scale 0 0 1 0 180 arc tMatrix setmatrix
  closepath} bdef
/FtbRR {MtbRR stroke } bdef
/PtbRR {MtbRR fill } bdef
/stri 6 array def /dtri 6 array def
/smat 6 array def /dmat 6 array def
/tmat1 6 array def /tmat2 6 array def /dif 3 array def
/asub {/ind2 exch def /ind1 exch def dup dup
  ind1 get exch ind2 get sub exch } bdef
/tri_to_matrix {
  2 0 asub 3 1 asub 4 0 asub 5 1 asub
  dup 0 get exch 1 get 7 -1 roll astore } bdef
/compute_transform {
  dmat dtri tri_to_matrix tmat1 invertmatrix 
  smat stri tri_to_matrix tmat2 concatmatrix } bdef
/ds {stri astore pop} bdef
/dt {dtri astore pop} bdef
/db {2 copy /cols xdef /rows xdef mul dup 3 mul string
  currentfile 
  3 index 0 eq {/ASCIIHexDecode filter}
  {/ASCII85Decode filter 3 index 2 eq {/RunLengthDecode filter} if }
  ifelse exch readstring pop
  dup 0 3 index getinterval /rbmap xdef
  dup 2 index dup getinterval /gbmap xdef
  1 index dup 2 mul exch getinterval /bbmap xdef pop pop}bdef
/it {gs np dtri aload pop moveto lineto lineto cp c
  cols rows 8 compute_transform 
  rbmap gbmap bbmap true 3 colorimage gr}bdef
/il {newpath moveto lineto stroke}bdef
currentdict end def
%%EndProlog

%%BeginSetup
MathWorks begin

0 cap

end
%%EndSetup

%%Page: 1 1
%%BeginPageSetup
%%PageBoundingBox:   -31    48   643   743
MathWorks begin
bpage
%%EndPageSetup

%%BeginObject: obj1
bplot

/dpi2point 12 def
portraitMode -0372 8916 csm

    0     0  8092  8333 rc
87 dict begin %Colortable dictionary
/c0 { 0.000000 0.000000 0.000000 sr} bdef
/c1 { 1.000000 1.000000 1.000000 sr} bdef
/c2 { 0.900000 0.000000 0.000000 sr} bdef
/c3 { 0.000000 0.820000 0.000000 sr} bdef
/c4 { 0.000000 0.000000 0.800000 sr} bdef
/c5 { 0.910000 0.820000 0.320000 sr} bdef
/c6 { 1.000000 0.260000 0.820000 sr} bdef
/c7 { 0.000000 0.820000 0.820000 sr} bdef
c0
1 j
1 sg
   0    0 8093 8334 rf
6 w
0 6792 6271 0 0 -6792 1052 7416 4 MP
PP
-6271 0 0 6792 6271 0 0 -6792 1052 7416 5 MP stroke
4 w
DO
0 sg
1052 7416 mt 1052  624 L
1052  624 mt 1052  624 L
3142 7416 mt 3142  624 L
3142  624 mt 3142  624 L
5232 7416 mt 5232  624 L
5232  624 mt 5232  624 L
7323 7416 mt 7323  624 L
7323  624 mt 7323  624 L
1052 7416 mt 7323 7416 L
7323 7416 mt 7323 7416 L
1052 6736 mt 7323 6736 L
7323 6736 mt 7323 6736 L
1052 6057 mt 7323 6057 L
7323 6057 mt 7323 6057 L
1052 5378 mt 7323 5378 L
7323 5378 mt 7323 5378 L
1052 4699 mt 7323 4699 L
7323 4699 mt 7323 4699 L
1052 4020 mt 7323 4020 L
7323 4020 mt 7323 4020 L
1052 3341 mt 7323 3341 L
7323 3341 mt 7323 3341 L
1052 2662 mt 7323 2662 L
7323 2662 mt 7323 2662 L
1052 1983 mt 7323 1983 L
7323 1983 mt 7323 1983 L
1052 1304 mt 7323 1304 L
7323 1304 mt 7323 1304 L
1052  624 mt 7323  624 L
7323  624 mt 7323  624 L
SO
6 w
1052 7416 mt 7323 7416 L
1052  624 mt 7323  624 L
1052 7416 mt 1052  624 L
7323 7416 mt 7323  624 L
1052 7416 mt 7323 7416 L
1052 7416 mt 1052  624 L
1052 7416 mt 1052 7348 L
1052  624 mt 1052  692 L
%%IncludeResource: font Helvetica
/Helvetica /ISOLatin1Encoding 120 FMSR

1019 7561 mt 
(0) s
3142 7416 mt 3142 7348 L
3142  624 mt 3142  692 L
3109 7561 mt 
(5) s
5232 7416 mt 5232 7348 L
5232  624 mt 5232  692 L
5166 7561 mt 
(10) s
7323 7416 mt 7323 7348 L
7323  624 mt 7323  692 L
7257 7561 mt 
(15) s
1052 7416 mt 1119 7416 L
7323 7416 mt 7255 7416 L
 951 7460 mt 
(0) s
1052 6736 mt 1119 6736 L
7323 6736 mt 7255 6736 L
 751 6780 mt 
(1000) s
1052 6057 mt 1119 6057 L
7323 6057 mt 7255 6057 L
 751 6101 mt 
(2000) s
1052 5378 mt 1119 5378 L
7323 5378 mt 7255 5378 L
 751 5422 mt 
(3000) s
1052 4699 mt 1119 4699 L
7323 4699 mt 7255 4699 L
 751 4743 mt 
(4000) s
1052 4020 mt 1119 4020 L
7323 4020 mt 7255 4020 L
 751 4064 mt 
(5000) s
1052 3341 mt 1119 3341 L
7323 3341 mt 7255 3341 L
 751 3385 mt 
(6000) s
1052 2662 mt 1119 2662 L
7323 2662 mt 7255 2662 L
 751 2706 mt 
(7000) s
1052 1983 mt 1119 1983 L
7323 1983 mt 7255 1983 L
 751 2027 mt 
(8000) s
1052 1304 mt 1119 1304 L
7323 1304 mt 7255 1304 L
 751 1348 mt 
(9000) s
1052  624 mt 1119  624 L
7323  624 mt 7255  624 L
 684  668 mt 
(10000) s
1052 7416 mt 7323 7416 L
1052  624 mt 7323  624 L
1052 7416 mt 1052  624 L
7323 7416 mt 7323  624 L
%%IncludeResource: font Helvetica
/Helvetica /ISOLatin1Encoding 96 FMSR

1685  196 mt 
(n) s
%%IncludeResource: font Helvetica
/Helvetica /ISOLatin1Encoding 120 FMSR

1738  136 mt 
(S) s
%%IncludeResource: font Helvetica
/Helvetica /ISOLatin1Encoding 96 FMSR

1818  196 mt 
(l) s
%%IncludeResource: font Helvetica
/Helvetica /ISOLatin1Encoding 120 FMSR

1839  136 mt 
( mode frequencies for spherical shell of fluid enclosed bet\
ween inner and outer solid shells : ) s
3223  306 mt 
(r) s
%%IncludeResource: font Helvetica
/Helvetica /ISOLatin1Encoding 96 FMSR

3262  366 mt 
(i) s
%%IncludeResource: font Helvetica
/Helvetica /ISOLatin1Encoding 120 FMSR

3283  306 mt 
(=0.05, lambda) s
%%IncludeResource: font Helvetica
/Helvetica /ISOLatin1Encoding 96 FMSR

4046  366 mt 
(i) s
%%IncludeResource: font Helvetica
/Helvetica /ISOLatin1Encoding 120 FMSR

4067  306 mt 
(=0, kappa) s
%%IncludeResource: font Helvetica
/Helvetica /ISOLatin1Encoding 96 FMSR

4597  366 mt 
(0) s
4650  366 mt 
(i) s
%%IncludeResource: font Helvetica
/Helvetica /ISOLatin1Encoding 120 FMSR

4671  306 mt 
(=0, nu) s
%%IncludeResource: font Helvetica
/Helvetica /ISOLatin1Encoding 96 FMSR

5006  366 mt 
(i) s
%%IncludeResource: font Helvetica
/Helvetica /ISOLatin1Encoding 120 FMSR

5027  306 mt 
(=1) s
2697  476 mt 
(r) s
%%IncludeResource: font Helvetica
/Helvetica /ISOLatin1Encoding 96 FMSR

2736  536 mt 
(o) s
%%IncludeResource: font Helvetica
/Helvetica /ISOLatin1Encoding 120 FMSR

2789  476 mt 
(=0.223 lambda) s
%%IncludeResource: font Helvetica
/Helvetica /ISOLatin1Encoding 96 FMSR

3586  536 mt 
(o) s
%%IncludeResource: font Helvetica
/Helvetica /ISOLatin1Encoding 120 FMSR

3639  476 mt 
(=0.10045, kappa) s
%%IncludeResource: font Helvetica
/Helvetica /ISOLatin1Encoding 96 FMSR

4536  536 mt 
(0) s
4589  536 mt 
(o) s
%%IncludeResource: font Helvetica
/Helvetica /ISOLatin1Encoding 120 FMSR

4642  476 mt 
(=0.073094, nu) s
%%IncludeResource: font Helvetica
/Helvetica /ISOLatin1Encoding 96 FMSR

5411  536 mt 
(o) s
%%IncludeResource: font Helvetica
/Helvetica /ISOLatin1Encoding 120 FMSR

5464  476 mt 
(=0.4) s
3570 7704 mt 
(mode angular number l) s
 602 5113 mt  -90 rotate
(mode frequency \(Hz\) \(csound = 340 m/s\)) s
90 rotate
gs 1052 625 6272 6792 rc
gr

0 j
-21 -16 8 -25 -22 15 -21 -15 8 25 -21 16 26 0 8 24 
9 -24 26 0 1017 5084 11 MP
DP
-21 -16 8 -25 -22 15 -21 -15 8 25 -21 16 26 0 8 24 
9 -24 26 0 1435 4314 11 MP
DP
-21 -16 8 -25 -22 15 -21 -15 8 25 -21 16 26 0 8 24 
9 -24 26 0 1853 4070 11 MP
DP
-21 -16 8 -25 -22 15 -21 -15 8 25 -21 16 26 0 8 24 
9 -24 26 0 2271 3832 11 MP
DP
-21 -16 8 -25 -22 15 -21 -15 8 25 -21 16 26 0 8 24 
9 -24 26 0 2689 3599 11 MP
DP
-21 -16 8 -25 -22 15 -21 -15 8 25 -21 16 26 0 8 24 
9 -24 26 0 3107 3639 11 MP
DP
-21 -16 8 -25 -22 15 -21 -15 8 25 -21 16 26 0 8 24 
9 -24 26 0 3525 3144 11 MP
DP
-21 -16 8 -25 -22 15 -21 -15 8 25 -21 16 26 0 8 24 
9 -24 26 0 3943 2921 11 MP
DP
-21 -16 8 -25 -22 15 -21 -15 8 25 -21 16 26 0 8 24 
9 -24 26 0 4361 2700 11 MP
DP
-21 -16 8 -25 -22 15 -21 -15 8 25 -21 16 26 0 8 24 
9 -24 26 0 4779 2482 11 MP
DP
-21 -16 8 -25 -22 15 -21 -15 8 25 -21 16 26 0 8 24 
9 -24 26 0 5197 2266 11 MP
DP
-21 -16 8 -25 -22 15 -21 -15 8 25 -21 16 26 0 8 24 
9 -24 26 0 5615 2052 11 MP
DP
-21 -16 8 -25 -22 15 -21 -15 8 25 -21 16 26 0 8 24 
9 -24 26 0 6033 1840 11 MP
DP
-21 -16 8 -25 -22 15 -21 -15 8 25 -21 16 26 0 8 24 
9 -24 26 0 6451 1629 11 MP
DP
-21 -16 8 -25 -22 15 -21 -15 8 25 -21 16 26 0 8 24 
9 -24 26 0 6869 1420 11 MP
DP
-21 -16 8 -25 -22 15 -21 -15 8 25 -21 16 26 0 8 24 
9 -24 26 0 7288 1212 11 MP
DP
gs 1052 625 6272 6792 rc
gr

0 -58 -58 0 0 58 58 0 1023 5587 5 MP
/c8 { 0.000000 1.000000 0.000000 sr} bdef
c8
DP
0 -58 -58 0 0 58 58 0 1441 4818 5 MP
DP
0 -58 -58 0 0 58 58 0 1859 4577 5 MP
DP
0 -58 -58 0 0 58 58 0 2277 4342 5 MP
DP
0 -58 -58 0 0 58 58 0 2695 4275 5 MP
DP
0 -58 -58 0 0 58 58 0 3113 3887 5 MP
DP
0 -58 -58 0 0 58 58 0 3531 3665 5 MP
DP
0 -58 -58 0 0 58 58 0 3949 3446 5 MP
DP
0 -58 -58 0 0 58 58 0 4367 3230 5 MP
DP
0 -58 -58 0 0 58 58 0 4785 3016 5 MP
DP
0 -58 -58 0 0 58 58 0 5203 2804 5 MP
DP
0 -58 -58 0 0 58 58 0 5621 2594 5 MP
DP
0 -58 -58 0 0 58 58 0 6039 2386 5 MP
DP
0 -58 -58 0 0 58 58 0 6457 2179 5 MP
DP
0 -58 -58 0 0 58 58 0 6875 1974 5 MP
DP
0 -58 -58 0 0 58 58 0 7294 1770 5 MP
DP
gs 1052 625 6272 6792 rc
gr

41 71 -82 0 41 -71 1052 6179 4 MP
/c9 { 1.000000 0.000000 1.000000 sr} bdef
c9
DP
41 71 -82 0 41 -71 1470 5416 4 MP
DP
41 71 -82 0 41 -71 1888 5178 4 MP
DP
41 71 -82 0 41 -71 2306 4995 4 MP
DP
41 71 -82 0 41 -71 2724 4725 4 MP
DP
41 71 -82 0 41 -71 3142 4504 4 MP
DP
41 71 -82 0 41 -71 3560 4287 4 MP
DP
41 71 -82 0 41 -71 3978 4074 4 MP
DP
41 71 -82 0 41 -71 4396 3863 4 MP
DP
41 71 -82 0 41 -71 4814 3654 4 MP
DP
41 71 -82 0 41 -71 5232 3447 4 MP
DP
41 71 -82 0 41 -71 5650 3242 4 MP
DP
41 71 -82 0 41 -71 6068 3039 4 MP
DP
41 71 -82 0 41 -71 6486 2837 4 MP
DP
41 71 -82 0 41 -71 6904 2637 4 MP
DP
41 71 -82 0 41 -71 7323 2438 4 MP
DP
gs 1052 625 6272 6792 rc
gr

/c10 { 1.000000 0.000000 0.000000 sr} bdef
c10
1016 6298 mt 1088 6298 L
1052 6262 mt 1052 6334 L
1434 6044 mt 1506 6044 L
1470 6008 mt 1470 6080 L
1852 5669 mt 1924 5669 L
1888 5633 mt 1888 5705 L
2270 5441 mt 2342 5441 L
2306 5405 mt 2306 5477 L
2688 5223 mt 2760 5223 L
2724 5187 mt 2724 5259 L
3106 5010 mt 3178 5010 L
3142 4974 mt 3142 5046 L
3524 4800 mt 3596 4800 L
3560 4764 mt 3560 4836 L
3942 4593 mt 4014 4593 L
3978 4557 mt 3978 4629 L
4360 4389 mt 4432 4389 L
4396 4353 mt 4396 4425 L
4778 4187 mt 4850 4187 L
4814 4151 mt 4814 4223 L
5196 3987 mt 5268 3987 L
5232 3951 mt 5232 4023 L
5614 3789 mt 5686 3789 L
5650 3753 mt 5650 3825 L
6032 3592 mt 6104 3592 L
6068 3556 mt 6068 3628 L
6450 3396 mt 6522 3396 L
6486 3360 mt 6486 3432 L
6868 3202 mt 6940 3202 L
6904 3166 mt 6904 3238 L
7287 3009 mt 7359 3009 L
7323 2973 mt 7323 3045 L
gs 1052 625 6272 6792 rc
gr

/c11 { 0.000000 0.000000 1.000000 sr} bdef
c11
1027 6653 mt 1077 6703 L
1077 6653 mt 1027 6703 L
1445 6413 mt 1495 6463 L
1495 6413 mt 1445 6463 L
1863 6188 mt 1913 6238 L
1913 6188 mt 1863 6238 L
2281 5974 mt 2331 6024 L
2331 5974 mt 2281 6024 L
2699 5767 mt 2749 5817 L
2749 5767 mt 2699 5817 L
3117 5564 mt 3167 5614 L
3167 5564 mt 3117 5614 L
3535 5365 mt 3585 5415 L
3585 5365 mt 3535 5415 L
3953 5168 mt 4003 5218 L
4003 5168 mt 3953 5218 L
4371 4974 mt 4421 5024 L
4421 4974 mt 4371 5024 L
4789 4782 mt 4839 4832 L
4839 4782 mt 4789 4832 L
5207 4591 mt 5257 4641 L
5257 4591 mt 5207 4641 L
5625 4401 mt 5675 4451 L
5675 4401 mt 5625 4451 L
6043 4213 mt 6093 4263 L
6093 4213 mt 6043 4263 L
6461 4026 mt 6511 4076 L
6511 4026 mt 6461 4076 L
6879 3840 mt 6929 3890 L
6929 3840 mt 6879 3890 L
7298 3654 mt 7348 3704 L
7348 3654 mt 7298 3704 L
gs 1052 625 6272 6792 rc
gr

0 sg
  36   36 1052 7416 FO
  36   36 1470 7068 FO
  36   36 1888 6991 FO
  36   36 2306 6656 FO
  36   36 2724 6473 FO
  36   36 3142 6292 FO
  36   36 3560 6113 FO
  36   36 3978 5935 FO
  36   36 4396 5758 FO
  36   36 4814 5583 FO
  36   36 5232 5408 FO
  36   36 5650 5234 FO
  36   36 6068 5060 FO
  36   36 6486 4887 FO
  36   36 6904 4714 FO
  36   36 7323 4541 FO
gs 1052 625 6272 6792 rc
gr

1035 7459 mt 
( ) s
7307  667 mt 
( ) s
gs 1052 625 6272 6792 rc
gr

-21 -16 8 -25 -22 15 -21 -15 8 25 -21 16 26 0 8 24 
9 -24 26 0 1017 4689 11 MP
DP
-21 -16 8 -25 -22 15 -21 -15 8 25 -21 16 26 0 8 24 
9 -24 26 0 1435 3992 11 MP
DP
-21 -16 8 -25 -22 15 -21 -15 8 25 -21 16 26 0 8 24 
9 -24 26 0 1853 4540 11 MP
DP
-21 -16 8 -25 -22 15 -21 -15 8 25 -21 16 26 0 8 24 
9 -24 26 0 2271 3796 11 MP
DP
-21 -16 8 -25 -22 15 -21 -15 8 25 -21 16 26 0 8 24 
9 -24 26 0 2689 3634 11 MP
DP
-21 -16 8 -25 -22 15 -21 -15 8 25 -21 16 26 0 8 24 
9 -24 26 0 3107 3639 11 MP
DP
-21 -16 8 -25 -22 15 -21 -15 8 25 -21 16 26 0 8 24 
9 -24 26 0 3525 3187 11 MP
DP
-21 -16 8 -25 -22 15 -21 -15 8 25 -21 16 26 0 8 24 
9 -24 26 0 3943 2943 11 MP
DP
-21 -16 8 -25 -22 15 -21 -15 8 25 -21 16 26 0 8 24 
9 -24 26 0 4361 2709 11 MP
DP
-21 -16 8 -25 -22 15 -21 -15 8 25 -21 16 26 0 8 24 
9 -24 26 0 4779 2485 11 MP
DP
-21 -16 8 -25 -22 15 -21 -15 8 25 -21 16 26 0 8 24 
9 -24 26 0 5197 2267 11 MP
DP
-21 -16 8 -25 -22 15 -21 -15 8 25 -21 16 26 0 8 24 
9 -24 26 0 5615 2053 11 MP
DP
-21 -16 8 -25 -22 15 -21 -15 8 25 -21 16 26 0 8 24 
9 -24 26 0 6033 1840 11 MP
DP
-21 -16 8 -25 -22 15 -21 -15 8 25 -21 16 26 0 8 24 
9 -24 26 0 6451 1629 11 MP
DP
-21 -16 8 -25 -22 15 -21 -15 8 25 -21 16 26 0 8 24 
9 -24 26 0 6869 1420 11 MP
DP
-21 -16 8 -25 -22 15 -21 -15 8 25 -21 16 26 0 8 24 
9 -24 26 0 7288 1212 11 MP
DP
gs 1052 625 6272 6792 rc
gr

0 -58 -58 0 0 58 58 0 1023 5326 5 MP
c8
DP
0 -58 -58 0 0 58 58 0 1441 4623 5 MP
DP
0 -58 -58 0 0 58 58 0 1859 5121 5 MP
DP
0 -58 -58 0 0 58 58 0 2277 4371 5 MP
DP
0 -58 -58 0 0 58 58 0 2695 4276 5 MP
DP
0 -58 -58 0 0 58 58 0 3113 3926 5 MP
DP
0 -58 -58 0 0 58 58 0 3531 3683 5 MP
DP
0 -58 -58 0 0 58 58 0 3949 3453 5 MP
DP
0 -58 -58 0 0 58 58 0 4367 3232 5 MP
DP
0 -58 -58 0 0 58 58 0 4785 3017 5 MP
DP
0 -58 -58 0 0 58 58 0 5203 2804 5 MP
DP
0 -58 -58 0 0 58 58 0 5621 2594 5 MP
DP
0 -58 -58 0 0 58 58 0 6039 2386 5 MP
DP
0 -58 -58 0 0 58 58 0 6457 2179 5 MP
DP
0 -58 -58 0 0 58 58 0 6875 1974 5 MP
DP
0 -58 -58 0 0 58 58 0 7294 1770 5 MP
DP
gs 1052 625 6272 6792 rc
gr

41 71 -82 0 41 -71 1052 6043 4 MP
c9
DP
41 71 -82 0 41 -71 1470 5334 4 MP
DP
41 71 -82 0 41 -71 1888 5589 4 MP
DP
41 71 -82 0 41 -71 2306 5010 4 MP
DP
41 71 -82 0 41 -71 2724 4758 4 MP
DP
41 71 -82 0 41 -71 3142 4518 4 MP
DP
41 71 -82 0 41 -71 3560 4292 4 MP
DP
41 71 -82 0 41 -71 3978 4075 4 MP
DP
41 71 -82 0 41 -71 4396 3863 4 MP
DP
41 71 -82 0 41 -71 4814 3654 4 MP
DP
41 71 -82 0 41 -71 5232 3447 4 MP
DP
41 71 -82 0 41 -71 5650 3242 4 MP
DP
41 71 -82 0 41 -71 6068 3039 4 MP
DP
41 71 -82 0 41 -71 6486 2837 4 MP
DP
41 71 -82 0 41 -71 6904 2637 4 MP
DP
41 71 -82 0 41 -71 7323 2438 4 MP
DP
gs 1052 625 6272 6792 rc
gr

c10
1016 6292 mt 1088 6292 L
1052 6256 mt 1052 6328 L
1434 6045 mt 1506 6045 L
1470 6009 mt 1470 6081 L
1852 5708 mt 1924 5708 L
1888 5672 mt 1888 5744 L
2270 5467 mt 2342 5467 L
2306 5431 mt 2306 5503 L
2688 5233 mt 2760 5233 L
2724 5197 mt 2724 5269 L
3106 5012 mt 3178 5012 L
3142 4976 mt 3142 5048 L
3524 4801 mt 3596 4801 L
3560 4765 mt 3560 4837 L
3942 4593 mt 4014 4593 L
3978 4557 mt 3978 4629 L
4360 4389 mt 4432 4389 L
4396 4353 mt 4396 4425 L
4778 4187 mt 4850 4187 L
4814 4151 mt 4814 4223 L
5196 3987 mt 5268 3987 L
5232 3951 mt 5232 4023 L
5614 3789 mt 5686 3789 L
5650 3753 mt 5650 3825 L
6032 3592 mt 6104 3592 L
6068 3556 mt 6068 3628 L
6450 3396 mt 6522 3396 L
6486 3360 mt 6486 3432 L
6868 3202 mt 6940 3202 L
6904 3166 mt 6904 3238 L
7287 3009 mt 7359 3009 L
7323 2973 mt 7323 3045 L
gs 1052 625 6272 6792 rc
gr

c11
1027 6611 mt 1077 6661 L
1077 6611 mt 1027 6661 L
1445 6439 mt 1495 6489 L
1495 6439 mt 1445 6489 L
1863 6204 mt 1913 6254 L
1913 6204 mt 1863 6254 L
2281 5979 mt 2331 6029 L
2331 5979 mt 2281 6029 L
2699 5768 mt 2749 5818 L
2749 5768 mt 2699 5818 L
3117 5564 mt 3167 5614 L
3167 5564 mt 3117 5614 L
3535 5365 mt 3585 5415 L
3585 5365 mt 3535 5415 L
3953 5168 mt 4003 5218 L
4003 5168 mt 3953 5218 L
4371 4974 mt 4421 5024 L
4421 4974 mt 4371 5024 L
4789 4782 mt 4839 4832 L
4839 4782 mt 4789 4832 L
5207 4591 mt 5257 4641 L
5257 4591 mt 5207 4641 L
5625 4401 mt 5675 4451 L
5675 4401 mt 5625 4451 L
6043 4213 mt 6093 4263 L
6093 4213 mt 6043 4263 L
6461 4026 mt 6511 4076 L
6511 4026 mt 6461 4076 L
6879 3840 mt 6929 3890 L
6929 3840 mt 6879 3890 L
7298 3654 mt 7348 3704 L
7348 3654 mt 7298 3704 L
gs 1052 625 6272 6792 rc
gr

0 sg
  36   36 1052 7416 FO
  36   36 1470 7073 FO
  36   36 1888 6991 FO
  36   36 2306 6656 FO
  36   36 2724 6473 FO
  36   36 3142 6292 FO
  36   36 3560 6113 FO
  36   36 3978 5935 FO
  36   36 4396 5758 FO
  36   36 4814 5583 FO
  36   36 5232 5408 FO
  36   36 5650 5234 FO
  36   36 6068 5060 FO
  36   36 6486 4887 FO
  36   36 6904 4714 FO
  36   36 7323 4541 FO
gs 1052 625 6272 6792 rc
gr

1 sg
0 1058 725 0 0 -1058 1305 2566 4 MP
PP
-725 0 0 1058 725 0 0 -1058 1305 2566 5 MP stroke
4 w
DO
SO
6 w
0 sg
1305 2566 mt 2030 2566 L
1305 1508 mt 2030 1508 L
1305 2566 mt 1305 1508 L
2030 2566 mt 2030 1508 L
1305 2566 mt 2030 2566 L
1305 2566 mt 1305 1508 L
1305 2566 mt 2030 2566 L
1305 1508 mt 2030 1508 L
1305 2566 mt 1305 1508 L
2030 2566 mt 2030 1508 L
1774 1656 mt 
(n=5) s
gs 1305 1508 726 1059 rc
gr

-21 -16 8 -25 -22 15 -21 -15 8 25 -21 16 26 0 8 24 
9 -24 26 0 1522 1601 11 MP
DP
gs 1305 1508 726 1059 rc
gr

1774 1825 mt 
(4) s
gs 1305 1508 726 1059 rc
gr

0 -58 -58 0 0 58 58 0 1528 1754 5 MP
c8
DP
gs 1305 1508 726 1059 rc
gr

0 sg
1774 1995 mt 
(3) s
gs 1305 1508 726 1059 rc
gr

41 71 -82 0 41 -71 1557 1999 4 MP
c9
DP
gs 1305 1508 726 1059 rc
gr

0 sg
1774 2164 mt 
(2) s
gs 1305 1508 726 1059 rc
gr

c10
1521 2121 mt 1593 2121 L
1557 2085 mt 1557 2157 L
gs 1305 1508 726 1059 rc
gr

0 sg
1774 2334 mt 
(1) s
gs 1305 1508 726 1059 rc
gr

c11
1532 2265 mt 1582 2315 L
1582 2265 mt 1532 2315 L
gs 1305 1508 726 1059 rc
gr

0 sg
1774 2503 mt 
(0) s
gs 1305 1508 726 1059 rc
gr

  36   36 1557 2460 FO
gs 1305 1508 726 1059 rc
gr


end %%Color Dict

eplot
%%EndObject

epage
end

showpage

%%Trailer
%%EOF
