%!PS-Adobe-3.0 EPSF-3.0
%%Creator: MATLAB, The MathWorks, Inc. Version 8.1.0.604 (R2013a). Operating System: Linux 3.12-0.bpo.1-amd64 #1 SMP Debian 3.12.9-1~bpo70+1 (2014-02-07) x86_64.
%%Title: /data/geodynamo/natafh/Dynamo/Acoustics/elastic_shell/Figures/plexi_w_and_wo_10cm-sphere_predictions_2.eps
%%CreationDate: 09/08/2014  09:56:10
%%DocumentNeededFonts: Helvetica
%%DocumentProcessColors: Cyan Magenta Yellow Black
%%LanguageLevel: 2
%%Pages: 1
%%BoundingBox:    40    37   570   755
%%EndComments

%%BeginProlog
% MathWorks dictionary
/MathWorks 160 dict begin
% definition operators
/bdef {bind def} bind def
/ldef {load def} bind def
/xdef {exch def} bdef
/xstore {exch store} bdef
% operator abbreviations
/c  /clip ldef
/cc /concat ldef
/cp /closepath ldef
/gr /grestore ldef
/gs /gsave ldef
/mt /moveto ldef
/np /newpath ldef
/cm /currentmatrix ldef
/sm /setmatrix ldef
/rm /rmoveto ldef
/rl /rlineto ldef
/s {show newpath} bdef
/sc {setcmykcolor} bdef
/sr /setrgbcolor ldef
/sg /setgray ldef
/w /setlinewidth ldef
/j /setlinejoin ldef
/cap /setlinecap ldef
/rc {rectclip} bdef
/rf {rectfill} bdef
% page state control
/pgsv () def
/bpage {/pgsv save def} bdef
/epage {pgsv restore} bdef
/bplot /gsave ldef
/eplot {stroke grestore} bdef
% orientation switch
/portraitMode 0 def /landscapeMode 1 def /rotateMode 2 def
% coordinate system mappings
/dpi2point 0 def
% font control
/FontSize 0 def
/FMS {/FontSize xstore findfont [FontSize 0 0 FontSize neg 0 0]
  makefont setfont} bdef
/reencode {exch dup where {pop load} {pop StandardEncoding} ifelse
  exch dup 3 1 roll findfont dup length dict begin
  { 1 index /FID ne {def}{pop pop} ifelse } forall
  /Encoding exch def currentdict end definefont pop} bdef
/isroman {findfont /CharStrings get /Agrave known} bdef
/FMSR {3 1 roll 1 index dup isroman {reencode} {pop pop} ifelse
  exch FMS} bdef
/csm {1 dpi2point div -1 dpi2point div scale neg translate
 dup landscapeMode eq {pop -90 rotate}
  {rotateMode eq {90 rotate} if} ifelse} bdef
% line types: solid, dotted, dashed, dotdash
/SO { [] 0 setdash } bdef
/DO { [.5 dpi2point mul 4 dpi2point mul] 0 setdash } bdef
/DA { [6 dpi2point mul] 0 setdash } bdef
/DD { [.5 dpi2point mul 4 dpi2point mul 6 dpi2point mul 4
  dpi2point mul] 0 setdash } bdef
% macros for lines and objects
/L {lineto stroke} bdef
/MP {3 1 roll moveto 1 sub {rlineto} repeat} bdef
/AP {{rlineto} repeat} bdef
/PDlw -1 def
/W {/PDlw currentlinewidth def setlinewidth} def
/PP {closepath eofill} bdef
/DP {closepath stroke} bdef
/MR {4 -2 roll moveto dup  0 exch rlineto exch 0 rlineto
  neg 0 exch rlineto closepath} bdef
/FR {MR stroke} bdef
/PR {MR fill} bdef
/L1i {{currentfile picstr readhexstring pop} image} bdef
/tMatrix matrix def
/MakeOval {newpath tMatrix currentmatrix pop translate scale
0 0 1 0 360 arc tMatrix setmatrix} bdef
/FO {MakeOval stroke} bdef
/PO {MakeOval fill} bdef
/PD {currentlinewidth 2 div 0 360 arc fill
   PDlw -1 eq not {PDlw w /PDlw -1 def} if} def
/FA {newpath tMatrix currentmatrix pop translate scale
  0 0 1 5 -2 roll arc tMatrix setmatrix stroke} bdef
/PA {newpath tMatrix currentmatrix pop	translate 0 0 moveto scale
  0 0 1 5 -2 roll arc closepath tMatrix setmatrix fill} bdef
/FAn {newpath tMatrix currentmatrix pop translate scale
  0 0 1 5 -2 roll arcn tMatrix setmatrix stroke} bdef
/PAn {newpath tMatrix currentmatrix pop translate 0 0 moveto scale
  0 0 1 5 -2 roll arcn closepath tMatrix setmatrix fill} bdef
/vradius 0 def /hradius 0 def /lry 0 def
/lrx 0 def /uly 0 def /ulx 0 def /rad 0 def
/MRR {/vradius xdef /hradius xdef /lry xdef /lrx xdef /uly xdef
  /ulx xdef newpath tMatrix currentmatrix pop ulx hradius add uly
  vradius add translate hradius vradius scale 0 0 1 180 270 arc 
  tMatrix setmatrix lrx hradius sub uly vradius add translate
  hradius vradius scale 0 0 1 270 360 arc tMatrix setmatrix
  lrx hradius sub lry vradius sub translate hradius vradius scale
  0 0 1 0 90 arc tMatrix setmatrix ulx hradius add lry vradius sub
  translate hradius vradius scale 0 0 1 90 180 arc tMatrix setmatrix
  closepath} bdef
/FRR {MRR stroke } bdef
/PRR {MRR fill } bdef
/MlrRR {/lry xdef /lrx xdef /uly xdef /ulx xdef /rad lry uly sub 2 div def
  newpath tMatrix currentmatrix pop ulx rad add uly rad add translate
  rad rad scale 0 0 1 90 270 arc tMatrix setmatrix lrx rad sub lry rad
  sub translate rad rad scale 0 0 1 270 90 arc tMatrix setmatrix
  closepath} bdef
/FlrRR {MlrRR stroke } bdef
/PlrRR {MlrRR fill } bdef
/MtbRR {/lry xdef /lrx xdef /uly xdef /ulx xdef /rad lrx ulx sub 2 div def
  newpath tMatrix currentmatrix pop ulx rad add uly rad add translate
  rad rad scale 0 0 1 180 360 arc tMatrix setmatrix lrx rad sub lry rad
  sub translate rad rad scale 0 0 1 0 180 arc tMatrix setmatrix
  closepath} bdef
/FtbRR {MtbRR stroke } bdef
/PtbRR {MtbRR fill } bdef
/stri 6 array def /dtri 6 array def
/smat 6 array def /dmat 6 array def
/tmat1 6 array def /tmat2 6 array def /dif 3 array def
/asub {/ind2 exch def /ind1 exch def dup dup
  ind1 get exch ind2 get sub exch } bdef
/tri_to_matrix {
  2 0 asub 3 1 asub 4 0 asub 5 1 asub
  dup 0 get exch 1 get 7 -1 roll astore } bdef
/compute_transform {
  dmat dtri tri_to_matrix tmat1 invertmatrix 
  smat stri tri_to_matrix tmat2 concatmatrix } bdef
/ds {stri astore pop} bdef
/dt {dtri astore pop} bdef
/db {2 copy /cols xdef /rows xdef mul dup 3 mul string
  currentfile 
  3 index 0 eq {/ASCIIHexDecode filter}
  {/ASCII85Decode filter 3 index 2 eq {/RunLengthDecode filter} if }
  ifelse exch readstring pop
  dup 0 3 index getinterval /rbmap xdef
  dup 2 index dup getinterval /gbmap xdef
  1 index dup 2 mul exch getinterval /bbmap xdef pop pop}bdef
/it {gs np dtri aload pop moveto lineto lineto cp c
  cols rows 8 compute_transform 
  rbmap gbmap bbmap true 3 colorimage gr}bdef
/il {newpath moveto lineto stroke}bdef
currentdict end def
%%EndProlog

%%BeginSetup
MathWorks begin

0 cap

end
%%EndSetup

%%Page: 1 1
%%BeginPageSetup
%%PageBoundingBox:    40    37   570   755
MathWorks begin
bpage
%%EndPageSetup

%%BeginObject: obj1
bplot

/dpi2point 12 def
portraitMode 0480 9060 csm

    0     0  6365  8611 rc
87 dict begin %Colortable dictionary
/c0 { 0.000000 0.000000 0.000000 sr} bdef
/c1 { 1.000000 1.000000 1.000000 sr} bdef
/c2 { 0.900000 0.000000 0.000000 sr} bdef
/c3 { 0.000000 0.820000 0.000000 sr} bdef
/c4 { 0.000000 0.000000 0.800000 sr} bdef
/c5 { 0.910000 0.820000 0.320000 sr} bdef
/c6 { 1.000000 0.260000 0.820000 sr} bdef
/c7 { 0.000000 0.820000 0.820000 sr} bdef
c0
1 j
1 sg
   0    0 6366 8612 rf
6 w
0 6926 4933 0 0 -6926 827 7664 4 MP
PP
-4933 0 0 6926 4933 0 0 -6926 827 7664 5 MP stroke
4 w
DO
0 sg
 827 7664 mt  827  738 L
 827  738 mt  827  738 L
2471 7664 mt 2471  738 L
2471  738 mt 2471  738 L
4115 7664 mt 4115  738 L
4115  738 mt 4115  738 L
5760 7664 mt 5760  738 L
5760  738 mt 5760  738 L
 827 7664 mt 5760 7664 L
5760 7664 mt 5760 7664 L
 827 6894 mt 5760 6894 L
5760 6894 mt 5760 6894 L
 827 6124 mt 5760 6124 L
5760 6124 mt 5760 6124 L
 827 5355 mt 5760 5355 L
5760 5355 mt 5760 5355 L
 827 4585 mt 5760 4585 L
5760 4585 mt 5760 4585 L
 827 3816 mt 5760 3816 L
5760 3816 mt 5760 3816 L
 827 3046 mt 5760 3046 L
5760 3046 mt 5760 3046 L
 827 2277 mt 5760 2277 L
5760 2277 mt 5760 2277 L
 827 1507 mt 5760 1507 L
5760 1507 mt 5760 1507 L
 827  738 mt 5760  738 L
5760  738 mt 5760  738 L
SO
6 w
 827 7664 mt 5760 7664 L
 827  738 mt 5760  738 L
 827 7664 mt  827  738 L
5760 7664 mt 5760  738 L
 827 7664 mt 5760 7664 L
 827 7664 mt  827  738 L
 827 7664 mt  827 7594 L
 827  738 mt  827  807 L
%%IncludeResource: font Helvetica
/Helvetica /ISOLatin1Encoding 120 FMSR

 794 7809 mt 
(0) s
2471 7664 mt 2471 7594 L
2471  738 mt 2471  807 L
2438 7809 mt 
(5) s
4115 7664 mt 4115 7594 L
4115  738 mt 4115  807 L
4049 7809 mt 
(10) s
5760 7664 mt 5760 7594 L
5760  738 mt 5760  807 L
5694 7809 mt 
(15) s
 827 7664 mt  896 7664 L
5760 7664 mt 5690 7664 L
 726 7708 mt 
(0) s
 827 6894 mt  896 6894 L
5760 6894 mt 5690 6894 L
 592 6938 mt 
(500) s
 827 6124 mt  896 6124 L
5760 6124 mt 5690 6124 L
 526 6168 mt 
(1000) s
 827 5355 mt  896 5355 L
5760 5355 mt 5690 5355 L
 526 5399 mt 
(1500) s
 827 4585 mt  896 4585 L
5760 4585 mt 5690 4585 L
 526 4629 mt 
(2000) s
 827 3816 mt  896 3816 L
5760 3816 mt 5690 3816 L
 526 3860 mt 
(2500) s
 827 3046 mt  896 3046 L
5760 3046 mt 5690 3046 L
 526 3090 mt 
(3000) s
 827 2277 mt  896 2277 L
5760 2277 mt 5690 2277 L
 526 2321 mt 
(3500) s
 827 1507 mt  896 1507 L
5760 1507 mt 5690 1507 L
 526 1551 mt 
(4000) s
 827  738 mt  896  738 L
5760  738 mt 5690  738 L
 526  782 mt 
(4500) s
 827 7664 mt 5760 7664 L
 827  738 mt 5760  738 L
 827 7664 mt  827  738 L
5760 7664 mt 5760  738 L
%%IncludeResource: font Helvetica
/Helvetica /ISOLatin1Encoding 96 FMSR

 791  171 mt 
(n) s
%%IncludeResource: font Helvetica
/Helvetica /ISOLatin1Encoding 120 FMSR

 844  111 mt 
(S) s
%%IncludeResource: font Helvetica
/Helvetica /ISOLatin1Encoding 96 FMSR

 924  171 mt 
(l) s
%%IncludeResource: font Helvetica
/Helvetica /ISOLatin1Encoding 120 FMSR

 945  111 mt 
( mode frequencies for spherical shell of fluid enclosed bet\
ween inner and outer solid shells : ) s
2329  281 mt 
(r) s
%%IncludeResource: font Helvetica
/Helvetica /ISOLatin1Encoding 96 FMSR

2368  341 mt 
(i) s
%%IncludeResource: font Helvetica
/Helvetica /ISOLatin1Encoding 120 FMSR

2389  281 mt 
(=0.05, lambda) s
%%IncludeResource: font Helvetica
/Helvetica /ISOLatin1Encoding 96 FMSR

3152  341 mt 
(i) s
%%IncludeResource: font Helvetica
/Helvetica /ISOLatin1Encoding 120 FMSR

3173  281 mt 
(=0, kappa) s
%%IncludeResource: font Helvetica
/Helvetica /ISOLatin1Encoding 96 FMSR

3703  341 mt 
(0) s
3756  341 mt 
(i) s
%%IncludeResource: font Helvetica
/Helvetica /ISOLatin1Encoding 120 FMSR

3777  281 mt 
(=0, nu) s
%%IncludeResource: font Helvetica
/Helvetica /ISOLatin1Encoding 96 FMSR

4112  341 mt 
(i) s
%%IncludeResource: font Helvetica
/Helvetica /ISOLatin1Encoding 120 FMSR

4133  281 mt 
(=1) s
1737  451 mt 
(r) s
%%IncludeResource: font Helvetica
/Helvetica /ISOLatin1Encoding 96 FMSR

1776  511 mt 
(o) s
%%IncludeResource: font Helvetica
/Helvetica /ISOLatin1Encoding 120 FMSR

1829  451 mt 
(=0.222 lambda) s
%%IncludeResource: font Helvetica
/Helvetica /ISOLatin1Encoding 96 FMSR

2626  511 mt 
(o) s
%%IncludeResource: font Helvetica
/Helvetica /ISOLatin1Encoding 120 FMSR

2679  451 mt 
(=0.042265, kappa) s
%%IncludeResource: font Helvetica
/Helvetica /ISOLatin1Encoding 96 FMSR

3643  511 mt 
(0) s
3696  511 mt 
(o) s
%%IncludeResource: font Helvetica
/Helvetica /ISOLatin1Encoding 120 FMSR

3749  451 mt 
(=0.093277, nu) s
%%IncludeResource: font Helvetica
/Helvetica /ISOLatin1Encoding 96 FMSR

4518  511 mt 
(o) s
%%IncludeResource: font Helvetica
/Helvetica /ISOLatin1Encoding 120 FMSR

4571  451 mt 
(=0.39) s
1869  643 mt 
(compare with and without inner sphere - predictions 2) s
2676 7952 mt 
(mode angular number l) s
 444 5344 mt  -90 rotate
(mode frequency \(Hz\) \(csound = 347.5 m/s\)) s
90 rotate
gs 827 738 4934 6927 rc
gr

0 j
-35 -26 13 -41 -36 24 -35 -24 13 41 -35 26 43 0 14 41 
15 -41 43 0 769 1036 11 MP
DP
gs 827 738 4934 6927 rc
gr

0 -94 -94 0 0 94 94 0 780 2214 5 MP
/c8 { 0.000000 1.000000 0.000000 sr} bdef
c8
DP
0 -94 -94 0 0 94 94 0 1108 1634 5 MP
DP
0 -94 -94 0 0 94 94 0 1437 1106 5 MP
DP
gs 827 738 4934 6927 rc
gr

0 -94 -94 0 0 94 94 0 2424 731 5 MP
DP
gs 827 738 4934 6927 rc
gr

69 119 -138 0 69 -119 827 3798 4 MP
/c9 { 1.000000 0.000000 1.000000 sr} bdef
c9
DP
69 119 -138 0 69 -119 1155 3028 4 MP
DP
69 119 -138 0 69 -119 1484 2433 4 MP
DP
69 119 -138 0 69 -119 1813 1894 4 MP
DP
69 119 -138 0 69 -119 2142 1370 4 MP
DP
69 119 -138 0 69 -119 2471 2143 4 MP
DP
gs 827 738 4934 6927 rc
gr

/c10 { 1.000000 0.000000 0.000000 sr} bdef
c10
 767 4710 mt  887 4710 L
 827 4650 mt  827 4770 L
1095 4136 mt 1215 4136 L
1155 4076 mt 1155 4196 L
1424 3590 mt 1544 3590 L
1484 3530 mt 1484 3650 L
1753 3068 mt 1873 3068 L
1813 3008 mt 1813 3128 L
2082 2561 mt 2202 2561 L
2142 2501 mt 2142 2621 L
2411 3411 mt 2531 3411 L
2471 3351 mt 2471 3471 L
2740 1576 mt 2860 1576 L
2800 1516 mt 2800 1636 L
3069 1096 mt 3189 1096 L
3129 1036 mt 3129 1156 L
gs 827 738 4934 6927 rc
gr

/c11 { 0.000000 0.000000 1.000000 sr} bdef
c11
 785 5901 mt  869 5985 L
 869 5901 mt  785 5985 L
1113 5342 mt 1197 5426 L
1197 5342 mt 1113 5426 L
1442 4818 mt 1526 4902 L
1526 4818 mt 1442 4902 L
1771 4321 mt 1855 4405 L
1855 4321 mt 1771 4405 L
2100 3839 mt 2184 3923 L
2184 3839 mt 2100 3923 L
2429 4975 mt 2513 5059 L
2513 4975 mt 2429 5059 L
2758 2906 mt 2842 2990 L
2842 2906 mt 2758 2990 L
3087 2449 mt 3171 2533 L
3171 2449 mt 3087 2533 L
3415 1997 mt 3499 2081 L
3499 1997 mt 3415 2081 L
3744 1550 mt 3828 1634 L
3828 1550 mt 3744 1634 L
4073 1106 mt 4157 1190 L
4157 1106 mt 4073 1190 L
gs 827 738 4934 6927 rc
gr

0 sg
  60   60  827 7664 FO
  60   60 1155 6850 FO
  60   60 1484 6423 FO
  60   60 1813 6018 FO
  60   60 2142 5754 FO
  60   60 2471 5643 FO
  60   60 2800 4613 FO
  60   60 3129 4206 FO
  60   60 3457 3798 FO
  60   60 3786 3391 FO
  60   60 4115 2985 FO
  60   60 4444 2580 FO
  60   60 4773 2177 FO
  60   60 5102 1774 FO
  60   60 5431 1372 FO
  60   60 5760  972 FO
gs 827 738 4934 6927 rc
gr

 810 7707 mt 
( ) s
5744  780 mt 
( ) s
gs 827 738 4934 6927 rc
gr

-21 -16 8 -25 -22 15 -21 -15 8 25 -21 16 26 0 8 24 
9 -24 26 0 792 1325 11 MP
gs
PP
gr
DP
gs 827 738 4934 6927 rc
gr

-21 -16 8 -25 -22 15 -21 -15 8 25 -21 16 26 0 8 24 
9 -24 26 0 1449 1063 11 MP
gs
PP
gr
DP
gs 827 738 4934 6927 rc
gr

0 -58 -58 0 0 58 58 0 798 2823 5 MP
c8
gs
PP
gr
DP
0 -58 -58 0 0 58 58 0 1126 1194 5 MP
gs
PP
gr
DP
0 -58 -58 0 0 58 58 0 1455 2367 5 MP
gs
PP
gr
DP
gs 827 738 4934 6927 rc
gr

0 -58 -58 0 0 58 58 0 2442 783 5 MP
gs
PP
gr
DP
gs 827 738 4934 6927 rc
gr

41 71 -82 0 41 -71 827 3723 4 MP
c9
gs
PP
gr
DP
41 71 -82 0 41 -71 1155 2894 4 MP
gs
PP
gr
DP
41 71 -82 0 41 -71 1484 3730 4 MP
gs
PP
gr
DP
41 71 -82 0 41 -71 1813 1973 4 MP
gs
PP
gr
DP
41 71 -82 0 41 -71 2142 1416 4 MP
gs
PP
gr
DP
41 71 -82 0 41 -71 2471 2117 4 MP
gs
PP
gr
DP
gs 827 738 4934 6927 rc
gr

c10
 791 4392 mt  863 4392 L
 827 4356 mt  827 4428 L
1119 4138 mt 1191 4138 L
1155 4102 mt 1155 4174 L
1448 4900 mt 1520 4900 L
1484 4864 mt 1484 4936 L
1777 3129 mt 1849 3129 L
1813 3093 mt 1813 3165 L
2106 2583 mt 2178 2583 L
2142 2547 mt 2142 2619 L
2435 3411 mt 2507 3411 L
2471 3375 mt 2471 3447 L
2764 1578 mt 2836 1578 L
2800 1542 mt 2800 1614 L
3093 1096 mt 3165 1096 L
3129 1060 mt 3129 1132 L
gs 827 738 4934 6927 rc
gr

c11
 802 5818 mt  852 5868 L
 852 5818 mt  802 5868 L
1130 5421 mt 1180 5471 L
1180 5421 mt 1130 5471 L
1459 6017 mt 1509 6067 L
1509 6017 mt 1459 6067 L
1788 4350 mt 1838 4400 L
1838 4350 mt 1788 4400 L
2117 3859 mt 2167 3909 L
2167 3859 mt 2117 3909 L
2446 4992 mt 2496 5042 L
2496 4992 mt 2446 5042 L
2775 2923 mt 2825 2973 L
2825 2923 mt 2775 2973 L
3104 2466 mt 3154 2516 L
3154 2466 mt 3104 2516 L
3432 2014 mt 3482 2064 L
3482 2014 mt 3432 2064 L
3761 1567 mt 3811 1617 L
3811 1567 mt 3761 1617 L
4090 1123 mt 4140 1173 L
4140 1123 mt 4090 1173 L
gs 827 738 4934 6927 rc
gr

0 sg
  36   36  827 7664 PO
  36   36 1155 6863 PO
  36   36 1484 6425 PO
  36   36 1813 6018 PO
  36   36 2142 5754 PO
  36   36 2471 5643 PO
  36   36 2800 4613 PO
  36   36 3129 4206 PO
  36   36 3457 3798 PO
  36   36 3786 3391 PO
  36   36 4115 2985 PO
  36   36 4444 2580 PO
  36   36 4773 2177 PO
  36   36 5102 1774 PO
  36   36 5431 1372 PO
  36   36 5760  972 PO
  36   36  827 7664 FO
  36   36 1155 6863 FO
  36   36 1484 6425 FO
  36   36 1813 6018 FO
  36   36 2142 5754 FO
  36   36 2471 5643 FO
  36   36 2800 4613 FO
  36   36 3129 4206 FO
  36   36 3457 3798 FO
  36   36 3786 3391 FO
  36   36 4115 2985 FO
  36   36 4444 2580 FO
  36   36 4773 2177 FO
  36   36 5102 1774 FO
  36   36 5431 1372 FO
  36   36 5760  972 FO
gs 827 738 4934 6927 rc
gr

1 sg
0 2072 2313 0 0 -2072 3207 7371 4 MP
PP
-2313 0 0 2072 2313 0 0 -2072 3207 7371 5 MP stroke
4 w
DO
SO
6 w
0 sg
3207 7371 mt 5520 7371 L
3207 5299 mt 5520 5299 L
3207 7371 mt 3207 5299 L
5520 7371 mt 5520 5299 L
3207 7371 mt 5520 7371 L
3207 7371 mt 3207 5299 L
3207 7371 mt 5520 7371 L
3207 5299 mt 5520 5299 L
3207 7371 mt 3207 5299 L
5520 7371 mt 5520 5299 L
3676 5447 mt 
(n=5 w/o inner sphere) s
gs 3207 5299 2314 2073 rc
gr

gs 3338 5283 243 243 rc
-35 -26 13 -41 -36 24 -35 -24 13 41 -35 26 43 0 14 41 
15 -41 43 0 3401 5385 11 MP
DP
gr

gs 3207 5299 2314 2073 rc
gr

3676 5616 mt 
(4) s
gs 3207 5299 2314 2073 rc
gs 3338 5452 243 243 rc
0 -94 -94 0 0 94 94 0 3412 5526 5 MP
c8
DP
gr

c8
gr

c8
0 sg
3676 5785 mt 
(3) s
gs 3207 5299 2314 2073 rc
gs 3338 5621 243 243 rc
69 119 -138 0 69 -119 3459 5821 4 MP
c9
DP
gr

c9
gr

c9
0 sg
3676 5954 mt 
(2) s
gs 3207 5299 2314 2073 rc
gs 3338 5791 243 243 rc
c10
3399 5912 mt 3519 5912 L
3459 5852 mt 3459 5972 L
gr

c10
gr

c10
0 sg
3676 6124 mt 
(1) s
gs 3207 5299 2314 2073 rc
gs 3338 5960 243 243 rc
c11
3417 6039 mt 3501 6123 L
3501 6039 mt 3417 6123 L
gr

c11
gr

c11
0 sg
3676 6293 mt 
(0) s
gs 3207 5299 2314 2073 rc
gs 3338 6129 243 243 rc
  60   60 3459 6250 FO
gr

gr

3676 6462 mt 
(n=5 with 10cm-diam inner sphere) s
gs 3207 5299 2314 2073 rc
gs 3386 6346 147 147 rc
-21 -16 8 -25 -22 15 -21 -15 8 25 -21 16 26 0 8 24 
9 -24 26 0 3424 6407 11 MP
gs
PP
gr
DP
gr

gr

3676 6631 mt 
(4) s
gs 3207 5299 2314 2073 rc
gs 3386 6515 147 147 rc
0 -58 -58 0 0 58 58 0 3430 6559 5 MP
c8
gs
PP
gr
DP
gr

c8
gr

c8
0 sg
3676 6801 mt 
(3) s
gs 3207 5299 2314 2073 rc
gs 3386 6684 147 147 rc
41 71 -82 0 41 -71 3459 6804 4 MP
c9
gs
PP
gr
DP
gr

c9
gr

c9
0 sg
3676 6970 mt 
(2) s
gs 3207 5299 2314 2073 rc
gs 3386 6854 147 147 rc
c10
3423 6927 mt 3495 6927 L
3459 6891 mt 3459 6963 L
gr

c10
gr

c10
0 sg
3676 7139 mt 
(1) s
gs 3207 5299 2314 2073 rc
gs 3386 7023 147 147 rc
c11
3434 7071 mt 3484 7121 L
3484 7071 mt 3434 7121 L
gr

c11
gr

c11
0 sg
3676 7308 mt 
(0) s
gs 3207 5299 2314 2073 rc
gs 3386 7192 147 147 rc
  36   36 3459 7265 PO
  36   36 3459 7265 FO
gr

gr


end %%Color Dict

eplot
%%EndObject

epage
end

showpage

%%Trailer
%%EOF
