%!PS-Adobe-3.0 EPSF-3.0
%%Creator: MATLAB, The MathWorks, Inc. Version 8.1.0.604 (R2013a). Operating System: Linux 3.12-0.bpo.1-amd64 #1 SMP Debian 3.12.9-1~bpo70+1 (2014-02-07) x86_64.
%%Title: /data/geodynamo/natafh/Dynamo/Acoustics/elastic_shell/Figures/plexi_w_and_wo_5cm-sphere_zoom.eps
%%CreationDate: 07/28/2014  15:19:37
%%DocumentNeededFonts: Helvetica
%%DocumentProcessColors: Cyan Magenta Yellow Black
%%LanguageLevel: 2
%%Pages: 1
%%BoundingBox:  -365    32   978   759
%%EndComments

%%BeginProlog
% MathWorks dictionary
/MathWorks 160 dict begin
% definition operators
/bdef {bind def} bind def
/ldef {load def} bind def
/xdef {exch def} bdef
/xstore {exch store} bdef
% operator abbreviations
/c  /clip ldef
/cc /concat ldef
/cp /closepath ldef
/gr /grestore ldef
/gs /gsave ldef
/mt /moveto ldef
/np /newpath ldef
/cm /currentmatrix ldef
/sm /setmatrix ldef
/rm /rmoveto ldef
/rl /rlineto ldef
/s {show newpath} bdef
/sc {setcmykcolor} bdef
/sr /setrgbcolor ldef
/sg /setgray ldef
/w /setlinewidth ldef
/j /setlinejoin ldef
/cap /setlinecap ldef
/rc {rectclip} bdef
/rf {rectfill} bdef
% page state control
/pgsv () def
/bpage {/pgsv save def} bdef
/epage {pgsv restore} bdef
/bplot /gsave ldef
/eplot {stroke grestore} bdef
% orientation switch
/portraitMode 0 def /landscapeMode 1 def /rotateMode 2 def
% coordinate system mappings
/dpi2point 0 def
% font control
/FontSize 0 def
/FMS {/FontSize xstore findfont [FontSize 0 0 FontSize neg 0 0]
  makefont setfont} bdef
/reencode {exch dup where {pop load} {pop StandardEncoding} ifelse
  exch dup 3 1 roll findfont dup length dict begin
  { 1 index /FID ne {def}{pop pop} ifelse } forall
  /Encoding exch def currentdict end definefont pop} bdef
/isroman {findfont /CharStrings get /Agrave known} bdef
/FMSR {3 1 roll 1 index dup isroman {reencode} {pop pop} ifelse
  exch FMS} bdef
/csm {1 dpi2point div -1 dpi2point div scale neg translate
 dup landscapeMode eq {pop -90 rotate}
  {rotateMode eq {90 rotate} if} ifelse} bdef
% line types: solid, dotted, dashed, dotdash
/SO { [] 0 setdash } bdef
/DO { [.5 dpi2point mul 4 dpi2point mul] 0 setdash } bdef
/DA { [6 dpi2point mul] 0 setdash } bdef
/DD { [.5 dpi2point mul 4 dpi2point mul 6 dpi2point mul 4
  dpi2point mul] 0 setdash } bdef
% macros for lines and objects
/L {lineto stroke} bdef
/MP {3 1 roll moveto 1 sub {rlineto} repeat} bdef
/AP {{rlineto} repeat} bdef
/PDlw -1 def
/W {/PDlw currentlinewidth def setlinewidth} def
/PP {closepath eofill} bdef
/DP {closepath stroke} bdef
/MR {4 -2 roll moveto dup  0 exch rlineto exch 0 rlineto
  neg 0 exch rlineto closepath} bdef
/FR {MR stroke} bdef
/PR {MR fill} bdef
/L1i {{currentfile picstr readhexstring pop} image} bdef
/tMatrix matrix def
/MakeOval {newpath tMatrix currentmatrix pop translate scale
0 0 1 0 360 arc tMatrix setmatrix} bdef
/FO {MakeOval stroke} bdef
/PO {MakeOval fill} bdef
/PD {currentlinewidth 2 div 0 360 arc fill
   PDlw -1 eq not {PDlw w /PDlw -1 def} if} def
/FA {newpath tMatrix currentmatrix pop translate scale
  0 0 1 5 -2 roll arc tMatrix setmatrix stroke} bdef
/PA {newpath tMatrix currentmatrix pop	translate 0 0 moveto scale
  0 0 1 5 -2 roll arc closepath tMatrix setmatrix fill} bdef
/FAn {newpath tMatrix currentmatrix pop translate scale
  0 0 1 5 -2 roll arcn tMatrix setmatrix stroke} bdef
/PAn {newpath tMatrix currentmatrix pop translate 0 0 moveto scale
  0 0 1 5 -2 roll arcn closepath tMatrix setmatrix fill} bdef
/vradius 0 def /hradius 0 def /lry 0 def
/lrx 0 def /uly 0 def /ulx 0 def /rad 0 def
/MRR {/vradius xdef /hradius xdef /lry xdef /lrx xdef /uly xdef
  /ulx xdef newpath tMatrix currentmatrix pop ulx hradius add uly
  vradius add translate hradius vradius scale 0 0 1 180 270 arc 
  tMatrix setmatrix lrx hradius sub uly vradius add translate
  hradius vradius scale 0 0 1 270 360 arc tMatrix setmatrix
  lrx hradius sub lry vradius sub translate hradius vradius scale
  0 0 1 0 90 arc tMatrix setmatrix ulx hradius add lry vradius sub
  translate hradius vradius scale 0 0 1 90 180 arc tMatrix setmatrix
  closepath} bdef
/FRR {MRR stroke } bdef
/PRR {MRR fill } bdef
/MlrRR {/lry xdef /lrx xdef /uly xdef /ulx xdef /rad lry uly sub 2 div def
  newpath tMatrix currentmatrix pop ulx rad add uly rad add translate
  rad rad scale 0 0 1 90 270 arc tMatrix setmatrix lrx rad sub lry rad
  sub translate rad rad scale 0 0 1 270 90 arc tMatrix setmatrix
  closepath} bdef
/FlrRR {MlrRR stroke } bdef
/PlrRR {MlrRR fill } bdef
/MtbRR {/lry xdef /lrx xdef /uly xdef /ulx xdef /rad lrx ulx sub 2 div def
  newpath tMatrix currentmatrix pop ulx rad add uly rad add translate
  rad rad scale 0 0 1 180 360 arc tMatrix setmatrix lrx rad sub lry rad
  sub translate rad rad scale 0 0 1 0 180 arc tMatrix setmatrix
  closepath} bdef
/FtbRR {MtbRR stroke } bdef
/PtbRR {MtbRR fill } bdef
/stri 6 array def /dtri 6 array def
/smat 6 array def /dmat 6 array def
/tmat1 6 array def /tmat2 6 array def /dif 3 array def
/asub {/ind2 exch def /ind1 exch def dup dup
  ind1 get exch ind2 get sub exch } bdef
/tri_to_matrix {
  2 0 asub 3 1 asub 4 0 asub 5 1 asub
  dup 0 get exch 1 get 7 -1 roll astore } bdef
/compute_transform {
  dmat dtri tri_to_matrix tmat1 invertmatrix 
  smat stri tri_to_matrix tmat2 concatmatrix } bdef
/ds {stri astore pop} bdef
/dt {dtri astore pop} bdef
/db {2 copy /cols xdef /rows xdef mul dup 3 mul string
  currentfile 
  3 index 0 eq {/ASCIIHexDecode filter}
  {/ASCII85Decode filter 3 index 2 eq {/RunLengthDecode filter} if }
  ifelse exch readstring pop
  dup 0 3 index getinterval /rbmap xdef
  dup 2 index dup getinterval /gbmap xdef
  1 index dup 2 mul exch getinterval /bbmap xdef pop pop}bdef
/it {gs np dtri aload pop moveto lineto lineto cp c
  cols rows 8 compute_transform 
  rbmap gbmap bbmap true 3 colorimage gr}bdef
/il {newpath moveto lineto stroke}bdef
currentdict end def
%%EndProlog

%%BeginSetup
MathWorks begin

0 cap

end
%%EndSetup

%%Page: 1 1
%%BeginPageSetup
%%PageBoundingBox:  -365    32   978   759
MathWorks begin
bpage
%%EndPageSetup

%%BeginObject: obj1
bplot

/dpi2point 12 def
portraitMode -4380 9108 csm

    0     0 16127  8717 rc
90 dict begin %Colortable dictionary
/c0 { 0.000000 0.000000 0.000000 sr} bdef
/c1 { 1.000000 1.000000 1.000000 sr} bdef
/c2 { 0.900000 0.000000 0.000000 sr} bdef
/c3 { 0.000000 0.820000 0.000000 sr} bdef
/c4 { 0.000000 0.000000 0.800000 sr} bdef
/c5 { 0.910000 0.820000 0.320000 sr} bdef
/c6 { 1.000000 0.260000 0.820000 sr} bdef
/c7 { 0.000000 0.820000 0.820000 sr} bdef
c0
1 j
1 sg
   0    0 16128 8718 rf
6 w
0 7089 12497 0 0 -7089 2097 7758 4 MP
PP
-12497 0 0 7089 12497 0 0 -7089 2097 7758 5 MP stroke
4 w
DO
0 sg
2097 7758 mt 2097  669 L
2097  669 mt 2097  669 L
6263 7758 mt 6263  669 L
6263  669 mt 6263  669 L
10429 7758 mt 10429  669 L
10429  669 mt 10429  669 L
14595 7758 mt 14595  669 L
14595  669 mt 14595  669 L
2097 7561 mt 14595 7561 L
14595 7561 mt 14595 7561 L
2097 6576 mt 14595 6576 L
14595 6576 mt 14595 6576 L
2097 5591 mt 14595 5591 L
14595 5591 mt 14595 5591 L
2097 4607 mt 14595 4607 L
14595 4607 mt 14595 4607 L
2097 3622 mt 14595 3622 L
14595 3622 mt 14595 3622 L
2097 2638 mt 14595 2638 L
14595 2638 mt 14595 2638 L
2097 1653 mt 14595 1653 L
14595 1653 mt 14595 1653 L
2097  669 mt 14595  669 L
14595  669 mt 14595  669 L
SO
6 w
2097 7758 mt 14594 7758 L
2097  669 mt 14594  669 L
2097 7758 mt 2097  669 L
14594 7758 mt 14594  669 L
2097 7758 mt 14594 7758 L
2097 7758 mt 2097  669 L
2097 7758 mt 2097 7633 L
2097  669 mt 2097  793 L
%%IncludeResource: font Helvetica
/Helvetica /ISOLatin1Encoding 240 FMSR

2031 8015 mt 
(0) s
6263 7758 mt 6263 7633 L
6263  669 mt 6263  793 L
6197 8015 mt 
(5) s
10429 7758 mt 10429 7633 L
10429  669 mt 10429  793 L
10296 8015 mt 
(10) s
14595 7758 mt 14595 7633 L
14595  669 mt 14595  793 L
14462 8015 mt 
(15) s
2097 7561 mt 2221 7561 L
14595 7561 mt 14470 7561 L
1662 7650 mt 
(500) s
2097 6576 mt 2221 6576 L
14595 6576 mt 14470 6576 L
1529 6665 mt 
(1000) s
2097 5591 mt 2221 5591 L
14595 5591 mt 14470 5591 L
1529 5680 mt 
(1500) s
2097 4607 mt 2221 4607 L
14595 4607 mt 14470 4607 L
1529 4696 mt 
(2000) s
2097 3622 mt 2221 3622 L
14595 3622 mt 14470 3622 L
1529 3711 mt 
(2500) s
2097 2638 mt 2221 2638 L
14595 2638 mt 14470 2638 L
1529 2727 mt 
(3000) s
2097 1653 mt 2221 1653 L
14595 1653 mt 14470 1653 L
1529 1742 mt 
(3500) s
2097  669 mt 2221  669 L
14595  669 mt 14470  669 L
1529  758 mt 
(4000) s
2097 7758 mt 14594 7758 L
2097  669 mt 14594  669 L
2097 7758 mt 2097  669 L
14594 7758 mt 14594  669 L
gs 2097 669 12499 7090 rc
gr

0 j
-21 -16 8 -25 -22 15 -21 -15 8 25 -21 16 26 0 8 24 
9 -24 26 0 2062 1508 11 MP
gs
PP
gr
DP
gs 2097 669 12499 7090 rc
gr

0 -58 -58 0 0 58 58 0 2068 3123 5 MP
/c8 { 0.000000 1.000000 0.000000 sr} bdef
c8
gs
PP
gr
DP
0 -58 -58 0 0 58 58 0 2901 1125 5 MP
gs
PP
gr
DP
gs 2097 669 12499 7090 rc
gr

41 71 -82 0 41 -71 2097 4795 4 MP
/c9 { 1.000000 0.000000 1.000000 sr} bdef
c9
gs
PP
gr
DP
41 71 -82 0 41 -71 2930 2733 4 MP
gs
PP
gr
DP
41 71 -82 0 41 -71 3763 2008 4 MP
gs
PP
gr
DP
41 71 -82 0 41 -71 4596 1437 4 MP
gs
PP
gr
DP
gs 2097 669 12499 7090 rc
gr

/c10 { 1.000000 0.000000 0.000000 sr} bdef
c10
2061 5301 mt 2133 5301 L
2097 5265 mt 2097 5337 L
2894 4573 mt 2966 4573 L
2930 4537 mt 2930 4609 L
3727 3494 mt 3799 3494 L
3763 3458 mt 3763 3530 L
4560 2823 mt 4632 2823 L
4596 2787 mt 4596 2859 L
5393 2188 mt 5465 2188 L
5429 2152 mt 5429 2224 L
6227 1569 mt 6299 1569 L
6263 1533 mt 6263 1605 L
7060  961 mt 7132  961 L
7096  925 mt 7096  997 L
gs 2097 669 12499 7090 rc
gr

/c11 { 0.000000 0.000000 1.000000 sr} bdef
c11
2072 6364 mt 2122 6414 L
2122 6364 mt 2072 6414 L
2905 5706 mt 2955 5756 L
2955 5706 mt 2905 5756 L
3738 5035 mt 3788 5085 L
3788 5035 mt 3738 5085 L
4571 4412 mt 4621 4462 L
4621 4412 mt 4571 4462 L
5404 3811 mt 5454 3861 L
5454 3811 mt 5404 3861 L
6238 3224 mt 6288 3274 L
6288 3224 mt 6238 3274 L
7071 2646 mt 7121 2696 L
7121 2646 mt 7071 2696 L
7904 2077 mt 7954 2127 L
7954 2077 mt 7904 2127 L
8737 1513 mt 8787 1563 L
8787 1513 mt 8737 1563 L
9570  956 mt 9620 1006 L
9620  956 mt 9570 1006 L
gs 2097 669 12499 7090 rc
gr

0 sg
  36   36 2930 7539 PO
  36   36 3763 7315 PO
  36   36 4596 6343 PO
  36   36 5429 5812 PO
  36   36 6263 5287 PO
  36   36 7096 4768 PO
  36   36 7929 4252 PO
  36   36 8762 3740 PO
  36   36 9595 3231 PO
  36   36 10429 2724 PO
  36   36 11262 2218 PO
  36   36 12095 1715 PO
  36   36 12928 1212 PO
  36   36 13761  711 PO
  36   36 2930 7539 FO
  36   36 3763 7315 FO
  36   36 4596 6343 FO
  36   36 5429 5812 FO
  36   36 6263 5287 FO
  36   36 7096 4768 FO
  36   36 7929 4252 FO
  36   36 8762 3740 FO
  36   36 9595 3231 FO
  36   36 10429 2724 FO
  36   36 11262 2218 FO
  36   36 12095 1715 FO
  36   36 12928 1212 FO
  36   36 13761  711 FO
gs 2097 669 12499 7090 rc
gr

%%IncludeResource: font Helvetica
/Helvetica /ISOLatin1Encoding 120 FMSR

2080 7801 mt 
( ) s
14579  711 mt 
( ) s
gs 2097 669 12499 7090 rc
gr

-21 -16 8 -25 -22 15 -21 -15 8 25 -21 16 26 0 8 24 
9 -24 26 0 2062 1807 11 MP
DP
gs 2097 669 12499 7090 rc
gr

0 -58 -58 0 0 58 58 0 2068 3298 5 MP
c8
DP
0 -58 -58 0 0 58 58 0 2901 1067 5 MP
DP
gs 2097 669 12499 7090 rc
gr

41 71 -82 0 41 -71 2097 4870 4 MP
c9
DP
41 71 -82 0 41 -71 2930 2658 4 MP
DP
41 71 -82 0 41 -71 3763 1969 4 MP
DP
41 71 -82 0 41 -71 4596 1436 4 MP
DP
gs 2097 669 12499 7090 rc
gr

c10
2061 5305 mt 2133 5305 L
2097 5269 mt 2097 5341 L
2894 4570 mt 2966 4570 L
2930 4534 mt 2930 4606 L
3727 3482 mt 3799 3482 L
3763 3446 mt 3763 3518 L
4560 2821 mt 4632 2821 L
4596 2785 mt 4596 2857 L
5393 2188 mt 5465 2188 L
5429 2152 mt 5429 2224 L
6227 1569 mt 6299 1569 L
6263 1533 mt 6263 1605 L
7060  961 mt 7132  961 L
7096  925 mt 7096  997 L
gs 2097 669 12499 7090 rc
gr

c11
2072 6382 mt 2122 6432 L
2122 6382 mt 2072 6432 L
2905 5685 mt 2955 5735 L
2955 5685 mt 2905 5735 L
3738 5032 mt 3788 5082 L
3788 5032 mt 3738 5082 L
4571 4412 mt 4621 4462 L
4621 4412 mt 4571 4462 L
5404 3811 mt 5454 3861 L
5454 3811 mt 5404 3861 L
6238 3224 mt 6288 3274 L
6288 3224 mt 6238 3274 L
7071 2646 mt 7121 2696 L
7121 2646 mt 7071 2696 L
7904 2077 mt 7954 2127 L
7954 2077 mt 7904 2127 L
8737 1513 mt 8787 1563 L
8787 1513 mt 8737 1563 L
9570  956 mt 9620 1006 L
9620  956 mt 9570 1006 L
gs 2097 669 12499 7090 rc
gr

0 sg
  36   36 2930 7537 FO
  36   36 3763 7315 FO
  36   36 4596 6343 FO
  36   36 5429 5812 FO
  36   36 6263 5287 FO
  36   36 7096 4768 FO
  36   36 7929 4252 FO
  36   36 8762 3740 FO
  36   36 9595 3231 FO
  36   36 10429 2724 FO
  36   36 11262 2218 FO
  36   36 12095 1715 FO
  36   36 12928 1212 FO
  36   36 13761  711 FO
gs 2097 669 12499 7090 rc
gr

/c12 { 1.000000 1.000000 0.933333 sr} bdef
c12
-416 0 0 -316 416 0 2144 1873 4 MP
PP
0.8 sg
2144 1557  416  316 rectstroke
1 j
0 sg
%%IncludeResource: font Helvetica
/Helvetica /ISOLatin1Encoding 96 FMSR

2192 1694 mt 
(X: 0) s
2192 1804 mt 
(Y: 3568) s
24 w
0 j
0 -94 -94 0 0 94 94 0 2050 1473 5 MP
gs
PP
gr
/c13 { 1.000000 1.000000 0.862745 sr} bdef
c13
DP
0 sg
5843  171 mt 
(n) s
%%IncludeResource: font Helvetica
/Helvetica /ISOLatin1Encoding 120 FMSR

5896  111 mt 
(S) s
%%IncludeResource: font Helvetica
/Helvetica /ISOLatin1Encoding 96 FMSR

5976  171 mt 
(l) s
%%IncludeResource: font Helvetica
/Helvetica /ISOLatin1Encoding 120 FMSR

5997  111 mt 
( mode frequencies for spherical shell of fluid enclosed bet\
ween inner and outer solid shells : ) s
7463  281 mt 
(r) s
%%IncludeResource: font Helvetica
/Helvetica /ISOLatin1Encoding 96 FMSR

7502  341 mt 
(i) s
%%IncludeResource: font Helvetica
/Helvetica /ISOLatin1Encoding 120 FMSR

7523  281 mt 
(=0, lambda) s
%%IncludeResource: font Helvetica
/Helvetica /ISOLatin1Encoding 96 FMSR

8120  341 mt 
(i) s
%%IncludeResource: font Helvetica
/Helvetica /ISOLatin1Encoding 120 FMSR

8141  281 mt 
(=0, kappa) s
%%IncludeResource: font Helvetica
/Helvetica /ISOLatin1Encoding 96 FMSR

8671  341 mt 
(0) s
8724  341 mt 
(i) s
%%IncludeResource: font Helvetica
/Helvetica /ISOLatin1Encoding 120 FMSR

8745  281 mt 
(=0, nu) s
%%IncludeResource: font Helvetica
/Helvetica /ISOLatin1Encoding 96 FMSR

9080  341 mt 
(i) s
%%IncludeResource: font Helvetica
/Helvetica /ISOLatin1Encoding 120 FMSR

9101  281 mt 
(=1) s
6855  451 mt 
(r) s
%%IncludeResource: font Helvetica
/Helvetica /ISOLatin1Encoding 96 FMSR

6894  511 mt 
(o) s
%%IncludeResource: font Helvetica
/Helvetica /ISOLatin1Encoding 120 FMSR

6947  451 mt 
(=0.223 lambda) s
%%IncludeResource: font Helvetica
/Helvetica /ISOLatin1Encoding 96 FMSR

7744  511 mt 
(o) s
%%IncludeResource: font Helvetica
/Helvetica /ISOLatin1Encoding 120 FMSR

7797  451 mt 
(=0.10045, kappa) s
%%IncludeResource: font Helvetica
/Helvetica /ISOLatin1Encoding 96 FMSR

8694  511 mt 
(0) s
8747  511 mt 
(o) s
%%IncludeResource: font Helvetica
/Helvetica /ISOLatin1Encoding 120 FMSR

8800  451 mt 
(=0.073094, nu) s
%%IncludeResource: font Helvetica
/Helvetica /ISOLatin1Encoding 96 FMSR

9569  511 mt 
(o) s
%%IncludeResource: font Helvetica
/Helvetica /ISOLatin1Encoding 120 FMSR

9622  451 mt 
(=0.4) s
%%IncludeResource: font Helvetica
/Helvetica /ISOLatin1Encoding 240 FMSR

7112 8246 mt 
(mode angular number l) s
1420 6398 mt  -90 rotate
(mode frequency \(Hz\) \(csound = 340 m/s\)) s
90 rotate
6 w
1 sg
0 1864 926 0 0 -1864 12765 7146 4 MP
PP
-926 0 0 1864 926 0 0 -1864 12765 7146 5 MP stroke
4 w
DO
SO
6 w
0 sg
12765 7146 mt 13691 7146 L
12765 5282 mt 13691 5282 L
12765 7146 mt 12765 5282 L
13691 7146 mt 13691 5282 L
12765 7146 mt 13691 7146 L
12765 7146 mt 12765 5282 L
12765 7146 mt 13691 7146 L
12765 5282 mt 13691 5282 L
12765 7146 mt 12765 5282 L
13691 7146 mt 13691 5282 L
13233 5540 mt 
(n=5) s
gs 12765 5282 927 1865 rc
gr

-21 -16 8 -25 -22 15 -21 -15 8 25 -21 16 26 0 8 24 
9 -24 26 0 12981 5442 11 MP
gs
PP
gr
DP
gs 12765 5282 927 1865 rc
gr

13233 5844 mt 
(4) s
gs 12765 5282 927 1865 rc
gr

0 -58 -58 0 0 58 58 0 12987 5729 5 MP
c8
gs
PP
gr
DP
gs 12765 5282 927 1865 rc
gr

0 sg
13233 6148 mt 
(3) s
gs 12765 5282 927 1865 rc
gr

41 71 -82 0 41 -71 13016 6109 4 MP
c9
gs
PP
gr
DP
gs 12765 5282 927 1865 rc
gr

0 sg
13233 6451 mt 
(2) s
gs 12765 5282 927 1865 rc
gr

c10
12980 6365 mt 13052 6365 L
13016 6329 mt 13016 6401 L
gs 12765 5282 927 1865 rc
gr

0 sg
13233 6755 mt 
(1) s
gs 12765 5282 927 1865 rc
gr

c11
12991 6644 mt 13041 6694 L
13041 6644 mt 12991 6694 L
gs 12765 5282 927 1865 rc
gr

0 sg
13233 7059 mt 
(0) s
gs 12765 5282 927 1865 rc
gr

  36   36 13016 6973 PO
  36   36 13016 6973 FO
gs 12765 5282 927 1865 rc
gr


end %%Color Dict

eplot
%%EndObject

epage
end

showpage

%%Trailer
%%EOF
