%!PS-Adobe-3.0 EPSF-3.0
%%Creator: MATLAB, The MathWorks, Inc. Version 8.1.0.604 (R2013a). Operating System: Linux 3.12-0.bpo.1-amd64 #1 SMP Debian 3.12.9-1~bpo70+1 (2014-02-07) x86_64.
%%Title: /data/geodynamo/natafh/Dynamo/Acoustics/elastic_shell/Figures/plexi_w_and_wo_5cm-sphere.eps
%%CreationDate: 07/28/2014  15:08:30
%%DocumentNeededFonts: Helvetica
%%DocumentProcessColors: Cyan Magenta Yellow Black
%%LanguageLevel: 2
%%Pages: 1
%%BoundingBox:    65    76   545   716
%%EndComments

%%BeginProlog
% MathWorks dictionary
/MathWorks 160 dict begin
% definition operators
/bdef {bind def} bind def
/ldef {load def} bind def
/xdef {exch def} bdef
/xstore {exch store} bdef
% operator abbreviations
/c  /clip ldef
/cc /concat ldef
/cp /closepath ldef
/gr /grestore ldef
/gs /gsave ldef
/mt /moveto ldef
/np /newpath ldef
/cm /currentmatrix ldef
/sm /setmatrix ldef
/rm /rmoveto ldef
/rl /rlineto ldef
/s {show newpath} bdef
/sc {setcmykcolor} bdef
/sr /setrgbcolor ldef
/sg /setgray ldef
/w /setlinewidth ldef
/j /setlinejoin ldef
/cap /setlinecap ldef
/rc {rectclip} bdef
/rf {rectfill} bdef
% page state control
/pgsv () def
/bpage {/pgsv save def} bdef
/epage {pgsv restore} bdef
/bplot /gsave ldef
/eplot {stroke grestore} bdef
% orientation switch
/portraitMode 0 def /landscapeMode 1 def /rotateMode 2 def
% coordinate system mappings
/dpi2point 0 def
% font control
/FontSize 0 def
/FMS {/FontSize xstore findfont [FontSize 0 0 FontSize neg 0 0]
  makefont setfont} bdef
/reencode {exch dup where {pop load} {pop StandardEncoding} ifelse
  exch dup 3 1 roll findfont dup length dict begin
  { 1 index /FID ne {def}{pop pop} ifelse } forall
  /Encoding exch def currentdict end definefont pop} bdef
/isroman {findfont /CharStrings get /Agrave known} bdef
/FMSR {3 1 roll 1 index dup isroman {reencode} {pop pop} ifelse
  exch FMS} bdef
/csm {1 dpi2point div -1 dpi2point div scale neg translate
 dup landscapeMode eq {pop -90 rotate}
  {rotateMode eq {90 rotate} if} ifelse} bdef
% line types: solid, dotted, dashed, dotdash
/SO { [] 0 setdash } bdef
/DO { [.5 dpi2point mul 4 dpi2point mul] 0 setdash } bdef
/DA { [6 dpi2point mul] 0 setdash } bdef
/DD { [.5 dpi2point mul 4 dpi2point mul 6 dpi2point mul 4
  dpi2point mul] 0 setdash } bdef
% macros for lines and objects
/L {lineto stroke} bdef
/MP {3 1 roll moveto 1 sub {rlineto} repeat} bdef
/AP {{rlineto} repeat} bdef
/PDlw -1 def
/W {/PDlw currentlinewidth def setlinewidth} def
/PP {closepath eofill} bdef
/DP {closepath stroke} bdef
/MR {4 -2 roll moveto dup  0 exch rlineto exch 0 rlineto
  neg 0 exch rlineto closepath} bdef
/FR {MR stroke} bdef
/PR {MR fill} bdef
/L1i {{currentfile picstr readhexstring pop} image} bdef
/tMatrix matrix def
/MakeOval {newpath tMatrix currentmatrix pop translate scale
0 0 1 0 360 arc tMatrix setmatrix} bdef
/FO {MakeOval stroke} bdef
/PO {MakeOval fill} bdef
/PD {currentlinewidth 2 div 0 360 arc fill
   PDlw -1 eq not {PDlw w /PDlw -1 def} if} def
/FA {newpath tMatrix currentmatrix pop translate scale
  0 0 1 5 -2 roll arc tMatrix setmatrix stroke} bdef
/PA {newpath tMatrix currentmatrix pop	translate 0 0 moveto scale
  0 0 1 5 -2 roll arc closepath tMatrix setmatrix fill} bdef
/FAn {newpath tMatrix currentmatrix pop translate scale
  0 0 1 5 -2 roll arcn tMatrix setmatrix stroke} bdef
/PAn {newpath tMatrix currentmatrix pop translate 0 0 moveto scale
  0 0 1 5 -2 roll arcn closepath tMatrix setmatrix fill} bdef
/vradius 0 def /hradius 0 def /lry 0 def
/lrx 0 def /uly 0 def /ulx 0 def /rad 0 def
/MRR {/vradius xdef /hradius xdef /lry xdef /lrx xdef /uly xdef
  /ulx xdef newpath tMatrix currentmatrix pop ulx hradius add uly
  vradius add translate hradius vradius scale 0 0 1 180 270 arc 
  tMatrix setmatrix lrx hradius sub uly vradius add translate
  hradius vradius scale 0 0 1 270 360 arc tMatrix setmatrix
  lrx hradius sub lry vradius sub translate hradius vradius scale
  0 0 1 0 90 arc tMatrix setmatrix ulx hradius add lry vradius sub
  translate hradius vradius scale 0 0 1 90 180 arc tMatrix setmatrix
  closepath} bdef
/FRR {MRR stroke } bdef
/PRR {MRR fill } bdef
/MlrRR {/lry xdef /lrx xdef /uly xdef /ulx xdef /rad lry uly sub 2 div def
  newpath tMatrix currentmatrix pop ulx rad add uly rad add translate
  rad rad scale 0 0 1 90 270 arc tMatrix setmatrix lrx rad sub lry rad
  sub translate rad rad scale 0 0 1 270 90 arc tMatrix setmatrix
  closepath} bdef
/FlrRR {MlrRR stroke } bdef
/PlrRR {MlrRR fill } bdef
/MtbRR {/lry xdef /lrx xdef /uly xdef /ulx xdef /rad lrx ulx sub 2 div def
  newpath tMatrix currentmatrix pop ulx rad add uly rad add translate
  rad rad scale 0 0 1 180 360 arc tMatrix setmatrix lrx rad sub lry rad
  sub translate rad rad scale 0 0 1 0 180 arc tMatrix setmatrix
  closepath} bdef
/FtbRR {MtbRR stroke } bdef
/PtbRR {MtbRR fill } bdef
/stri 6 array def /dtri 6 array def
/smat 6 array def /dmat 6 array def
/tmat1 6 array def /tmat2 6 array def /dif 3 array def
/asub {/ind2 exch def /ind1 exch def dup dup
  ind1 get exch ind2 get sub exch } bdef
/tri_to_matrix {
  2 0 asub 3 1 asub 4 0 asub 5 1 asub
  dup 0 get exch 1 get 7 -1 roll astore } bdef
/compute_transform {
  dmat dtri tri_to_matrix tmat1 invertmatrix 
  smat stri tri_to_matrix tmat2 concatmatrix } bdef
/ds {stri astore pop} bdef
/dt {dtri astore pop} bdef
/db {2 copy /cols xdef /rows xdef mul dup 3 mul string
  currentfile 
  3 index 0 eq {/ASCIIHexDecode filter}
  {/ASCII85Decode filter 3 index 2 eq {/RunLengthDecode filter} if }
  ifelse exch readstring pop
  dup 0 3 index getinterval /rbmap xdef
  dup 2 index dup getinterval /gbmap xdef
  1 index dup 2 mul exch getinterval /bbmap xdef pop pop}bdef
/it {gs np dtri aload pop moveto lineto lineto cp c
  cols rows 8 compute_transform 
  rbmap gbmap bbmap true 3 colorimage gr}bdef
/il {newpath moveto lineto stroke}bdef
currentdict end def
%%EndProlog

%%BeginSetup
MathWorks begin

0 cap

end
%%EndSetup

%%Page: 1 1
%%BeginPageSetup
%%PageBoundingBox:    65    76   545   716
MathWorks begin
bpage
%%EndPageSetup

%%BeginObject: obj1
bplot

/dpi2point 12 def
portraitMode 0780 8592 csm

    0     0  5760  7680 rc
87 dict begin %Colortable dictionary
/c0 { 0.000000 0.000000 0.000000 sr} bdef
/c1 { 1.000000 1.000000 1.000000 sr} bdef
/c2 { 0.900000 0.000000 0.000000 sr} bdef
/c3 { 0.000000 0.820000 0.000000 sr} bdef
/c4 { 0.000000 0.000000 0.800000 sr} bdef
/c5 { 0.910000 0.820000 0.320000 sr} bdef
/c6 { 1.000000 0.260000 0.820000 sr} bdef
/c7 { 0.000000 0.820000 0.820000 sr} bdef
c0
1 j
1 sg
   0    0 5761 7681 rf
6 w
0 6236 4464 0 0 -6236 749 6835 4 MP
PP
-4464 0 0 6236 4464 0 0 -6236 749 6835 5 MP stroke
4 w
DO
0 sg
 749 6835 mt  749  599 L
 749  599 mt  749  599 L
2237 6835 mt 2237  599 L
2237  599 mt 2237  599 L
3725 6835 mt 3725  599 L
3725  599 mt 3725  599 L
5213 6835 mt 5213  599 L
5213  599 mt 5213  599 L
 749 6835 mt 5213 6835 L
5213 6835 mt 5213 6835 L
 749 6211 mt 5213 6211 L
5213 6211 mt 5213 6211 L
 749 5588 mt 5213 5588 L
5213 5588 mt 5213 5588 L
 749 4964 mt 5213 4964 L
5213 4964 mt 5213 4964 L
 749 4341 mt 5213 4341 L
5213 4341 mt 5213 4341 L
 749 3717 mt 5213 3717 L
5213 3717 mt 5213 3717 L
 749 3093 mt 5213 3093 L
5213 3093 mt 5213 3093 L
 749 2470 mt 5213 2470 L
5213 2470 mt 5213 2470 L
 749 1846 mt 5213 1846 L
5213 1846 mt 5213 1846 L
 749 1223 mt 5213 1223 L
5213 1223 mt 5213 1223 L
 749  599 mt 5213  599 L
5213  599 mt 5213  599 L
SO
6 w
 749 6835 mt 5213 6835 L
 749  599 mt 5213  599 L
 749 6835 mt  749  599 L
5213 6835 mt 5213  599 L
 749 6835 mt 5213 6835 L
 749 6835 mt  749  599 L
 749 6835 mt  749 6772 L
 749  599 mt  749  662 L
%%IncludeResource: font Helvetica
/Helvetica /ISOLatin1Encoding 120 FMSR

 716 6980 mt 
(0) s
2237 6835 mt 2237 6772 L
2237  599 mt 2237  662 L
2204 6980 mt 
(5) s
3725 6835 mt 3725 6772 L
3725  599 mt 3725  662 L
3659 6980 mt 
(10) s
5213 6835 mt 5213 6772 L
5213  599 mt 5213  662 L
5147 6980 mt 
(15) s
 749 6835 mt  811 6835 L
5213 6835 mt 5150 6835 L
 648 6879 mt 
(0) s
 749 6211 mt  811 6211 L
5213 6211 mt 5150 6211 L
 448 6255 mt 
(1000) s
 749 5588 mt  811 5588 L
5213 5588 mt 5150 5588 L
 448 5632 mt 
(2000) s
 749 4964 mt  811 4964 L
5213 4964 mt 5150 4964 L
 448 5008 mt 
(3000) s
 749 4341 mt  811 4341 L
5213 4341 mt 5150 4341 L
 448 4385 mt 
(4000) s
 749 3717 mt  811 3717 L
5213 3717 mt 5150 3717 L
 448 3761 mt 
(5000) s
 749 3093 mt  811 3093 L
5213 3093 mt 5150 3093 L
 448 3137 mt 
(6000) s
 749 2470 mt  811 2470 L
5213 2470 mt 5150 2470 L
 448 2514 mt 
(7000) s
 749 1846 mt  811 1846 L
5213 1846 mt 5150 1846 L
 448 1890 mt 
(8000) s
 749 1223 mt  811 1223 L
5213 1223 mt 5150 1223 L
 448 1267 mt 
(9000) s
 749  599 mt  811  599 L
5213  599 mt 5150  599 L
 381  643 mt 
(10000) s
 749 6835 mt 5213 6835 L
 749  599 mt 5213  599 L
 749 6835 mt  749  599 L
5213 6835 mt 5213  599 L
%%IncludeResource: font Helvetica
/Helvetica /ISOLatin1Encoding 96 FMSR

 478  171 mt 
(n) s
%%IncludeResource: font Helvetica
/Helvetica /ISOLatin1Encoding 120 FMSR

 531  111 mt 
(S) s
%%IncludeResource: font Helvetica
/Helvetica /ISOLatin1Encoding 96 FMSR

 611  171 mt 
(l) s
%%IncludeResource: font Helvetica
/Helvetica /ISOLatin1Encoding 120 FMSR

 632  111 mt 
( mode frequencies for spherical shell of fluid enclosed bet\
ween inner and outer solid shells : ) s
2098  281 mt 
(r) s
%%IncludeResource: font Helvetica
/Helvetica /ISOLatin1Encoding 96 FMSR

2137  341 mt 
(i) s
%%IncludeResource: font Helvetica
/Helvetica /ISOLatin1Encoding 120 FMSR

2158  281 mt 
(=0, lambda) s
%%IncludeResource: font Helvetica
/Helvetica /ISOLatin1Encoding 96 FMSR

2755  341 mt 
(i) s
%%IncludeResource: font Helvetica
/Helvetica /ISOLatin1Encoding 120 FMSR

2776  281 mt 
(=0, kappa) s
%%IncludeResource: font Helvetica
/Helvetica /ISOLatin1Encoding 96 FMSR

3306  341 mt 
(0) s
3359  341 mt 
(i) s
%%IncludeResource: font Helvetica
/Helvetica /ISOLatin1Encoding 120 FMSR

3380  281 mt 
(=0, nu) s
%%IncludeResource: font Helvetica
/Helvetica /ISOLatin1Encoding 96 FMSR

3715  341 mt 
(i) s
%%IncludeResource: font Helvetica
/Helvetica /ISOLatin1Encoding 120 FMSR

3736  281 mt 
(=1) s
1490  451 mt 
(r) s
%%IncludeResource: font Helvetica
/Helvetica /ISOLatin1Encoding 96 FMSR

1529  511 mt 
(o) s
%%IncludeResource: font Helvetica
/Helvetica /ISOLatin1Encoding 120 FMSR

1582  451 mt 
(=0.223 lambda) s
%%IncludeResource: font Helvetica
/Helvetica /ISOLatin1Encoding 96 FMSR

2379  511 mt 
(o) s
%%IncludeResource: font Helvetica
/Helvetica /ISOLatin1Encoding 120 FMSR

2432  451 mt 
(=0.10045, kappa) s
%%IncludeResource: font Helvetica
/Helvetica /ISOLatin1Encoding 96 FMSR

3329  511 mt 
(0) s
3382  511 mt 
(o) s
%%IncludeResource: font Helvetica
/Helvetica /ISOLatin1Encoding 120 FMSR

3435  451 mt 
(=0.073094, nu) s
%%IncludeResource: font Helvetica
/Helvetica /ISOLatin1Encoding 96 FMSR

4204  511 mt 
(o) s
%%IncludeResource: font Helvetica
/Helvetica /ISOLatin1Encoding 120 FMSR

4257  451 mt 
(=0.4) s
2364 7123 mt 
(mode angular number l) s
 299 4810 mt  -90 rotate
(mode frequency \(Hz\) \(csound = 340 m/s\)) s
90 rotate
gs 749 600 4465 6236 rc
gr

0 j
-21 -16 8 -25 -22 15 -21 -15 8 25 -21 16 26 0 8 24 
9 -24 26 0 714 4598 11 MP
gs
PP
gr
DP
-21 -16 8 -25 -22 15 -21 -15 8 25 -21 16 26 0 8 24 
9 -24 26 0 1011 3984 11 MP
gs
PP
gr
DP
-21 -16 8 -25 -22 15 -21 -15 8 25 -21 16 26 0 8 24 
9 -24 26 0 1309 3796 11 MP
gs
PP
gr
DP
-21 -16 8 -25 -22 15 -21 -15 8 25 -21 16 26 0 8 24 
9 -24 26 0 1606 3558 11 MP
gs
PP
gr
DP
-21 -16 8 -25 -22 15 -21 -15 8 25 -21 16 26 0 8 24 
9 -24 26 0 1904 3332 11 MP
gs
PP
gr
DP
-21 -16 8 -25 -22 15 -21 -15 8 25 -21 16 26 0 8 24 
9 -24 26 0 2202 3366 11 MP
gs
PP
gr
DP
-21 -16 8 -25 -22 15 -21 -15 8 25 -21 16 26 0 8 24 
9 -24 26 0 2499 2912 11 MP
gs
PP
gr
DP
-21 -16 8 -25 -22 15 -21 -15 8 25 -21 16 26 0 8 24 
9 -24 26 0 2797 2707 11 MP
gs
PP
gr
DP
-21 -16 8 -25 -22 15 -21 -15 8 25 -21 16 26 0 8 24 
9 -24 26 0 3094 2504 11 MP
gs
PP
gr
DP
-21 -16 8 -25 -22 15 -21 -15 8 25 -21 16 26 0 8 24 
9 -24 26 0 3392 2304 11 MP
gs
PP
gr
DP
-21 -16 8 -25 -22 15 -21 -15 8 25 -21 16 26 0 8 24 
9 -24 26 0 3690 2106 11 MP
gs
PP
gr
DP
-21 -16 8 -25 -22 15 -21 -15 8 25 -21 16 26 0 8 24 
9 -24 26 0 3987 1909 11 MP
gs
PP
gr
DP
-21 -16 8 -25 -22 15 -21 -15 8 25 -21 16 26 0 8 24 
9 -24 26 0 4285 1715 11 MP
gs
PP
gr
DP
-21 -16 8 -25 -22 15 -21 -15 8 25 -21 16 26 0 8 24 
9 -24 26 0 4582 1521 11 MP
gs
PP
gr
DP
-21 -16 8 -25 -22 15 -21 -15 8 25 -21 16 26 0 8 24 
9 -24 26 0 4880 1329 11 MP
gs
PP
gr
DP
-21 -16 8 -25 -22 15 -21 -15 8 25 -21 16 26 0 8 24 
9 -24 26 0 5178 1138 11 MP
gs
PP
gr
DP
gs 749 600 4465 6236 rc
gr

0 -58 -58 0 0 58 58 0 720 5098 5 MP
/c8 { 0.000000 1.000000 0.000000 sr} bdef
c8
gs
PP
gr
DP
0 -58 -58 0 0 58 58 0 1017 4465 5 MP
gs
PP
gr
DP
0 -58 -58 0 0 58 58 0 1315 4250 5 MP
gs
PP
gr
DP
0 -58 -58 0 0 58 58 0 1612 4016 5 MP
gs
PP
gr
DP
0 -58 -58 0 0 58 58 0 1910 3949 5 MP
gs
PP
gr
DP
0 -58 -58 0 0 58 58 0 2208 3593 5 MP
gs
PP
gr
DP
0 -58 -58 0 0 58 58 0 2505 3389 5 MP
gs
PP
gr
DP
0 -58 -58 0 0 58 58 0 2803 3188 5 MP
gs
PP
gr
DP
0 -58 -58 0 0 58 58 0 3100 2989 5 MP
gs
PP
gr
DP
0 -58 -58 0 0 58 58 0 3398 2793 5 MP
gs
PP
gr
DP
0 -58 -58 0 0 58 58 0 3696 2598 5 MP
gs
PP
gr
DP
0 -58 -58 0 0 58 58 0 3993 2406 5 MP
gs
PP
gr
DP
0 -58 -58 0 0 58 58 0 4291 2215 5 MP
gs
PP
gr
DP
0 -58 -58 0 0 58 58 0 4588 2025 5 MP
gs
PP
gr
DP
0 -58 -58 0 0 58 58 0 4886 1836 5 MP
gs
PP
gr
DP
0 -58 -58 0 0 58 58 0 5184 1649 5 MP
gs
PP
gr
DP
gs 749 600 4465 6236 rc
gr

41 71 -82 0 41 -71 749 5679 4 MP
/c9 { 1.000000 0.000000 1.000000 sr} bdef
c9
gs
PP
gr
DP
41 71 -82 0 41 -71 1046 5026 4 MP
gs
PP
gr
DP
41 71 -82 0 41 -71 1344 4797 4 MP
gs
PP
gr
DP
41 71 -82 0 41 -71 1641 4616 4 MP
gs
PP
gr
DP
41 71 -82 0 41 -71 1939 4368 4 MP
gs
PP
gr
DP
41 71 -82 0 41 -71 2237 4165 4 MP
gs
PP
gr
DP
41 71 -82 0 41 -71 2534 3966 4 MP
gs
PP
gr
DP
41 71 -82 0 41 -71 2832 3770 4 MP
gs
PP
gr
DP
41 71 -82 0 41 -71 3129 3576 4 MP
gs
PP
gr
DP
41 71 -82 0 41 -71 3427 3385 4 MP
gs
PP
gr
DP
41 71 -82 0 41 -71 3725 3195 4 MP
gs
PP
gr
DP
41 71 -82 0 41 -71 4022 3007 4 MP
gs
PP
gr
DP
41 71 -82 0 41 -71 4320 2820 4 MP
gs
PP
gr
DP
41 71 -82 0 41 -71 4617 2635 4 MP
gs
PP
gr
DP
41 71 -82 0 41 -71 4915 2451 4 MP
gs
PP
gr
DP
41 71 -82 0 41 -71 5213 2268 4 MP
gs
PP
gr
DP
gs 749 600 4465 6236 rc
gr

/c10 { 1.000000 0.000000 0.000000 sr} bdef
c10
 713 5807 mt  785 5807 L
 749 5771 mt  749 5843 L
1010 5577 mt 1082 5577 L
1046 5541 mt 1046 5613 L
1308 5235 mt 1380 5235 L
1344 5199 mt 1344 5271 L
1605 5023 mt 1677 5023 L
1641 4987 mt 1641 5059 L
1903 4822 mt 1975 4822 L
1939 4786 mt 1939 4858 L
2201 4626 mt 2273 4626 L
2237 4590 mt 2237 4662 L
2498 4433 mt 2570 4433 L
2534 4397 mt 2534 4469 L
2796 4243 mt 2868 4243 L
2832 4207 mt 2832 4279 L
3093 4056 mt 3165 4056 L
3129 4020 mt 3129 4092 L
3391 3871 mt 3463 3871 L
3427 3835 mt 3427 3907 L
3689 3687 mt 3761 3687 L
3725 3651 mt 3725 3723 L
3986 3505 mt 4058 3505 L
4022 3469 mt 4022 3541 L
4284 3324 mt 4356 3324 L
4320 3288 mt 4320 3360 L
4581 3145 mt 4653 3145 L
4617 3109 mt 4617 3181 L
4879 2966 mt 4951 2966 L
4915 2930 mt 4915 3002 L
5177 2789 mt 5249 2789 L
5213 2753 mt 5213 2825 L
gs 749 600 4465 6236 rc
gr

/c11 { 0.000000 0.000000 1.000000 sr} bdef
c11
 724 6127 mt  774 6177 L
 774 6127 mt  724 6177 L
1021 5918 mt 1071 5968 L
1071 5918 mt 1021 5968 L
1319 5706 mt 1369 5756 L
1369 5706 mt 1319 5756 L
1616 5509 mt 1666 5559 L
1666 5509 mt 1616 5559 L
1914 5318 mt 1964 5368 L
1964 5318 mt 1914 5368 L
2212 5132 mt 2262 5182 L
2262 5132 mt 2212 5182 L
2509 4950 mt 2559 5000 L
2559 4950 mt 2509 5000 L
2807 4769 mt 2857 4819 L
2857 4769 mt 2807 4819 L
3104 4591 mt 3154 4641 L
3154 4591 mt 3104 4641 L
3402 4414 mt 3452 4464 L
3452 4414 mt 3402 4464 L
3700 4239 mt 3750 4289 L
3750 4239 mt 3700 4289 L
3997 4065 mt 4047 4115 L
4047 4065 mt 3997 4115 L
4295 3892 mt 4345 3942 L
4345 3892 mt 4295 3942 L
4592 3720 mt 4642 3770 L
4642 3720 mt 4592 3770 L
4890 3549 mt 4940 3599 L
4940 3549 mt 4890 3599 L
5188 3379 mt 5238 3429 L
5238 3379 mt 5188 3429 L
gs 749 600 4465 6236 rc
gr

0 sg
  36   36  749 6835 PO
  36   36 1046 6516 PO
  36   36 1344 6445 PO
  36   36 1641 6137 PO
  36   36 1939 5969 PO
  36   36 2237 5803 PO
  36   36 2534 5638 PO
  36   36 2832 5475 PO
  36   36 3129 5313 PO
  36   36 3427 5152 PO
  36   36 3725 4991 PO
  36   36 4022 4831 PO
  36   36 4320 4672 PO
  36   36 4617 4513 PO
  36   36 4915 4354 PO
  36   36 5213 4196 PO
  36   36  749 6835 FO
  36   36 1046 6516 FO
  36   36 1344 6445 FO
  36   36 1641 6137 FO
  36   36 1939 5969 FO
  36   36 2237 5803 FO
  36   36 2534 5638 FO
  36   36 2832 5475 FO
  36   36 3129 5313 FO
  36   36 3427 5152 FO
  36   36 3725 4991 FO
  36   36 4022 4831 FO
  36   36 4320 4672 FO
  36   36 4617 4513 FO
  36   36 4915 4354 FO
  36   36 5213 4196 FO
gs 749 600 4465 6236 rc
gr

 732 6878 mt 
( ) s
5197  642 mt 
( ) s
gs 749 600 4465 6236 rc
gr

-21 -16 8 -25 -22 15 -21 -15 8 25 -21 16 26 0 8 24 
9 -24 26 0 714 4693 11 MP
DP
-21 -16 8 -25 -22 15 -21 -15 8 25 -21 16 26 0 8 24 
9 -24 26 0 1011 3986 11 MP
DP
-21 -16 8 -25 -22 15 -21 -15 8 25 -21 16 26 0 8 24 
9 -24 26 0 1309 3762 11 MP
DP
-21 -16 8 -25 -22 15 -21 -15 8 25 -21 16 26 0 8 24 
9 -24 26 0 1606 3543 11 MP
DP
-21 -16 8 -25 -22 15 -21 -15 8 25 -21 16 26 0 8 24 
9 -24 26 0 1904 3329 11 MP
DP
-21 -16 8 -25 -22 15 -21 -15 8 25 -21 16 26 0 8 24 
9 -24 26 0 2202 3366 11 MP
DP
-21 -16 8 -25 -22 15 -21 -15 8 25 -21 16 26 0 8 24 
9 -24 26 0 2499 2912 11 MP
DP
-21 -16 8 -25 -22 15 -21 -15 8 25 -21 16 26 0 8 24 
9 -24 26 0 2797 2707 11 MP
DP
-21 -16 8 -25 -22 15 -21 -15 8 25 -21 16 26 0 8 24 
9 -24 26 0 3094 2504 11 MP
DP
-21 -16 8 -25 -22 15 -21 -15 8 25 -21 16 26 0 8 24 
9 -24 26 0 3392 2304 11 MP
DP
-21 -16 8 -25 -22 15 -21 -15 8 25 -21 16 26 0 8 24 
9 -24 26 0 3690 2106 11 MP
DP
-21 -16 8 -25 -22 15 -21 -15 8 25 -21 16 26 0 8 24 
9 -24 26 0 3987 1909 11 MP
DP
-21 -16 8 -25 -22 15 -21 -15 8 25 -21 16 26 0 8 24 
9 -24 26 0 4285 1715 11 MP
DP
-21 -16 8 -25 -22 15 -21 -15 8 25 -21 16 26 0 8 24 
9 -24 26 0 4582 1521 11 MP
DP
-21 -16 8 -25 -22 15 -21 -15 8 25 -21 16 26 0 8 24 
9 -24 26 0 4880 1329 11 MP
DP
-21 -16 8 -25 -22 15 -21 -15 8 25 -21 16 26 0 8 24 
9 -24 26 0 5178 1138 11 MP
DP
gs 749 600 4465 6236 rc
gr

0 -58 -58 0 0 58 58 0 720 5153 5 MP
c8
DP
0 -58 -58 0 0 58 58 0 1017 4447 5 MP
DP
0 -58 -58 0 0 58 58 0 1315 4226 5 MP
DP
0 -58 -58 0 0 58 58 0 1612 4010 5 MP
DP
0 -58 -58 0 0 58 58 0 1910 3949 5 MP
DP
0 -58 -58 0 0 58 58 0 2208 3593 5 MP
DP
0 -58 -58 0 0 58 58 0 2505 3389 5 MP
DP
0 -58 -58 0 0 58 58 0 2803 3188 5 MP
DP
0 -58 -58 0 0 58 58 0 3100 2989 5 MP
DP
0 -58 -58 0 0 58 58 0 3398 2793 5 MP
DP
0 -58 -58 0 0 58 58 0 3696 2598 5 MP
DP
0 -58 -58 0 0 58 58 0 3993 2406 5 MP
DP
0 -58 -58 0 0 58 58 0 4291 2215 5 MP
DP
0 -58 -58 0 0 58 58 0 4588 2025 5 MP
DP
0 -58 -58 0 0 58 58 0 4886 1836 5 MP
DP
0 -58 -58 0 0 58 58 0 5184 1649 5 MP
DP
gs 749 600 4465 6236 rc
gr

41 71 -82 0 41 -71 749 5703 4 MP
c9
DP
41 71 -82 0 41 -71 1046 5003 4 MP
DP
41 71 -82 0 41 -71 1344 4784 4 MP
DP
41 71 -82 0 41 -71 1641 4616 4 MP
DP
41 71 -82 0 41 -71 1939 4368 4 MP
DP
41 71 -82 0 41 -71 2237 4165 4 MP
DP
41 71 -82 0 41 -71 2534 3966 4 MP
DP
41 71 -82 0 41 -71 2832 3770 4 MP
DP
41 71 -82 0 41 -71 3129 3576 4 MP
DP
41 71 -82 0 41 -71 3427 3385 4 MP
DP
41 71 -82 0 41 -71 3725 3195 4 MP
DP
41 71 -82 0 41 -71 4022 3007 4 MP
DP
41 71 -82 0 41 -71 4320 2820 4 MP
DP
41 71 -82 0 41 -71 4617 2635 4 MP
DP
41 71 -82 0 41 -71 4915 2451 4 MP
DP
41 71 -82 0 41 -71 5213 2268 4 MP
DP
gs 749 600 4465 6236 rc
gr

c10
 713 5808 mt  785 5808 L
 749 5772 mt  749 5844 L
1010 5576 mt 1082 5576 L
1046 5540 mt 1046 5612 L
1308 5231 mt 1380 5231 L
1344 5195 mt 1344 5267 L
1605 5022 mt 1677 5022 L
1641 4986 mt 1641 5058 L
1903 4822 mt 1975 4822 L
1939 4786 mt 1939 4858 L
2201 4626 mt 2273 4626 L
2237 4590 mt 2237 4662 L
2498 4433 mt 2570 4433 L
2534 4397 mt 2534 4469 L
2796 4243 mt 2868 4243 L
2832 4207 mt 2832 4279 L
3093 4056 mt 3165 4056 L
3129 4020 mt 3129 4092 L
3391 3871 mt 3463 3871 L
3427 3835 mt 3427 3907 L
3689 3687 mt 3761 3687 L
3725 3651 mt 3725 3723 L
3986 3505 mt 4058 3505 L
4022 3469 mt 4022 3541 L
4284 3324 mt 4356 3324 L
4320 3288 mt 4320 3360 L
4581 3145 mt 4653 3145 L
4617 3109 mt 4617 3181 L
4879 2966 mt 4951 2966 L
4915 2930 mt 4915 3002 L
5177 2789 mt 5249 2789 L
5213 2753 mt 5213 2825 L
gs 749 600 4465 6236 rc
gr

c11
 724 6133 mt  774 6183 L
 774 6133 mt  724 6183 L
1021 5912 mt 1071 5962 L
1071 5912 mt 1021 5962 L
1319 5705 mt 1369 5755 L
1369 5705 mt 1319 5755 L
1616 5509 mt 1666 5559 L
1666 5509 mt 1616 5559 L
1914 5318 mt 1964 5368 L
1964 5318 mt 1914 5368 L
2212 5132 mt 2262 5182 L
2262 5132 mt 2212 5182 L
2509 4950 mt 2559 5000 L
2559 4950 mt 2509 5000 L
2807 4769 mt 2857 4819 L
2857 4769 mt 2807 4819 L
3104 4591 mt 3154 4641 L
3154 4591 mt 3104 4641 L
3402 4414 mt 3452 4464 L
3452 4414 mt 3402 4464 L
3700 4239 mt 3750 4289 L
3750 4239 mt 3700 4289 L
3997 4065 mt 4047 4115 L
4047 4065 mt 3997 4115 L
4295 3892 mt 4345 3942 L
4345 3892 mt 4295 3942 L
4592 3720 mt 4642 3770 L
4642 3720 mt 4592 3770 L
4890 3549 mt 4940 3599 L
4940 3549 mt 4890 3599 L
5188 3379 mt 5238 3429 L
5238 3379 mt 5188 3429 L
gs 749 600 4465 6236 rc
gr

0 sg
  36   36  749 6835 FO
  36   36 1046 6515 FO
  36   36 1344 6445 FO
  36   36 1641 6137 FO
  36   36 1939 5969 FO
  36   36 2237 5803 FO
  36   36 2534 5638 FO
  36   36 2832 5475 FO
  36   36 3129 5313 FO
  36   36 3427 5152 FO
  36   36 3725 4991 FO
  36   36 4022 4831 FO
  36   36 4320 4672 FO
  36   36 4617 4513 FO
  36   36 4915 4354 FO
  36   36 5213 4196 FO
gs 749 600 4465 6236 rc
gr

1 sg
0 1057 725 0 0 -1057 905 1784 4 MP
PP
-725 0 0 1057 725 0 0 -1057 905 1784 5 MP stroke
4 w
DO
SO
6 w
0 sg
 905 1784 mt 1630 1784 L
 905  727 mt 1630  727 L
 905 1784 mt  905  727 L
1630 1784 mt 1630  727 L
 905 1784 mt 1630 1784 L
 905 1784 mt  905  727 L
 905 1784 mt 1630 1784 L
 905  727 mt 1630  727 L
 905 1784 mt  905  727 L
1630 1784 mt 1630  727 L
1374  875 mt 
(n=5) s
gs 905 727 726 1058 rc
gr

-21 -16 8 -25 -22 15 -21 -15 8 25 -21 16 26 0 8 24 
9 -24 26 0 1122 820 11 MP
gs
PP
gr
DP
gs 905 727 726 1058 rc
gr

1374 1044 mt 
(4) s
gs 905 727 726 1058 rc
gr

0 -58 -58 0 0 58 58 0 1128 972 5 MP
c8
gs
PP
gr
DP
gs 905 727 726 1058 rc
gr

0 sg
1374 1213 mt 
(3) s
gs 905 727 726 1058 rc
gr

41 71 -82 0 41 -71 1157 1217 4 MP
c9
gs
PP
gr
DP
gs 905 727 726 1058 rc
gr

0 sg
1374 1383 mt 
(2) s
gs 905 727 726 1058 rc
gr

c10
1121 1340 mt 1193 1340 L
1157 1304 mt 1157 1376 L
gs 905 727 726 1058 rc
gr

0 sg
1374 1552 mt 
(1) s
gs 905 727 726 1058 rc
gr

c11
1132 1484 mt 1182 1534 L
1182 1484 mt 1132 1534 L
gs 905 727 726 1058 rc
gr

0 sg
1374 1721 mt 
(0) s
gs 905 727 726 1058 rc
gr

  36   36 1157 1678 PO
  36   36 1157 1678 FO
gs 905 727 726 1058 rc
gr


end %%Color Dict

eplot
%%EndObject

epage
end

showpage

%%Trailer
%%EOF
