%!PS-Adobe-3.0 EPSF-3.0
%%Creator: MATLAB, The MathWorks, Inc. Version 8.1.0.604 (R2013a). Operating System: Linux 3.12-0.bpo.1-amd64 #1 SMP Debian 3.12.9-1~bpo70+1 (2014-02-07) x86_64.
%%Title: /data/geodynamo/natafh/Dynamo/Acoustics/elastic_shell/Figures/plexi_w_and_wo_10cm-sphere_zoom.eps
%%CreationDate: 08/28/2014  13:58:13
%%DocumentNeededFonts: Helvetica
%%DocumentProcessColors: Cyan Magenta Yellow Black
%%LanguageLevel: 2
%%Pages: 1
%%BoundingBox:    -1    44   614   748
%%EndComments

%%BeginProlog
% MathWorks dictionary
/MathWorks 160 dict begin
% definition operators
/bdef {bind def} bind def
/ldef {load def} bind def
/xdef {exch def} bdef
/xstore {exch store} bdef
% operator abbreviations
/c  /clip ldef
/cc /concat ldef
/cp /closepath ldef
/gr /grestore ldef
/gs /gsave ldef
/mt /moveto ldef
/np /newpath ldef
/cm /currentmatrix ldef
/sm /setmatrix ldef
/rm /rmoveto ldef
/rl /rlineto ldef
/s {show newpath} bdef
/sc {setcmykcolor} bdef
/sr /setrgbcolor ldef
/sg /setgray ldef
/w /setlinewidth ldef
/j /setlinejoin ldef
/cap /setlinecap ldef
/rc {rectclip} bdef
/rf {rectfill} bdef
% page state control
/pgsv () def
/bpage {/pgsv save def} bdef
/epage {pgsv restore} bdef
/bplot /gsave ldef
/eplot {stroke grestore} bdef
% orientation switch
/portraitMode 0 def /landscapeMode 1 def /rotateMode 2 def
% coordinate system mappings
/dpi2point 0 def
% font control
/FontSize 0 def
/FMS {/FontSize xstore findfont [FontSize 0 0 FontSize neg 0 0]
  makefont setfont} bdef
/reencode {exch dup where {pop load} {pop StandardEncoding} ifelse
  exch dup 3 1 roll findfont dup length dict begin
  { 1 index /FID ne {def}{pop pop} ifelse } forall
  /Encoding exch def currentdict end definefont pop} bdef
/isroman {findfont /CharStrings get /Agrave known} bdef
/FMSR {3 1 roll 1 index dup isroman {reencode} {pop pop} ifelse
  exch FMS} bdef
/csm {1 dpi2point div -1 dpi2point div scale neg translate
 dup landscapeMode eq {pop -90 rotate}
  {rotateMode eq {90 rotate} if} ifelse} bdef
% line types: solid, dotted, dashed, dotdash
/SO { [] 0 setdash } bdef
/DO { [.5 dpi2point mul 4 dpi2point mul] 0 setdash } bdef
/DA { [6 dpi2point mul] 0 setdash } bdef
/DD { [.5 dpi2point mul 4 dpi2point mul 6 dpi2point mul 4
  dpi2point mul] 0 setdash } bdef
% macros for lines and objects
/L {lineto stroke} bdef
/MP {3 1 roll moveto 1 sub {rlineto} repeat} bdef
/AP {{rlineto} repeat} bdef
/PDlw -1 def
/W {/PDlw currentlinewidth def setlinewidth} def
/PP {closepath eofill} bdef
/DP {closepath stroke} bdef
/MR {4 -2 roll moveto dup  0 exch rlineto exch 0 rlineto
  neg 0 exch rlineto closepath} bdef
/FR {MR stroke} bdef
/PR {MR fill} bdef
/L1i {{currentfile picstr readhexstring pop} image} bdef
/tMatrix matrix def
/MakeOval {newpath tMatrix currentmatrix pop translate scale
0 0 1 0 360 arc tMatrix setmatrix} bdef
/FO {MakeOval stroke} bdef
/PO {MakeOval fill} bdef
/PD {currentlinewidth 2 div 0 360 arc fill
   PDlw -1 eq not {PDlw w /PDlw -1 def} if} def
/FA {newpath tMatrix currentmatrix pop translate scale
  0 0 1 5 -2 roll arc tMatrix setmatrix stroke} bdef
/PA {newpath tMatrix currentmatrix pop	translate 0 0 moveto scale
  0 0 1 5 -2 roll arc closepath tMatrix setmatrix fill} bdef
/FAn {newpath tMatrix currentmatrix pop translate scale
  0 0 1 5 -2 roll arcn tMatrix setmatrix stroke} bdef
/PAn {newpath tMatrix currentmatrix pop translate 0 0 moveto scale
  0 0 1 5 -2 roll arcn closepath tMatrix setmatrix fill} bdef
/vradius 0 def /hradius 0 def /lry 0 def
/lrx 0 def /uly 0 def /ulx 0 def /rad 0 def
/MRR {/vradius xdef /hradius xdef /lry xdef /lrx xdef /uly xdef
  /ulx xdef newpath tMatrix currentmatrix pop ulx hradius add uly
  vradius add translate hradius vradius scale 0 0 1 180 270 arc 
  tMatrix setmatrix lrx hradius sub uly vradius add translate
  hradius vradius scale 0 0 1 270 360 arc tMatrix setmatrix
  lrx hradius sub lry vradius sub translate hradius vradius scale
  0 0 1 0 90 arc tMatrix setmatrix ulx hradius add lry vradius sub
  translate hradius vradius scale 0 0 1 90 180 arc tMatrix setmatrix
  closepath} bdef
/FRR {MRR stroke } bdef
/PRR {MRR fill } bdef
/MlrRR {/lry xdef /lrx xdef /uly xdef /ulx xdef /rad lry uly sub 2 div def
  newpath tMatrix currentmatrix pop ulx rad add uly rad add translate
  rad rad scale 0 0 1 90 270 arc tMatrix setmatrix lrx rad sub lry rad
  sub translate rad rad scale 0 0 1 270 90 arc tMatrix setmatrix
  closepath} bdef
/FlrRR {MlrRR stroke } bdef
/PlrRR {MlrRR fill } bdef
/MtbRR {/lry xdef /lrx xdef /uly xdef /ulx xdef /rad lrx ulx sub 2 div def
  newpath tMatrix currentmatrix pop ulx rad add uly rad add translate
  rad rad scale 0 0 1 180 360 arc tMatrix setmatrix lrx rad sub lry rad
  sub translate rad rad scale 0 0 1 0 180 arc tMatrix setmatrix
  closepath} bdef
/FtbRR {MtbRR stroke } bdef
/PtbRR {MtbRR fill } bdef
/stri 6 array def /dtri 6 array def
/smat 6 array def /dmat 6 array def
/tmat1 6 array def /tmat2 6 array def /dif 3 array def
/asub {/ind2 exch def /ind1 exch def dup dup
  ind1 get exch ind2 get sub exch } bdef
/tri_to_matrix {
  2 0 asub 3 1 asub 4 0 asub 5 1 asub
  dup 0 get exch 1 get 7 -1 roll astore } bdef
/compute_transform {
  dmat dtri tri_to_matrix tmat1 invertmatrix 
  smat stri tri_to_matrix tmat2 concatmatrix } bdef
/ds {stri astore pop} bdef
/dt {dtri astore pop} bdef
/db {2 copy /cols xdef /rows xdef mul dup 3 mul string
  currentfile 
  3 index 0 eq {/ASCIIHexDecode filter}
  {/ASCII85Decode filter 3 index 2 eq {/RunLengthDecode filter} if }
  ifelse exch readstring pop
  dup 0 3 index getinterval /rbmap xdef
  dup 2 index dup getinterval /gbmap xdef
  1 index dup 2 mul exch getinterval /bbmap xdef pop pop}bdef
/it {gs np dtri aload pop moveto lineto lineto cp c
  cols rows 8 compute_transform 
  rbmap gbmap bbmap true 3 colorimage gr}bdef
/il {newpath moveto lineto stroke}bdef
currentdict end def
%%EndProlog

%%BeginSetup
MathWorks begin

0 cap

end
%%EndSetup

%%Page: 1 1
%%BeginPageSetup
%%PageBoundingBox:    -1    44   614   748
MathWorks begin
bpage
%%EndPageSetup

%%BeginObject: obj1
bplot

/dpi2point 12 def
portraitMode -0012 8976 csm

    0     0  7391  8439 rc
87 dict begin %Colortable dictionary
/c0 { 0.000000 0.000000 0.000000 sr} bdef
/c1 { 1.000000 1.000000 1.000000 sr} bdef
/c2 { 0.900000 0.000000 0.000000 sr} bdef
/c3 { 0.000000 0.820000 0.000000 sr} bdef
/c4 { 0.000000 0.000000 0.800000 sr} bdef
/c5 { 0.910000 0.820000 0.320000 sr} bdef
/c6 { 1.000000 0.260000 0.820000 sr} bdef
/c7 { 0.000000 0.820000 0.820000 sr} bdef
c0
1 j
1 sg
   0    0 7392 8440 rf
6 w
0 6878 5728 0 0 -6878 961 7511 4 MP
PP
-5728 0 0 6878 5728 0 0 -6878 961 7511 5 MP stroke
4 w
DO
0 sg
 961 7511 mt  961  633 L
 961  633 mt  961  633 L
2870 7511 mt 2870  633 L
2870  633 mt 2870  633 L
4779 7511 mt 4779  633 L
4779  633 mt 4779  633 L
6689 7511 mt 6689  633 L
6689  633 mt 6689  633 L
 961 7319 mt 6689 7319 L
6689 7319 mt 6689 7319 L
 961 6364 mt 6689 6364 L
6689 6364 mt 6689 6364 L
 961 5409 mt 6689 5409 L
6689 5409 mt 6689 5409 L
 961 4454 mt 6689 4454 L
6689 4454 mt 6689 4454 L
 961 3498 mt 6689 3498 L
6689 3498 mt 6689 3498 L
 961 2543 mt 6689 2543 L
6689 2543 mt 6689 2543 L
 961 1588 mt 6689 1588 L
6689 1588 mt 6689 1588 L
 961  633 mt 6689  633 L
6689  633 mt 6689  633 L
SO
6 w
 961 7511 mt 6689 7511 L
 961  633 mt 6689  633 L
 961 7511 mt  961  633 L
6689 7511 mt 6689  633 L
 961 7511 mt 6689 7511 L
 961 7511 mt  961  633 L
 961 7511 mt  961 7442 L
 961  633 mt  961  701 L
%%IncludeResource: font Helvetica
/Helvetica /ISOLatin1Encoding 120 FMSR

 928 7656 mt 
(0) s
2870 7511 mt 2870 7442 L
2870  633 mt 2870  701 L
2837 7656 mt 
(5) s
4779 7511 mt 4779 7442 L
4779  633 mt 4779  701 L
4713 7656 mt 
(10) s
6689 7511 mt 6689 7442 L
6689  633 mt 6689  701 L
6623 7656 mt 
(15) s
 961 7319 mt 1029 7319 L
6689 7319 mt 6620 7319 L
 726 7363 mt 
(500) s
 961 6364 mt 1029 6364 L
6689 6364 mt 6620 6364 L
 660 6408 mt 
(1000) s
 961 5409 mt 1029 5409 L
6689 5409 mt 6620 5409 L
 660 5453 mt 
(1500) s
 961 4454 mt 1029 4454 L
6689 4454 mt 6620 4454 L
 660 4498 mt 
(2000) s
 961 3498 mt 1029 3498 L
6689 3498 mt 6620 3498 L
 660 3542 mt 
(2500) s
 961 2543 mt 1029 2543 L
6689 2543 mt 6620 2543 L
 660 2587 mt 
(3000) s
 961 1588 mt 1029 1588 L
6689 1588 mt 6620 1588 L
 660 1632 mt 
(3500) s
 961  633 mt 1029  633 L
6689  633 mt 6620  633 L
 660  677 mt 
(4000) s
 961 7511 mt 6689 7511 L
 961  633 mt 6689  633 L
 961 7511 mt  961  633 L
6689 7511 mt 6689  633 L
%%IncludeResource: font Helvetica
/Helvetica /ISOLatin1Encoding 96 FMSR

1322  204 mt 
(n) s
%%IncludeResource: font Helvetica
/Helvetica /ISOLatin1Encoding 120 FMSR

1375  144 mt 
(S) s
%%IncludeResource: font Helvetica
/Helvetica /ISOLatin1Encoding 96 FMSR

1455  204 mt 
(l) s
%%IncludeResource: font Helvetica
/Helvetica /ISOLatin1Encoding 120 FMSR

1476  144 mt 
( mode frequencies for spherical shell of fluid enclosed bet\
ween inner and outer solid shells : ) s
2860  314 mt 
(r) s
%%IncludeResource: font Helvetica
/Helvetica /ISOLatin1Encoding 96 FMSR

2899  374 mt 
(i) s
%%IncludeResource: font Helvetica
/Helvetica /ISOLatin1Encoding 120 FMSR

2920  314 mt 
(=0.05, lambda) s
%%IncludeResource: font Helvetica
/Helvetica /ISOLatin1Encoding 96 FMSR

3683  374 mt 
(i) s
%%IncludeResource: font Helvetica
/Helvetica /ISOLatin1Encoding 120 FMSR

3704  314 mt 
(=0, kappa) s
%%IncludeResource: font Helvetica
/Helvetica /ISOLatin1Encoding 96 FMSR

4234  374 mt 
(0) s
4287  374 mt 
(i) s
%%IncludeResource: font Helvetica
/Helvetica /ISOLatin1Encoding 120 FMSR

4308  314 mt 
(=0, nu) s
%%IncludeResource: font Helvetica
/Helvetica /ISOLatin1Encoding 96 FMSR

4643  374 mt 
(i) s
%%IncludeResource: font Helvetica
/Helvetica /ISOLatin1Encoding 120 FMSR

4664  314 mt 
(=1) s
2334  484 mt 
(r) s
%%IncludeResource: font Helvetica
/Helvetica /ISOLatin1Encoding 96 FMSR

2373  544 mt 
(o) s
%%IncludeResource: font Helvetica
/Helvetica /ISOLatin1Encoding 120 FMSR

2426  484 mt 
(=0.223 lambda) s
%%IncludeResource: font Helvetica
/Helvetica /ISOLatin1Encoding 96 FMSR

3223  544 mt 
(o) s
%%IncludeResource: font Helvetica
/Helvetica /ISOLatin1Encoding 120 FMSR

3276  484 mt 
(=0.10045, kappa) s
%%IncludeResource: font Helvetica
/Helvetica /ISOLatin1Encoding 96 FMSR

4173  544 mt 
(0) s
4226  544 mt 
(o) s
%%IncludeResource: font Helvetica
/Helvetica /ISOLatin1Encoding 120 FMSR

4279  484 mt 
(=0.073094, nu) s
%%IncludeResource: font Helvetica
/Helvetica /ISOLatin1Encoding 96 FMSR

5048  544 mt 
(o) s
%%IncludeResource: font Helvetica
/Helvetica /ISOLatin1Encoding 120 FMSR

5101  484 mt 
(=0.4) s
3208 7799 mt 
(mode angular number l) s
 578 5165 mt  -90 rotate
(mode frequency \(Hz\) \(csound = 340 m/s\)) s
90 rotate
gs 961 633 5729 6879 rc
gr

0 j
-35 -26 13 -41 -36 24 -35 -24 13 41 -35 26 43 0 14 41 
15 -41 43 0 903 1730 11 MP
DP
gs 961 633 5729 6879 rc
gr

0 -94 -94 0 0 94 94 0 914 3164 5 MP
/c8 { 0.000000 1.000000 0.000000 sr} bdef
c8
DP
0 -94 -94 0 0 94 94 0 1295 1001 5 MP
DP
gs 961 633 5729 6879 rc
gr

69 119 -138 0 69 -119 961 4743 4 MP
/c9 { 1.000000 0.000000 1.000000 sr} bdef
c9
DP
69 119 -138 0 69 -119 1342 2596 4 MP
DP
69 119 -138 0 69 -119 1724 1928 4 MP
DP
69 119 -138 0 69 -119 2106 1411 4 MP
DP
gs 961 633 5729 6879 rc
gr

/c10 { 1.000000 0.000000 0.000000 sr} bdef
c10
 901 5131 mt 1021 5131 L
 961 5071 mt  961 5191 L
1282 4418 mt 1402 4418 L
1342 4358 mt 1342 4478 L
1664 3362 mt 1784 3362 L
1724 3302 mt 1724 3422 L
2046 2721 mt 2166 2721 L
2106 2661 mt 2106 2781 L
2428 2107 mt 2548 2107 L
2488 2047 mt 2488 2167 L
2810 1506 mt 2930 1506 L
2870 1446 mt 2870 1566 L
3192  916 mt 3312  916 L
3252  856 mt 3252  976 L
gs 961 633 5729 6879 rc
gr

/c11 { 0.000000 0.000000 1.000000 sr} bdef
c11
 919 6158 mt 1003 6242 L
1003 6158 mt  919 6242 L
1300 5482 mt 1384 5566 L
1384 5482 mt 1300 5566 L
1682 4848 mt 1766 4932 L
1766 4848 mt 1682 4932 L
2064 4247 mt 2148 4331 L
2148 4247 mt 2064 4331 L
2446 3664 mt 2530 3748 L
2530 3664 mt 2446 3748 L
2828 3094 mt 2912 3178 L
2912 3094 mt 2828 3178 L
3210 2534 mt 3294 2618 L
3294 2534 mt 3210 2618 L
3592 1981 mt 3676 2065 L
3676 1981 mt 3592 2065 L
3973 1435 mt 4057 1519 L
4057 1435 mt 3973 1519 L
4355  893 mt 4439  977 L
4439  893 mt 4355  977 L
gs 961 633 5729 6879 rc
gr

0 sg
  60   60 1342 7296 FO
  60   60 1724 7082 FO
  60   60 2106 6138 FO
  60   60 2488 5623 FO
  60   60 2870 5114 FO
  60   60 3252 4610 FO
  60   60 3634 4110 FO
  60   60 4015 3613 FO
  60   60 4397 3119 FO
  60   60 4779 2627 FO
  60   60 5161 2136 FO
  60   60 5543 1648 FO
  60   60 5925 1160 FO
  60   60 6307  674 FO
gs 961 633 5729 6879 rc
gr

 944 7554 mt 
( ) s
6673  675 mt 
( ) s
gs 961 633 5729 6879 rc
gr

-21 -16 8 -25 -22 15 -21 -15 8 25 -21 16 26 0 8 24 
9 -24 26 0 926 626 11 MP
gs
PP
gr
DP
gs 961 633 5729 6879 rc
gr

0 -58 -58 0 0 58 58 0 932 2449 5 MP
c8
gs
PP
gr
DP
gs 961 633 5729 6879 rc
gr

0 -58 -58 0 0 58 58 0 1695 1873 5 MP
gs
PP
gr
DP
gs 961 633 5729 6879 rc
gr

41 71 -82 0 41 -71 961 4329 4 MP
c9
gs
PP
gr
DP
41 71 -82 0 41 -71 1342 2334 4 MP
gs
PP
gr
DP
41 71 -82 0 41 -71 1724 3052 4 MP
gs
PP
gr
DP
41 71 -82 0 41 -71 2106 1421 4 MP
gs
PP
gr
DP
41 71 -82 0 41 -71 2488 712 4 MP
gs
PP
gr
DP
gs 961 633 5729 6879 rc
24 w
gr

24 w
c10
 925 5115 mt  997 5115 L
 961 5079 mt  961 5151 L
1306 4420 mt 1378 4420 L
1342 4384 mt 1342 4456 L
1688 3470 mt 1760 3470 L
1724 3434 mt 1724 3506 L
2070 2793 mt 2142 2793 L
2106 2757 mt 2106 2829 L
2452 2133 mt 2524 2133 L
2488 2097 mt 2488 2169 L
2834 1514 mt 2906 1514 L
2870 1478 mt 2870 1550 L
3216  918 mt 3288  918 L
3252  882 mt 3252  954 L
gs 961 633 5729 6879 rc
gr

c11
 936 6058 mt  986 6108 L
 986 6058 mt  936 6108 L
1317 5573 mt 1367 5623 L
1367 5573 mt 1317 5623 L
1699 4913 mt 1749 4963 L
1749 4913 mt 1699 4963 L
2081 4278 mt 2131 4328 L
2131 4278 mt 2081 4328 L
2463 3684 mt 2513 3734 L
2513 3684 mt 2463 3734 L
2845 3112 mt 2895 3162 L
2895 3112 mt 2845 3162 L
3227 2551 mt 3277 2601 L
3277 2551 mt 3227 2601 L
3609 1998 mt 3659 2048 L
3659 1998 mt 3609 2048 L
3990 1452 mt 4040 1502 L
4040 1452 mt 3990 1502 L
4372  910 mt 4422  960 L
4422  910 mt 4372  960 L
gs 961 633 5729 6879 rc
6 w
gr

6 w
0 sg
  36   36 1342 7312 PO
  36   36 1724 7082 PO
  36   36 2106 6138 PO
  36   36 2488 5623 PO
  36   36 2870 5114 PO
  36   36 3252 4610 PO
  36   36 3634 4110 PO
  36   36 4015 3613 PO
  36   36 4397 3119 PO
  36   36 4779 2627 PO
  36   36 5161 2136 PO
  36   36 5543 1648 PO
  36   36 5925 1160 PO
  36   36 6307  674 PO
  36   36 1342 7312 FO
  36   36 1724 7082 FO
  36   36 2106 6138 FO
  36   36 2488 5623 FO
  36   36 2870 5114 FO
  36   36 3252 4610 FO
  36   36 3634 4110 FO
  36   36 4015 3613 FO
  36   36 4397 3119 FO
  36   36 4779 2627 FO
  36   36 5161 2136 FO
  36   36 5543 1648 FO
  36   36 5925 1160 FO
  36   36 6307  674 FO
gs 961 633 5729 6879 rc
gr

1 sg
0 2073 1282 0 0 -2073 4976 7019 4 MP
PP
-1282 0 0 2073 1282 0 0 -2073 4976 7019 5 MP stroke
4 w
DO
SO
6 w
0 sg
4976 7019 mt 6258 7019 L
4976 4946 mt 6258 4946 L
4976 7019 mt 4976 4946 L
6258 7019 mt 6258 4946 L
4976 7019 mt 6258 7019 L
4976 7019 mt 4976 4946 L
4976 7019 mt 6258 7019 L
4976 4946 mt 6258 4946 L
4976 7019 mt 4976 4946 L
6258 7019 mt 6258 4946 L
5445 5094 mt 
(no inner n=5) s
gs 4976 4946 1283 2074 rc
gr

gs 5107 4930 243 243 rc
-35 -26 13 -41 -36 24 -35 -24 13 41 -35 26 43 0 14 41 
15 -41 43 0 5170 5032 11 MP
DP
gr

gs 4976 4946 1283 2074 rc
gr

5445 5263 mt 
(4) s
gs 4976 4946 1283 2074 rc
gs 5107 5099 243 243 rc
0 -94 -94 0 0 94 94 0 5181 5173 5 MP
c8
DP
gr

c8
gr

c8
0 sg
5445 5432 mt 
(3) s
gs 4976 4946 1283 2074 rc
gs 5107 5269 243 243 rc
69 119 -138 0 69 -119 5228 5469 4 MP
c9
DP
gr

c9
gr

c9
0 sg
5445 5602 mt 
(2) s
gs 4976 4946 1283 2074 rc
gs 5107 5438 243 243 rc
c10
5168 5559 mt 5288 5559 L
5228 5499 mt 5228 5619 L
gr

c10
gr

c10
0 sg
5445 5771 mt 
(1) s
gs 4976 4946 1283 2074 rc
gs 5107 5607 243 243 rc
c11
5186 5686 mt 5270 5770 L
5270 5686 mt 5186 5770 L
gr

c11
gr

c11
0 sg
5445 5940 mt 
(0) s
gs 4976 4946 1283 2074 rc
gs 5107 5776 243 243 rc
  60   60 5228 5897 FO
gr

gr

5445 6110 mt 
(with inner n=5) s
gs 4976 4946 1283 2074 rc
gs 5155 5994 147 147 rc
-21 -16 8 -25 -22 15 -21 -15 8 25 -21 16 26 0 8 24 
9 -24 26 0 5193 6055 11 MP
gs
PP
gr
DP
gr

gr

5445 6279 mt 
(4) s
gs 4976 4946 1283 2074 rc
gs 5155 6163 147 147 rc
0 -58 -58 0 0 58 58 0 5199 6207 5 MP
c8
gs
PP
gr
DP
gr

c8
gr

c8
0 sg
5445 6448 mt 
(3) s
gs 4976 4946 1283 2074 rc
gs 5155 6332 147 147 rc
41 71 -82 0 41 -71 5228 6452 4 MP
c9
gs
PP
gr
DP
gr

c9
gr

c9
0 sg
5445 6618 mt 
(2) s
gs 4976 4946 1283 2074 rc
24 w
gs 5130 6476 197 197 rc
c10
5192 6574 mt 5264 6574 L
5228 6538 mt 5228 6610 L
gr

c10
gr

24 w
c10
0 sg
5445 6787 mt 
(1) s
gs 4976 4946 1283 2074 rc
gs 5130 6646 197 197 rc
c11
5203 6719 mt 5253 6769 L
5253 6719 mt 5203 6769 L
gr

c11
gr

c11
0 sg
5445 6956 mt 
(0) s
gs 4976 4946 1283 2074 rc
6 w
gs 5155 6840 147 147 rc
  36   36 5228 6913 PO
  36   36 5228 6913 FO
gr

gr

6 w

end %%Color Dict

eplot
%%EndObject

epage
end

showpage

%%Trailer
%%EOF
