%!PS-Adobe-3.0 EPSF-3.0
%%Creator: (MATLAB, The Mathworks, Inc. Version 9.4.0.813654 \(R2018a\). Operating System: Linux)
%%Title: /data/geodynamo/natafh/Dynamo/Acoustics/elastic_shell/Figures/ZoRo2/0S2.eps
%%CreationDate: 2018-12-21T13:19:05
%%Pages: (atend)
%%BoundingBox: 0 0 844 531
%%LanguageLevel: 3
%%EndComments
%%BeginProlog
%%BeginResource: procset (Apache XML Graphics Std ProcSet) 1.2 0
%%Version: 1.2 0
%%Copyright: (Copyright 2001-2003,2010 The Apache Software Foundation. License terms: http://www.apache.org/licenses/LICENSE-2.0)
/bd{bind def}bind def
/ld{load def}bd
/GR/grestore ld
/GS/gsave ld
/RM/rmoveto ld
/C/curveto ld
/t/show ld
/L/lineto ld
/ML/setmiterlimit ld
/CT/concat ld
/f/fill ld
/N/newpath ld
/S/stroke ld
/CC/setcmykcolor ld
/A/ashow ld
/cp/closepath ld
/RC/setrgbcolor ld
/LJ/setlinejoin ld
/GC/setgray ld
/LW/setlinewidth ld
/M/moveto ld
/re {4 2 roll M
1 index 0 rlineto
0 exch rlineto
neg 0 rlineto
cp } bd
/_ctm matrix def
/_tm matrix def
/BT { _ctm currentmatrix pop matrix _tm copy pop 0 0 moveto } bd
/ET { _ctm setmatrix } bd
/iTm { _ctm setmatrix _tm concat } bd
/Tm { _tm astore pop iTm 0 0 moveto } bd
/ux 0.0 def
/uy 0.0 def
/F {
  /Tp exch def
  /Tf exch def
  Tf findfont Tp scalefont setfont
  /cf Tf def  /cs Tp def
} bd
/ULS {currentpoint /uy exch def /ux exch def} bd
/ULE {
  /Tcx currentpoint pop def
  gsave
  newpath
  cf findfont cs scalefont dup
  /FontMatrix get 0 get /Ts exch def /FontInfo get dup
  /UnderlinePosition get Ts mul /To exch def
  /UnderlineThickness get Ts mul /Tt exch def
  ux uy To add moveto  Tcx uy To add lineto
  Tt setlinewidth stroke
  grestore
} bd
/OLE {
  /Tcx currentpoint pop def
  gsave
  newpath
  cf findfont cs scalefont dup
  /FontMatrix get 0 get /Ts exch def /FontInfo get dup
  /UnderlinePosition get Ts mul /To exch def
  /UnderlineThickness get Ts mul /Tt exch def
  ux uy To add cs add moveto Tcx uy To add cs add lineto
  Tt setlinewidth stroke
  grestore
} bd
/SOE {
  /Tcx currentpoint pop def
  gsave
  newpath
  cf findfont cs scalefont dup
  /FontMatrix get 0 get /Ts exch def /FontInfo get dup
  /UnderlinePosition get Ts mul /To exch def
  /UnderlineThickness get Ts mul /Tt exch def
  ux uy To add cs 10 mul 26 idiv add moveto Tcx uy To add cs 10 mul 26 idiv add lineto
  Tt setlinewidth stroke
  grestore
} bd
/QT {
/Y22 exch store
/X22 exch store
/Y21 exch store
/X21 exch store
currentpoint
/Y21 load 2 mul add 3 div exch
/X21 load 2 mul add 3 div exch
/X21 load 2 mul /X22 load add 3 div
/Y21 load 2 mul /Y22 load add 3 div
/X22 load /Y22 load curveto
} bd
/SSPD {
dup length /d exch dict def
{
/v exch def
/k exch def
currentpagedevice k known {
/cpdv currentpagedevice k get def
v cpdv ne {
/upd false def
/nullv v type /nulltype eq def
/nullcpdv cpdv type /nulltype eq def
nullv nullcpdv or
{
/upd true def
} {
/sametype v type cpdv type eq def
sametype {
v type /arraytype eq {
/vlen v length def
/cpdvlen cpdv length def
vlen cpdvlen eq {
0 1 vlen 1 sub {
/i exch def
/obj v i get def
/cpdobj cpdv i get def
obj cpdobj ne {
/upd true def
exit
} if
} for
} {
/upd true def
} ifelse
} {
v type /dicttype eq {
v {
/dv exch def
/dk exch def
/cpddv cpdv dk get def
dv cpddv ne {
/upd true def
exit
} if
} forall
} {
/upd true def
} ifelse
} ifelse
} if
} ifelse
upd true eq {
d k v put
} if
} if
} if
} forall
d length 0 gt {
d setpagedevice
} if
} bd
/RE { % /NewFontName [NewEncodingArray] /FontName RE -
  findfont dup length dict begin
  {
    1 index /FID ne
    {def} {pop pop} ifelse
  } forall
  /Encoding exch def
  /FontName 1 index def
  currentdict definefont pop
  end
} bind def
%%EndResource
%%BeginResource: procset (Apache XML Graphics EPS ProcSet) 1.0 0
%%Version: 1.0 0
%%Copyright: (Copyright 2002-2003 The Apache Software Foundation. License terms: http://www.apache.org/licenses/LICENSE-2.0)
/BeginEPSF { %def
/b4_Inc_state save def         % Save state for cleanup
/dict_count countdictstack def % Count objects on dict stack
/op_count count 1 sub def      % Count objects on operand stack
userdict begin                 % Push userdict on dict stack
/showpage { } def              % Redefine showpage, { } = null proc
0 setgray 0 setlinecap         % Prepare graphics state
1 setlinewidth 0 setlinejoin
10 setmiterlimit [ ] 0 setdash newpath
/languagelevel where           % If level not equal to 1 then
{pop languagelevel             % set strokeadjust and
1 ne                           % overprint to their defaults.
{false setstrokeadjust false setoverprint
} if
} if
} bd
/EndEPSF { %def
count op_count sub {pop} repeat            % Clean up stacks
countdictstack dict_count sub {end} repeat
b4_Inc_state restore
} bd
%%EndResource
%FOPBeginFontDict
%%IncludeResource: font Courier-Oblique
%%IncludeResource: font Courier-BoldOblique
%%IncludeResource: font Courier-Bold
%%IncludeResource: font ZapfDingbats
%%IncludeResource: font Symbol
%%IncludeResource: font Helvetica
%%IncludeResource: font Helvetica-Oblique
%%IncludeResource: font Helvetica-Bold
%%IncludeResource: font Helvetica-BoldOblique
%%IncludeResource: font Times-Roman
%%IncludeResource: font Times-Italic
%%IncludeResource: font Times-Bold
%%IncludeResource: font Times-BoldItalic
%%IncludeResource: font Courier
%FOPEndFontDict
%%BeginResource: encoding WinAnsiEncoding
/WinAnsiEncoding [
/.notdef /.notdef /.notdef /.notdef /.notdef
/.notdef /.notdef /.notdef /.notdef /.notdef
/.notdef /.notdef /.notdef /.notdef /.notdef
/.notdef /.notdef /.notdef /.notdef /.notdef
/.notdef /.notdef /.notdef /.notdef /.notdef
/.notdef /.notdef /.notdef /.notdef /.notdef
/.notdef /.notdef /space /exclam /quotedbl
/numbersign /dollar /percent /ampersand /quotesingle
/parenleft /parenright /asterisk /plus /comma
/hyphen /period /slash /zero /one
/two /three /four /five /six
/seven /eight /nine /colon /semicolon
/less /equal /greater /question /at
/A /B /C /D /E
/F /G /H /I /J
/K /L /M /N /O
/P /Q /R /S /T
/U /V /W /X /Y
/Z /bracketleft /backslash /bracketright /asciicircum
/underscore /quoteleft /a /b /c
/d /e /f /g /h
/i /j /k /l /m
/n /o /p /q /r
/s /t /u /v /w
/x /y /z /braceleft /bar
/braceright /asciitilde /bullet /Euro /bullet
/quotesinglbase /florin /quotedblbase /ellipsis /dagger
/daggerdbl /circumflex /perthousand /Scaron /guilsinglleft
/OE /bullet /Zcaron /bullet /bullet
/quoteleft /quoteright /quotedblleft /quotedblright /bullet
/endash /emdash /asciitilde /trademark /scaron
/guilsinglright /oe /bullet /zcaron /Ydieresis
/space /exclamdown /cent /sterling /currency
/yen /brokenbar /section /dieresis /copyright
/ordfeminine /guillemotleft /logicalnot /sfthyphen /registered
/macron /degree /plusminus /twosuperior /threesuperior
/acute /mu /paragraph /middot /cedilla
/onesuperior /ordmasculine /guillemotright /onequarter /onehalf
/threequarters /questiondown /Agrave /Aacute /Acircumflex
/Atilde /Adieresis /Aring /AE /Ccedilla
/Egrave /Eacute /Ecircumflex /Edieresis /Igrave
/Iacute /Icircumflex /Idieresis /Eth /Ntilde
/Ograve /Oacute /Ocircumflex /Otilde /Odieresis
/multiply /Oslash /Ugrave /Uacute /Ucircumflex
/Udieresis /Yacute /Thorn /germandbls /agrave
/aacute /acircumflex /atilde /adieresis /aring
/ae /ccedilla /egrave /eacute /ecircumflex
/edieresis /igrave /iacute /icircumflex /idieresis
/eth /ntilde /ograve /oacute /ocircumflex
/otilde /odieresis /divide /oslash /ugrave
/uacute /ucircumflex /udieresis /yacute /thorn
/ydieresis
] def
%%EndResource
%FOPBeginFontReencode
/Courier-Oblique findfont
dup length dict begin
  {1 index /FID ne {def} {pop pop} ifelse} forall
  /Encoding WinAnsiEncoding def
  currentdict
end
/Courier-Oblique exch definefont pop
/Courier-BoldOblique findfont
dup length dict begin
  {1 index /FID ne {def} {pop pop} ifelse} forall
  /Encoding WinAnsiEncoding def
  currentdict
end
/Courier-BoldOblique exch definefont pop
/Courier-Bold findfont
dup length dict begin
  {1 index /FID ne {def} {pop pop} ifelse} forall
  /Encoding WinAnsiEncoding def
  currentdict
end
/Courier-Bold exch definefont pop
/Helvetica findfont
dup length dict begin
  {1 index /FID ne {def} {pop pop} ifelse} forall
  /Encoding WinAnsiEncoding def
  currentdict
end
/Helvetica exch definefont pop
/Helvetica-Oblique findfont
dup length dict begin
  {1 index /FID ne {def} {pop pop} ifelse} forall
  /Encoding WinAnsiEncoding def
  currentdict
end
/Helvetica-Oblique exch definefont pop
/Helvetica-Bold findfont
dup length dict begin
  {1 index /FID ne {def} {pop pop} ifelse} forall
  /Encoding WinAnsiEncoding def
  currentdict
end
/Helvetica-Bold exch definefont pop
/Helvetica-BoldOblique findfont
dup length dict begin
  {1 index /FID ne {def} {pop pop} ifelse} forall
  /Encoding WinAnsiEncoding def
  currentdict
end
/Helvetica-BoldOblique exch definefont pop
/Times-Roman findfont
dup length dict begin
  {1 index /FID ne {def} {pop pop} ifelse} forall
  /Encoding WinAnsiEncoding def
  currentdict
end
/Times-Roman exch definefont pop
/Times-Italic findfont
dup length dict begin
  {1 index /FID ne {def} {pop pop} ifelse} forall
  /Encoding WinAnsiEncoding def
  currentdict
end
/Times-Italic exch definefont pop
/Times-Bold findfont
dup length dict begin
  {1 index /FID ne {def} {pop pop} ifelse} forall
  /Encoding WinAnsiEncoding def
  currentdict
end
/Times-Bold exch definefont pop
/Times-BoldItalic findfont
dup length dict begin
  {1 index /FID ne {def} {pop pop} ifelse} forall
  /Encoding WinAnsiEncoding def
  currentdict
end
/Times-BoldItalic exch definefont pop
/Courier findfont
dup length dict begin
  {1 index /FID ne {def} {pop pop} ifelse} forall
  /Encoding WinAnsiEncoding def
  currentdict
end
/Courier exch definefont pop
%FOPEndFontReencode
%%EndProlog
%%Page: 1 1
%%PageBoundingBox: 0 0 844 531
%%BeginPageSetup
[1 0 0 -1 0 531] CT
%%EndPageSetup
GS
[0.75 0 0 0.75 0 0] CT
1 GC
N
0 0 1125 708 re
f
GR
GS
[0.75 0 0 0.75 0 0] CT
1 GC
N
0 0 1125 708 re
f
GR
GS
[0.75 0 0 0.75 0 0] CT
1 GC
N
146 206 M
1018 206 L
1018 74 L
146 74 L
cp
f
GR
GS
[0.75 0 0 0.75 0 0] CT
0.149 GC
2 setlinecap
1 LJ
0.667 LW
N
146 206 M
1018 206 L
S
GR
GS
[0.75 0 0 0.75 0 0] CT
0.149 GC
2 setlinecap
1 LJ
0.667 LW
N
146 74 M
1018 74 L
S
GR
GS
[0.75 0 0 0.75 0 0] CT
0.149 GC
2 setlinecap
1 LJ
0.667 LW
N
193.135 206 M
193.135 197.28 L
S
GR
GS
[0.75 0 0 0.75 0 0] CT
0.149 GC
2 setlinecap
1 LJ
0.667 LW
N
310.973 206 M
310.973 197.28 L
S
GR
GS
[0.75 0 0 0.75 0 0] CT
0.149 GC
2 setlinecap
1 LJ
0.667 LW
N
428.811 206 M
428.811 197.28 L
S
GR
GS
[0.75 0 0 0.75 0 0] CT
0.149 GC
2 setlinecap
1 LJ
0.667 LW
N
546.649 206 M
546.649 197.28 L
S
GR
GS
[0.75 0 0 0.75 0 0] CT
0.149 GC
2 setlinecap
1 LJ
0.667 LW
N
664.487 206 M
664.487 197.28 L
S
GR
GS
[0.75 0 0 0.75 0 0] CT
0.149 GC
2 setlinecap
1 LJ
0.667 LW
N
782.324 206 M
782.324 197.28 L
S
GR
GS
[0.75 0 0 0.75 0 0] CT
0.149 GC
2 setlinecap
1 LJ
0.667 LW
N
900.162 206 M
900.162 197.28 L
S
GR
GS
[0.75 0 0 0.75 0 0] CT
0.149 GC
2 setlinecap
1 LJ
0.667 LW
N
1018 206 M
1018 197.28 L
S
GR
GS
[0.75 0 0 0.75 0 0] CT
0.149 GC
2 setlinecap
1 LJ
0.667 LW
N
193.135 74 M
193.135 82.72 L
S
GR
GS
[0.75 0 0 0.75 0 0] CT
0.149 GC
2 setlinecap
1 LJ
0.667 LW
N
310.973 74 M
310.973 82.72 L
S
GR
GS
[0.75 0 0 0.75 0 0] CT
0.149 GC
2 setlinecap
1 LJ
0.667 LW
N
428.811 74 M
428.811 82.72 L
S
GR
GS
[0.75 0 0 0.75 0 0] CT
0.149 GC
2 setlinecap
1 LJ
0.667 LW
N
546.649 74 M
546.649 82.72 L
S
GR
GS
[0.75 0 0 0.75 0 0] CT
0.149 GC
2 setlinecap
1 LJ
0.667 LW
N
664.487 74 M
664.487 82.72 L
S
GR
GS
[0.75 0 0 0.75 0 0] CT
0.149 GC
2 setlinecap
1 LJ
0.667 LW
N
782.324 74 M
782.324 82.72 L
S
GR
GS
[0.75 0 0 0.75 0 0] CT
0.149 GC
2 setlinecap
1 LJ
0.667 LW
N
900.162 74 M
900.162 82.72 L
S
GR
GS
[0.75 0 0 0.75 0 0] CT
0.149 GC
2 setlinecap
1 LJ
0.667 LW
N
1018 74 M
1018 82.72 L
S
GR
GS
[0.75 0 0 0.75 144.85135 157.90001] CT
0.149 GC
/Helvetica 12.667 F
GS
[1 0 0 1 0 0] CT
-12.5 12 moveto 
1 -1 scale
(500) t 
GR
GR
GS
[0.75 0 0 0.75 233.22972 157.90001] CT
0.149 GC
/Helvetica 12.667 F
GS
[1 0 0 1 0 0] CT
-16.5 12 moveto 
1 -1 scale
(1000) t 
GR
GR
GS
[0.75 0 0 0.75 321.60812 157.90001] CT
0.149 GC
/Helvetica 12.667 F
GS
[1 0 0 1 0 0] CT
-16.5 12 moveto 
1 -1 scale
(1500) t 
GR
GR
GS
[0.75 0 0 0.75 409.98647 157.90001] CT
0.149 GC
/Helvetica 12.667 F
GS
[1 0 0 1 0 0] CT
-16.5 12 moveto 
1 -1 scale
(2000) t 
GR
GR
GS
[0.75 0 0 0.75 498.36488 157.90001] CT
0.149 GC
/Helvetica 12.667 F
GS
[1 0 0 1 0 0] CT
-16.5 12 moveto 
1 -1 scale
(2500) t 
GR
GR
GS
[0.75 0 0 0.75 586.74326 157.90001] CT
0.149 GC
/Helvetica 12.667 F
GS
[1 0 0 1 0 0] CT
-16.5 12 moveto 
1 -1 scale
(3000) t 
GR
GR
GS
[0.75 0 0 0.75 675.12163 157.90001] CT
0.149 GC
/Helvetica 12.667 F
GS
[1 0 0 1 0 0] CT
-16.5 12 moveto 
1 -1 scale
(3500) t 
GR
GR
GS
[0.75 0 0 0.75 763.5 157.90001] CT
0.149 GC
/Helvetica 12.667 F
GS
[1 0 0 1 0 0] CT
-16.5 12 moveto 
1 -1 scale
(4000) t 
GR
GR
GS
[0.75 0 0 0.75 436.50032 169.89999] CT
0.149 GC
/Helvetica 13.933 F
GS
[1 0 0 1 0 0] CT
-73.5 13 moveto 
1 -1 scale
(mode frequency \(Hz\)) t 
GR
GR
GS
[0.75 0 0 0.75 0 0] CT
0.149 GC
2 setlinecap
1 LJ
0.667 LW
N
146 206 M
146 74 L
S
GR
GS
[0.75 0 0 0.75 0 0] CT
0.149 GC
2 setlinecap
1 LJ
0.667 LW
N
1018 206 M
1018 74 L
S
GR
GS
[0.75 0 0 0.75 0 0] CT
0.149 GC
2 setlinecap
1 LJ
0.667 LW
N
146 206 M
154.72 206 L
S
GR
GS
[0.75 0 0 0.75 0 0] CT
0.149 GC
2 setlinecap
1 LJ
0.667 LW
N
146 162 M
154.72 162 L
S
GR
GS
[0.75 0 0 0.75 0 0] CT
0.149 GC
2 setlinecap
1 LJ
0.667 LW
N
146 118 M
154.72 118 L
S
GR
GS
[0.75 0 0 0.75 0 0] CT
0.149 GC
2 setlinecap
1 LJ
0.667 LW
N
146 74 M
154.72 74 L
S
GR
GS
[0.75 0 0 0.75 0 0] CT
0.149 GC
2 setlinecap
1 LJ
0.667 LW
N
1018 206 M
1009.28 206 L
S
GR
GS
[0.75 0 0 0.75 0 0] CT
0.149 GC
2 setlinecap
1 LJ
0.667 LW
N
1018 162 M
1009.28 162 L
S
GR
GS
[0.75 0 0 0.75 0 0] CT
0.149 GC
2 setlinecap
1 LJ
0.667 LW
N
1018 118 M
1009.28 118 L
S
GR
GS
[0.75 0 0 0.75 0 0] CT
0.149 GC
2 setlinecap
1 LJ
0.667 LW
N
1018 74 M
1009.28 74 L
S
GR
GS
[0.75 0 0 0.75 106.09999 154.5] CT
0.149 GC
/Helvetica 12.667 F
GS
[1 0 0 1 0 0] CT
-9 4.5 moveto 
1 -1 scale
(0) t 
GR
GR
GS
[0.75 0 0 0.75 106.09999 121.5] CT
0.149 GC
/Helvetica 12.667 F
GS
[1 0 0 1 0 0] CT
-9 4.5 moveto 
1 -1 scale
(5) t 
GR
GR
GS
[0.75 0 0 0.75 106.09999 88.5] CT
0.149 GC
/Helvetica 12.667 F
GS
[1 0 0 1 0 0] CT
-17 4.5 moveto 
1 -1 scale
(10) t 
GR
GR
GS
[0.75 0 0 0.75 106.09999 55.5] CT
0.149 GC
/Helvetica 12.667 F
GS
[1 0 0 1 0 0] CT
-17 4.5 moveto 
1 -1 scale
(15) t 
GR
GR
GS
[0 -0.75 0.75 0 90.85 104.99995] CT
0.149 GC
/Helvetica 13.933 F
GS
[1 0 0 1 0 0] CT
-52.5 -4 moveto 
1 -1 scale
(fake amplitude) t 
GR
GR
GS
[0.75 0 0 0.75 436.50041 53.54062] CT
/Helvetica-Bold 13.933 F
GS
[1 0 0 1 0 0] CT
-184 -4 moveto 
1 -1 scale
(degenerate SNRI multiplets for ZoRo2-rigid-air) t 
GR
GR
GS
[0.75 0 0 0.75 0 0] CT
0.149 GC
1 LJ
0.667 LW
N
146 206 M
1018 206 L
S
GR
GS
[0.75 0 0 0.75 158.21801 88.5] CT
10.0 ML
N
4 0 M
4 -2.209 2.209 -4 0 -4 C
-2.209 -4 -4 -2.209 -4 0 C
-4 2.209 -2.209 4 0 4 C
2.209 4 4 2.209 4 0 C
cp
S
GR
GS
[0.75 0 0 0.75 219.83066 88.5] CT
10.0 ML
N
4 0 M
4 -2.209 2.209 -4 0 -4 C
-2.209 -4 -4 -2.209 -4 0 C
-4 2.209 -2.209 4 0 4 C
2.209 4 4 2.209 4 0 C
cp
S
GR
GS
[0.75 0 0 0.75 277.11697 88.5] CT
10.0 ML
N
4 0 M
4 -2.209 2.209 -4 0 -4 C
-2.209 -4 -4 -2.209 -4 0 C
-4 2.209 -2.209 4 0 4 C
2.209 4 4 2.209 4 0 C
cp
S
GR
GS
[0.75 0 0 0.75 332.47735 88.5] CT
10.0 ML
N
4 0 M
4 -2.209 2.209 -4 0 -4 C
-2.209 -4 -4 -2.209 -4 0 C
-4 2.209 -2.209 4 0 4 C
2.209 4 4 2.209 4 0 C
cp
S
GR
GS
[0.75 0 0 0.75 386.72076 88.5] CT
10.0 ML
N
4 0 M
4 -2.209 2.209 -4 0 -4 C
-2.209 -4 -4 -2.209 -4 0 C
-4 2.209 -2.209 4 0 4 C
2.209 4 4 2.209 4 0 C
cp
S
GR
GS
[0.75 0 0 0.75 440.22464 88.5] CT
10.0 ML
N
4 0 M
4 -2.209 2.209 -4 0 -4 C
-2.209 -4 -4 -2.209 -4 0 C
-4 2.209 -2.209 4 0 4 C
2.209 4 4 2.209 4 0 C
cp
S
GR
GS
[0.75 0 0 0.75 493.1976 88.5] CT
10.0 ML
N
4 0 M
4 -2.209 2.209 -4 0 -4 C
-2.209 -4 -4 -2.209 -4 0 C
-4 2.209 -2.209 4 0 4 C
2.209 4 4 2.209 4 0 C
cp
S
GR
GS
[0.75 0 0 0.75 545.76837 88.5] CT
10.0 ML
N
4 0 M
4 -2.209 2.209 -4 0 -4 C
-2.209 -4 -4 -2.209 -4 0 C
-4 2.209 -2.209 4 0 4 C
2.209 4 4 2.209 4 0 C
cp
S
GR
GS
[0.75 0 0 0.75 598.02219 88.5] CT
10.0 ML
N
4 0 M
4 -2.209 2.209 -4 0 -4 C
-2.209 -4 -4 -2.209 -4 0 C
-4 2.209 -2.209 4 0 4 C
2.209 4 4 2.209 4 0 C
cp
S
GR
GS
[0.75 0 0 0.75 650.01878 88.5] CT
10.0 ML
N
4 0 M
4 -2.209 2.209 -4 0 -4 C
-2.209 -4 -4 -2.209 -4 0 C
-4 2.209 -2.209 4 0 4 C
2.209 4 4 2.209 4 0 C
cp
S
GR
GS
[0.75 0 0 0.75 701.80188 88.5] CT
10.0 ML
N
4 0 M
4 -2.209 2.209 -4 0 -4 C
-2.209 -4 -4 -2.209 -4 0 C
-4 2.209 -2.209 4 0 4 C
2.209 4 4 2.209 4 0 C
cp
S
GR
GS
[0.75 0 0 0.75 753.40425 88.5] CT
10.0 ML
N
4 0 M
4 -2.209 2.209 -4 0 -4 C
-2.209 -4 -4 -2.209 -4 0 C
-4 2.209 -2.209 4 0 4 C
2.209 4 4 2.209 4 0 C
cp
S
GR
GS
[0.75 0 0 0.75 0 0] CT
1 LJ
0.667 LW
N
210.957 206 M
210.957 118 L
S
GR
GS
[0.75 0 0 0.75 0 0] CT
1 LJ
0.667 LW
N
293.108 206 M
293.108 118 L
S
GR
GS
[0.75 0 0 0.75 0 0] CT
1 LJ
0.667 LW
N
369.489 206 M
369.489 118 L
S
GR
GS
[0.75 0 0 0.75 0 0] CT
1 LJ
0.667 LW
N
443.303 206 M
443.303 118 L
S
GR
GS
[0.75 0 0 0.75 0 0] CT
1 LJ
0.667 LW
N
515.628 206 M
515.628 118 L
S
GR
GS
[0.75 0 0 0.75 0 0] CT
1 LJ
0.667 LW
N
586.966 206 M
586.966 118 L
S
GR
GS
[0.75 0 0 0.75 0 0] CT
1 LJ
0.667 LW
N
657.597 206 M
657.597 118 L
S
GR
GS
[0.75 0 0 0.75 0 0] CT
1 LJ
0.667 LW
N
727.691 206 M
727.691 118 L
S
GR
GS
[0.75 0 0 0.75 0 0] CT
1 LJ
0.667 LW
N
797.363 206 M
797.363 118 L
S
GR
GS
[0.75 0 0 0.75 0 0] CT
1 LJ
0.667 LW
N
866.692 206 M
866.692 118 L
S
GR
GS
[0.75 0 0 0.75 0 0] CT
1 LJ
0.667 LW
N
935.736 206 M
935.736 118 L
S
GR
GS
[0.75 0 0 0.75 0 0] CT
1 LJ
0.667 LW
N
1004.539 206 M
1004.539 118 L
S
GR
GS
[0.75 0 0 0.75 47.25 87.75] CT
/Helvetica 10.667 F
GS
[1 0 0 1 0 0] CT
0 0 moveto 
1 -1 scale
(0) t 
GR
GR
GS
[0.75 0 0 0.75 52.5 83.25] CT
/Helvetica 13.333 F
GS
[1 0 0 1 0 0] CT
0 0 moveto 
1 -1 scale
(S) t 
GR
GR
GS
[0.75 0 0 0.75 59.25 87.75] CT
/Helvetica 10.667 F
GS
[1 0 0 1 0 0] CT
0 0 moveto 
1 -1 scale
(0) t 
GR
GR
GS
[0.75 0 0 0.75 149.25 87.75] CT
/Helvetica 10.667 F
GS
[1 0 0 1 0 0] CT
0 0 moveto 
1 -1 scale
(0) t 
GR
GR
GS
[0.75 0 0 0.75 154.5 83.25] CT
/Helvetica 13.333 F
GS
[1 0 0 1 0 0] CT
0 0 moveto 
1 -1 scale
(S) t 
GR
GR
GS
[0.75 0 0 0.75 161.25 87.75] CT
/Helvetica 10.667 F
GS
[1 0 0 1 0 0] CT
0 0 moveto 
1 -1 scale
(1) t 
GR
GR
GS
[0.75 0 0 0.75 210.75 87.75] CT
/Helvetica 10.667 F
GS
[1 0 0 1 0 0] CT
0 0 moveto 
1 -1 scale
(0) t 
GR
GR
GS
[0.75 0 0 0.75 216 83.25] CT
/Helvetica 13.333 F
GS
[1 0 0 1 0 0] CT
0 0 moveto 
1 -1 scale
(S) t 
GR
GR
GS
[0.75 0 0 0.75 222.75 87.75] CT
/Helvetica 10.667 F
GS
[1 0 0 1 0 0] CT
0 0 moveto 
1 -1 scale
(2) t 
GR
GR
GS
[0.75 0 0 0.75 267.75 87.75] CT
/Helvetica 10.667 F
GS
[1 0 0 1 0 0] CT
0 0 moveto 
1 -1 scale
(0) t 
GR
GR
GS
[0.75 0 0 0.75 273 83.25] CT
/Helvetica 13.333 F
GS
[1 0 0 1 0 0] CT
0 0 moveto 
1 -1 scale
(S) t 
GR
GR
GS
[0.75 0 0 0.75 279.75 87.75] CT
/Helvetica 10.667 F
GS
[1 0 0 1 0 0] CT
0 0 moveto 
1 -1 scale
(3) t 
GR
GR
GS
[0.75 0 0 0.75 323.25 87.75] CT
/Helvetica 10.667 F
GS
[1 0 0 1 0 0] CT
0 0 moveto 
1 -1 scale
(0) t 
GR
GR
GS
[0.75 0 0 0.75 328.5 83.25] CT
/Helvetica 13.333 F
GS
[1 0 0 1 0 0] CT
0 0 moveto 
1 -1 scale
(S) t 
GR
GR
GS
[0.75 0 0 0.75 335.25 87.75] CT
/Helvetica 10.667 F
GS
[1 0 0 1 0 0] CT
0 0 moveto 
1 -1 scale
(4) t 
GR
GR
GS
[0.75 0 0 0.75 378 87.75] CT
/Helvetica 10.667 F
GS
[1 0 0 1 0 0] CT
0 0 moveto 
1 -1 scale
(0) t 
GR
GR
GS
[0.75 0 0 0.75 383.25 83.25] CT
/Helvetica 13.333 F
GS
[1 0 0 1 0 0] CT
0 0 moveto 
1 -1 scale
(S) t 
GR
GR
GS
[0.75 0 0 0.75 390 87.75] CT
/Helvetica 10.667 F
GS
[1 0 0 1 0 0] CT
0 0 moveto 
1 -1 scale
(5) t 
GR
GR
GS
[0.75 0 0 0.75 431.25 87.75] CT
/Helvetica 10.667 F
GS
[1 0 0 1 0 0] CT
0 0 moveto 
1 -1 scale
(0) t 
GR
GR
GS
[0.75 0 0 0.75 436.5 83.25] CT
/Helvetica 13.333 F
GS
[1 0 0 1 0 0] CT
0 0 moveto 
1 -1 scale
(S) t 
GR
GR
GS
[0.75 0 0 0.75 443.25 87.75] CT
/Helvetica 10.667 F
GS
[1 0 0 1 0 0] CT
0 0 moveto 
1 -1 scale
(6) t 
GR
GR
GS
[0.75 0 0 0.75 484.5 87.75] CT
/Helvetica 10.667 F
GS
[1 0 0 1 0 0] CT
0 0 moveto 
1 -1 scale
(0) t 
GR
GR
GS
[0.75 0 0 0.75 489.75 83.25] CT
/Helvetica 13.333 F
GS
[1 0 0 1 0 0] CT
0 0 moveto 
1 -1 scale
(S) t 
GR
GR
GS
[0.75 0 0 0.75 496.5 87.75] CT
/Helvetica 10.667 F
GS
[1 0 0 1 0 0] CT
0 0 moveto 
1 -1 scale
(7) t 
GR
GR
GS
[0.75 0 0 0.75 537 87.75] CT
/Helvetica 10.667 F
GS
[1 0 0 1 0 0] CT
0 0 moveto 
1 -1 scale
(0) t 
GR
GR
GS
[0.75 0 0 0.75 542.25 83.25] CT
/Helvetica 13.333 F
GS
[1 0 0 1 0 0] CT
0 0 moveto 
1 -1 scale
(S) t 
GR
GR
GS
[0.75 0 0 0.75 549 87.75] CT
/Helvetica 10.667 F
GS
[1 0 0 1 0 0] CT
0 0 moveto 
1 -1 scale
(8) t 
GR
GR
GS
[0.75 0 0 0.75 588.75 87.75] CT
/Helvetica 10.667 F
GS
[1 0 0 1 0 0] CT
0 0 moveto 
1 -1 scale
(0) t 
GR
GR
GS
[0.75 0 0 0.75 594 83.25] CT
/Helvetica 13.333 F
GS
[1 0 0 1 0 0] CT
0 0 moveto 
1 -1 scale
(S) t 
GR
GR
GS
[0.75 0 0 0.75 600.75 87.75] CT
/Helvetica 10.667 F
GS
[1 0 0 1 0 0] CT
0 0 moveto 
1 -1 scale
(9) t 
GR
GR
GS
[0.75 0 0 0.75 639 87.75] CT
/Helvetica 10.667 F
GS
[1 0 0 1 0 0] CT
0 0 moveto 
1 -1 scale
(0) t 
GR
GR
GS
[0.75 0 0 0.75 644.25 83.25] CT
/Helvetica 13.333 F
GS
[1 0 0 1 0 0] CT
0 0 moveto 
1 -1 scale
(S) t 
GR
GR
GS
[0.75 0 0 0.75 651 87.75] CT
/Helvetica 10.667 F
GS
[1 0 0 1 0 0] CT
0 0 moveto 
1 -1 scale
(10) t 
GR
GR
GS
[0.75 0 0 0.75 690.75 87.75] CT
/Helvetica 10.667 F
GS
[1 0 0 1 0 0] CT
0 0 moveto 
1 -1 scale
(0) t 
GR
GR
GS
[0.75 0 0 0.75 696 83.25] CT
/Helvetica 13.333 F
GS
[1 0 0 1 0 0] CT
0 0 moveto 
1 -1 scale
(S) t 
GR
GR
GS
[0.75 0 0 0.75 702.75 87.75] CT
/Helvetica 10.667 F
GS
[1 0 0 1 0 0] CT
0 0 moveto 
1 -1 scale
(11) t 
GR
GR
GS
[0.75 0 0 0.75 742.5 87.75] CT
/Helvetica 10.667 F
GS
[1 0 0 1 0 0] CT
0 0 moveto 
1 -1 scale
(0) t 
GR
GR
GS
[0.75 0 0 0.75 747.75 83.25] CT
/Helvetica 13.333 F
GS
[1 0 0 1 0 0] CT
0 0 moveto 
1 -1 scale
(S) t 
GR
GR
GS
[0.75 0 0 0.75 754.5 87.75] CT
/Helvetica 10.667 F
GS
[1 0 0 1 0 0] CT
0 0 moveto 
1 -1 scale
(12) t 
GR
GR
GS
[0.75 0 0 0.75 793.5 87.75] CT
/Helvetica 10.667 F
GS
[1 0 0 1 0 0] CT
0 0 moveto 
1 -1 scale
(0) t 
GR
GR
GS
[0.75 0 0 0.75 798.75 83.25] CT
/Helvetica 13.333 F
GS
[1 0 0 1 0 0] CT
0 0 moveto 
1 -1 scale
(S) t 
GR
GR
GS
[0.75 0 0 0.75 805.5 87.75] CT
/Helvetica 10.667 F
GS
[1 0 0 1 0 0] CT
0 0 moveto 
1 -1 scale
(13) t 
GR
GR
GS
[0.75 0 0 0.75 276.10565 81.9] CT
10.0 ML
N
-2.828 -2.828 M
2.828 2.828 L
-2.828 2.828 M
2.828 -2.828 L
S
GR
GS
[0.75 0 0 0.75 346.83142 81.9] CT
10.0 ML
N
-2.828 -2.828 M
2.828 2.828 L
-2.828 2.828 M
2.828 -2.828 L
S
GR
GS
[0.75 0 0 0.75 412.79645 81.9] CT
10.0 ML
N
-2.828 -2.828 M
2.828 2.828 L
-2.828 2.828 M
2.828 -2.828 L
S
GR
GS
[0.75 0 0 0.75 476.03705 81.9] CT
10.0 ML
N
-2.828 -2.828 M
2.828 2.828 L
-2.828 2.828 M
2.828 -2.828 L
S
GR
GS
[0.75 0 0 0.75 537.46262 81.9] CT
10.0 ML
N
-2.828 -2.828 M
2.828 2.828 L
-2.828 2.828 M
2.828 -2.828 L
S
GR
GS
[0.75 0 0 0.75 597.57193 81.9] CT
10.0 ML
N
-2.828 -2.828 M
2.828 2.828 L
-2.828 2.828 M
2.828 -2.828 L
S
GR
GS
[0.75 0 0 0.75 656.6727 81.9] CT
10.0 ML
N
-2.828 -2.828 M
2.828 2.828 L
-2.828 2.828 M
2.828 -2.828 L
S
GR
GS
[0.75 0 0 0.75 714.97032 81.9] CT
10.0 ML
N
-2.828 -2.828 M
2.828 2.828 L
-2.828 2.828 M
2.828 -2.828 L
S
GR
GS
[0.75 0 0 0.75 0 0] CT
1 LJ
0.667 LW
N
368.141 206 M
368.141 109.2 L
S
GR
GS
[0.75 0 0 0.75 0 0] CT
1 LJ
0.667 LW
N
462.442 206 M
462.442 109.2 L
S
GR
GS
[0.75 0 0 0.75 0 0] CT
1 LJ
0.667 LW
N
550.395 206 M
550.395 109.2 L
S
GR
GS
[0.75 0 0 0.75 0 0] CT
1 LJ
0.667 LW
N
634.716 206 M
634.716 109.2 L
S
GR
GS
[0.75 0 0 0.75 0 0] CT
1 LJ
0.667 LW
N
716.617 206 M
716.617 109.2 L
S
GR
GS
[0.75 0 0 0.75 0 0] CT
1 LJ
0.667 LW
N
796.763 206 M
796.763 109.2 L
S
GR
GS
[0.75 0 0 0.75 0 0] CT
1 LJ
0.667 LW
N
875.564 206 M
875.564 109.2 L
S
GR
GS
[0.75 0 0 0.75 0 0] CT
1 LJ
0.667 LW
N
953.294 206 M
953.294 109.2 L
S
GR
GS
[0.75 0 0 0.75 267 81] CT
/Helvetica 10.667 F
GS
[1 0 0 1 0 0] CT
0 0 moveto 
1 -1 scale
(1) t 
GR
GR
GS
[0.75 0 0 0.75 272.25 76.5] CT
/Helvetica 13.333 F
GS
[1 0 0 1 0 0] CT
0 0 moveto 
1 -1 scale
(S) t 
GR
GR
GS
[0.75 0 0 0.75 279 81] CT
/Helvetica 10.667 F
GS
[1 0 0 1 0 0] CT
0 0 moveto 
1 -1 scale
(0) t 
GR
GR
GS
[0.75 0 0 0.75 337.5 81] CT
/Helvetica 10.667 F
GS
[1 0 0 1 0 0] CT
0 0 moveto 
1 -1 scale
(1) t 
GR
GR
GS
[0.75 0 0 0.75 342.75 76.5] CT
/Helvetica 13.333 F
GS
[1 0 0 1 0 0] CT
0 0 moveto 
1 -1 scale
(S) t 
GR
GR
GS
[0.75 0 0 0.75 349.5 81] CT
/Helvetica 10.667 F
GS
[1 0 0 1 0 0] CT
0 0 moveto 
1 -1 scale
(1) t 
GR
GR
GS
[0.75 0 0 0.75 403.5 81] CT
/Helvetica 10.667 F
GS
[1 0 0 1 0 0] CT
0 0 moveto 
1 -1 scale
(1) t 
GR
GR
GS
[0.75 0 0 0.75 408.75 76.5] CT
/Helvetica 13.333 F
GS
[1 0 0 1 0 0] CT
0 0 moveto 
1 -1 scale
(S) t 
GR
GR
GS
[0.75 0 0 0.75 415.5 81] CT
/Helvetica 10.667 F
GS
[1 0 0 1 0 0] CT
0 0 moveto 
1 -1 scale
(2) t 
GR
GR
GS
[0.75 0 0 0.75 467.25 81] CT
/Helvetica 10.667 F
GS
[1 0 0 1 0 0] CT
0 0 moveto 
1 -1 scale
(1) t 
GR
GR
GS
[0.75 0 0 0.75 472.5 76.5] CT
/Helvetica 13.333 F
GS
[1 0 0 1 0 0] CT
0 0 moveto 
1 -1 scale
(S) t 
GR
GR
GS
[0.75 0 0 0.75 479.25 81] CT
/Helvetica 10.667 F
GS
[1 0 0 1 0 0] CT
0 0 moveto 
1 -1 scale
(3) t 
GR
GR
GS
[0.75 0 0 0.75 528.75 81] CT
/Helvetica 10.667 F
GS
[1 0 0 1 0 0] CT
0 0 moveto 
1 -1 scale
(1) t 
GR
GR
GS
[0.75 0 0 0.75 534 76.5] CT
/Helvetica 13.333 F
GS
[1 0 0 1 0 0] CT
0 0 moveto 
1 -1 scale
(S) t 
GR
GR
GS
[0.75 0 0 0.75 540.75 81] CT
/Helvetica 10.667 F
GS
[1 0 0 1 0 0] CT
0 0 moveto 
1 -1 scale
(4) t 
GR
GR
GS
[0.75 0 0 0.75 588.75 81] CT
/Helvetica 10.667 F
GS
[1 0 0 1 0 0] CT
0 0 moveto 
1 -1 scale
(1) t 
GR
GR
GS
[0.75 0 0 0.75 594 76.5] CT
/Helvetica 13.333 F
GS
[1 0 0 1 0 0] CT
0 0 moveto 
1 -1 scale
(S) t 
GR
GR
GS
[0.75 0 0 0.75 600.75 81] CT
/Helvetica 10.667 F
GS
[1 0 0 1 0 0] CT
0 0 moveto 
1 -1 scale
(5) t 
GR
GR
GS
[0.75 0 0 0.75 648 81] CT
/Helvetica 10.667 F
GS
[1 0 0 1 0 0] CT
0 0 moveto 
1 -1 scale
(1) t 
GR
GR
GS
[0.75 0 0 0.75 653.25 76.5] CT
/Helvetica 13.333 F
GS
[1 0 0 1 0 0] CT
0 0 moveto 
1 -1 scale
(S) t 
GR
GR
GS
[0.75 0 0 0.75 660 81] CT
/Helvetica 10.667 F
GS
[1 0 0 1 0 0] CT
0 0 moveto 
1 -1 scale
(6) t 
GR
GR
GS
[0.75 0 0 0.75 705.75 81] CT
/Helvetica 10.667 F
GS
[1 0 0 1 0 0] CT
0 0 moveto 
1 -1 scale
(1) t 
GR
GR
GS
[0.75 0 0 0.75 711 76.5] CT
/Helvetica 13.333 F
GS
[1 0 0 1 0 0] CT
0 0 moveto 
1 -1 scale
(S) t 
GR
GR
GS
[0.75 0 0 0.75 717.75 81] CT
/Helvetica 10.667 F
GS
[1 0 0 1 0 0] CT
0 0 moveto 
1 -1 scale
(7) t 
GR
GR
GS
[0.75 0 0 0.75 763.5 81] CT
/Helvetica 10.667 F
GS
[1 0 0 1 0 0] CT
0 0 moveto 
1 -1 scale
(1) t 
GR
GR
GS
[0.75 0 0 0.75 768.75 76.5] CT
/Helvetica 13.333 F
GS
[1 0 0 1 0 0] CT
0 0 moveto 
1 -1 scale
(S) t 
GR
GR
GS
[0.75 0 0 0.75 775.5 81] CT
/Helvetica 10.667 F
GS
[1 0 0 1 0 0] CT
0 0 moveto 
1 -1 scale
(8) t 
GR
GR
GS
[0.75 0 0 0.75 820.5 81] CT
/Helvetica 10.667 F
GS
[1 0 0 1 0 0] CT
0 0 moveto 
1 -1 scale
(1) t 
GR
GR
GS
[0.75 0 0 0.75 825.75 76.5] CT
/Helvetica 13.333 F
GS
[1 0 0 1 0 0] CT
0 0 moveto 
1 -1 scale
(S) t 
GR
GR
GS
[0.75 0 0 0.75 832.5 81] CT
/Helvetica 10.667 F
GS
[1 0 0 1 0 0] CT
0 0 moveto 
1 -1 scale
(9) t 
GR
GR
GS
[0.75 0 0 0.75 434.0744 75.3] CT
10.0 ML
N
0 -4 M
0 4 L
-4 0 M
4 0 L
S
GR
GS
[0.75 0 0 0.75 506.44386 75.3] CT
10.0 ML
N
0 -4 M
0 4 L
-4 0 M
4 0 L
S
GR
GS
[0.75 0 0 0.75 575.26602 75.3] CT
10.0 ML
N
0 -4 M
0 4 L
-4 0 M
4 0 L
S
GR
GS
[0.75 0 0 0.75 641.68625 75.3] CT
10.0 ML
N
0 -4 M
0 4 L
-4 0 M
4 0 L
S
GR
GS
[0.75 0 0 0.75 706.34482 75.3] CT
10.0 ML
N
0 -4 M
0 4 L
-4 0 M
4 0 L
S
GR
GS
[0.75 0 0 0.75 0 0] CT
1 LJ
0.667 LW
N
578.766 206 M
578.766 100.4 L
S
GR
GS
[0.75 0 0 0.75 0 0] CT
1 LJ
0.667 LW
N
675.258 206 M
675.258 100.4 L
S
GR
GS
[0.75 0 0 0.75 0 0] CT
1 LJ
0.667 LW
N
767.021 206 M
767.021 100.4 L
S
GR
GS
[0.75 0 0 0.75 0 0] CT
1 LJ
0.667 LW
N
855.582 206 M
855.582 100.4 L
S
GR
GS
[0.75 0 0 0.75 0 0] CT
1 LJ
0.667 LW
N
941.793 206 M
941.793 100.4 L
S
GR
GS
[0.75 0 0 0.75 425.25 75] CT
/Helvetica 10.667 F
GS
[1 0 0 1 0 0] CT
0 0 moveto 
1 -1 scale
(2) t 
GR
GR
GS
[0.75 0 0 0.75 430.5 70.5] CT
/Helvetica 13.333 F
GS
[1 0 0 1 0 0] CT
0 0 moveto 
1 -1 scale
(S) t 
GR
GR
GS
[0.75 0 0 0.75 437.25 75] CT
/Helvetica 10.667 F
GS
[1 0 0 1 0 0] CT
0 0 moveto 
1 -1 scale
(0) t 
GR
GR
GS
[0.75 0 0 0.75 497.25 75] CT
/Helvetica 10.667 F
GS
[1 0 0 1 0 0] CT
0 0 moveto 
1 -1 scale
(2) t 
GR
GR
GS
[0.75 0 0 0.75 502.5 70.5] CT
/Helvetica 13.333 F
GS
[1 0 0 1 0 0] CT
0 0 moveto 
1 -1 scale
(S) t 
GR
GR
GS
[0.75 0 0 0.75 509.25 75] CT
/Helvetica 10.667 F
GS
[1 0 0 1 0 0] CT
0 0 moveto 
1 -1 scale
(1) t 
GR
GR
GS
[0.75 0 0 0.75 566.25 75] CT
/Helvetica 10.667 F
GS
[1 0 0 1 0 0] CT
0 0 moveto 
1 -1 scale
(2) t 
GR
GR
GS
[0.75 0 0 0.75 571.5 70.5] CT
/Helvetica 13.333 F
GS
[1 0 0 1 0 0] CT
0 0 moveto 
1 -1 scale
(S) t 
GR
GR
GS
[0.75 0 0 0.75 578.25 75] CT
/Helvetica 10.667 F
GS
[1 0 0 1 0 0] CT
0 0 moveto 
1 -1 scale
(2) t 
GR
GR
GS
[0.75 0 0 0.75 633 75] CT
/Helvetica 10.667 F
GS
[1 0 0 1 0 0] CT
0 0 moveto 
1 -1 scale
(2) t 
GR
GR
GS
[0.75 0 0 0.75 638.25 70.5] CT
/Helvetica 13.333 F
GS
[1 0 0 1 0 0] CT
0 0 moveto 
1 -1 scale
(S) t 
GR
GR
GS
[0.75 0 0 0.75 645 75] CT
/Helvetica 10.667 F
GS
[1 0 0 1 0 0] CT
0 0 moveto 
1 -1 scale
(3) t 
GR
GR
GS
[0.75 0 0 0.75 697.5 75] CT
/Helvetica 10.667 F
GS
[1 0 0 1 0 0] CT
0 0 moveto 
1 -1 scale
(2) t 
GR
GR
GS
[0.75 0 0 0.75 702.75 70.5] CT
/Helvetica 13.333 F
GS
[1 0 0 1 0 0] CT
0 0 moveto 
1 -1 scale
(S) t 
GR
GR
GS
[0.75 0 0 0.75 709.5 75] CT
/Helvetica 10.667 F
GS
[1 0 0 1 0 0] CT
0 0 moveto 
1 -1 scale
(4) t 
GR
GR
GS
[0.75 0 0 0.75 760.5 75] CT
/Helvetica 10.667 F
GS
[1 0 0 1 0 0] CT
0 0 moveto 
1 -1 scale
(2) t 
GR
GR
GS
[0.75 0 0 0.75 765.75 70.5] CT
/Helvetica 13.333 F
GS
[1 0 0 1 0 0] CT
0 0 moveto 
1 -1 scale
(S) t 
GR
GR
GS
[0.75 0 0 0.75 772.5 75] CT
/Helvetica 10.667 F
GS
[1 0 0 1 0 0] CT
0 0 moveto 
1 -1 scale
(5) t 
GR
GR
GS
[0.75 0 0 0.75 822.75 75] CT
/Helvetica 10.667 F
GS
[1 0 0 1 0 0] CT
0 0 moveto 
1 -1 scale
(2) t 
GR
GR
GS
[0.75 0 0 0.75 828 70.5] CT
/Helvetica 13.333 F
GS
[1 0 0 1 0 0] CT
0 0 moveto 
1 -1 scale
(S) t 
GR
GR
GS
[0.75 0 0 0.75 834.75 75] CT
/Helvetica 10.667 F
GS
[1 0 0 1 0 0] CT
0 0 moveto 
1 -1 scale
(6) t 
GR
GR
GS
[0.75 0 0 0.75 589.4539 68.7] CT
10.0 ML
N
0 5.332 M
-4.618 -2.666 L
4.618 -2.666 L
cp
S
GR
GS
[0.75 0 0 0.75 662.78796 68.7] CT
10.0 ML
N
0 5.332 M
-4.618 -2.666 L
4.618 -2.666 L
cp
S
GR
GS
[0.75 0 0 0.75 733.255 68.7] CT
10.0 ML
N
0 5.332 M
-4.618 -2.666 L
4.618 -2.666 L
cp
S
GR
GS
[0.75 0 0 0.75 0 0] CT
1 LJ
0.667 LW
N
785.939 206 M
785.939 91.6 L
S
GR
GS
[0.75 0 0 0.75 0 0] CT
1 LJ
0.667 LW
N
883.717 206 M
883.717 91.6 L
S
GR
GS
[0.75 0 0 0.75 0 0] CT
1 LJ
0.667 LW
N
977.673 206 M
977.673 91.6 L
S
GR
GS
[0.75 0 0 0.75 580.5 68.25] CT
/Helvetica 10.667 F
GS
[1 0 0 1 0 0] CT
0 0 moveto 
1 -1 scale
(3) t 
GR
GR
GS
[0.75 0 0 0.75 585.75 63.75] CT
/Helvetica 13.333 F
GS
[1 0 0 1 0 0] CT
0 0 moveto 
1 -1 scale
(S) t 
GR
GR
GS
[0.75 0 0 0.75 592.5 68.25] CT
/Helvetica 10.667 F
GS
[1 0 0 1 0 0] CT
0 0 moveto 
1 -1 scale
(0) t 
GR
GR
GS
[0.75 0 0 0.75 654 68.25] CT
/Helvetica 10.667 F
GS
[1 0 0 1 0 0] CT
0 0 moveto 
1 -1 scale
(3) t 
GR
GR
GS
[0.75 0 0 0.75 659.25 63.75] CT
/Helvetica 13.333 F
GS
[1 0 0 1 0 0] CT
0 0 moveto 
1 -1 scale
(S) t 
GR
GR
GS
[0.75 0 0 0.75 666 68.25] CT
/Helvetica 10.667 F
GS
[1 0 0 1 0 0] CT
0 0 moveto 
1 -1 scale
(1) t 
GR
GR
GS
[0.75 0 0 0.75 724.5 68.25] CT
/Helvetica 10.667 F
GS
[1 0 0 1 0 0] CT
0 0 moveto 
1 -1 scale
(3) t 
GR
GR
GS
[0.75 0 0 0.75 729.75 63.75] CT
/Helvetica 13.333 F
GS
[1 0 0 1 0 0] CT
0 0 moveto 
1 -1 scale
(S) t 
GR
GR
GS
[0.75 0 0 0.75 736.5 68.25] CT
/Helvetica 10.667 F
GS
[1 0 0 1 0 0] CT
0 0 moveto 
1 -1 scale
(2) t 
GR
GR
GS
[0.75 0 0 0.75 792.75 68.25] CT
/Helvetica 10.667 F
GS
[1 0 0 1 0 0] CT
0 0 moveto 
1 -1 scale
(3) t 
GR
GR
GS
[0.75 0 0 0.75 798 63.75] CT
/Helvetica 13.333 F
GS
[1 0 0 1 0 0] CT
0 0 moveto 
1 -1 scale
(S) t 
GR
GR
GS
[0.75 0 0 0.75 804.75 68.25] CT
/Helvetica 10.667 F
GS
[1 0 0 1 0 0] CT
0 0 moveto 
1 -1 scale
(3) t 
GR
GR
GS
[0.75 0 0 0.75 744.01236 62.1] CT
10.0 ML
N
-3 -3 M
-3 3 L
3 3 L
3 -3 L
cp
S
GR
GS
[0.75 0 0 0.75 0 0] CT
1 LJ
0.667 LW
N
992.016 206 M
992.016 82.8 L
S
GR
GS
[0.75 0 0 0.75 735 61.5] CT
/Helvetica 10.667 F
GS
[1 0 0 1 0 0] CT
0 0 moveto 
1 -1 scale
(4) t 
GR
GR
GS
[0.75 0 0 0.75 740.25 57] CT
/Helvetica 13.333 F
GS
[1 0 0 1 0 0] CT
0 0 moveto 
1 -1 scale
(S) t 
GR
GR
GS
[0.75 0 0 0.75 747 61.5] CT
/Helvetica 10.667 F
GS
[1 0 0 1 0 0] CT
0 0 moveto 
1 -1 scale
(0) t 
GR
GR
GS
[0.75 0 0 0.75 809.25 61.5] CT
/Helvetica 10.667 F
GS
[1 0 0 1 0 0] CT
0 0 moveto 
1 -1 scale
(4) t 
GR
GR
GS
[0.75 0 0 0.75 814.5 57] CT
/Helvetica 13.333 F
GS
[1 0 0 1 0 0] CT
0 0 moveto 
1 -1 scale
(S) t 
GR
GR
GS
[0.75 0 0 0.75 821.25 61.5] CT
/Helvetica 10.667 F
GS
[1 0 0 1 0 0] CT
0 0 moveto 
1 -1 scale
(1) t 
GR
GR
GS
[0.75 0 0 0.75 0 0] CT
1 GC
N
146 418 M
1018 418 L
1018 287 L
146 287 L
cp
f
GR
GS
[0.75 0 0 0.75 0 0] CT
0.149 GC
2 setlinecap
1 LJ
0.667 LW
N
146 418 M
1018 418 L
S
GR
GS
[0.75 0 0 0.75 0 0] CT
0.149 GC
2 setlinecap
1 LJ
0.667 LW
N
146 287 M
1018 287 L
S
GR
GS
[0.75 0 0 0.75 0 0] CT
0.149 GC
2 setlinecap
1 LJ
0.667 LW
N
262.267 418 M
262.267 409.28 L
S
GR
GS
[0.75 0 0 0.75 0 0] CT
0.149 GC
2 setlinecap
1 LJ
0.667 LW
N
407.6 418 M
407.6 409.28 L
S
GR
GS
[0.75 0 0 0.75 0 0] CT
0.149 GC
2 setlinecap
1 LJ
0.667 LW
N
552.933 418 M
552.933 409.28 L
S
GR
GS
[0.75 0 0 0.75 0 0] CT
0.149 GC
2 setlinecap
1 LJ
0.667 LW
N
698.267 418 M
698.267 409.28 L
S
GR
GS
[0.75 0 0 0.75 0 0] CT
0.149 GC
2 setlinecap
1 LJ
0.667 LW
N
843.6 418 M
843.6 409.28 L
S
GR
GS
[0.75 0 0 0.75 0 0] CT
0.149 GC
2 setlinecap
1 LJ
0.667 LW
N
988.933 418 M
988.933 409.28 L
S
GR
GS
[0.75 0 0 0.75 0 0] CT
0.149 GC
2 setlinecap
1 LJ
0.667 LW
N
262.267 287 M
262.267 295.72 L
S
GR
GS
[0.75 0 0 0.75 0 0] CT
0.149 GC
2 setlinecap
1 LJ
0.667 LW
N
407.6 287 M
407.6 295.72 L
S
GR
GS
[0.75 0 0 0.75 0 0] CT
0.149 GC
2 setlinecap
1 LJ
0.667 LW
N
552.933 287 M
552.933 295.72 L
S
GR
GS
[0.75 0 0 0.75 0 0] CT
0.149 GC
2 setlinecap
1 LJ
0.667 LW
N
698.267 287 M
698.267 295.72 L
S
GR
GS
[0.75 0 0 0.75 0 0] CT
0.149 GC
2 setlinecap
1 LJ
0.667 LW
N
843.6 287 M
843.6 295.72 L
S
GR
GS
[0.75 0 0 0.75 0 0] CT
0.149 GC
2 setlinecap
1 LJ
0.667 LW
N
988.933 287 M
988.933 295.72 L
S
GR
GS
[0.75 0 0 0.75 196.7 316.89999] CT
0.149 GC
/Helvetica 12.667 F
GS
[1 0 0 1 0 0] CT
-12.5 12 moveto 
1 -1 scale
(890) t 
GR
GR
GS
[0.75 0 0 0.75 305.7 316.89999] CT
0.149 GC
/Helvetica 12.667 F
GS
[1 0 0 1 0 0] CT
-12.5 12 moveto 
1 -1 scale
(900) t 
GR
GR
GS
[0.75 0 0 0.75 414.70001 316.89999] CT
0.149 GC
/Helvetica 12.667 F
GS
[1 0 0 1 0 0] CT
-12.5 12 moveto 
1 -1 scale
(910) t 
GR
GR
GS
[0.75 0 0 0.75 523.7 316.89999] CT
0.149 GC
/Helvetica 12.667 F
GS
[1 0 0 1 0 0] CT
-12.5 12 moveto 
1 -1 scale
(920) t 
GR
GR
GS
[0.75 0 0 0.75 632.69998 316.89999] CT
0.149 GC
/Helvetica 12.667 F
GS
[1 0 0 1 0 0] CT
-12.5 12 moveto 
1 -1 scale
(930) t 
GR
GR
GS
[0.75 0 0 0.75 741.70001 316.89999] CT
0.149 GC
/Helvetica 12.667 F
GS
[1 0 0 1 0 0] CT
-12.5 12 moveto 
1 -1 scale
(940) t 
GR
GR
GS
[0.75 0 0 0.75 436.5 328.89999] CT
0.149 GC
/Helvetica 13.933 F
GS
[1 0 0 1 0 0] CT
-73.5 13 moveto 
1 -1 scale
(mode frequency \(Hz\)) t 
GR
GR
GS
[0.75 0 0 0.75 0 0] CT
0.149 GC
2 setlinecap
1 LJ
0.667 LW
N
146 418 M
146 287 L
S
GR
GS
[0.75 0 0 0.75 0 0] CT
0.149 GC
2 setlinecap
1 LJ
0.667 LW
N
1018 418 M
1018 287 L
S
GR
GS
[0.75 0 0 0.75 0 0] CT
0.149 GC
2 setlinecap
1 LJ
0.667 LW
N
146 418 M
154.72 418 L
S
GR
GS
[0.75 0 0 0.75 0 0] CT
0.149 GC
2 setlinecap
1 LJ
0.667 LW
N
146 352.5 M
154.72 352.5 L
S
GR
GS
[0.75 0 0 0.75 0 0] CT
0.149 GC
2 setlinecap
1 LJ
0.667 LW
N
146 287 M
154.72 287 L
S
GR
GS
[0.75 0 0 0.75 0 0] CT
0.149 GC
2 setlinecap
1 LJ
0.667 LW
N
1018 418 M
1009.28 418 L
S
GR
GS
[0.75 0 0 0.75 0 0] CT
0.149 GC
2 setlinecap
1 LJ
0.667 LW
N
1018 352.5 M
1009.28 352.5 L
S
GR
GS
[0.75 0 0 0.75 0 0] CT
0.149 GC
2 setlinecap
1 LJ
0.667 LW
N
1018 287 M
1009.28 287 L
S
GR
GS
[0.75 0 0 0.75 106.09974 313.5] CT
0.149 GC
/Helvetica 12.667 F
GS
[1 0 0 1 0 0] CT
-9 4.5 moveto 
1 -1 scale
(0) t 
GR
GR
GS
[0.75 0 0 0.75 106.09974 264.375] CT
0.149 GC
/Helvetica 12.667 F
GS
[1 0 0 1 0 0] CT
-9 4.5 moveto 
1 -1 scale
(5) t 
GR
GR
GS
[0.75 0 0 0.75 106.09974 215.25] CT
0.149 GC
/Helvetica 12.667 F
GS
[1 0 0 1 0 0] CT
-17 4.5 moveto 
1 -1 scale
(10) t 
GR
GR
GS
[0 -0.75 0.75 0 90.85012 264.37495] CT
0.149 GC
/Helvetica 13.933 F
GS
[1 0 0 1 0 0] CT
-52.5 -4 moveto 
1 -1 scale
(fake amplitude) t 
GR
GR
GS
[0.75 0 0 0.75 250.5 206.25] CT
/Helvetica-Bold 13.933 F
GS
[1 0 0 1 0 0] CT
0 0 moveto 
1 -1 scale
(ellipticity = 0.05 and global rotation-split singlets for f) t 
GR
GR
GS
[0.75 0 0 0.75 573.75 210.75] CT
/Helvetica-Bold 11.147 F
GS
[1 0 0 1 0 0] CT
0 0 moveto 
1 -1 scale
(o) t 
GR
GR
GS
[0.75 0 0 0.75 579.75 206.25] CT
/Helvetica-Bold 13.933 F
GS
[1 0 0 1 0 0] CT
0 0 moveto 
1 -1 scale
( = 0 Hz) t 
GR
GR
GS
[0.75 0 0 0.75 0 0] CT
0.149 GC
1 LJ
0.667 LW
N
146 418 M
1018 418 L
S
GR
GS
[0.75 0 0 0.75 721.04031 215.25] CT
10.0 ML
N
4 0 M
4 -2.209 2.209 -4 0 -4 C
-2.209 -4 -4 -2.209 -4 0 C
-4 2.209 -2.209 4 0 4 C
2.209 4 4 2.209 4 0 C
cp
S
GR
GS
[0.75 0 0 0.75 721.04031 215.25] CT
10.0 ML
N
4 0 M
4 -2.209 2.209 -4 0 -4 C
-2.209 -4 -4 -2.209 -4 0 C
-4 2.209 -2.209 4 0 4 C
2.209 4 4 2.209 4 0 C
cp
S
GR
GS
[0.75 0 0 0.75 0 0] CT
1 LJ
0.667 LW
N
961.387 418 M
961.387 287 L
S
GR
GS
[0.75 0 0 0.75 0 0] CT
1 LJ
0.667 LW
N
961.387 418 M
961.387 287 L
S
GR
GS
[0.75 0 0 0.75 645.23195 220.16249] CT
0 0 1 RC
10.0 ML
N
4 0 M
4 -2.209 2.209 -4 0 -4 C
-2.209 -4 -4 -2.209 -4 0 C
-4 2.209 -2.209 4 0 4 C
2.209 4 4 2.209 4 0 C
cp
S
GR
GS
[0.75 0 0 0.75 645.23195 220.16249] CT
0 0 1 RC
10.0 ML
N
4 0 M
4 -2.209 2.209 -4 0 -4 C
-2.209 -4 -4 -2.209 -4 0 C
-4 2.209 -2.209 4 0 4 C
2.209 4 4 2.209 4 0 C
cp
S
GR
GS
[0.75 0 0 0.75 0 0] CT
0 0 1 RC
1 LJ
0.667 LW
N
860.309 418 M
860.309 293.55 L
S
GR
GS
[0.75 0 0 0.75 0 0] CT
0 0 1 RC
1 LJ
0.667 LW
N
860.309 418 M
860.309 293.55 L
S
GR
GS
[0.75 0 0 0.75 417.80818 225.075] CT
1 0 0 RC
10.0 ML
N
4 0 M
4 -2.209 2.209 -4 0 -4 C
-2.209 -4 -4 -2.209 -4 0 C
-4 2.209 -2.209 4 0 4 C
2.209 4 4 2.209 4 0 C
cp
S
GR
GS
[0.75 0 0 0.75 417.80818 225.075] CT
1 0 0 RC
10.0 ML
N
4 0 M
4 -2.209 2.209 -4 0 -4 C
-2.209 -4 -4 -2.209 -4 0 C
-4 2.209 -2.209 4 0 4 C
2.209 4 4 2.209 4 0 C
cp
S
GR
GS
[0.75 0 0 0.75 0 0] CT
1 0 0 RC
1 LJ
0.667 LW
N
557.078 418 M
557.078 300.1 L
S
GR
GS
[0.75 0 0 0.75 0 0] CT
1 0 0 RC
1 LJ
0.667 LW
N
557.078 418 M
557.078 300.1 L
S
GR
GS
[0.75 0 0 0.75 0 0] CT
1 GC
N
146 630 M
1018 630 L
1018 499 L
146 499 L
cp
f
GR
GS
[0.75 0 0 0.75 0 0] CT
0.149 GC
2 setlinecap
1 LJ
0.667 LW
N
146 630 M
1018 630 L
S
GR
GS
[0.75 0 0 0.75 0 0] CT
0.149 GC
2 setlinecap
1 LJ
0.667 LW
N
146 499 M
1018 499 L
S
GR
GS
[0.75 0 0 0.75 0 0] CT
0.149 GC
2 setlinecap
1 LJ
0.667 LW
N
262.267 630 M
262.267 621.28 L
S
GR
GS
[0.75 0 0 0.75 0 0] CT
0.149 GC
2 setlinecap
1 LJ
0.667 LW
N
407.6 630 M
407.6 621.28 L
S
GR
GS
[0.75 0 0 0.75 0 0] CT
0.149 GC
2 setlinecap
1 LJ
0.667 LW
N
552.933 630 M
552.933 621.28 L
S
GR
GS
[0.75 0 0 0.75 0 0] CT
0.149 GC
2 setlinecap
1 LJ
0.667 LW
N
698.267 630 M
698.267 621.28 L
S
GR
GS
[0.75 0 0 0.75 0 0] CT
0.149 GC
2 setlinecap
1 LJ
0.667 LW
N
843.6 630 M
843.6 621.28 L
S
GR
GS
[0.75 0 0 0.75 0 0] CT
0.149 GC
2 setlinecap
1 LJ
0.667 LW
N
988.933 630 M
988.933 621.28 L
S
GR
GS
[0.75 0 0 0.75 0 0] CT
0.149 GC
2 setlinecap
1 LJ
0.667 LW
N
262.267 499 M
262.267 507.72 L
S
GR
GS
[0.75 0 0 0.75 0 0] CT
0.149 GC
2 setlinecap
1 LJ
0.667 LW
N
407.6 499 M
407.6 507.72 L
S
GR
GS
[0.75 0 0 0.75 0 0] CT
0.149 GC
2 setlinecap
1 LJ
0.667 LW
N
552.933 499 M
552.933 507.72 L
S
GR
GS
[0.75 0 0 0.75 0 0] CT
0.149 GC
2 setlinecap
1 LJ
0.667 LW
N
698.267 499 M
698.267 507.72 L
S
GR
GS
[0.75 0 0 0.75 0 0] CT
0.149 GC
2 setlinecap
1 LJ
0.667 LW
N
843.6 499 M
843.6 507.72 L
S
GR
GS
[0.75 0 0 0.75 0 0] CT
0.149 GC
2 setlinecap
1 LJ
0.667 LW
N
988.933 499 M
988.933 507.72 L
S
GR
GS
[0.75 0 0 0.75 196.7 475.89999] CT
0.149 GC
/Helvetica 12.667 F
GS
[1 0 0 1 0 0] CT
-12.5 12 moveto 
1 -1 scale
(890) t 
GR
GR
GS
[0.75 0 0 0.75 305.7 475.89999] CT
0.149 GC
/Helvetica 12.667 F
GS
[1 0 0 1 0 0] CT
-12.5 12 moveto 
1 -1 scale
(900) t 
GR
GR
GS
[0.75 0 0 0.75 414.70001 475.89999] CT
0.149 GC
/Helvetica 12.667 F
GS
[1 0 0 1 0 0] CT
-12.5 12 moveto 
1 -1 scale
(910) t 
GR
GR
GS
[0.75 0 0 0.75 523.7 475.89999] CT
0.149 GC
/Helvetica 12.667 F
GS
[1 0 0 1 0 0] CT
-12.5 12 moveto 
1 -1 scale
(920) t 
GR
GR
GS
[0.75 0 0 0.75 632.69998 475.89999] CT
0.149 GC
/Helvetica 12.667 F
GS
[1 0 0 1 0 0] CT
-12.5 12 moveto 
1 -1 scale
(930) t 
GR
GR
GS
[0.75 0 0 0.75 741.70001 475.89999] CT
0.149 GC
/Helvetica 12.667 F
GS
[1 0 0 1 0 0] CT
-12.5 12 moveto 
1 -1 scale
(940) t 
GR
GR
GS
[0.75 0 0 0.75 436.5 487.89999] CT
0.149 GC
/Helvetica 13.933 F
GS
[1 0 0 1 0 0] CT
-73.5 13 moveto 
1 -1 scale
(mode frequency \(Hz\)) t 
GR
GR
GS
[0.75 0 0 0.75 0 0] CT
0.149 GC
2 setlinecap
1 LJ
0.667 LW
N
146 630 M
146 499 L
S
GR
GS
[0.75 0 0 0.75 0 0] CT
0.149 GC
2 setlinecap
1 LJ
0.667 LW
N
1018 630 M
1018 499 L
S
GR
GS
[0.75 0 0 0.75 0 0] CT
0.149 GC
2 setlinecap
1 LJ
0.667 LW
N
146 630 M
154.72 630 L
S
GR
GS
[0.75 0 0 0.75 0 0] CT
0.149 GC
2 setlinecap
1 LJ
0.667 LW
N
146 603.8 M
154.72 603.8 L
S
GR
GS
[0.75 0 0 0.75 0 0] CT
0.149 GC
2 setlinecap
1 LJ
0.667 LW
N
146 577.6 M
154.72 577.6 L
S
GR
GS
[0.75 0 0 0.75 0 0] CT
0.149 GC
2 setlinecap
1 LJ
0.667 LW
N
146 551.4 M
154.72 551.4 L
S
GR
GS
[0.75 0 0 0.75 0 0] CT
0.149 GC
2 setlinecap
1 LJ
0.667 LW
N
146 525.2 M
154.72 525.2 L
S
GR
GS
[0.75 0 0 0.75 0 0] CT
0.149 GC
2 setlinecap
1 LJ
0.667 LW
N
1018 630 M
1009.28 630 L
S
GR
GS
[0.75 0 0 0.75 0 0] CT
0.149 GC
2 setlinecap
1 LJ
0.667 LW
N
1018 603.8 M
1009.28 603.8 L
S
GR
GS
[0.75 0 0 0.75 0 0] CT
0.149 GC
2 setlinecap
1 LJ
0.667 LW
N
1018 577.6 M
1009.28 577.6 L
S
GR
GS
[0.75 0 0 0.75 0 0] CT
0.149 GC
2 setlinecap
1 LJ
0.667 LW
N
1018 551.4 M
1009.28 551.4 L
S
GR
GS
[0.75 0 0 0.75 0 0] CT
0.149 GC
2 setlinecap
1 LJ
0.667 LW
N
1018 525.2 M
1009.28 525.2 L
S
GR
GS
[0.75 0 0 0.75 106.09974 472.5] CT
0.149 GC
/Helvetica 12.667 F
GS
[1 0 0 1 0 0] CT
-9 4.5 moveto 
1 -1 scale
(0) t 
GR
GR
GS
[0.75 0 0 0.75 106.09974 452.84999] CT
0.149 GC
/Helvetica 12.667 F
GS
[1 0 0 1 0 0] CT
-21 4.5 moveto 
1 -1 scale
(0.1) t 
GR
GR
GS
[0.75 0 0 0.75 106.09974 433.19998] CT
0.149 GC
/Helvetica 12.667 F
GS
[1 0 0 1 0 0] CT
-21 4.5 moveto 
1 -1 scale
(0.2) t 
GR
GR
GS
[0.75 0 0 0.75 106.09974 413.55002] CT
0.149 GC
/Helvetica 12.667 F
GS
[1 0 0 1 0 0] CT
-21 4.5 moveto 
1 -1 scale
(0.3) t 
GR
GR
GS
[0.75 0 0 0.75 106.09974 393.90001] CT
0.149 GC
/Helvetica 12.667 F
GS
[1 0 0 1 0 0] CT
-21 4.5 moveto 
1 -1 scale
(0.4) t 
GR
GR
GS
[0 -0.75 0.75 0 87.84969 423.37495] CT
0.149 GC
/Helvetica 13.933 F
GS
[1 0 0 1 0 0] CT
-68 -4 moveto 
1 -1 scale
(pressure amplitude) t 
GR
GR
GS
[0.75 0 0 0.75 183.75 352.5] CT
/Helvetica-Bold 13.933 F
GS
[1 0 0 1 0 0] CT
0 0 moveto 
1 -1 scale
(Lorentzian spectra for ellipticity = 0.05 and global rotation-split singlets for f) t 
GR
GR
GS
[0.75 0 0 0.75 641.25 357] CT
/Helvetica-Bold 11.147 F
GS
[1 0 0 1 0 0] CT
0 0 moveto 
1 -1 scale
(o) t 
GR
GR
GS
[0.75 0 0 0.75 647.25 352.5] CT
/Helvetica-Bold 13.933 F
GS
[1 0 0 1 0 0] CT
0 0 moveto 
1 -1 scale
( = 0 Hz) t 
GR
GR
GS
[0.75 0 0 0.75 354.75 369] CT
/Helvetica-Bold 13.933 F
GS
[1 0 0 1 0 0] CT
0 0 moveto 
1 -1 scale
(HP at lat 45, micro at lat 32) t 
GR
GR
GS
[0.75 0 0 0.75 0 0] CT
0 0.447 0.741 RC
1 LJ
0.667 LW
N
145.896 628.406 M
146 628.406 L
147.453 628.402 L
148.907 628.398 L
150.36 628.394 L
151.814 628.39 L
153.267 628.386 L
154.72 628.382 L
156.174 628.378 L
157.626 628.374 L
159.08 628.37 L
160.533 628.366 L
161.986 628.361 L
163.44 628.357 L
164.893 628.353 L
166.347 628.349 L
167.8 628.344 L
169.253 628.34 L
170.707 628.336 L
172.16 628.331 L
173.614 628.327 L
175.067 628.322 L
176.52 628.318 L
177.974 628.313 L
179.426 628.309 L
180.88 628.304 L
182.333 628.3 L
183.786 628.295 L
185.24 628.291 L
186.693 628.286 L
188.147 628.281 L
189.6 628.277 L
191.053 628.272 L
192.507 628.267 L
193.96 628.262 L
195.414 628.257 L
196.867 628.253 L
198.32 628.248 L
199.774 628.243 L
201.226 628.238 L
202.68 628.233 L
204.133 628.228 L
205.586 628.223 L
207.04 628.217 L
208.493 628.212 L
209.947 628.207 L
211.4 628.202 L
212.853 628.197 L
214.307 628.191 L
215.76 628.186 L
217.214 628.181 L
218.667 628.175 L
220.12 628.17 L
221.574 628.164 L
223.026 628.159 L
224.48 628.153 L
225.933 628.148 L
227.386 628.142 L
228.84 628.137 L
230.293 628.131 L
231.747 628.125 L
233.2 628.119 L
234.653 628.114 L
236.107 628.108 L
237.56 628.102 L
239.014 628.096 L
240.467 628.09 L
241.92 628.084 L
243.374 628.078 L
244.826 628.072 L
246.28 628.065 L
247.733 628.059 L
249.186 628.053 L
250.64 628.047 L
252.093 628.04 L
253.547 628.034 L
255 628.027 L
256.453 628.021 L
257.907 628.014 L
259.36 628.008 L
260.814 628.001 L
262.267 627.994 L
263.72 627.987 L
265.174 627.98 L
266.626 627.974 L
268.08 627.967 L
269.533 627.96 L
270.986 627.953 L
272.44 627.945 L
273.893 627.938 L
275.347 627.931 L
276.8 627.924 L
278.253 627.916 L
279.707 627.909 L
281.16 627.901 L
282.614 627.894 L
284.067 627.886 L
285.52 627.878 L
286.974 627.871 L
288.426 627.863 L
289.88 627.855 L
291.333 627.847 L
292.786 627.839 L
294.24 627.831 L
295.693 627.823 L
297.147 627.814 L
298.6 627.806 L
300.053 627.797 L
301.507 627.789 L
302.96 627.78 L
304.414 627.772 L
305.867 627.763 L
307.32 627.754 L
308.773 627.745 L
310.227 627.736 L
311.68 627.727 L
313.133 627.718 L
314.586 627.709 L
316.04 627.699 L
317.493 627.69 L
318.947 627.68 L
320.4 627.671 L
321.853 627.661 L
323.307 627.651 L
324.76 627.641 L
326.214 627.631 L
327.667 627.621 L
329.12 627.611 L
330.574 627.6 L
332.026 627.59 L
333.48 627.579 L
334.933 627.568 L
336.386 627.557 L
337.84 627.547 L
339.293 627.535 L
340.747 627.524 L
342.2 627.513 L
343.653 627.501 L
345.107 627.49 L
346.56 627.478 L
348.014 627.466 L
349.467 627.454 L
350.92 627.442 L
352.374 627.43 L
353.826 627.417 L
355.28 627.405 L
356.733 627.392 L
358.186 627.379 L
359.64 627.366 L
361.093 627.353 L
362.547 627.339 L
364 627.326 L
365.453 627.312 L
366.907 627.298 L
368.36 627.284 L
369.814 627.27 L
371.267 627.255 L
372.72 627.241 L
374.174 627.226 L
375.626 627.205 L
377.08 627.19 L
378.533 627.175 L
379.986 627.159 L
381.44 627.143 L
382.893 627.127 L
384.347 627.11 L
385.8 627.094 L
387.253 627.077 L
388.707 627.06 L
390.16 627.042 L
391.614 627.025 L
393.067 627.007 L
394.52 626.989 L
395.974 626.97 L
397.426 626.951 L
398.88 626.932 L
400.333 626.913 L
401.786 626.893 L
403.24 626.873 L
404.693 626.853 L
406.147 626.832 L
407.6 626.811 L
409.053 626.789 L
410.507 626.768 L
411.96 626.745 L
413.414 626.723 L
414.867 626.7 L
416.32 626.676 L
417.773 626.652 L
419.227 626.628 L
420.68 626.603 L
422.133 626.578 L
423.586 626.552 L
425.04 626.526 L
426.493 626.499 L
427.947 626.472 L
429.4 626.444 L
430.853 626.416 L
432.307 626.387 L
433.76 626.357 L
435.214 626.326 L
436.667 626.295 L
438.12 626.264 L
439.574 626.231 L
441.026 626.198 L
442.48 626.164 L
443.933 626.13 L
445.386 626.094 L
446.84 626.057 L
448.293 626.02 L
449.747 625.982 L
451.2 625.943 L
452.653 625.902 L
454.107 625.861 L
455.56 625.818 L
457.014 625.775 L
458.467 625.73 L
459.92 625.684 L
461.374 625.637 L
462.826 625.588 L
464.28 625.537 L
465.733 625.486 L
467.186 625.432 L
468.64 625.377 L
470.093 625.32 L
471.547 625.262 L
473 625.201 L
474.453 625.138 L
475.907 625.073 L
477.36 625.006 L
478.814 624.936 L
480.267 624.864 L
481.72 624.789 L
483.174 624.711 L
484.626 624.63 L
486.08 624.546 L
487.533 624.458 L
488.986 624.367 L
490.44 624.271 L
491.893 624.171 L
493.347 624.067 L
494.8 623.958 L
496.253 623.843 L
497.707 623.723 L
499.16 623.596 L
500.614 623.463 L
502.067 623.323 L
503.52 623.174 L
504.974 623.017 L
506.426 622.851 L
507.88 622.675 L
509.333 622.487 L
510.786 622.287 L
512.24 622.073 L
513.693 621.844 L
515.147 621.598 L
516.6 621.334 L
518.053 621.048 L
519.507 620.738 L
520.96 620.401 L
522.414 620.034 L
523.867 619.631 L
525.32 619.189 L
526.773 618.699 L
528.227 618.155 L
529.68 617.547 L
531.133 616.864 L
532.586 616.09 L
534.04 615.208 L
535.493 614.192 L
536.947 613.014 L
538.4 611.634 L
539.853 610 L
541.307 608.044 L
542.76 605.68 L
544.214 602.804 L
545.667 599.304 L
547.12 595.118 L
548.573 590.383 L
550.026 585.74 L
551.48 582.579 L
552.933 582.404 L
554.386 585.308 L
555.84 589.859 L
557.293 594.605 L
558.747 598.836 L
560.2 602.383 L
561.653 605.296 L
563.107 607.685 L
564.56 609.657 L
566.014 611.3 L
567.467 612.683 L
568.92 613.86 L
570.374 614.869 L
571.826 615.744 L
573.28 616.508 L
574.733 617.179 L
576.186 617.774 L
577.64 618.304 L
579.093 618.778 L
580.547 619.205 L
582 619.591 L
583.453 619.942 L
584.907 620.261 L
586.36 620.553 L
587.814 620.821 L
589.267 621.067 L
590.72 621.294 L
592.174 621.504 L
593.626 621.699 L
595.08 621.879 L
596.533 622.047 L
597.986 622.204 L
599.44 622.35 L
600.893 622.487 L
602.347 622.614 L
603.8 622.734 L
605.253 622.847 L
606.707 622.952 L
608.16 623.052 L
609.614 623.145 L
611.067 623.233 L
612.52 623.316 L
613.974 623.394 L
615.427 623.468 L
616.88 623.537 L
618.333 623.603 L
619.786 623.665 L
621.24 623.723 L
622.693 623.778 L
624.147 623.831 L
625.6 623.88 L
627.053 623.926 L
628.507 623.97 L
629.96 624.011 L
631.414 624.05 L
632.867 624.06 L
634.32 624.095 L
635.773 624.128 L
637.227 624.158 L
638.68 624.187 L
640.133 624.213 L
641.586 624.238 L
643.04 624.262 L
644.493 624.283 L
645.947 624.304 L
647.4 624.322 L
648.853 624.339 L
650.307 624.355 L
651.76 624.369 L
653.214 624.382 L
654.667 624.394 L
656.12 624.405 L
657.573 624.414 L
659.026 624.422 L
660.48 624.429 L
661.933 624.434 L
663.386 624.439 L
664.84 624.443 L
666.293 624.445 L
667.747 624.446 L
669.2 624.446 L
670.653 624.446 L
672.107 624.444 L
673.56 624.441 L
675.014 624.437 L
676.467 624.432 L
677.92 624.427 L
679.374 624.42 L
680.826 624.412 L
682.28 624.403 L
683.733 624.394 L
685.186 624.383 L
686.64 624.372 L
688.093 624.359 L
689.547 624.345 L
691 624.331 L
692.453 624.316 L
693.907 624.299 L
695.36 624.282 L
696.814 624.263 L
698.267 624.244 L
699.72 624.224 L
701.174 624.202 L
702.626 624.18 L
704.08 624.157 L
705.533 624.132 L
706.986 624.107 L
708.44 624.08 L
709.893 624.052 L
711.347 624.024 L
712.8 623.994 L
714.253 623.963 L
715.707 623.93 L
717.16 623.897 L
718.614 623.862 L
720.067 623.827 L
721.52 623.79 L
722.974 623.751 L
724.427 623.711 L
725.88 623.67 L
727.333 623.628 L
728.786 623.584 L
730.24 623.539 L
731.693 623.492 L
733.147 623.443 L
734.6 623.393 L
736.053 623.342 L
737.507 623.288 L
738.96 623.233 L
740.414 623.176 L
741.867 623.118 L
743.32 623.057 L
744.773 622.994 L
746.227 622.929 L
747.68 622.863 L
749.133 622.793 L
750.586 622.722 L
752.04 622.648 L
753.493 622.572 L
754.947 622.493 L
756.4 622.411 L
757.853 622.327 L
759.307 622.24 L
760.76 622.149 L
762.214 622.056 L
763.667 621.959 L
765.12 621.859 L
766.573 621.755 L
768.026 621.647 L
769.48 621.535 L
770.933 621.419 L
772.386 621.299 L
773.84 621.174 L
775.293 621.044 L
776.747 620.909 L
778.2 620.768 L
779.653 620.622 L
781.107 620.469 L
782.56 620.31 L
784.014 620.145 L
785.467 619.972 L
786.92 619.791 L
788.374 619.602 L
789.826 619.405 L
791.28 619.198 L
792.733 618.981 L
794.186 618.754 L
795.64 618.515 L
797.093 618.264 L
798.547 617.999 L
800 617.721 L
801.453 617.427 L
802.907 617.116 L
804.36 616.788 L
805.814 616.44 L
807.267 616.07 L
808.72 615.677 L
810.174 615.259 L
811.626 614.812 L
813.08 614.335 L
814.533 613.823 L
815.986 613.274 L
817.44 612.662 L
818.893 612.024 L
820.347 611.332 L
821.8 610.581 L
823.253 609.763 L
824.707 608.868 L
826.16 607.886 L
827.614 606.803 L
829.067 605.603 L
830.52 604.268 L
831.974 602.772 L
833.427 601.088 L
834.88 599.178 L
836.333 596.996 L
837.786 594.484 L
839.24 591.564 L
840.693 588.138 L
842.147 584.078 L
843.6 579.214 L
845.053 573.332 L
846.507 566.167 L
847.96 557.444 L
849.414 547.006 L
850.867 535.197 L
852.32 523.618 L
853.773 515.741 L
855.227 515.33 L
856.68 522.616 L
858.133 534.016 L
859.586 545.904 L
861.04 556.508 L
862.493 565.399 L
863.947 572.707 L
865.4 578.705 L
866.853 583.661 L
868.307 587.795 L
869.76 591.279 L
871.214 594.246 L
872.667 596.797 L
874.12 599.01 L
875.573 600.947 L
877.026 602.654 L
878.48 604.168 L
879.933 605.52 L
881.386 606.734 L
882.84 607.829 L
884.293 608.822 L
885.747 609.726 L
887.2 610.553 L
888.653 611.311 L
890.107 612.009 L
891.56 612.653 L
893.014 613.249 L
894.467 613.803 L
895.92 614.318 L
897.374 614.798 L
898.826 615.247 L
900.28 615.667 L
901.733 616.061 L
903.186 616.431 L
904.64 616.779 L
906.093 617.107 L
907.547 617.416 L
909 617.708 L
910.453 617.984 L
911.907 618.244 L
913.36 618.491 L
914.814 618.725 L
916.267 618.946 L
917.72 619.155 L
919.174 619.353 L
920.626 619.541 L
922.08 619.718 L
923.533 619.885 L
924.986 620.043 L
926.44 620.191 L
927.893 620.33 L
929.347 620.454 L
930.8 620.574 L
932.253 620.685 L
933.707 620.785 L
935.16 620.875 L
936.614 620.953 L
938.067 621.019 L
939.52 621.071 L
940.974 621.107 L
942.427 621.124 L
943.88 621.119 L
945.333 621.087 L
946.786 621.021 L
948.24 620.915 L
949.693 620.761 L
951.147 620.553 L
952.6 620.302 L
954.053 620.056 L
955.507 619.915 L
956.96 619.989 L
958.414 620.286 L
959.867 620.701 L
961.32 621.129 L
962.773 621.516 L
964.227 621.852 L
965.68 622.129 L
967.133 622.376 L
968.586 622.591 L
970.04 622.78 L
971.493 622.949 L
972.947 623.1 L
974.4 623.239 L
975.853 623.365 L
977.307 623.483 L
978.76 623.592 L
980.214 623.694 L
981.667 623.79 L
983.12 623.881 L
984.573 623.968 L
986.026 624.05 L
987.48 624.128 L
988.933 624.203 L
990.386 624.275 L
991.84 624.344 L
993.293 624.411 L
994.747 624.475 L
996.2 624.537 L
997.653 624.597 L
999.107 624.656 L
1000.56 624.712 L
1002.014 624.767 L
1003.467 624.82 L
1004.92 624.872 L
1006.374 624.922 L
1007.826 624.971 L
1009.28 625.019 L
1010.733 625.066 L
1012.186 625.111 L
1013.64 625.156 L
1015.093 625.199 L
1016.547 625.242 L
1018 625.283 L
1018.104 625.286 L
S
GR
%%Trailer
%%Pages: 1
%%EOF
