%!PS-Adobe-3.0 EPSF-3.0
%%Creator: (MATLAB, The Mathworks, Inc. Version 9.4.0.813654 \(R2018a\). Operating System: Linux)
%%Title: /data/geodynamo/natafh/Dynamo/Acoustics/elastic_shell/Figures/ZoRo2/0S5.eps
%%CreationDate: 2018-12-21T13:13:11
%%Pages: (atend)
%%BoundingBox: 0 0 844 531
%%LanguageLevel: 3
%%EndComments
%%BeginProlog
%%BeginResource: procset (Apache XML Graphics Std ProcSet) 1.2 0
%%Version: 1.2 0
%%Copyright: (Copyright 2001-2003,2010 The Apache Software Foundation. License terms: http://www.apache.org/licenses/LICENSE-2.0)
/bd{bind def}bind def
/ld{load def}bd
/GR/grestore ld
/GS/gsave ld
/RM/rmoveto ld
/C/curveto ld
/t/show ld
/L/lineto ld
/ML/setmiterlimit ld
/CT/concat ld
/f/fill ld
/N/newpath ld
/S/stroke ld
/CC/setcmykcolor ld
/A/ashow ld
/cp/closepath ld
/RC/setrgbcolor ld
/LJ/setlinejoin ld
/GC/setgray ld
/LW/setlinewidth ld
/M/moveto ld
/re {4 2 roll M
1 index 0 rlineto
0 exch rlineto
neg 0 rlineto
cp } bd
/_ctm matrix def
/_tm matrix def
/BT { _ctm currentmatrix pop matrix _tm copy pop 0 0 moveto } bd
/ET { _ctm setmatrix } bd
/iTm { _ctm setmatrix _tm concat } bd
/Tm { _tm astore pop iTm 0 0 moveto } bd
/ux 0.0 def
/uy 0.0 def
/F {
  /Tp exch def
  /Tf exch def
  Tf findfont Tp scalefont setfont
  /cf Tf def  /cs Tp def
} bd
/ULS {currentpoint /uy exch def /ux exch def} bd
/ULE {
  /Tcx currentpoint pop def
  gsave
  newpath
  cf findfont cs scalefont dup
  /FontMatrix get 0 get /Ts exch def /FontInfo get dup
  /UnderlinePosition get Ts mul /To exch def
  /UnderlineThickness get Ts mul /Tt exch def
  ux uy To add moveto  Tcx uy To add lineto
  Tt setlinewidth stroke
  grestore
} bd
/OLE {
  /Tcx currentpoint pop def
  gsave
  newpath
  cf findfont cs scalefont dup
  /FontMatrix get 0 get /Ts exch def /FontInfo get dup
  /UnderlinePosition get Ts mul /To exch def
  /UnderlineThickness get Ts mul /Tt exch def
  ux uy To add cs add moveto Tcx uy To add cs add lineto
  Tt setlinewidth stroke
  grestore
} bd
/SOE {
  /Tcx currentpoint pop def
  gsave
  newpath
  cf findfont cs scalefont dup
  /FontMatrix get 0 get /Ts exch def /FontInfo get dup
  /UnderlinePosition get Ts mul /To exch def
  /UnderlineThickness get Ts mul /Tt exch def
  ux uy To add cs 10 mul 26 idiv add moveto Tcx uy To add cs 10 mul 26 idiv add lineto
  Tt setlinewidth stroke
  grestore
} bd
/QT {
/Y22 exch store
/X22 exch store
/Y21 exch store
/X21 exch store
currentpoint
/Y21 load 2 mul add 3 div exch
/X21 load 2 mul add 3 div exch
/X21 load 2 mul /X22 load add 3 div
/Y21 load 2 mul /Y22 load add 3 div
/X22 load /Y22 load curveto
} bd
/SSPD {
dup length /d exch dict def
{
/v exch def
/k exch def
currentpagedevice k known {
/cpdv currentpagedevice k get def
v cpdv ne {
/upd false def
/nullv v type /nulltype eq def
/nullcpdv cpdv type /nulltype eq def
nullv nullcpdv or
{
/upd true def
} {
/sametype v type cpdv type eq def
sametype {
v type /arraytype eq {
/vlen v length def
/cpdvlen cpdv length def
vlen cpdvlen eq {
0 1 vlen 1 sub {
/i exch def
/obj v i get def
/cpdobj cpdv i get def
obj cpdobj ne {
/upd true def
exit
} if
} for
} {
/upd true def
} ifelse
} {
v type /dicttype eq {
v {
/dv exch def
/dk exch def
/cpddv cpdv dk get def
dv cpddv ne {
/upd true def
exit
} if
} forall
} {
/upd true def
} ifelse
} ifelse
} if
} ifelse
upd true eq {
d k v put
} if
} if
} if
} forall
d length 0 gt {
d setpagedevice
} if
} bd
/RE { % /NewFontName [NewEncodingArray] /FontName RE -
  findfont dup length dict begin
  {
    1 index /FID ne
    {def} {pop pop} ifelse
  } forall
  /Encoding exch def
  /FontName 1 index def
  currentdict definefont pop
  end
} bind def
%%EndResource
%%BeginResource: procset (Apache XML Graphics EPS ProcSet) 1.0 0
%%Version: 1.0 0
%%Copyright: (Copyright 2002-2003 The Apache Software Foundation. License terms: http://www.apache.org/licenses/LICENSE-2.0)
/BeginEPSF { %def
/b4_Inc_state save def         % Save state for cleanup
/dict_count countdictstack def % Count objects on dict stack
/op_count count 1 sub def      % Count objects on operand stack
userdict begin                 % Push userdict on dict stack
/showpage { } def              % Redefine showpage, { } = null proc
0 setgray 0 setlinecap         % Prepare graphics state
1 setlinewidth 0 setlinejoin
10 setmiterlimit [ ] 0 setdash newpath
/languagelevel where           % If level not equal to 1 then
{pop languagelevel             % set strokeadjust and
1 ne                           % overprint to their defaults.
{false setstrokeadjust false setoverprint
} if
} if
} bd
/EndEPSF { %def
count op_count sub {pop} repeat            % Clean up stacks
countdictstack dict_count sub {end} repeat
b4_Inc_state restore
} bd
%%EndResource
%FOPBeginFontDict
%%IncludeResource: font Courier-Oblique
%%IncludeResource: font Courier-BoldOblique
%%IncludeResource: font Courier-Bold
%%IncludeResource: font ZapfDingbats
%%IncludeResource: font Symbol
%%IncludeResource: font Helvetica
%%IncludeResource: font Helvetica-Oblique
%%IncludeResource: font Helvetica-Bold
%%IncludeResource: font Helvetica-BoldOblique
%%IncludeResource: font Times-Roman
%%IncludeResource: font Times-Italic
%%IncludeResource: font Times-Bold
%%IncludeResource: font Times-BoldItalic
%%IncludeResource: font Courier
%FOPEndFontDict
%%BeginResource: encoding WinAnsiEncoding
/WinAnsiEncoding [
/.notdef /.notdef /.notdef /.notdef /.notdef
/.notdef /.notdef /.notdef /.notdef /.notdef
/.notdef /.notdef /.notdef /.notdef /.notdef
/.notdef /.notdef /.notdef /.notdef /.notdef
/.notdef /.notdef /.notdef /.notdef /.notdef
/.notdef /.notdef /.notdef /.notdef /.notdef
/.notdef /.notdef /space /exclam /quotedbl
/numbersign /dollar /percent /ampersand /quotesingle
/parenleft /parenright /asterisk /plus /comma
/hyphen /period /slash /zero /one
/two /three /four /five /six
/seven /eight /nine /colon /semicolon
/less /equal /greater /question /at
/A /B /C /D /E
/F /G /H /I /J
/K /L /M /N /O
/P /Q /R /S /T
/U /V /W /X /Y
/Z /bracketleft /backslash /bracketright /asciicircum
/underscore /quoteleft /a /b /c
/d /e /f /g /h
/i /j /k /l /m
/n /o /p /q /r
/s /t /u /v /w
/x /y /z /braceleft /bar
/braceright /asciitilde /bullet /Euro /bullet
/quotesinglbase /florin /quotedblbase /ellipsis /dagger
/daggerdbl /circumflex /perthousand /Scaron /guilsinglleft
/OE /bullet /Zcaron /bullet /bullet
/quoteleft /quoteright /quotedblleft /quotedblright /bullet
/endash /emdash /asciitilde /trademark /scaron
/guilsinglright /oe /bullet /zcaron /Ydieresis
/space /exclamdown /cent /sterling /currency
/yen /brokenbar /section /dieresis /copyright
/ordfeminine /guillemotleft /logicalnot /sfthyphen /registered
/macron /degree /plusminus /twosuperior /threesuperior
/acute /mu /paragraph /middot /cedilla
/onesuperior /ordmasculine /guillemotright /onequarter /onehalf
/threequarters /questiondown /Agrave /Aacute /Acircumflex
/Atilde /Adieresis /Aring /AE /Ccedilla
/Egrave /Eacute /Ecircumflex /Edieresis /Igrave
/Iacute /Icircumflex /Idieresis /Eth /Ntilde
/Ograve /Oacute /Ocircumflex /Otilde /Odieresis
/multiply /Oslash /Ugrave /Uacute /Ucircumflex
/Udieresis /Yacute /Thorn /germandbls /agrave
/aacute /acircumflex /atilde /adieresis /aring
/ae /ccedilla /egrave /eacute /ecircumflex
/edieresis /igrave /iacute /icircumflex /idieresis
/eth /ntilde /ograve /oacute /ocircumflex
/otilde /odieresis /divide /oslash /ugrave
/uacute /ucircumflex /udieresis /yacute /thorn
/ydieresis
] def
%%EndResource
%FOPBeginFontReencode
/Courier-Oblique findfont
dup length dict begin
  {1 index /FID ne {def} {pop pop} ifelse} forall
  /Encoding WinAnsiEncoding def
  currentdict
end
/Courier-Oblique exch definefont pop
/Courier-BoldOblique findfont
dup length dict begin
  {1 index /FID ne {def} {pop pop} ifelse} forall
  /Encoding WinAnsiEncoding def
  currentdict
end
/Courier-BoldOblique exch definefont pop
/Courier-Bold findfont
dup length dict begin
  {1 index /FID ne {def} {pop pop} ifelse} forall
  /Encoding WinAnsiEncoding def
  currentdict
end
/Courier-Bold exch definefont pop
/Helvetica findfont
dup length dict begin
  {1 index /FID ne {def} {pop pop} ifelse} forall
  /Encoding WinAnsiEncoding def
  currentdict
end
/Helvetica exch definefont pop
/Helvetica-Oblique findfont
dup length dict begin
  {1 index /FID ne {def} {pop pop} ifelse} forall
  /Encoding WinAnsiEncoding def
  currentdict
end
/Helvetica-Oblique exch definefont pop
/Helvetica-Bold findfont
dup length dict begin
  {1 index /FID ne {def} {pop pop} ifelse} forall
  /Encoding WinAnsiEncoding def
  currentdict
end
/Helvetica-Bold exch definefont pop
/Helvetica-BoldOblique findfont
dup length dict begin
  {1 index /FID ne {def} {pop pop} ifelse} forall
  /Encoding WinAnsiEncoding def
  currentdict
end
/Helvetica-BoldOblique exch definefont pop
/Times-Roman findfont
dup length dict begin
  {1 index /FID ne {def} {pop pop} ifelse} forall
  /Encoding WinAnsiEncoding def
  currentdict
end
/Times-Roman exch definefont pop
/Times-Italic findfont
dup length dict begin
  {1 index /FID ne {def} {pop pop} ifelse} forall
  /Encoding WinAnsiEncoding def
  currentdict
end
/Times-Italic exch definefont pop
/Times-Bold findfont
dup length dict begin
  {1 index /FID ne {def} {pop pop} ifelse} forall
  /Encoding WinAnsiEncoding def
  currentdict
end
/Times-Bold exch definefont pop
/Times-BoldItalic findfont
dup length dict begin
  {1 index /FID ne {def} {pop pop} ifelse} forall
  /Encoding WinAnsiEncoding def
  currentdict
end
/Times-BoldItalic exch definefont pop
/Courier findfont
dup length dict begin
  {1 index /FID ne {def} {pop pop} ifelse} forall
  /Encoding WinAnsiEncoding def
  currentdict
end
/Courier exch definefont pop
%FOPEndFontReencode
%%EndProlog
%%Page: 1 1
%%PageBoundingBox: 0 0 844 531
%%BeginPageSetup
[1 0 0 -1 0 531] CT
%%EndPageSetup
GS
[0.75 0 0 0.75 0 0] CT
1 GC
N
0 0 1125 708 re
f
GR
GS
[0.75 0 0 0.75 0 0] CT
1 GC
N
0 0 1125 708 re
f
GR
GS
[0.75 0 0 0.75 0 0] CT
1 GC
N
146 206 M
1018 206 L
1018 74 L
146 74 L
cp
f
GR
GS
[0.75 0 0 0.75 0 0] CT
0.149 GC
2 setlinecap
1 LJ
0.667 LW
N
146 206 M
1018 206 L
S
GR
GS
[0.75 0 0 0.75 0 0] CT
0.149 GC
2 setlinecap
1 LJ
0.667 LW
N
146 74 M
1018 74 L
S
GR
GS
[0.75 0 0 0.75 0 0] CT
0.149 GC
2 setlinecap
1 LJ
0.667 LW
N
193.135 206 M
193.135 197.28 L
S
GR
GS
[0.75 0 0 0.75 0 0] CT
0.149 GC
2 setlinecap
1 LJ
0.667 LW
N
310.973 206 M
310.973 197.28 L
S
GR
GS
[0.75 0 0 0.75 0 0] CT
0.149 GC
2 setlinecap
1 LJ
0.667 LW
N
428.811 206 M
428.811 197.28 L
S
GR
GS
[0.75 0 0 0.75 0 0] CT
0.149 GC
2 setlinecap
1 LJ
0.667 LW
N
546.649 206 M
546.649 197.28 L
S
GR
GS
[0.75 0 0 0.75 0 0] CT
0.149 GC
2 setlinecap
1 LJ
0.667 LW
N
664.487 206 M
664.487 197.28 L
S
GR
GS
[0.75 0 0 0.75 0 0] CT
0.149 GC
2 setlinecap
1 LJ
0.667 LW
N
782.324 206 M
782.324 197.28 L
S
GR
GS
[0.75 0 0 0.75 0 0] CT
0.149 GC
2 setlinecap
1 LJ
0.667 LW
N
900.162 206 M
900.162 197.28 L
S
GR
GS
[0.75 0 0 0.75 0 0] CT
0.149 GC
2 setlinecap
1 LJ
0.667 LW
N
1018 206 M
1018 197.28 L
S
GR
GS
[0.75 0 0 0.75 0 0] CT
0.149 GC
2 setlinecap
1 LJ
0.667 LW
N
193.135 74 M
193.135 82.72 L
S
GR
GS
[0.75 0 0 0.75 0 0] CT
0.149 GC
2 setlinecap
1 LJ
0.667 LW
N
310.973 74 M
310.973 82.72 L
S
GR
GS
[0.75 0 0 0.75 0 0] CT
0.149 GC
2 setlinecap
1 LJ
0.667 LW
N
428.811 74 M
428.811 82.72 L
S
GR
GS
[0.75 0 0 0.75 0 0] CT
0.149 GC
2 setlinecap
1 LJ
0.667 LW
N
546.649 74 M
546.649 82.72 L
S
GR
GS
[0.75 0 0 0.75 0 0] CT
0.149 GC
2 setlinecap
1 LJ
0.667 LW
N
664.487 74 M
664.487 82.72 L
S
GR
GS
[0.75 0 0 0.75 0 0] CT
0.149 GC
2 setlinecap
1 LJ
0.667 LW
N
782.324 74 M
782.324 82.72 L
S
GR
GS
[0.75 0 0 0.75 0 0] CT
0.149 GC
2 setlinecap
1 LJ
0.667 LW
N
900.162 74 M
900.162 82.72 L
S
GR
GS
[0.75 0 0 0.75 0 0] CT
0.149 GC
2 setlinecap
1 LJ
0.667 LW
N
1018 74 M
1018 82.72 L
S
GR
GS
[0.75 0 0 0.75 144.85135 157.90001] CT
0.149 GC
/Helvetica 12.667 F
GS
[1 0 0 1 0 0] CT
-12.5 12 moveto 
1 -1 scale
(500) t 
GR
GR
GS
[0.75 0 0 0.75 233.22972 157.90001] CT
0.149 GC
/Helvetica 12.667 F
GS
[1 0 0 1 0 0] CT
-16.5 12 moveto 
1 -1 scale
(1000) t 
GR
GR
GS
[0.75 0 0 0.75 321.60812 157.90001] CT
0.149 GC
/Helvetica 12.667 F
GS
[1 0 0 1 0 0] CT
-16.5 12 moveto 
1 -1 scale
(1500) t 
GR
GR
GS
[0.75 0 0 0.75 409.98647 157.90001] CT
0.149 GC
/Helvetica 12.667 F
GS
[1 0 0 1 0 0] CT
-16.5 12 moveto 
1 -1 scale
(2000) t 
GR
GR
GS
[0.75 0 0 0.75 498.36488 157.90001] CT
0.149 GC
/Helvetica 12.667 F
GS
[1 0 0 1 0 0] CT
-16.5 12 moveto 
1 -1 scale
(2500) t 
GR
GR
GS
[0.75 0 0 0.75 586.74326 157.90001] CT
0.149 GC
/Helvetica 12.667 F
GS
[1 0 0 1 0 0] CT
-16.5 12 moveto 
1 -1 scale
(3000) t 
GR
GR
GS
[0.75 0 0 0.75 675.12163 157.90001] CT
0.149 GC
/Helvetica 12.667 F
GS
[1 0 0 1 0 0] CT
-16.5 12 moveto 
1 -1 scale
(3500) t 
GR
GR
GS
[0.75 0 0 0.75 763.5 157.90001] CT
0.149 GC
/Helvetica 12.667 F
GS
[1 0 0 1 0 0] CT
-16.5 12 moveto 
1 -1 scale
(4000) t 
GR
GR
GS
[0.75 0 0 0.75 436.50032 169.89999] CT
0.149 GC
/Helvetica 13.933 F
GS
[1 0 0 1 0 0] CT
-73.5 13 moveto 
1 -1 scale
(mode frequency \(Hz\)) t 
GR
GR
GS
[0.75 0 0 0.75 0 0] CT
0.149 GC
2 setlinecap
1 LJ
0.667 LW
N
146 206 M
146 74 L
S
GR
GS
[0.75 0 0 0.75 0 0] CT
0.149 GC
2 setlinecap
1 LJ
0.667 LW
N
1018 206 M
1018 74 L
S
GR
GS
[0.75 0 0 0.75 0 0] CT
0.149 GC
2 setlinecap
1 LJ
0.667 LW
N
146 206 M
154.72 206 L
S
GR
GS
[0.75 0 0 0.75 0 0] CT
0.149 GC
2 setlinecap
1 LJ
0.667 LW
N
146 162 M
154.72 162 L
S
GR
GS
[0.75 0 0 0.75 0 0] CT
0.149 GC
2 setlinecap
1 LJ
0.667 LW
N
146 118 M
154.72 118 L
S
GR
GS
[0.75 0 0 0.75 0 0] CT
0.149 GC
2 setlinecap
1 LJ
0.667 LW
N
146 74 M
154.72 74 L
S
GR
GS
[0.75 0 0 0.75 0 0] CT
0.149 GC
2 setlinecap
1 LJ
0.667 LW
N
1018 206 M
1009.28 206 L
S
GR
GS
[0.75 0 0 0.75 0 0] CT
0.149 GC
2 setlinecap
1 LJ
0.667 LW
N
1018 162 M
1009.28 162 L
S
GR
GS
[0.75 0 0 0.75 0 0] CT
0.149 GC
2 setlinecap
1 LJ
0.667 LW
N
1018 118 M
1009.28 118 L
S
GR
GS
[0.75 0 0 0.75 0 0] CT
0.149 GC
2 setlinecap
1 LJ
0.667 LW
N
1018 74 M
1009.28 74 L
S
GR
GS
[0.75 0 0 0.75 106.09999 154.5] CT
0.149 GC
/Helvetica 12.667 F
GS
[1 0 0 1 0 0] CT
-9 4.5 moveto 
1 -1 scale
(0) t 
GR
GR
GS
[0.75 0 0 0.75 106.09999 121.5] CT
0.149 GC
/Helvetica 12.667 F
GS
[1 0 0 1 0 0] CT
-9 4.5 moveto 
1 -1 scale
(5) t 
GR
GR
GS
[0.75 0 0 0.75 106.09999 88.5] CT
0.149 GC
/Helvetica 12.667 F
GS
[1 0 0 1 0 0] CT
-17 4.5 moveto 
1 -1 scale
(10) t 
GR
GR
GS
[0.75 0 0 0.75 106.09999 55.5] CT
0.149 GC
/Helvetica 12.667 F
GS
[1 0 0 1 0 0] CT
-17 4.5 moveto 
1 -1 scale
(15) t 
GR
GR
GS
[0 -0.75 0.75 0 90.85 104.99995] CT
0.149 GC
/Helvetica 13.933 F
GS
[1 0 0 1 0 0] CT
-52.5 -4 moveto 
1 -1 scale
(fake amplitude) t 
GR
GR
GS
[0.75 0 0 0.75 436.50041 53.54062] CT
/Helvetica-Bold 13.933 F
GS
[1 0 0 1 0 0] CT
-184 -4 moveto 
1 -1 scale
(degenerate SNRI multiplets for ZoRo2-rigid-air) t 
GR
GR
GS
[0.75 0 0 0.75 0 0] CT
0.149 GC
1 LJ
0.667 LW
N
146 206 M
1018 206 L
S
GR
GS
[0.75 0 0 0.75 158.21801 88.5] CT
10.0 ML
N
4 0 M
4 -2.209 2.209 -4 0 -4 C
-2.209 -4 -4 -2.209 -4 0 C
-4 2.209 -2.209 4 0 4 C
2.209 4 4 2.209 4 0 C
cp
S
GR
GS
[0.75 0 0 0.75 219.83066 88.5] CT
10.0 ML
N
4 0 M
4 -2.209 2.209 -4 0 -4 C
-2.209 -4 -4 -2.209 -4 0 C
-4 2.209 -2.209 4 0 4 C
2.209 4 4 2.209 4 0 C
cp
S
GR
GS
[0.75 0 0 0.75 277.11697 88.5] CT
10.0 ML
N
4 0 M
4 -2.209 2.209 -4 0 -4 C
-2.209 -4 -4 -2.209 -4 0 C
-4 2.209 -2.209 4 0 4 C
2.209 4 4 2.209 4 0 C
cp
S
GR
GS
[0.75 0 0 0.75 332.47735 88.5] CT
10.0 ML
N
4 0 M
4 -2.209 2.209 -4 0 -4 C
-2.209 -4 -4 -2.209 -4 0 C
-4 2.209 -2.209 4 0 4 C
2.209 4 4 2.209 4 0 C
cp
S
GR
GS
[0.75 0 0 0.75 386.72076 88.5] CT
10.0 ML
N
4 0 M
4 -2.209 2.209 -4 0 -4 C
-2.209 -4 -4 -2.209 -4 0 C
-4 2.209 -2.209 4 0 4 C
2.209 4 4 2.209 4 0 C
cp
S
GR
GS
[0.75 0 0 0.75 440.22464 88.5] CT
10.0 ML
N
4 0 M
4 -2.209 2.209 -4 0 -4 C
-2.209 -4 -4 -2.209 -4 0 C
-4 2.209 -2.209 4 0 4 C
2.209 4 4 2.209 4 0 C
cp
S
GR
GS
[0.75 0 0 0.75 493.1976 88.5] CT
10.0 ML
N
4 0 M
4 -2.209 2.209 -4 0 -4 C
-2.209 -4 -4 -2.209 -4 0 C
-4 2.209 -2.209 4 0 4 C
2.209 4 4 2.209 4 0 C
cp
S
GR
GS
[0.75 0 0 0.75 545.76837 88.5] CT
10.0 ML
N
4 0 M
4 -2.209 2.209 -4 0 -4 C
-2.209 -4 -4 -2.209 -4 0 C
-4 2.209 -2.209 4 0 4 C
2.209 4 4 2.209 4 0 C
cp
S
GR
GS
[0.75 0 0 0.75 598.02219 88.5] CT
10.0 ML
N
4 0 M
4 -2.209 2.209 -4 0 -4 C
-2.209 -4 -4 -2.209 -4 0 C
-4 2.209 -2.209 4 0 4 C
2.209 4 4 2.209 4 0 C
cp
S
GR
GS
[0.75 0 0 0.75 650.01878 88.5] CT
10.0 ML
N
4 0 M
4 -2.209 2.209 -4 0 -4 C
-2.209 -4 -4 -2.209 -4 0 C
-4 2.209 -2.209 4 0 4 C
2.209 4 4 2.209 4 0 C
cp
S
GR
GS
[0.75 0 0 0.75 701.80188 88.5] CT
10.0 ML
N
4 0 M
4 -2.209 2.209 -4 0 -4 C
-2.209 -4 -4 -2.209 -4 0 C
-4 2.209 -2.209 4 0 4 C
2.209 4 4 2.209 4 0 C
cp
S
GR
GS
[0.75 0 0 0.75 753.40425 88.5] CT
10.0 ML
N
4 0 M
4 -2.209 2.209 -4 0 -4 C
-2.209 -4 -4 -2.209 -4 0 C
-4 2.209 -2.209 4 0 4 C
2.209 4 4 2.209 4 0 C
cp
S
GR
GS
[0.75 0 0 0.75 0 0] CT
1 LJ
0.667 LW
N
210.957 206 M
210.957 118 L
S
GR
GS
[0.75 0 0 0.75 0 0] CT
1 LJ
0.667 LW
N
293.108 206 M
293.108 118 L
S
GR
GS
[0.75 0 0 0.75 0 0] CT
1 LJ
0.667 LW
N
369.489 206 M
369.489 118 L
S
GR
GS
[0.75 0 0 0.75 0 0] CT
1 LJ
0.667 LW
N
443.303 206 M
443.303 118 L
S
GR
GS
[0.75 0 0 0.75 0 0] CT
1 LJ
0.667 LW
N
515.628 206 M
515.628 118 L
S
GR
GS
[0.75 0 0 0.75 0 0] CT
1 LJ
0.667 LW
N
586.966 206 M
586.966 118 L
S
GR
GS
[0.75 0 0 0.75 0 0] CT
1 LJ
0.667 LW
N
657.597 206 M
657.597 118 L
S
GR
GS
[0.75 0 0 0.75 0 0] CT
1 LJ
0.667 LW
N
727.691 206 M
727.691 118 L
S
GR
GS
[0.75 0 0 0.75 0 0] CT
1 LJ
0.667 LW
N
797.363 206 M
797.363 118 L
S
GR
GS
[0.75 0 0 0.75 0 0] CT
1 LJ
0.667 LW
N
866.692 206 M
866.692 118 L
S
GR
GS
[0.75 0 0 0.75 0 0] CT
1 LJ
0.667 LW
N
935.736 206 M
935.736 118 L
S
GR
GS
[0.75 0 0 0.75 0 0] CT
1 LJ
0.667 LW
N
1004.539 206 M
1004.539 118 L
S
GR
GS
[0.75 0 0 0.75 47.25 87.75] CT
/Helvetica 10.667 F
GS
[1 0 0 1 0 0] CT
0 0 moveto 
1 -1 scale
(0) t 
GR
GR
GS
[0.75 0 0 0.75 52.5 83.25] CT
/Helvetica 13.333 F
GS
[1 0 0 1 0 0] CT
0 0 moveto 
1 -1 scale
(S) t 
GR
GR
GS
[0.75 0 0 0.75 59.25 87.75] CT
/Helvetica 10.667 F
GS
[1 0 0 1 0 0] CT
0 0 moveto 
1 -1 scale
(0) t 
GR
GR
GS
[0.75 0 0 0.75 149.25 87.75] CT
/Helvetica 10.667 F
GS
[1 0 0 1 0 0] CT
0 0 moveto 
1 -1 scale
(0) t 
GR
GR
GS
[0.75 0 0 0.75 154.5 83.25] CT
/Helvetica 13.333 F
GS
[1 0 0 1 0 0] CT
0 0 moveto 
1 -1 scale
(S) t 
GR
GR
GS
[0.75 0 0 0.75 161.25 87.75] CT
/Helvetica 10.667 F
GS
[1 0 0 1 0 0] CT
0 0 moveto 
1 -1 scale
(1) t 
GR
GR
GS
[0.75 0 0 0.75 210.75 87.75] CT
/Helvetica 10.667 F
GS
[1 0 0 1 0 0] CT
0 0 moveto 
1 -1 scale
(0) t 
GR
GR
GS
[0.75 0 0 0.75 216 83.25] CT
/Helvetica 13.333 F
GS
[1 0 0 1 0 0] CT
0 0 moveto 
1 -1 scale
(S) t 
GR
GR
GS
[0.75 0 0 0.75 222.75 87.75] CT
/Helvetica 10.667 F
GS
[1 0 0 1 0 0] CT
0 0 moveto 
1 -1 scale
(2) t 
GR
GR
GS
[0.75 0 0 0.75 267.75 87.75] CT
/Helvetica 10.667 F
GS
[1 0 0 1 0 0] CT
0 0 moveto 
1 -1 scale
(0) t 
GR
GR
GS
[0.75 0 0 0.75 273 83.25] CT
/Helvetica 13.333 F
GS
[1 0 0 1 0 0] CT
0 0 moveto 
1 -1 scale
(S) t 
GR
GR
GS
[0.75 0 0 0.75 279.75 87.75] CT
/Helvetica 10.667 F
GS
[1 0 0 1 0 0] CT
0 0 moveto 
1 -1 scale
(3) t 
GR
GR
GS
[0.75 0 0 0.75 323.25 87.75] CT
/Helvetica 10.667 F
GS
[1 0 0 1 0 0] CT
0 0 moveto 
1 -1 scale
(0) t 
GR
GR
GS
[0.75 0 0 0.75 328.5 83.25] CT
/Helvetica 13.333 F
GS
[1 0 0 1 0 0] CT
0 0 moveto 
1 -1 scale
(S) t 
GR
GR
GS
[0.75 0 0 0.75 335.25 87.75] CT
/Helvetica 10.667 F
GS
[1 0 0 1 0 0] CT
0 0 moveto 
1 -1 scale
(4) t 
GR
GR
GS
[0.75 0 0 0.75 378 87.75] CT
/Helvetica 10.667 F
GS
[1 0 0 1 0 0] CT
0 0 moveto 
1 -1 scale
(0) t 
GR
GR
GS
[0.75 0 0 0.75 383.25 83.25] CT
/Helvetica 13.333 F
GS
[1 0 0 1 0 0] CT
0 0 moveto 
1 -1 scale
(S) t 
GR
GR
GS
[0.75 0 0 0.75 390 87.75] CT
/Helvetica 10.667 F
GS
[1 0 0 1 0 0] CT
0 0 moveto 
1 -1 scale
(5) t 
GR
GR
GS
[0.75 0 0 0.75 431.25 87.75] CT
/Helvetica 10.667 F
GS
[1 0 0 1 0 0] CT
0 0 moveto 
1 -1 scale
(0) t 
GR
GR
GS
[0.75 0 0 0.75 436.5 83.25] CT
/Helvetica 13.333 F
GS
[1 0 0 1 0 0] CT
0 0 moveto 
1 -1 scale
(S) t 
GR
GR
GS
[0.75 0 0 0.75 443.25 87.75] CT
/Helvetica 10.667 F
GS
[1 0 0 1 0 0] CT
0 0 moveto 
1 -1 scale
(6) t 
GR
GR
GS
[0.75 0 0 0.75 484.5 87.75] CT
/Helvetica 10.667 F
GS
[1 0 0 1 0 0] CT
0 0 moveto 
1 -1 scale
(0) t 
GR
GR
GS
[0.75 0 0 0.75 489.75 83.25] CT
/Helvetica 13.333 F
GS
[1 0 0 1 0 0] CT
0 0 moveto 
1 -1 scale
(S) t 
GR
GR
GS
[0.75 0 0 0.75 496.5 87.75] CT
/Helvetica 10.667 F
GS
[1 0 0 1 0 0] CT
0 0 moveto 
1 -1 scale
(7) t 
GR
GR
GS
[0.75 0 0 0.75 537 87.75] CT
/Helvetica 10.667 F
GS
[1 0 0 1 0 0] CT
0 0 moveto 
1 -1 scale
(0) t 
GR
GR
GS
[0.75 0 0 0.75 542.25 83.25] CT
/Helvetica 13.333 F
GS
[1 0 0 1 0 0] CT
0 0 moveto 
1 -1 scale
(S) t 
GR
GR
GS
[0.75 0 0 0.75 549 87.75] CT
/Helvetica 10.667 F
GS
[1 0 0 1 0 0] CT
0 0 moveto 
1 -1 scale
(8) t 
GR
GR
GS
[0.75 0 0 0.75 588.75 87.75] CT
/Helvetica 10.667 F
GS
[1 0 0 1 0 0] CT
0 0 moveto 
1 -1 scale
(0) t 
GR
GR
GS
[0.75 0 0 0.75 594 83.25] CT
/Helvetica 13.333 F
GS
[1 0 0 1 0 0] CT
0 0 moveto 
1 -1 scale
(S) t 
GR
GR
GS
[0.75 0 0 0.75 600.75 87.75] CT
/Helvetica 10.667 F
GS
[1 0 0 1 0 0] CT
0 0 moveto 
1 -1 scale
(9) t 
GR
GR
GS
[0.75 0 0 0.75 639 87.75] CT
/Helvetica 10.667 F
GS
[1 0 0 1 0 0] CT
0 0 moveto 
1 -1 scale
(0) t 
GR
GR
GS
[0.75 0 0 0.75 644.25 83.25] CT
/Helvetica 13.333 F
GS
[1 0 0 1 0 0] CT
0 0 moveto 
1 -1 scale
(S) t 
GR
GR
GS
[0.75 0 0 0.75 651 87.75] CT
/Helvetica 10.667 F
GS
[1 0 0 1 0 0] CT
0 0 moveto 
1 -1 scale
(10) t 
GR
GR
GS
[0.75 0 0 0.75 690.75 87.75] CT
/Helvetica 10.667 F
GS
[1 0 0 1 0 0] CT
0 0 moveto 
1 -1 scale
(0) t 
GR
GR
GS
[0.75 0 0 0.75 696 83.25] CT
/Helvetica 13.333 F
GS
[1 0 0 1 0 0] CT
0 0 moveto 
1 -1 scale
(S) t 
GR
GR
GS
[0.75 0 0 0.75 702.75 87.75] CT
/Helvetica 10.667 F
GS
[1 0 0 1 0 0] CT
0 0 moveto 
1 -1 scale
(11) t 
GR
GR
GS
[0.75 0 0 0.75 742.5 87.75] CT
/Helvetica 10.667 F
GS
[1 0 0 1 0 0] CT
0 0 moveto 
1 -1 scale
(0) t 
GR
GR
GS
[0.75 0 0 0.75 747.75 83.25] CT
/Helvetica 13.333 F
GS
[1 0 0 1 0 0] CT
0 0 moveto 
1 -1 scale
(S) t 
GR
GR
GS
[0.75 0 0 0.75 754.5 87.75] CT
/Helvetica 10.667 F
GS
[1 0 0 1 0 0] CT
0 0 moveto 
1 -1 scale
(12) t 
GR
GR
GS
[0.75 0 0 0.75 793.5 87.75] CT
/Helvetica 10.667 F
GS
[1 0 0 1 0 0] CT
0 0 moveto 
1 -1 scale
(0) t 
GR
GR
GS
[0.75 0 0 0.75 798.75 83.25] CT
/Helvetica 13.333 F
GS
[1 0 0 1 0 0] CT
0 0 moveto 
1 -1 scale
(S) t 
GR
GR
GS
[0.75 0 0 0.75 805.5 87.75] CT
/Helvetica 10.667 F
GS
[1 0 0 1 0 0] CT
0 0 moveto 
1 -1 scale
(13) t 
GR
GR
GS
[0.75 0 0 0.75 276.10565 81.9] CT
10.0 ML
N
-2.828 -2.828 M
2.828 2.828 L
-2.828 2.828 M
2.828 -2.828 L
S
GR
GS
[0.75 0 0 0.75 346.83142 81.9] CT
10.0 ML
N
-2.828 -2.828 M
2.828 2.828 L
-2.828 2.828 M
2.828 -2.828 L
S
GR
GS
[0.75 0 0 0.75 412.79645 81.9] CT
10.0 ML
N
-2.828 -2.828 M
2.828 2.828 L
-2.828 2.828 M
2.828 -2.828 L
S
GR
GS
[0.75 0 0 0.75 476.03705 81.9] CT
10.0 ML
N
-2.828 -2.828 M
2.828 2.828 L
-2.828 2.828 M
2.828 -2.828 L
S
GR
GS
[0.75 0 0 0.75 537.46262 81.9] CT
10.0 ML
N
-2.828 -2.828 M
2.828 2.828 L
-2.828 2.828 M
2.828 -2.828 L
S
GR
GS
[0.75 0 0 0.75 597.57193 81.9] CT
10.0 ML
N
-2.828 -2.828 M
2.828 2.828 L
-2.828 2.828 M
2.828 -2.828 L
S
GR
GS
[0.75 0 0 0.75 656.6727 81.9] CT
10.0 ML
N
-2.828 -2.828 M
2.828 2.828 L
-2.828 2.828 M
2.828 -2.828 L
S
GR
GS
[0.75 0 0 0.75 714.97032 81.9] CT
10.0 ML
N
-2.828 -2.828 M
2.828 2.828 L
-2.828 2.828 M
2.828 -2.828 L
S
GR
GS
[0.75 0 0 0.75 0 0] CT
1 LJ
0.667 LW
N
368.141 206 M
368.141 109.2 L
S
GR
GS
[0.75 0 0 0.75 0 0] CT
1 LJ
0.667 LW
N
462.442 206 M
462.442 109.2 L
S
GR
GS
[0.75 0 0 0.75 0 0] CT
1 LJ
0.667 LW
N
550.395 206 M
550.395 109.2 L
S
GR
GS
[0.75 0 0 0.75 0 0] CT
1 LJ
0.667 LW
N
634.716 206 M
634.716 109.2 L
S
GR
GS
[0.75 0 0 0.75 0 0] CT
1 LJ
0.667 LW
N
716.617 206 M
716.617 109.2 L
S
GR
GS
[0.75 0 0 0.75 0 0] CT
1 LJ
0.667 LW
N
796.763 206 M
796.763 109.2 L
S
GR
GS
[0.75 0 0 0.75 0 0] CT
1 LJ
0.667 LW
N
875.564 206 M
875.564 109.2 L
S
GR
GS
[0.75 0 0 0.75 0 0] CT
1 LJ
0.667 LW
N
953.294 206 M
953.294 109.2 L
S
GR
GS
[0.75 0 0 0.75 267 81] CT
/Helvetica 10.667 F
GS
[1 0 0 1 0 0] CT
0 0 moveto 
1 -1 scale
(1) t 
GR
GR
GS
[0.75 0 0 0.75 272.25 76.5] CT
/Helvetica 13.333 F
GS
[1 0 0 1 0 0] CT
0 0 moveto 
1 -1 scale
(S) t 
GR
GR
GS
[0.75 0 0 0.75 279 81] CT
/Helvetica 10.667 F
GS
[1 0 0 1 0 0] CT
0 0 moveto 
1 -1 scale
(0) t 
GR
GR
GS
[0.75 0 0 0.75 337.5 81] CT
/Helvetica 10.667 F
GS
[1 0 0 1 0 0] CT
0 0 moveto 
1 -1 scale
(1) t 
GR
GR
GS
[0.75 0 0 0.75 342.75 76.5] CT
/Helvetica 13.333 F
GS
[1 0 0 1 0 0] CT
0 0 moveto 
1 -1 scale
(S) t 
GR
GR
GS
[0.75 0 0 0.75 349.5 81] CT
/Helvetica 10.667 F
GS
[1 0 0 1 0 0] CT
0 0 moveto 
1 -1 scale
(1) t 
GR
GR
GS
[0.75 0 0 0.75 403.5 81] CT
/Helvetica 10.667 F
GS
[1 0 0 1 0 0] CT
0 0 moveto 
1 -1 scale
(1) t 
GR
GR
GS
[0.75 0 0 0.75 408.75 76.5] CT
/Helvetica 13.333 F
GS
[1 0 0 1 0 0] CT
0 0 moveto 
1 -1 scale
(S) t 
GR
GR
GS
[0.75 0 0 0.75 415.5 81] CT
/Helvetica 10.667 F
GS
[1 0 0 1 0 0] CT
0 0 moveto 
1 -1 scale
(2) t 
GR
GR
GS
[0.75 0 0 0.75 467.25 81] CT
/Helvetica 10.667 F
GS
[1 0 0 1 0 0] CT
0 0 moveto 
1 -1 scale
(1) t 
GR
GR
GS
[0.75 0 0 0.75 472.5 76.5] CT
/Helvetica 13.333 F
GS
[1 0 0 1 0 0] CT
0 0 moveto 
1 -1 scale
(S) t 
GR
GR
GS
[0.75 0 0 0.75 479.25 81] CT
/Helvetica 10.667 F
GS
[1 0 0 1 0 0] CT
0 0 moveto 
1 -1 scale
(3) t 
GR
GR
GS
[0.75 0 0 0.75 528.75 81] CT
/Helvetica 10.667 F
GS
[1 0 0 1 0 0] CT
0 0 moveto 
1 -1 scale
(1) t 
GR
GR
GS
[0.75 0 0 0.75 534 76.5] CT
/Helvetica 13.333 F
GS
[1 0 0 1 0 0] CT
0 0 moveto 
1 -1 scale
(S) t 
GR
GR
GS
[0.75 0 0 0.75 540.75 81] CT
/Helvetica 10.667 F
GS
[1 0 0 1 0 0] CT
0 0 moveto 
1 -1 scale
(4) t 
GR
GR
GS
[0.75 0 0 0.75 588.75 81] CT
/Helvetica 10.667 F
GS
[1 0 0 1 0 0] CT
0 0 moveto 
1 -1 scale
(1) t 
GR
GR
GS
[0.75 0 0 0.75 594 76.5] CT
/Helvetica 13.333 F
GS
[1 0 0 1 0 0] CT
0 0 moveto 
1 -1 scale
(S) t 
GR
GR
GS
[0.75 0 0 0.75 600.75 81] CT
/Helvetica 10.667 F
GS
[1 0 0 1 0 0] CT
0 0 moveto 
1 -1 scale
(5) t 
GR
GR
GS
[0.75 0 0 0.75 648 81] CT
/Helvetica 10.667 F
GS
[1 0 0 1 0 0] CT
0 0 moveto 
1 -1 scale
(1) t 
GR
GR
GS
[0.75 0 0 0.75 653.25 76.5] CT
/Helvetica 13.333 F
GS
[1 0 0 1 0 0] CT
0 0 moveto 
1 -1 scale
(S) t 
GR
GR
GS
[0.75 0 0 0.75 660 81] CT
/Helvetica 10.667 F
GS
[1 0 0 1 0 0] CT
0 0 moveto 
1 -1 scale
(6) t 
GR
GR
GS
[0.75 0 0 0.75 705.75 81] CT
/Helvetica 10.667 F
GS
[1 0 0 1 0 0] CT
0 0 moveto 
1 -1 scale
(1) t 
GR
GR
GS
[0.75 0 0 0.75 711 76.5] CT
/Helvetica 13.333 F
GS
[1 0 0 1 0 0] CT
0 0 moveto 
1 -1 scale
(S) t 
GR
GR
GS
[0.75 0 0 0.75 717.75 81] CT
/Helvetica 10.667 F
GS
[1 0 0 1 0 0] CT
0 0 moveto 
1 -1 scale
(7) t 
GR
GR
GS
[0.75 0 0 0.75 763.5 81] CT
/Helvetica 10.667 F
GS
[1 0 0 1 0 0] CT
0 0 moveto 
1 -1 scale
(1) t 
GR
GR
GS
[0.75 0 0 0.75 768.75 76.5] CT
/Helvetica 13.333 F
GS
[1 0 0 1 0 0] CT
0 0 moveto 
1 -1 scale
(S) t 
GR
GR
GS
[0.75 0 0 0.75 775.5 81] CT
/Helvetica 10.667 F
GS
[1 0 0 1 0 0] CT
0 0 moveto 
1 -1 scale
(8) t 
GR
GR
GS
[0.75 0 0 0.75 820.5 81] CT
/Helvetica 10.667 F
GS
[1 0 0 1 0 0] CT
0 0 moveto 
1 -1 scale
(1) t 
GR
GR
GS
[0.75 0 0 0.75 825.75 76.5] CT
/Helvetica 13.333 F
GS
[1 0 0 1 0 0] CT
0 0 moveto 
1 -1 scale
(S) t 
GR
GR
GS
[0.75 0 0 0.75 832.5 81] CT
/Helvetica 10.667 F
GS
[1 0 0 1 0 0] CT
0 0 moveto 
1 -1 scale
(9) t 
GR
GR
GS
[0.75 0 0 0.75 434.0744 75.3] CT
10.0 ML
N
0 -4 M
0 4 L
-4 0 M
4 0 L
S
GR
GS
[0.75 0 0 0.75 506.44386 75.3] CT
10.0 ML
N
0 -4 M
0 4 L
-4 0 M
4 0 L
S
GR
GS
[0.75 0 0 0.75 575.26602 75.3] CT
10.0 ML
N
0 -4 M
0 4 L
-4 0 M
4 0 L
S
GR
GS
[0.75 0 0 0.75 641.68625 75.3] CT
10.0 ML
N
0 -4 M
0 4 L
-4 0 M
4 0 L
S
GR
GS
[0.75 0 0 0.75 706.34482 75.3] CT
10.0 ML
N
0 -4 M
0 4 L
-4 0 M
4 0 L
S
GR
GS
[0.75 0 0 0.75 0 0] CT
1 LJ
0.667 LW
N
578.766 206 M
578.766 100.4 L
S
GR
GS
[0.75 0 0 0.75 0 0] CT
1 LJ
0.667 LW
N
675.258 206 M
675.258 100.4 L
S
GR
GS
[0.75 0 0 0.75 0 0] CT
1 LJ
0.667 LW
N
767.021 206 M
767.021 100.4 L
S
GR
GS
[0.75 0 0 0.75 0 0] CT
1 LJ
0.667 LW
N
855.582 206 M
855.582 100.4 L
S
GR
GS
[0.75 0 0 0.75 0 0] CT
1 LJ
0.667 LW
N
941.793 206 M
941.793 100.4 L
S
GR
GS
[0.75 0 0 0.75 425.25 75] CT
/Helvetica 10.667 F
GS
[1 0 0 1 0 0] CT
0 0 moveto 
1 -1 scale
(2) t 
GR
GR
GS
[0.75 0 0 0.75 430.5 70.5] CT
/Helvetica 13.333 F
GS
[1 0 0 1 0 0] CT
0 0 moveto 
1 -1 scale
(S) t 
GR
GR
GS
[0.75 0 0 0.75 437.25 75] CT
/Helvetica 10.667 F
GS
[1 0 0 1 0 0] CT
0 0 moveto 
1 -1 scale
(0) t 
GR
GR
GS
[0.75 0 0 0.75 497.25 75] CT
/Helvetica 10.667 F
GS
[1 0 0 1 0 0] CT
0 0 moveto 
1 -1 scale
(2) t 
GR
GR
GS
[0.75 0 0 0.75 502.5 70.5] CT
/Helvetica 13.333 F
GS
[1 0 0 1 0 0] CT
0 0 moveto 
1 -1 scale
(S) t 
GR
GR
GS
[0.75 0 0 0.75 509.25 75] CT
/Helvetica 10.667 F
GS
[1 0 0 1 0 0] CT
0 0 moveto 
1 -1 scale
(1) t 
GR
GR
GS
[0.75 0 0 0.75 566.25 75] CT
/Helvetica 10.667 F
GS
[1 0 0 1 0 0] CT
0 0 moveto 
1 -1 scale
(2) t 
GR
GR
GS
[0.75 0 0 0.75 571.5 70.5] CT
/Helvetica 13.333 F
GS
[1 0 0 1 0 0] CT
0 0 moveto 
1 -1 scale
(S) t 
GR
GR
GS
[0.75 0 0 0.75 578.25 75] CT
/Helvetica 10.667 F
GS
[1 0 0 1 0 0] CT
0 0 moveto 
1 -1 scale
(2) t 
GR
GR
GS
[0.75 0 0 0.75 633 75] CT
/Helvetica 10.667 F
GS
[1 0 0 1 0 0] CT
0 0 moveto 
1 -1 scale
(2) t 
GR
GR
GS
[0.75 0 0 0.75 638.25 70.5] CT
/Helvetica 13.333 F
GS
[1 0 0 1 0 0] CT
0 0 moveto 
1 -1 scale
(S) t 
GR
GR
GS
[0.75 0 0 0.75 645 75] CT
/Helvetica 10.667 F
GS
[1 0 0 1 0 0] CT
0 0 moveto 
1 -1 scale
(3) t 
GR
GR
GS
[0.75 0 0 0.75 697.5 75] CT
/Helvetica 10.667 F
GS
[1 0 0 1 0 0] CT
0 0 moveto 
1 -1 scale
(2) t 
GR
GR
GS
[0.75 0 0 0.75 702.75 70.5] CT
/Helvetica 13.333 F
GS
[1 0 0 1 0 0] CT
0 0 moveto 
1 -1 scale
(S) t 
GR
GR
GS
[0.75 0 0 0.75 709.5 75] CT
/Helvetica 10.667 F
GS
[1 0 0 1 0 0] CT
0 0 moveto 
1 -1 scale
(4) t 
GR
GR
GS
[0.75 0 0 0.75 760.5 75] CT
/Helvetica 10.667 F
GS
[1 0 0 1 0 0] CT
0 0 moveto 
1 -1 scale
(2) t 
GR
GR
GS
[0.75 0 0 0.75 765.75 70.5] CT
/Helvetica 13.333 F
GS
[1 0 0 1 0 0] CT
0 0 moveto 
1 -1 scale
(S) t 
GR
GR
GS
[0.75 0 0 0.75 772.5 75] CT
/Helvetica 10.667 F
GS
[1 0 0 1 0 0] CT
0 0 moveto 
1 -1 scale
(5) t 
GR
GR
GS
[0.75 0 0 0.75 822.75 75] CT
/Helvetica 10.667 F
GS
[1 0 0 1 0 0] CT
0 0 moveto 
1 -1 scale
(2) t 
GR
GR
GS
[0.75 0 0 0.75 828 70.5] CT
/Helvetica 13.333 F
GS
[1 0 0 1 0 0] CT
0 0 moveto 
1 -1 scale
(S) t 
GR
GR
GS
[0.75 0 0 0.75 834.75 75] CT
/Helvetica 10.667 F
GS
[1 0 0 1 0 0] CT
0 0 moveto 
1 -1 scale
(6) t 
GR
GR
GS
[0.75 0 0 0.75 589.4539 68.7] CT
10.0 ML
N
0 5.332 M
-4.618 -2.666 L
4.618 -2.666 L
cp
S
GR
GS
[0.75 0 0 0.75 662.78796 68.7] CT
10.0 ML
N
0 5.332 M
-4.618 -2.666 L
4.618 -2.666 L
cp
S
GR
GS
[0.75 0 0 0.75 733.255 68.7] CT
10.0 ML
N
0 5.332 M
-4.618 -2.666 L
4.618 -2.666 L
cp
S
GR
GS
[0.75 0 0 0.75 0 0] CT
1 LJ
0.667 LW
N
785.939 206 M
785.939 91.6 L
S
GR
GS
[0.75 0 0 0.75 0 0] CT
1 LJ
0.667 LW
N
883.717 206 M
883.717 91.6 L
S
GR
GS
[0.75 0 0 0.75 0 0] CT
1 LJ
0.667 LW
N
977.673 206 M
977.673 91.6 L
S
GR
GS
[0.75 0 0 0.75 580.5 68.25] CT
/Helvetica 10.667 F
GS
[1 0 0 1 0 0] CT
0 0 moveto 
1 -1 scale
(3) t 
GR
GR
GS
[0.75 0 0 0.75 585.75 63.75] CT
/Helvetica 13.333 F
GS
[1 0 0 1 0 0] CT
0 0 moveto 
1 -1 scale
(S) t 
GR
GR
GS
[0.75 0 0 0.75 592.5 68.25] CT
/Helvetica 10.667 F
GS
[1 0 0 1 0 0] CT
0 0 moveto 
1 -1 scale
(0) t 
GR
GR
GS
[0.75 0 0 0.75 654 68.25] CT
/Helvetica 10.667 F
GS
[1 0 0 1 0 0] CT
0 0 moveto 
1 -1 scale
(3) t 
GR
GR
GS
[0.75 0 0 0.75 659.25 63.75] CT
/Helvetica 13.333 F
GS
[1 0 0 1 0 0] CT
0 0 moveto 
1 -1 scale
(S) t 
GR
GR
GS
[0.75 0 0 0.75 666 68.25] CT
/Helvetica 10.667 F
GS
[1 0 0 1 0 0] CT
0 0 moveto 
1 -1 scale
(1) t 
GR
GR
GS
[0.75 0 0 0.75 724.5 68.25] CT
/Helvetica 10.667 F
GS
[1 0 0 1 0 0] CT
0 0 moveto 
1 -1 scale
(3) t 
GR
GR
GS
[0.75 0 0 0.75 729.75 63.75] CT
/Helvetica 13.333 F
GS
[1 0 0 1 0 0] CT
0 0 moveto 
1 -1 scale
(S) t 
GR
GR
GS
[0.75 0 0 0.75 736.5 68.25] CT
/Helvetica 10.667 F
GS
[1 0 0 1 0 0] CT
0 0 moveto 
1 -1 scale
(2) t 
GR
GR
GS
[0.75 0 0 0.75 792.75 68.25] CT
/Helvetica 10.667 F
GS
[1 0 0 1 0 0] CT
0 0 moveto 
1 -1 scale
(3) t 
GR
GR
GS
[0.75 0 0 0.75 798 63.75] CT
/Helvetica 13.333 F
GS
[1 0 0 1 0 0] CT
0 0 moveto 
1 -1 scale
(S) t 
GR
GR
GS
[0.75 0 0 0.75 804.75 68.25] CT
/Helvetica 10.667 F
GS
[1 0 0 1 0 0] CT
0 0 moveto 
1 -1 scale
(3) t 
GR
GR
GS
[0.75 0 0 0.75 744.01236 62.1] CT
10.0 ML
N
-3 -3 M
-3 3 L
3 3 L
3 -3 L
cp
S
GR
GS
[0.75 0 0 0.75 0 0] CT
1 LJ
0.667 LW
N
992.016 206 M
992.016 82.8 L
S
GR
GS
[0.75 0 0 0.75 735 61.5] CT
/Helvetica 10.667 F
GS
[1 0 0 1 0 0] CT
0 0 moveto 
1 -1 scale
(4) t 
GR
GR
GS
[0.75 0 0 0.75 740.25 57] CT
/Helvetica 13.333 F
GS
[1 0 0 1 0 0] CT
0 0 moveto 
1 -1 scale
(S) t 
GR
GR
GS
[0.75 0 0 0.75 747 61.5] CT
/Helvetica 10.667 F
GS
[1 0 0 1 0 0] CT
0 0 moveto 
1 -1 scale
(0) t 
GR
GR
GS
[0.75 0 0 0.75 809.25 61.5] CT
/Helvetica 10.667 F
GS
[1 0 0 1 0 0] CT
0 0 moveto 
1 -1 scale
(4) t 
GR
GR
GS
[0.75 0 0 0.75 814.5 57] CT
/Helvetica 13.333 F
GS
[1 0 0 1 0 0] CT
0 0 moveto 
1 -1 scale
(S) t 
GR
GR
GS
[0.75 0 0 0.75 821.25 61.5] CT
/Helvetica 10.667 F
GS
[1 0 0 1 0 0] CT
0 0 moveto 
1 -1 scale
(1) t 
GR
GR
GS
[0.75 0 0 0.75 0 0] CT
1 GC
N
146 418 M
1018 418 L
1018 287 L
146 287 L
cp
f
GR
GS
[0.75 0 0 0.75 0 0] CT
0.149 GC
2 setlinecap
1 LJ
0.667 LW
N
146 418 M
1018 418 L
S
GR
GS
[0.75 0 0 0.75 0 0] CT
0.149 GC
2 setlinecap
1 LJ
0.667 LW
N
146 287 M
1018 287 L
S
GR
GS
[0.75 0 0 0.75 0 0] CT
0.149 GC
2 setlinecap
1 LJ
0.667 LW
N
146 418 M
146 409.28 L
S
GR
GS
[0.75 0 0 0.75 0 0] CT
0.149 GC
2 setlinecap
1 LJ
0.667 LW
N
270.571 418 M
270.571 409.28 L
S
GR
GS
[0.75 0 0 0.75 0 0] CT
0.149 GC
2 setlinecap
1 LJ
0.667 LW
N
395.143 418 M
395.143 409.28 L
S
GR
GS
[0.75 0 0 0.75 0 0] CT
0.149 GC
2 setlinecap
1 LJ
0.667 LW
N
519.714 418 M
519.714 409.28 L
S
GR
GS
[0.75 0 0 0.75 0 0] CT
0.149 GC
2 setlinecap
1 LJ
0.667 LW
N
644.286 418 M
644.286 409.28 L
S
GR
GS
[0.75 0 0 0.75 0 0] CT
0.149 GC
2 setlinecap
1 LJ
0.667 LW
N
768.857 418 M
768.857 409.28 L
S
GR
GS
[0.75 0 0 0.75 0 0] CT
0.149 GC
2 setlinecap
1 LJ
0.667 LW
N
893.429 418 M
893.429 409.28 L
S
GR
GS
[0.75 0 0 0.75 0 0] CT
0.149 GC
2 setlinecap
1 LJ
0.667 LW
N
1018 418 M
1018 409.28 L
S
GR
GS
[0.75 0 0 0.75 0 0] CT
0.149 GC
2 setlinecap
1 LJ
0.667 LW
N
146 287 M
146 295.72 L
S
GR
GS
[0.75 0 0 0.75 0 0] CT
0.149 GC
2 setlinecap
1 LJ
0.667 LW
N
270.571 287 M
270.571 295.72 L
S
GR
GS
[0.75 0 0 0.75 0 0] CT
0.149 GC
2 setlinecap
1 LJ
0.667 LW
N
395.143 287 M
395.143 295.72 L
S
GR
GS
[0.75 0 0 0.75 0 0] CT
0.149 GC
2 setlinecap
1 LJ
0.667 LW
N
519.714 287 M
519.714 295.72 L
S
GR
GS
[0.75 0 0 0.75 0 0] CT
0.149 GC
2 setlinecap
1 LJ
0.667 LW
N
644.286 287 M
644.286 295.72 L
S
GR
GS
[0.75 0 0 0.75 0 0] CT
0.149 GC
2 setlinecap
1 LJ
0.667 LW
N
768.857 287 M
768.857 295.72 L
S
GR
GS
[0.75 0 0 0.75 0 0] CT
0.149 GC
2 setlinecap
1 LJ
0.667 LW
N
893.429 287 M
893.429 295.72 L
S
GR
GS
[0.75 0 0 0.75 0 0] CT
0.149 GC
2 setlinecap
1 LJ
0.667 LW
N
1018 287 M
1018 295.72 L
S
GR
GS
[0.75 0 0 0.75 109.5 316.89999] CT
0.149 GC
/Helvetica 12.667 F
GS
[1 0 0 1 0 0] CT
-16.5 12 moveto 
1 -1 scale
(1830) t 
GR
GR
GS
[0.75 0 0 0.75 202.92858 316.89999] CT
0.149 GC
/Helvetica 12.667 F
GS
[1 0 0 1 0 0] CT
-16.5 12 moveto 
1 -1 scale
(1840) t 
GR
GR
GS
[0.75 0 0 0.75 296.35714 316.89999] CT
0.149 GC
/Helvetica 12.667 F
GS
[1 0 0 1 0 0] CT
-16.5 12 moveto 
1 -1 scale
(1850) t 
GR
GR
GS
[0.75 0 0 0.75 389.78572 316.89999] CT
0.149 GC
/Helvetica 12.667 F
GS
[1 0 0 1 0 0] CT
-16.5 12 moveto 
1 -1 scale
(1860) t 
GR
GR
GS
[0.75 0 0 0.75 483.21428 316.89999] CT
0.149 GC
/Helvetica 12.667 F
GS
[1 0 0 1 0 0] CT
-16.5 12 moveto 
1 -1 scale
(1870) t 
GR
GR
GS
[0.75 0 0 0.75 576.64284 316.89999] CT
0.149 GC
/Helvetica 12.667 F
GS
[1 0 0 1 0 0] CT
-16.5 12 moveto 
1 -1 scale
(1880) t 
GR
GR
GS
[0.75 0 0 0.75 670.07144 316.89999] CT
0.149 GC
/Helvetica 12.667 F
GS
[1 0 0 1 0 0] CT
-16.5 12 moveto 
1 -1 scale
(1890) t 
GR
GR
GS
[0.75 0 0 0.75 763.5 316.89999] CT
0.149 GC
/Helvetica 12.667 F
GS
[1 0 0 1 0 0] CT
-16.5 12 moveto 
1 -1 scale
(1900) t 
GR
GR
GS
[0.75 0 0 0.75 436.5 328.89999] CT
0.149 GC
/Helvetica 13.933 F
GS
[1 0 0 1 0 0] CT
-73.5 13 moveto 
1 -1 scale
(mode frequency \(Hz\)) t 
GR
GR
GS
[0.75 0 0 0.75 0 0] CT
0.149 GC
2 setlinecap
1 LJ
0.667 LW
N
146 418 M
146 287 L
S
GR
GS
[0.75 0 0 0.75 0 0] CT
0.149 GC
2 setlinecap
1 LJ
0.667 LW
N
1018 418 M
1018 287 L
S
GR
GS
[0.75 0 0 0.75 0 0] CT
0.149 GC
2 setlinecap
1 LJ
0.667 LW
N
146 418 M
154.719 418 L
S
GR
GS
[0.75 0 0 0.75 0 0] CT
0.149 GC
2 setlinecap
1 LJ
0.667 LW
N
146 352.5 M
154.719 352.5 L
S
GR
GS
[0.75 0 0 0.75 0 0] CT
0.149 GC
2 setlinecap
1 LJ
0.667 LW
N
146 287 M
154.719 287 L
S
GR
GS
[0.75 0 0 0.75 0 0] CT
0.149 GC
2 setlinecap
1 LJ
0.667 LW
N
1018 418 M
1009.281 418 L
S
GR
GS
[0.75 0 0 0.75 0 0] CT
0.149 GC
2 setlinecap
1 LJ
0.667 LW
N
1018 352.5 M
1009.281 352.5 L
S
GR
GS
[0.75 0 0 0.75 0 0] CT
0.149 GC
2 setlinecap
1 LJ
0.667 LW
N
1018 287 M
1009.281 287 L
S
GR
GS
[0.75 0 0 0.75 106.10021 313.5] CT
0.149 GC
/Helvetica 12.667 F
GS
[1 0 0 1 0 0] CT
-9 4.5 moveto 
1 -1 scale
(0) t 
GR
GR
GS
[0.75 0 0 0.75 106.10021 264.375] CT
0.149 GC
/Helvetica 12.667 F
GS
[1 0 0 1 0 0] CT
-9 4.5 moveto 
1 -1 scale
(5) t 
GR
GR
GS
[0.75 0 0 0.75 106.10021 215.25] CT
0.149 GC
/Helvetica 12.667 F
GS
[1 0 0 1 0 0] CT
-17 4.5 moveto 
1 -1 scale
(10) t 
GR
GR
GS
[0 -0.75 0.75 0 90.84964 264.37495] CT
0.149 GC
/Helvetica 13.933 F
GS
[1 0 0 1 0 0] CT
-52.5 -4 moveto 
1 -1 scale
(fake amplitude) t 
GR
GR
GS
[0.75 0 0 0.75 250.5 206.25] CT
/Helvetica-Bold 13.933 F
GS
[1 0 0 1 0 0] CT
0 0 moveto 
1 -1 scale
(ellipticity = 0.05 and global rotation-split singlets for f) t 
GR
GR
GS
[0.75 0 0 0.75 573.75 210.75] CT
/Helvetica-Bold 11.147 F
GS
[1 0 0 1 0 0] CT
0 0 moveto 
1 -1 scale
(o) t 
GR
GR
GS
[0.75 0 0 0.75 579.75 206.25] CT
/Helvetica-Bold 13.933 F
GS
[1 0 0 1 0 0] CT
0 0 moveto 
1 -1 scale
( = 0 Hz) t 
GR
GR
GS
[0.75 0 0 0.75 0 0] CT
0.149 GC
1 LJ
0.667 LW
N
146 418 M
1018 418 L
S
GR
GS
[0.75 0 0 0.75 645.82356 215.25] CT
10.0 ML
N
4 0 M
4 -2.209 2.209 -4 0 -4 C
-2.209 -4 -4 -2.209 -4 0 C
-4 2.209 -2.209 4 0 4 C
2.209 4 4 2.209 4 0 C
cp
S
GR
GS
[0.75 0 0 0.75 645.82356 215.25] CT
10.0 ML
N
4 0 M
4 -2.209 2.209 -4 0 -4 C
-2.209 -4 -4 -2.209 -4 0 C
-4 2.209 -2.209 4 0 4 C
2.209 4 4 2.209 4 0 C
cp
S
GR
GS
[0.75 0 0 0.75 0 0] CT
1 LJ
0.667 LW
N
861.098 418 M
861.098 287 L
S
GR
GS
[0.75 0 0 0.75 0 0] CT
1 LJ
0.667 LW
N
861.098 418 M
861.098 287 L
S
GR
GS
[0.75 0 0 0.75 628.04338 220.16249] CT
0 0 1 RC
10.0 ML
N
4 0 M
4 -2.209 2.209 -4 0 -4 C
-2.209 -4 -4 -2.209 -4 0 C
-4 2.209 -2.209 4 0 4 C
2.209 4 4 2.209 4 0 C
cp
S
GR
GS
[0.75 0 0 0.75 628.04338 220.16249] CT
0 0 1 RC
10.0 ML
N
4 0 M
4 -2.209 2.209 -4 0 -4 C
-2.209 -4 -4 -2.209 -4 0 C
-4 2.209 -2.209 4 0 4 C
2.209 4 4 2.209 4 0 C
cp
S
GR
GS
[0.75 0 0 0.75 0 0] CT
0 0 1 RC
1 LJ
0.667 LW
N
837.391 418 M
837.391 293.55 L
S
GR
GS
[0.75 0 0 0.75 0 0] CT
0 0 1 RC
1 LJ
0.667 LW
N
837.391 418 M
837.391 293.55 L
S
GR
GS
[0.75 0 0 0.75 574.70517 225.075] CT
1 0 0 RC
10.0 ML
N
4 0 M
4 -2.209 2.209 -4 0 -4 C
-2.209 -4 -4 -2.209 -4 0 C
-4 2.209 -2.209 4 0 4 C
2.209 4 4 2.209 4 0 C
cp
S
GR
GS
[0.75 0 0 0.75 574.70517 225.075] CT
1 0 0 RC
10.0 ML
N
4 0 M
4 -2.209 2.209 -4 0 -4 C
-2.209 -4 -4 -2.209 -4 0 C
-4 2.209 -2.209 4 0 4 C
2.209 4 4 2.209 4 0 C
cp
S
GR
GS
[0.75 0 0 0.75 0 0] CT
1 0 0 RC
1 LJ
0.667 LW
N
766.274 418 M
766.274 300.1 L
S
GR
GS
[0.75 0 0 0.75 0 0] CT
1 0 0 RC
1 LJ
0.667 LW
N
766.274 418 M
766.274 300.1 L
S
GR
GS
[0.75 0 0 0.75 485.80659 229.9875] CT
1 0 1 RC
10.0 ML
N
4 0 M
4 -2.209 2.209 -4 0 -4 C
-2.209 -4 -4 -2.209 -4 0 C
-4 2.209 -2.209 4 0 4 C
2.209 4 4 2.209 4 0 C
cp
S
GR
GS
[0.75 0 0 0.75 485.80659 229.9875] CT
1 0 1 RC
10.0 ML
N
4 0 M
4 -2.209 2.209 -4 0 -4 C
-2.209 -4 -4 -2.209 -4 0 C
-4 2.209 -2.209 4 0 4 C
2.209 4 4 2.209 4 0 C
cp
S
GR
GS
[0.75 0 0 0.75 0 0] CT
1 0 1 RC
1 LJ
0.667 LW
N
647.742 418 M
647.742 306.65 L
S
GR
GS
[0.75 0 0 0.75 0 0] CT
1 0 1 RC
1 LJ
0.667 LW
N
647.742 418 M
647.742 306.65 L
S
GR
GS
[0.75 0 0 0.75 361.34885 234.90001] CT
0 1 0 RC
10.0 ML
N
4 0 M
4 -2.209 2.209 -4 0 -4 C
-2.209 -4 -4 -2.209 -4 0 C
-4 2.209 -2.209 4 0 4 C
2.209 4 4 2.209 4 0 C
cp
S
GR
GS
[0.75 0 0 0.75 361.34885 234.90001] CT
0 1 0 RC
10.0 ML
N
4 0 M
4 -2.209 2.209 -4 0 -4 C
-2.209 -4 -4 -2.209 -4 0 C
-4 2.209 -2.209 4 0 4 C
2.209 4 4 2.209 4 0 C
cp
S
GR
GS
[0.75 0 0 0.75 0 0] CT
0 1 0 RC
1 LJ
0.667 LW
N
481.798 418 M
481.798 313.2 L
S
GR
GS
[0.75 0 0 0.75 0 0] CT
0 1 0 RC
1 LJ
0.667 LW
N
481.798 418 M
481.798 313.2 L
S
GR
GS
[0.75 0 0 0.75 201.3319 239.8125] CT
10.0 ML
N
4 0 M
4 -2.209 2.209 -4 0 -4 C
-2.209 -4 -4 -2.209 -4 0 C
-4 2.209 -2.209 4 0 4 C
2.209 4 4 2.209 4 0 C
cp
S
GR
GS
[0.75 0 0 0.75 201.3319 239.8125] CT
10.0 ML
N
4 0 M
4 -2.209 2.209 -4 0 -4 C
-2.209 -4 -4 -2.209 -4 0 C
-4 2.209 -2.209 4 0 4 C
2.209 4 4 2.209 4 0 C
cp
S
GR
GS
[0.75 0 0 0.75 0 0] CT
1 LJ
0.667 LW
N
268.443 418 M
268.443 319.75 L
S
GR
GS
[0.75 0 0 0.75 0 0] CT
1 LJ
0.667 LW
N
268.443 418 M
268.443 319.75 L
S
GR
GS
[0.75 0 0 0.75 0 0] CT
1 GC
N
146 630 M
1018 630 L
1018 499 L
146 499 L
cp
f
GR
GS
[0.75 0 0 0.75 0 0] CT
0.149 GC
2 setlinecap
1 LJ
0.667 LW
N
146 630 M
1018 630 L
S
GR
GS
[0.75 0 0 0.75 0 0] CT
0.149 GC
2 setlinecap
1 LJ
0.667 LW
N
146 499 M
1018 499 L
S
GR
GS
[0.75 0 0 0.75 0 0] CT
0.149 GC
2 setlinecap
1 LJ
0.667 LW
N
146 630 M
146 621.28 L
S
GR
GS
[0.75 0 0 0.75 0 0] CT
0.149 GC
2 setlinecap
1 LJ
0.667 LW
N
270.571 630 M
270.571 621.28 L
S
GR
GS
[0.75 0 0 0.75 0 0] CT
0.149 GC
2 setlinecap
1 LJ
0.667 LW
N
395.143 630 M
395.143 621.28 L
S
GR
GS
[0.75 0 0 0.75 0 0] CT
0.149 GC
2 setlinecap
1 LJ
0.667 LW
N
519.714 630 M
519.714 621.28 L
S
GR
GS
[0.75 0 0 0.75 0 0] CT
0.149 GC
2 setlinecap
1 LJ
0.667 LW
N
644.286 630 M
644.286 621.28 L
S
GR
GS
[0.75 0 0 0.75 0 0] CT
0.149 GC
2 setlinecap
1 LJ
0.667 LW
N
768.857 630 M
768.857 621.28 L
S
GR
GS
[0.75 0 0 0.75 0 0] CT
0.149 GC
2 setlinecap
1 LJ
0.667 LW
N
893.429 630 M
893.429 621.28 L
S
GR
GS
[0.75 0 0 0.75 0 0] CT
0.149 GC
2 setlinecap
1 LJ
0.667 LW
N
1018 630 M
1018 621.28 L
S
GR
GS
[0.75 0 0 0.75 0 0] CT
0.149 GC
2 setlinecap
1 LJ
0.667 LW
N
146 499 M
146 507.72 L
S
GR
GS
[0.75 0 0 0.75 0 0] CT
0.149 GC
2 setlinecap
1 LJ
0.667 LW
N
270.571 499 M
270.571 507.72 L
S
GR
GS
[0.75 0 0 0.75 0 0] CT
0.149 GC
2 setlinecap
1 LJ
0.667 LW
N
395.143 499 M
395.143 507.72 L
S
GR
GS
[0.75 0 0 0.75 0 0] CT
0.149 GC
2 setlinecap
1 LJ
0.667 LW
N
519.714 499 M
519.714 507.72 L
S
GR
GS
[0.75 0 0 0.75 0 0] CT
0.149 GC
2 setlinecap
1 LJ
0.667 LW
N
644.286 499 M
644.286 507.72 L
S
GR
GS
[0.75 0 0 0.75 0 0] CT
0.149 GC
2 setlinecap
1 LJ
0.667 LW
N
768.857 499 M
768.857 507.72 L
S
GR
GS
[0.75 0 0 0.75 0 0] CT
0.149 GC
2 setlinecap
1 LJ
0.667 LW
N
893.429 499 M
893.429 507.72 L
S
GR
GS
[0.75 0 0 0.75 0 0] CT
0.149 GC
2 setlinecap
1 LJ
0.667 LW
N
1018 499 M
1018 507.72 L
S
GR
GS
[0.75 0 0 0.75 109.5 475.89999] CT
0.149 GC
/Helvetica 12.667 F
GS
[1 0 0 1 0 0] CT
-16.5 12 moveto 
1 -1 scale
(1830) t 
GR
GR
GS
[0.75 0 0 0.75 202.92858 475.89999] CT
0.149 GC
/Helvetica 12.667 F
GS
[1 0 0 1 0 0] CT
-16.5 12 moveto 
1 -1 scale
(1840) t 
GR
GR
GS
[0.75 0 0 0.75 296.35714 475.89999] CT
0.149 GC
/Helvetica 12.667 F
GS
[1 0 0 1 0 0] CT
-16.5 12 moveto 
1 -1 scale
(1850) t 
GR
GR
GS
[0.75 0 0 0.75 389.78572 475.89999] CT
0.149 GC
/Helvetica 12.667 F
GS
[1 0 0 1 0 0] CT
-16.5 12 moveto 
1 -1 scale
(1860) t 
GR
GR
GS
[0.75 0 0 0.75 483.21428 475.89999] CT
0.149 GC
/Helvetica 12.667 F
GS
[1 0 0 1 0 0] CT
-16.5 12 moveto 
1 -1 scale
(1870) t 
GR
GR
GS
[0.75 0 0 0.75 576.64284 475.89999] CT
0.149 GC
/Helvetica 12.667 F
GS
[1 0 0 1 0 0] CT
-16.5 12 moveto 
1 -1 scale
(1880) t 
GR
GR
GS
[0.75 0 0 0.75 670.07144 475.89999] CT
0.149 GC
/Helvetica 12.667 F
GS
[1 0 0 1 0 0] CT
-16.5 12 moveto 
1 -1 scale
(1890) t 
GR
GR
GS
[0.75 0 0 0.75 763.5 475.89999] CT
0.149 GC
/Helvetica 12.667 F
GS
[1 0 0 1 0 0] CT
-16.5 12 moveto 
1 -1 scale
(1900) t 
GR
GR
GS
[0.75 0 0 0.75 436.5 487.89999] CT
0.149 GC
/Helvetica 13.933 F
GS
[1 0 0 1 0 0] CT
-73.5 13 moveto 
1 -1 scale
(mode frequency \(Hz\)) t 
GR
GR
GS
[0.75 0 0 0.75 0 0] CT
0.149 GC
2 setlinecap
1 LJ
0.667 LW
N
146 630 M
146 499 L
S
GR
GS
[0.75 0 0 0.75 0 0] CT
0.149 GC
2 setlinecap
1 LJ
0.667 LW
N
1018 630 M
1018 499 L
S
GR
GS
[0.75 0 0 0.75 0 0] CT
0.149 GC
2 setlinecap
1 LJ
0.667 LW
N
146 630 M
154.719 630 L
S
GR
GS
[0.75 0 0 0.75 0 0] CT
0.149 GC
2 setlinecap
1 LJ
0.667 LW
N
146 597.25 M
154.719 597.25 L
S
GR
GS
[0.75 0 0 0.75 0 0] CT
0.149 GC
2 setlinecap
1 LJ
0.667 LW
N
146 564.5 M
154.719 564.5 L
S
GR
GS
[0.75 0 0 0.75 0 0] CT
0.149 GC
2 setlinecap
1 LJ
0.667 LW
N
146 531.75 M
154.719 531.75 L
S
GR
GS
[0.75 0 0 0.75 0 0] CT
0.149 GC
2 setlinecap
1 LJ
0.667 LW
N
146 499 M
154.719 499 L
S
GR
GS
[0.75 0 0 0.75 0 0] CT
0.149 GC
2 setlinecap
1 LJ
0.667 LW
N
1018 630 M
1009.281 630 L
S
GR
GS
[0.75 0 0 0.75 0 0] CT
0.149 GC
2 setlinecap
1 LJ
0.667 LW
N
1018 597.25 M
1009.281 597.25 L
S
GR
GS
[0.75 0 0 0.75 0 0] CT
0.149 GC
2 setlinecap
1 LJ
0.667 LW
N
1018 564.5 M
1009.281 564.5 L
S
GR
GS
[0.75 0 0 0.75 0 0] CT
0.149 GC
2 setlinecap
1 LJ
0.667 LW
N
1018 531.75 M
1009.281 531.75 L
S
GR
GS
[0.75 0 0 0.75 0 0] CT
0.149 GC
2 setlinecap
1 LJ
0.667 LW
N
1018 499 M
1009.281 499 L
S
GR
GS
[0.75 0 0 0.75 106.10021 472.5] CT
0.149 GC
/Helvetica 12.667 F
GS
[1 0 0 1 0 0] CT
-9 4.5 moveto 
1 -1 scale
(0) t 
GR
GR
GS
[0.75 0 0 0.75 106.10021 447.9375] CT
0.149 GC
/Helvetica 12.667 F
GS
[1 0 0 1 0 0] CT
-29 4.5 moveto 
1 -1 scale
(0.02) t 
GR
GR
GS
[0.75 0 0 0.75 106.10021 423.375] CT
0.149 GC
/Helvetica 12.667 F
GS
[1 0 0 1 0 0] CT
-29 4.5 moveto 
1 -1 scale
(0.04) t 
GR
GR
GS
[0.75 0 0 0.75 106.10021 398.8125] CT
0.149 GC
/Helvetica 12.667 F
GS
[1 0 0 1 0 0] CT
-29 4.5 moveto 
1 -1 scale
(0.06) t 
GR
GR
GS
[0.75 0 0 0.75 106.10021 374.25] CT
0.149 GC
/Helvetica 12.667 F
GS
[1 0 0 1 0 0] CT
-29 4.5 moveto 
1 -1 scale
(0.08) t 
GR
GR
GS
[0 -0.75 0.75 0 81.85007 423.37495] CT
0.149 GC
/Helvetica 13.933 F
GS
[1 0 0 1 0 0] CT
-68 -4 moveto 
1 -1 scale
(pressure amplitude) t 
GR
GR
GS
[0.75 0 0 0.75 183.75 352.5] CT
/Helvetica-Bold 13.933 F
GS
[1 0 0 1 0 0] CT
0 0 moveto 
1 -1 scale
(Lorentzian spectra for ellipticity = 0.05 and global rotation-split singlets for f) t 
GR
GR
GS
[0.75 0 0 0.75 641.25 357] CT
/Helvetica-Bold 11.147 F
GS
[1 0 0 1 0 0] CT
0 0 moveto 
1 -1 scale
(o) t 
GR
GR
GS
[0.75 0 0 0.75 647.25 352.5] CT
/Helvetica-Bold 13.933 F
GS
[1 0 0 1 0 0] CT
0 0 moveto 
1 -1 scale
( = 0 Hz) t 
GR
GR
GS
[0.75 0 0 0.75 354.75 369] CT
/Helvetica-Bold 13.933 F
GS
[1 0 0 1 0 0] CT
0 0 moveto 
1 -1 scale
(HP at lat 45, micro at lat 32) t 
GR
GR
GS
[0.75 0 0 0.75 0 0] CT
0 0.447 0.741 RC
1 LJ
0.667 LW
N
145.896 620.963 M
146 620.96 L
147.245 620.8 L
148.491 620.77 L
149.738 620.74 L
150.983 620.708 L
152.229 620.677 L
153.474 620.645 L
154.719 620.613 L
155.966 620.58 L
157.212 620.546 L
158.457 620.513 L
159.703 620.478 L
160.948 620.443 L
162.195 620.408 L
163.44 620.372 L
164.686 620.335 L
165.931 620.298 L
167.177 620.26 L
168.423 620.222 L
169.669 620.183 L
170.914 620.143 L
172.16 620.102 L
173.405 620.061 L
174.652 620.019 L
175.897 619.976 L
177.143 619.932 L
178.388 619.888 L
179.634 619.842 L
180.881 619.796 L
182.126 619.749 L
183.371 619.7 L
184.617 619.651 L
185.862 619.6 L
187.109 619.549 L
188.355 619.496 L
189.6 619.442 L
190.845 619.386 L
192.091 619.329 L
193.338 619.271 L
194.583 619.211 L
195.829 619.149 L
197.074 619.086 L
198.319 619.021 L
199.566 618.954 L
200.812 618.885 L
202.057 618.814 L
203.303 618.74 L
204.548 618.665 L
205.795 618.586 L
207.04 618.505 L
208.286 618.421 L
209.531 618.334 L
210.777 618.244 L
212.023 618.15 L
213.269 618.052 L
214.514 617.951 L
215.76 617.845 L
217.005 617.734 L
218.252 617.618 L
219.497 617.497 L
220.743 617.369 L
221.988 617.235 L
223.234 617.094 L
224.481 616.946 L
225.726 616.788 L
226.971 616.622 L
228.217 616.445 L
229.462 616.257 L
230.709 616.057 L
231.955 615.842 L
233.2 615.613 L
234.445 615.366 L
235.691 615.101 L
236.938 614.814 L
238.183 614.504 L
239.429 614.168 L
240.674 613.802 L
241.919 613.403 L
243.166 612.969 L
244.412 612.48 L
245.657 611.964 L
246.903 611.404 L
248.148 610.801 L
249.395 610.157 L
250.64 609.483 L
251.886 608.796 L
253.131 608.125 L
254.377 607.51 L
255.623 607.001 L
256.869 606.65 L
258.114 606.498 L
259.36 606.56 L
260.605 606.824 L
261.852 607.25 L
263.097 607.789 L
264.343 608.388 L
265.588 609.006 L
266.834 609.614 L
268.081 610.192 L
269.326 610.732 L
270.571 611.227 L
271.817 611.679 L
273.062 612.088 L
274.309 612.457 L
275.555 612.79 L
276.8 613.09 L
278.045 613.36 L
279.291 613.603 L
280.538 613.822 L
281.783 614.019 L
283.029 614.198 L
284.274 614.358 L
285.519 614.503 L
286.766 614.634 L
288.012 614.752 L
289.257 614.859 L
290.503 614.955 L
291.748 615.041 L
292.995 615.118 L
294.24 615.187 L
295.486 615.249 L
296.731 615.304 L
297.977 615.352 L
299.223 615.395 L
300.469 615.432 L
301.714 615.464 L
302.96 615.491 L
304.205 615.513 L
305.452 615.531 L
306.697 615.546 L
307.943 615.556 L
309.188 615.563 L
310.434 615.567 L
311.681 615.567 L
312.926 615.564 L
314.171 615.558 L
315.417 615.549 L
316.662 615.538 L
317.909 615.524 L
319.155 615.508 L
320.4 615.489 L
321.645 615.467 L
322.891 615.443 L
324.138 615.417 L
325.383 615.389 L
326.629 615.359 L
327.874 615.326 L
329.119 615.292 L
330.366 615.255 L
331.612 615.217 L
332.857 615.176 L
334.103 615.134 L
335.348 615.089 L
336.595 615.038 L
337.84 614.989 L
339.086 614.939 L
340.331 614.887 L
341.577 614.833 L
342.823 614.777 L
344.069 614.719 L
345.314 614.659 L
346.56 614.597 L
347.805 614.533 L
349.052 614.467 L
350.297 614.4 L
351.543 614.33 L
352.788 614.258 L
354.034 614.184 L
355.281 614.108 L
356.526 614.03 L
357.771 613.95 L
359.017 613.868 L
360.262 613.783 L
361.509 613.696 L
362.755 613.607 L
364 613.515 L
365.245 613.421 L
366.491 613.324 L
367.738 613.225 L
368.983 613.123 L
370.229 613.018 L
371.474 612.911 L
372.719 612.801 L
373.966 612.688 L
375.212 612.572 L
376.457 612.452 L
377.703 612.33 L
378.948 612.204 L
380.195 612.075 L
381.44 611.942 L
382.686 611.806 L
383.931 611.666 L
385.177 611.522 L
386.423 611.373 L
387.669 611.221 L
388.914 611.064 L
390.16 610.903 L
391.405 610.737 L
392.652 610.566 L
393.897 610.39 L
395.143 610.208 L
396.388 610.021 L
397.634 609.828 L
398.881 609.629 L
400.126 609.423 L
401.371 609.211 L
402.617 608.991 L
403.862 608.765 L
405.109 608.53 L
406.355 608.287 L
407.6 608.036 L
408.845 607.762 L
410.091 607.492 L
411.338 607.212 L
412.583 606.922 L
413.829 606.62 L
415.074 606.306 L
416.319 605.98 L
417.566 605.64 L
418.812 605.286 L
420.057 604.916 L
421.303 604.53 L
422.548 604.127 L
423.795 603.706 L
425.04 603.264 L
426.286 602.802 L
427.531 602.316 L
428.777 601.806 L
430.023 601.269 L
431.269 600.703 L
432.514 600.106 L
433.76 599.476 L
435.005 598.809 L
436.252 598.102 L
437.497 597.352 L
438.743 596.554 L
439.988 595.704 L
441.234 594.797 L
442.481 593.827 L
443.726 592.788 L
444.971 591.671 L
446.217 590.47 L
447.462 589.173 L
448.709 587.772 L
449.955 586.253 L
451.2 584.603 L
452.445 582.806 L
453.691 580.846 L
454.938 578.703 L
456.183 576.358 L
457.429 573.789 L
458.674 570.976 L
459.919 567.9 L
461.166 564.547 L
462.412 560.926 L
463.657 557.057 L
464.903 552.997 L
466.148 548.859 L
467.395 544.82 L
468.64 541.134 L
469.886 538.111 L
471.131 536.076 L
472.377 535.281 L
473.623 535.831 L
474.869 537.641 L
476.114 540.47 L
477.36 543.996 L
478.605 547.905 L
479.852 551.935 L
481.097 555.902 L
482.343 559.687 L
483.588 563.228 L
484.834 566.498 L
486.081 569.493 L
487.326 572.224 L
488.571 574.708 L
489.817 576.966 L
491.062 579.019 L
492.309 580.878 L
493.555 582.58 L
494.8 584.133 L
496.045 585.553 L
497.291 586.853 L
498.538 588.046 L
499.783 589.143 L
501.029 590.152 L
502.274 591.08 L
503.519 591.94 L
504.766 592.736 L
506.012 593.473 L
507.257 594.156 L
508.503 594.79 L
509.748 595.38 L
510.995 595.928 L
512.24 596.438 L
513.486 596.912 L
514.731 597.354 L
515.977 597.766 L
517.223 598.149 L
518.469 598.507 L
519.714 598.839 L
520.96 599.149 L
522.205 599.436 L
523.452 599.704 L
524.697 599.952 L
525.943 600.181 L
527.188 600.394 L
528.434 600.59 L
529.681 600.445 L
530.926 600.61 L
532.171 600.76 L
533.417 600.897 L
534.662 601.021 L
535.909 601.132 L
537.155 601.231 L
538.4 601.317 L
539.645 601.392 L
540.891 601.456 L
542.138 601.509 L
543.383 601.551 L
544.629 601.582 L
545.874 601.603 L
547.119 601.613 L
548.366 601.614 L
549.612 601.604 L
550.857 601.584 L
552.103 601.555 L
553.348 601.515 L
554.595 601.466 L
555.84 601.406 L
557.086 601.336 L
558.331 601.257 L
559.577 601.167 L
560.823 601.066 L
562.069 600.955 L
563.314 600.833 L
564.56 600.701 L
565.805 600.557 L
567.052 600.401 L
568.297 600.234 L
569.543 600.055 L
570.788 599.862 L
572.034 599.657 L
573.281 599.439 L
574.526 599.206 L
575.771 598.959 L
577.017 598.697 L
578.262 598.419 L
579.509 598.124 L
580.755 597.811 L
582 597.481 L
583.245 597.131 L
584.491 596.761 L
585.738 596.369 L
586.983 595.954 L
588.229 595.515 L
589.474 595.051 L
590.719 594.558 L
591.966 594.037 L
593.212 593.484 L
594.457 592.898 L
595.703 592.275 L
596.948 591.614 L
598.195 590.91 L
599.44 590.161 L
600.686 589.363 L
601.931 588.511 L
603.177 587.602 L
604.423 586.628 L
605.669 585.585 L
606.914 584.466 L
608.16 583.263 L
609.405 581.967 L
610.652 580.569 L
611.897 579.058 L
613.143 577.422 L
614.388 575.645 L
615.634 573.713 L
616.881 571.607 L
618.126 569.307 L
619.371 566.791 L
620.617 564.033 L
621.862 561.007 L
623.109 557.685 L
624.355 554.039 L
625.6 550.047 L
626.845 545.693 L
628.091 540.978 L
629.338 535.936 L
630.583 530.642 L
631.829 525.244 L
633.074 519.977 L
634.319 515.175 L
635.566 511.251 L
636.812 508.631 L
638.057 507.652 L
639.303 508.449 L
640.548 510.912 L
641.795 514.72 L
643.04 519.451 L
644.286 524.687 L
645.531 530.084 L
646.777 535.396 L
648.023 540.469 L
649.269 545.219 L
650.514 549.611 L
651.76 553.639 L
653.005 557.319 L
654.252 560.672 L
655.497 563.727 L
656.743 566.501 L
657.988 569.04 L
659.234 571.359 L
660.481 573.482 L
661.726 575.429 L
662.971 577.219 L
664.217 578.867 L
665.462 580.387 L
666.709 581.793 L
667.955 583.095 L
669.2 584.304 L
670.445 585.427 L
671.691 586.473 L
672.938 587.448 L
674.183 588.359 L
675.429 589.21 L
676.674 590.007 L
677.919 590.753 L
679.166 591.454 L
680.412 592.111 L
681.657 592.728 L
682.903 593.308 L
684.148 593.853 L
685.395 594.366 L
686.64 594.849 L
687.886 595.303 L
689.131 595.729 L
690.377 596.131 L
691.623 596.508 L
692.869 596.862 L
694.114 597.194 L
695.36 597.505 L
696.605 597.796 L
697.852 598.068 L
699.097 598.32 L
700.343 598.555 L
701.588 598.773 L
702.834 598.973 L
704.081 599.157 L
705.326 599.324 L
706.571 599.475 L
707.817 599.61 L
709.062 599.729 L
710.309 599.832 L
711.555 599.919 L
712.8 599.989 L
714.045 600.044 L
715.291 600.082 L
716.538 600.103 L
717.783 600.106 L
719.029 600.091 L
720.274 600.058 L
721.519 600.005 L
722.766 599.931 L
724.012 599.835 L
725.257 599.717 L
726.503 599.574 L
727.748 599.404 L
728.995 599.207 L
730.24 598.978 L
731.486 598.717 L
732.731 598.419 L
733.977 598.081 L
735.223 597.7 L
736.469 597.271 L
737.714 596.788 L
738.96 596.247 L
740.205 595.642 L
741.452 594.967 L
742.697 594.214 L
743.943 593.381 L
745.188 592.462 L
746.434 591.459 L
747.681 590.378 L
748.926 589.237 L
750.171 588.067 L
751.417 586.921 L
752.662 585.873 L
753.909 585.013 L
755.155 584.437 L
756.4 584.217 L
757.645 584.384 L
758.891 584.914 L
760.138 585.735 L
761.383 586.754 L
762.629 587.878 L
763.874 589.031 L
765.119 590.159 L
766.366 591.227 L
767.612 592.216 L
768.857 593.119 L
770.103 593.933 L
771.348 594.663 L
772.595 595.311 L
773.84 595.884 L
775.086 596.388 L
776.331 596.827 L
777.577 597.207 L
778.823 597.533 L
780.069 597.807 L
781.314 598.034 L
782.56 598.216 L
783.805 598.355 L
785.052 598.452 L
786.297 598.51 L
787.543 598.529 L
788.788 598.51 L
790.034 598.452 L
791.281 598.356 L
792.526 598.22 L
793.771 598.043 L
795.017 597.825 L
796.262 597.562 L
797.509 597.254 L
798.755 596.896 L
800 596.485 L
801.245 596.017 L
802.491 595.488 L
803.738 594.892 L
804.983 594.223 L
806.229 593.472 L
807.474 592.633 L
808.719 591.695 L
809.966 590.648 L
811.212 589.482 L
812.457 588.183 L
813.703 586.742 L
814.948 585.148 L
816.195 583.394 L
817.44 581.482 L
818.686 579.425 L
819.931 577.257 L
821.177 575.039 L
822.423 572.872 L
823.669 570.898 L
824.914 569.294 L
826.16 568.241 L
827.405 567.882 L
828.652 568.275 L
829.897 569.372 L
831.143 571.037 L
832.388 573.089 L
833.634 575.348 L
834.881 577.668 L
836.126 579.943 L
837.371 582.107 L
838.617 584.123 L
839.862 585.977 L
841.109 587.665 L
842.355 589.196 L
843.6 590.581 L
844.845 591.834 L
846.091 592.975 L
847.338 594.021 L
848.583 594.995 L
849.829 595.917 L
851.074 596.803 L
852.319 597.665 L
853.566 598.507 L
854.812 599.327 L
856.057 600.121 L
857.303 600.882 L
858.548 601.607 L
859.795 602.294 L
861.04 602.941 L
862.286 603.55 L
863.531 604.123 L
864.777 604.662 L
866.023 605.168 L
867.269 605.646 L
868.514 606.096 L
869.76 606.521 L
871.005 606.924 L
872.252 607.306 L
873.497 607.668 L
874.743 608.013 L
875.988 608.341 L
877.234 608.654 L
878.481 608.953 L
879.726 609.239 L
880.971 609.513 L
882.217 609.776 L
883.462 610.028 L
884.709 610.27 L
885.955 610.503 L
887.2 610.727 L
888.445 610.943 L
889.691 611.152 L
890.938 611.353 L
892.183 611.548 L
893.429 611.736 L
894.674 611.918 L
895.919 612.094 L
897.166 612.265 L
898.412 612.431 L
899.657 612.591 L
900.903 612.747 L
902.148 612.899 L
903.395 613.047 L
904.64 613.19 L
905.886 613.33 L
907.131 613.465 L
908.377 613.598 L
909.623 613.727 L
910.869 613.852 L
912.114 613.975 L
913.36 614.095 L
914.605 614.212 L
915.852 614.326 L
917.097 614.437 L
918.343 614.546 L
919.588 614.653 L
920.834 614.757 L
922.081 614.859 L
923.326 614.958 L
924.571 615.056 L
925.817 615.152 L
927.062 615.245 L
928.309 615.337 L
929.555 615.427 L
930.8 615.515 L
932.045 615.602 L
933.291 615.687 L
934.538 615.77 L
935.783 615.852 L
937.029 615.932 L
938.274 616.011 L
939.519 616.088 L
940.766 616.164 L
942.012 616.239 L
943.257 616.312 L
944.503 616.384 L
945.748 616.455 L
946.995 616.525 L
948.24 616.594 L
949.486 616.661 L
950.731 616.728 L
951.977 616.793 L
953.223 616.857 L
954.469 616.921 L
955.714 616.983 L
956.96 617.044 L
958.205 617.105 L
959.452 617.164 L
960.697 617.223 L
961.943 617.281 L
963.188 617.338 L
964.434 617.394 L
965.681 617.449 L
966.926 617.504 L
968.171 617.558 L
969.417 617.611 L
970.662 617.663 L
971.909 617.715 L
973.155 617.766 L
974.4 617.816 L
975.645 617.866 L
976.891 617.915 L
978.138 617.963 L
979.383 618.011 L
980.629 618.058 L
981.874 618.104 L
983.119 618.15 L
984.366 618.196 L
985.612 618.241 L
986.857 618.285 L
988.103 618.329 L
989.348 618.372 L
990.595 618.414 L
991.84 618.457 L
993.086 618.498 L
994.331 618.539 L
995.577 618.58 L
996.823 618.62 L
998.069 618.66 L
999.314 618.699 L
1000.56 618.738 L
1001.805 618.777 L
1003.052 618.815 L
1004.297 618.852 L
1005.543 618.89 L
1006.788 618.926 L
1008.034 618.963 L
1009.281 618.999 L
1010.526 619.034 L
1011.771 619.07 L
1013.017 619.105 L
1014.262 619.139 L
1015.509 619.173 L
1016.755 619.207 L
1018 619.241 L
1018.104 619.243 L
S
GR
%%Trailer
%%Pages: 1
%%EOF
