%!PS-Adobe-3.0 EPSF-3.0
%%Creator: (MATLAB, The Mathworks, Inc. Version 9.4.0.813654 \(R2018a\). Operating System: Linux)
%%Title: /data/geodynamo/natafh/Dynamo/Acoustics/elastic_shell/Figures/ZoRo2/0S6.eps
%%CreationDate: 2018-12-21T13:23:22
%%Pages: (atend)
%%BoundingBox: 0 0 844 531
%%LanguageLevel: 3
%%EndComments
%%BeginProlog
%%BeginResource: procset (Apache XML Graphics Std ProcSet) 1.2 0
%%Version: 1.2 0
%%Copyright: (Copyright 2001-2003,2010 The Apache Software Foundation. License terms: http://www.apache.org/licenses/LICENSE-2.0)
/bd{bind def}bind def
/ld{load def}bd
/GR/grestore ld
/GS/gsave ld
/RM/rmoveto ld
/C/curveto ld
/t/show ld
/L/lineto ld
/ML/setmiterlimit ld
/CT/concat ld
/f/fill ld
/N/newpath ld
/S/stroke ld
/CC/setcmykcolor ld
/A/ashow ld
/cp/closepath ld
/RC/setrgbcolor ld
/LJ/setlinejoin ld
/GC/setgray ld
/LW/setlinewidth ld
/M/moveto ld
/re {4 2 roll M
1 index 0 rlineto
0 exch rlineto
neg 0 rlineto
cp } bd
/_ctm matrix def
/_tm matrix def
/BT { _ctm currentmatrix pop matrix _tm copy pop 0 0 moveto } bd
/ET { _ctm setmatrix } bd
/iTm { _ctm setmatrix _tm concat } bd
/Tm { _tm astore pop iTm 0 0 moveto } bd
/ux 0.0 def
/uy 0.0 def
/F {
  /Tp exch def
  /Tf exch def
  Tf findfont Tp scalefont setfont
  /cf Tf def  /cs Tp def
} bd
/ULS {currentpoint /uy exch def /ux exch def} bd
/ULE {
  /Tcx currentpoint pop def
  gsave
  newpath
  cf findfont cs scalefont dup
  /FontMatrix get 0 get /Ts exch def /FontInfo get dup
  /UnderlinePosition get Ts mul /To exch def
  /UnderlineThickness get Ts mul /Tt exch def
  ux uy To add moveto  Tcx uy To add lineto
  Tt setlinewidth stroke
  grestore
} bd
/OLE {
  /Tcx currentpoint pop def
  gsave
  newpath
  cf findfont cs scalefont dup
  /FontMatrix get 0 get /Ts exch def /FontInfo get dup
  /UnderlinePosition get Ts mul /To exch def
  /UnderlineThickness get Ts mul /Tt exch def
  ux uy To add cs add moveto Tcx uy To add cs add lineto
  Tt setlinewidth stroke
  grestore
} bd
/SOE {
  /Tcx currentpoint pop def
  gsave
  newpath
  cf findfont cs scalefont dup
  /FontMatrix get 0 get /Ts exch def /FontInfo get dup
  /UnderlinePosition get Ts mul /To exch def
  /UnderlineThickness get Ts mul /Tt exch def
  ux uy To add cs 10 mul 26 idiv add moveto Tcx uy To add cs 10 mul 26 idiv add lineto
  Tt setlinewidth stroke
  grestore
} bd
/QT {
/Y22 exch store
/X22 exch store
/Y21 exch store
/X21 exch store
currentpoint
/Y21 load 2 mul add 3 div exch
/X21 load 2 mul add 3 div exch
/X21 load 2 mul /X22 load add 3 div
/Y21 load 2 mul /Y22 load add 3 div
/X22 load /Y22 load curveto
} bd
/SSPD {
dup length /d exch dict def
{
/v exch def
/k exch def
currentpagedevice k known {
/cpdv currentpagedevice k get def
v cpdv ne {
/upd false def
/nullv v type /nulltype eq def
/nullcpdv cpdv type /nulltype eq def
nullv nullcpdv or
{
/upd true def
} {
/sametype v type cpdv type eq def
sametype {
v type /arraytype eq {
/vlen v length def
/cpdvlen cpdv length def
vlen cpdvlen eq {
0 1 vlen 1 sub {
/i exch def
/obj v i get def
/cpdobj cpdv i get def
obj cpdobj ne {
/upd true def
exit
} if
} for
} {
/upd true def
} ifelse
} {
v type /dicttype eq {
v {
/dv exch def
/dk exch def
/cpddv cpdv dk get def
dv cpddv ne {
/upd true def
exit
} if
} forall
} {
/upd true def
} ifelse
} ifelse
} if
} ifelse
upd true eq {
d k v put
} if
} if
} if
} forall
d length 0 gt {
d setpagedevice
} if
} bd
/RE { % /NewFontName [NewEncodingArray] /FontName RE -
  findfont dup length dict begin
  {
    1 index /FID ne
    {def} {pop pop} ifelse
  } forall
  /Encoding exch def
  /FontName 1 index def
  currentdict definefont pop
  end
} bind def
%%EndResource
%%BeginResource: procset (Apache XML Graphics EPS ProcSet) 1.0 0
%%Version: 1.0 0
%%Copyright: (Copyright 2002-2003 The Apache Software Foundation. License terms: http://www.apache.org/licenses/LICENSE-2.0)
/BeginEPSF { %def
/b4_Inc_state save def         % Save state for cleanup
/dict_count countdictstack def % Count objects on dict stack
/op_count count 1 sub def      % Count objects on operand stack
userdict begin                 % Push userdict on dict stack
/showpage { } def              % Redefine showpage, { } = null proc
0 setgray 0 setlinecap         % Prepare graphics state
1 setlinewidth 0 setlinejoin
10 setmiterlimit [ ] 0 setdash newpath
/languagelevel where           % If level not equal to 1 then
{pop languagelevel             % set strokeadjust and
1 ne                           % overprint to their defaults.
{false setstrokeadjust false setoverprint
} if
} if
} bd
/EndEPSF { %def
count op_count sub {pop} repeat            % Clean up stacks
countdictstack dict_count sub {end} repeat
b4_Inc_state restore
} bd
%%EndResource
%FOPBeginFontDict
%%IncludeResource: font Courier-Oblique
%%IncludeResource: font Courier-BoldOblique
%%IncludeResource: font Courier-Bold
%%IncludeResource: font ZapfDingbats
%%IncludeResource: font Symbol
%%IncludeResource: font Helvetica
%%IncludeResource: font Helvetica-Oblique
%%IncludeResource: font Helvetica-Bold
%%IncludeResource: font Helvetica-BoldOblique
%%IncludeResource: font Times-Roman
%%IncludeResource: font Times-Italic
%%IncludeResource: font Times-Bold
%%IncludeResource: font Times-BoldItalic
%%IncludeResource: font Courier
%FOPEndFontDict
%%BeginResource: encoding WinAnsiEncoding
/WinAnsiEncoding [
/.notdef /.notdef /.notdef /.notdef /.notdef
/.notdef /.notdef /.notdef /.notdef /.notdef
/.notdef /.notdef /.notdef /.notdef /.notdef
/.notdef /.notdef /.notdef /.notdef /.notdef
/.notdef /.notdef /.notdef /.notdef /.notdef
/.notdef /.notdef /.notdef /.notdef /.notdef
/.notdef /.notdef /space /exclam /quotedbl
/numbersign /dollar /percent /ampersand /quotesingle
/parenleft /parenright /asterisk /plus /comma
/hyphen /period /slash /zero /one
/two /three /four /five /six
/seven /eight /nine /colon /semicolon
/less /equal /greater /question /at
/A /B /C /D /E
/F /G /H /I /J
/K /L /M /N /O
/P /Q /R /S /T
/U /V /W /X /Y
/Z /bracketleft /backslash /bracketright /asciicircum
/underscore /quoteleft /a /b /c
/d /e /f /g /h
/i /j /k /l /m
/n /o /p /q /r
/s /t /u /v /w
/x /y /z /braceleft /bar
/braceright /asciitilde /bullet /Euro /bullet
/quotesinglbase /florin /quotedblbase /ellipsis /dagger
/daggerdbl /circumflex /perthousand /Scaron /guilsinglleft
/OE /bullet /Zcaron /bullet /bullet
/quoteleft /quoteright /quotedblleft /quotedblright /bullet
/endash /emdash /asciitilde /trademark /scaron
/guilsinglright /oe /bullet /zcaron /Ydieresis
/space /exclamdown /cent /sterling /currency
/yen /brokenbar /section /dieresis /copyright
/ordfeminine /guillemotleft /logicalnot /sfthyphen /registered
/macron /degree /plusminus /twosuperior /threesuperior
/acute /mu /paragraph /middot /cedilla
/onesuperior /ordmasculine /guillemotright /onequarter /onehalf
/threequarters /questiondown /Agrave /Aacute /Acircumflex
/Atilde /Adieresis /Aring /AE /Ccedilla
/Egrave /Eacute /Ecircumflex /Edieresis /Igrave
/Iacute /Icircumflex /Idieresis /Eth /Ntilde
/Ograve /Oacute /Ocircumflex /Otilde /Odieresis
/multiply /Oslash /Ugrave /Uacute /Ucircumflex
/Udieresis /Yacute /Thorn /germandbls /agrave
/aacute /acircumflex /atilde /adieresis /aring
/ae /ccedilla /egrave /eacute /ecircumflex
/edieresis /igrave /iacute /icircumflex /idieresis
/eth /ntilde /ograve /oacute /ocircumflex
/otilde /odieresis /divide /oslash /ugrave
/uacute /ucircumflex /udieresis /yacute /thorn
/ydieresis
] def
%%EndResource
%FOPBeginFontReencode
/Courier-Oblique findfont
dup length dict begin
  {1 index /FID ne {def} {pop pop} ifelse} forall
  /Encoding WinAnsiEncoding def
  currentdict
end
/Courier-Oblique exch definefont pop
/Courier-BoldOblique findfont
dup length dict begin
  {1 index /FID ne {def} {pop pop} ifelse} forall
  /Encoding WinAnsiEncoding def
  currentdict
end
/Courier-BoldOblique exch definefont pop
/Courier-Bold findfont
dup length dict begin
  {1 index /FID ne {def} {pop pop} ifelse} forall
  /Encoding WinAnsiEncoding def
  currentdict
end
/Courier-Bold exch definefont pop
/Helvetica findfont
dup length dict begin
  {1 index /FID ne {def} {pop pop} ifelse} forall
  /Encoding WinAnsiEncoding def
  currentdict
end
/Helvetica exch definefont pop
/Helvetica-Oblique findfont
dup length dict begin
  {1 index /FID ne {def} {pop pop} ifelse} forall
  /Encoding WinAnsiEncoding def
  currentdict
end
/Helvetica-Oblique exch definefont pop
/Helvetica-Bold findfont
dup length dict begin
  {1 index /FID ne {def} {pop pop} ifelse} forall
  /Encoding WinAnsiEncoding def
  currentdict
end
/Helvetica-Bold exch definefont pop
/Helvetica-BoldOblique findfont
dup length dict begin
  {1 index /FID ne {def} {pop pop} ifelse} forall
  /Encoding WinAnsiEncoding def
  currentdict
end
/Helvetica-BoldOblique exch definefont pop
/Times-Roman findfont
dup length dict begin
  {1 index /FID ne {def} {pop pop} ifelse} forall
  /Encoding WinAnsiEncoding def
  currentdict
end
/Times-Roman exch definefont pop
/Times-Italic findfont
dup length dict begin
  {1 index /FID ne {def} {pop pop} ifelse} forall
  /Encoding WinAnsiEncoding def
  currentdict
end
/Times-Italic exch definefont pop
/Times-Bold findfont
dup length dict begin
  {1 index /FID ne {def} {pop pop} ifelse} forall
  /Encoding WinAnsiEncoding def
  currentdict
end
/Times-Bold exch definefont pop
/Times-BoldItalic findfont
dup length dict begin
  {1 index /FID ne {def} {pop pop} ifelse} forall
  /Encoding WinAnsiEncoding def
  currentdict
end
/Times-BoldItalic exch definefont pop
/Courier findfont
dup length dict begin
  {1 index /FID ne {def} {pop pop} ifelse} forall
  /Encoding WinAnsiEncoding def
  currentdict
end
/Courier exch definefont pop
%FOPEndFontReencode
%%EndProlog
%%Page: 1 1
%%PageBoundingBox: 0 0 844 531
%%BeginPageSetup
[1 0 0 -1 0 531] CT
%%EndPageSetup
GS
[0.75 0 0 0.75 0 0] CT
1 GC
N
0 0 1125 708 re
f
GR
GS
[0.75 0 0 0.75 0 0] CT
1 GC
N
0 0 1125 708 re
f
GR
GS
[0.75 0 0 0.75 0 0] CT
1 GC
N
146 206 M
1018 206 L
1018 74 L
146 74 L
cp
f
GR
GS
[0.75 0 0 0.75 0 0] CT
0.149 GC
2 setlinecap
1 LJ
0.667 LW
N
146 206 M
1018 206 L
S
GR
GS
[0.75 0 0 0.75 0 0] CT
0.149 GC
2 setlinecap
1 LJ
0.667 LW
N
146 74 M
1018 74 L
S
GR
GS
[0.75 0 0 0.75 0 0] CT
0.149 GC
2 setlinecap
1 LJ
0.667 LW
N
193.135 206 M
193.135 197.28 L
S
GR
GS
[0.75 0 0 0.75 0 0] CT
0.149 GC
2 setlinecap
1 LJ
0.667 LW
N
310.973 206 M
310.973 197.28 L
S
GR
GS
[0.75 0 0 0.75 0 0] CT
0.149 GC
2 setlinecap
1 LJ
0.667 LW
N
428.811 206 M
428.811 197.28 L
S
GR
GS
[0.75 0 0 0.75 0 0] CT
0.149 GC
2 setlinecap
1 LJ
0.667 LW
N
546.649 206 M
546.649 197.28 L
S
GR
GS
[0.75 0 0 0.75 0 0] CT
0.149 GC
2 setlinecap
1 LJ
0.667 LW
N
664.487 206 M
664.487 197.28 L
S
GR
GS
[0.75 0 0 0.75 0 0] CT
0.149 GC
2 setlinecap
1 LJ
0.667 LW
N
782.324 206 M
782.324 197.28 L
S
GR
GS
[0.75 0 0 0.75 0 0] CT
0.149 GC
2 setlinecap
1 LJ
0.667 LW
N
900.162 206 M
900.162 197.28 L
S
GR
GS
[0.75 0 0 0.75 0 0] CT
0.149 GC
2 setlinecap
1 LJ
0.667 LW
N
1018 206 M
1018 197.28 L
S
GR
GS
[0.75 0 0 0.75 0 0] CT
0.149 GC
2 setlinecap
1 LJ
0.667 LW
N
193.135 74 M
193.135 82.72 L
S
GR
GS
[0.75 0 0 0.75 0 0] CT
0.149 GC
2 setlinecap
1 LJ
0.667 LW
N
310.973 74 M
310.973 82.72 L
S
GR
GS
[0.75 0 0 0.75 0 0] CT
0.149 GC
2 setlinecap
1 LJ
0.667 LW
N
428.811 74 M
428.811 82.72 L
S
GR
GS
[0.75 0 0 0.75 0 0] CT
0.149 GC
2 setlinecap
1 LJ
0.667 LW
N
546.649 74 M
546.649 82.72 L
S
GR
GS
[0.75 0 0 0.75 0 0] CT
0.149 GC
2 setlinecap
1 LJ
0.667 LW
N
664.487 74 M
664.487 82.72 L
S
GR
GS
[0.75 0 0 0.75 0 0] CT
0.149 GC
2 setlinecap
1 LJ
0.667 LW
N
782.324 74 M
782.324 82.72 L
S
GR
GS
[0.75 0 0 0.75 0 0] CT
0.149 GC
2 setlinecap
1 LJ
0.667 LW
N
900.162 74 M
900.162 82.72 L
S
GR
GS
[0.75 0 0 0.75 0 0] CT
0.149 GC
2 setlinecap
1 LJ
0.667 LW
N
1018 74 M
1018 82.72 L
S
GR
GS
[0.75 0 0 0.75 144.85135 157.90001] CT
0.149 GC
/Helvetica 12.667 F
GS
[1 0 0 1 0 0] CT
-12.5 12 moveto 
1 -1 scale
(500) t 
GR
GR
GS
[0.75 0 0 0.75 233.22972 157.90001] CT
0.149 GC
/Helvetica 12.667 F
GS
[1 0 0 1 0 0] CT
-16.5 12 moveto 
1 -1 scale
(1000) t 
GR
GR
GS
[0.75 0 0 0.75 321.60812 157.90001] CT
0.149 GC
/Helvetica 12.667 F
GS
[1 0 0 1 0 0] CT
-16.5 12 moveto 
1 -1 scale
(1500) t 
GR
GR
GS
[0.75 0 0 0.75 409.98647 157.90001] CT
0.149 GC
/Helvetica 12.667 F
GS
[1 0 0 1 0 0] CT
-16.5 12 moveto 
1 -1 scale
(2000) t 
GR
GR
GS
[0.75 0 0 0.75 498.36488 157.90001] CT
0.149 GC
/Helvetica 12.667 F
GS
[1 0 0 1 0 0] CT
-16.5 12 moveto 
1 -1 scale
(2500) t 
GR
GR
GS
[0.75 0 0 0.75 586.74326 157.90001] CT
0.149 GC
/Helvetica 12.667 F
GS
[1 0 0 1 0 0] CT
-16.5 12 moveto 
1 -1 scale
(3000) t 
GR
GR
GS
[0.75 0 0 0.75 675.12163 157.90001] CT
0.149 GC
/Helvetica 12.667 F
GS
[1 0 0 1 0 0] CT
-16.5 12 moveto 
1 -1 scale
(3500) t 
GR
GR
GS
[0.75 0 0 0.75 763.5 157.90001] CT
0.149 GC
/Helvetica 12.667 F
GS
[1 0 0 1 0 0] CT
-16.5 12 moveto 
1 -1 scale
(4000) t 
GR
GR
GS
[0.75 0 0 0.75 436.50032 169.89999] CT
0.149 GC
/Helvetica 13.933 F
GS
[1 0 0 1 0 0] CT
-73.5 13 moveto 
1 -1 scale
(mode frequency \(Hz\)) t 
GR
GR
GS
[0.75 0 0 0.75 0 0] CT
0.149 GC
2 setlinecap
1 LJ
0.667 LW
N
146 206 M
146 74 L
S
GR
GS
[0.75 0 0 0.75 0 0] CT
0.149 GC
2 setlinecap
1 LJ
0.667 LW
N
1018 206 M
1018 74 L
S
GR
GS
[0.75 0 0 0.75 0 0] CT
0.149 GC
2 setlinecap
1 LJ
0.667 LW
N
146 206 M
154.72 206 L
S
GR
GS
[0.75 0 0 0.75 0 0] CT
0.149 GC
2 setlinecap
1 LJ
0.667 LW
N
146 162 M
154.72 162 L
S
GR
GS
[0.75 0 0 0.75 0 0] CT
0.149 GC
2 setlinecap
1 LJ
0.667 LW
N
146 118 M
154.72 118 L
S
GR
GS
[0.75 0 0 0.75 0 0] CT
0.149 GC
2 setlinecap
1 LJ
0.667 LW
N
146 74 M
154.72 74 L
S
GR
GS
[0.75 0 0 0.75 0 0] CT
0.149 GC
2 setlinecap
1 LJ
0.667 LW
N
1018 206 M
1009.28 206 L
S
GR
GS
[0.75 0 0 0.75 0 0] CT
0.149 GC
2 setlinecap
1 LJ
0.667 LW
N
1018 162 M
1009.28 162 L
S
GR
GS
[0.75 0 0 0.75 0 0] CT
0.149 GC
2 setlinecap
1 LJ
0.667 LW
N
1018 118 M
1009.28 118 L
S
GR
GS
[0.75 0 0 0.75 0 0] CT
0.149 GC
2 setlinecap
1 LJ
0.667 LW
N
1018 74 M
1009.28 74 L
S
GR
GS
[0.75 0 0 0.75 106.09999 154.5] CT
0.149 GC
/Helvetica 12.667 F
GS
[1 0 0 1 0 0] CT
-9 4.5 moveto 
1 -1 scale
(0) t 
GR
GR
GS
[0.75 0 0 0.75 106.09999 121.5] CT
0.149 GC
/Helvetica 12.667 F
GS
[1 0 0 1 0 0] CT
-9 4.5 moveto 
1 -1 scale
(5) t 
GR
GR
GS
[0.75 0 0 0.75 106.09999 88.5] CT
0.149 GC
/Helvetica 12.667 F
GS
[1 0 0 1 0 0] CT
-17 4.5 moveto 
1 -1 scale
(10) t 
GR
GR
GS
[0.75 0 0 0.75 106.09999 55.5] CT
0.149 GC
/Helvetica 12.667 F
GS
[1 0 0 1 0 0] CT
-17 4.5 moveto 
1 -1 scale
(15) t 
GR
GR
GS
[0 -0.75 0.75 0 90.85 104.99995] CT
0.149 GC
/Helvetica 13.933 F
GS
[1 0 0 1 0 0] CT
-52.5 -4 moveto 
1 -1 scale
(fake amplitude) t 
GR
GR
GS
[0.75 0 0 0.75 436.50041 53.54062] CT
/Helvetica-Bold 13.933 F
GS
[1 0 0 1 0 0] CT
-184 -4 moveto 
1 -1 scale
(degenerate SNRI multiplets for ZoRo2-rigid-air) t 
GR
GR
GS
[0.75 0 0 0.75 0 0] CT
0.149 GC
1 LJ
0.667 LW
N
146 206 M
1018 206 L
S
GR
GS
[0.75 0 0 0.75 158.21801 88.5] CT
10.0 ML
N
4 0 M
4 -2.209 2.209 -4 0 -4 C
-2.209 -4 -4 -2.209 -4 0 C
-4 2.209 -2.209 4 0 4 C
2.209 4 4 2.209 4 0 C
cp
S
GR
GS
[0.75 0 0 0.75 219.83066 88.5] CT
10.0 ML
N
4 0 M
4 -2.209 2.209 -4 0 -4 C
-2.209 -4 -4 -2.209 -4 0 C
-4 2.209 -2.209 4 0 4 C
2.209 4 4 2.209 4 0 C
cp
S
GR
GS
[0.75 0 0 0.75 277.11697 88.5] CT
10.0 ML
N
4 0 M
4 -2.209 2.209 -4 0 -4 C
-2.209 -4 -4 -2.209 -4 0 C
-4 2.209 -2.209 4 0 4 C
2.209 4 4 2.209 4 0 C
cp
S
GR
GS
[0.75 0 0 0.75 332.47735 88.5] CT
10.0 ML
N
4 0 M
4 -2.209 2.209 -4 0 -4 C
-2.209 -4 -4 -2.209 -4 0 C
-4 2.209 -2.209 4 0 4 C
2.209 4 4 2.209 4 0 C
cp
S
GR
GS
[0.75 0 0 0.75 386.72076 88.5] CT
10.0 ML
N
4 0 M
4 -2.209 2.209 -4 0 -4 C
-2.209 -4 -4 -2.209 -4 0 C
-4 2.209 -2.209 4 0 4 C
2.209 4 4 2.209 4 0 C
cp
S
GR
GS
[0.75 0 0 0.75 440.22464 88.5] CT
10.0 ML
N
4 0 M
4 -2.209 2.209 -4 0 -4 C
-2.209 -4 -4 -2.209 -4 0 C
-4 2.209 -2.209 4 0 4 C
2.209 4 4 2.209 4 0 C
cp
S
GR
GS
[0.75 0 0 0.75 493.1976 88.5] CT
10.0 ML
N
4 0 M
4 -2.209 2.209 -4 0 -4 C
-2.209 -4 -4 -2.209 -4 0 C
-4 2.209 -2.209 4 0 4 C
2.209 4 4 2.209 4 0 C
cp
S
GR
GS
[0.75 0 0 0.75 545.76837 88.5] CT
10.0 ML
N
4 0 M
4 -2.209 2.209 -4 0 -4 C
-2.209 -4 -4 -2.209 -4 0 C
-4 2.209 -2.209 4 0 4 C
2.209 4 4 2.209 4 0 C
cp
S
GR
GS
[0.75 0 0 0.75 598.02219 88.5] CT
10.0 ML
N
4 0 M
4 -2.209 2.209 -4 0 -4 C
-2.209 -4 -4 -2.209 -4 0 C
-4 2.209 -2.209 4 0 4 C
2.209 4 4 2.209 4 0 C
cp
S
GR
GS
[0.75 0 0 0.75 650.01878 88.5] CT
10.0 ML
N
4 0 M
4 -2.209 2.209 -4 0 -4 C
-2.209 -4 -4 -2.209 -4 0 C
-4 2.209 -2.209 4 0 4 C
2.209 4 4 2.209 4 0 C
cp
S
GR
GS
[0.75 0 0 0.75 701.80188 88.5] CT
10.0 ML
N
4 0 M
4 -2.209 2.209 -4 0 -4 C
-2.209 -4 -4 -2.209 -4 0 C
-4 2.209 -2.209 4 0 4 C
2.209 4 4 2.209 4 0 C
cp
S
GR
GS
[0.75 0 0 0.75 753.40425 88.5] CT
10.0 ML
N
4 0 M
4 -2.209 2.209 -4 0 -4 C
-2.209 -4 -4 -2.209 -4 0 C
-4 2.209 -2.209 4 0 4 C
2.209 4 4 2.209 4 0 C
cp
S
GR
GS
[0.75 0 0 0.75 0 0] CT
1 LJ
0.667 LW
N
210.957 206 M
210.957 118 L
S
GR
GS
[0.75 0 0 0.75 0 0] CT
1 LJ
0.667 LW
N
293.108 206 M
293.108 118 L
S
GR
GS
[0.75 0 0 0.75 0 0] CT
1 LJ
0.667 LW
N
369.489 206 M
369.489 118 L
S
GR
GS
[0.75 0 0 0.75 0 0] CT
1 LJ
0.667 LW
N
443.303 206 M
443.303 118 L
S
GR
GS
[0.75 0 0 0.75 0 0] CT
1 LJ
0.667 LW
N
515.628 206 M
515.628 118 L
S
GR
GS
[0.75 0 0 0.75 0 0] CT
1 LJ
0.667 LW
N
586.966 206 M
586.966 118 L
S
GR
GS
[0.75 0 0 0.75 0 0] CT
1 LJ
0.667 LW
N
657.597 206 M
657.597 118 L
S
GR
GS
[0.75 0 0 0.75 0 0] CT
1 LJ
0.667 LW
N
727.691 206 M
727.691 118 L
S
GR
GS
[0.75 0 0 0.75 0 0] CT
1 LJ
0.667 LW
N
797.363 206 M
797.363 118 L
S
GR
GS
[0.75 0 0 0.75 0 0] CT
1 LJ
0.667 LW
N
866.692 206 M
866.692 118 L
S
GR
GS
[0.75 0 0 0.75 0 0] CT
1 LJ
0.667 LW
N
935.736 206 M
935.736 118 L
S
GR
GS
[0.75 0 0 0.75 0 0] CT
1 LJ
0.667 LW
N
1004.539 206 M
1004.539 118 L
S
GR
GS
[0.75 0 0 0.75 47.25 87.75] CT
/Helvetica 10.667 F
GS
[1 0 0 1 0 0] CT
0 0 moveto 
1 -1 scale
(0) t 
GR
GR
GS
[0.75 0 0 0.75 52.5 83.25] CT
/Helvetica 13.333 F
GS
[1 0 0 1 0 0] CT
0 0 moveto 
1 -1 scale
(S) t 
GR
GR
GS
[0.75 0 0 0.75 59.25 87.75] CT
/Helvetica 10.667 F
GS
[1 0 0 1 0 0] CT
0 0 moveto 
1 -1 scale
(0) t 
GR
GR
GS
[0.75 0 0 0.75 149.25 87.75] CT
/Helvetica 10.667 F
GS
[1 0 0 1 0 0] CT
0 0 moveto 
1 -1 scale
(0) t 
GR
GR
GS
[0.75 0 0 0.75 154.5 83.25] CT
/Helvetica 13.333 F
GS
[1 0 0 1 0 0] CT
0 0 moveto 
1 -1 scale
(S) t 
GR
GR
GS
[0.75 0 0 0.75 161.25 87.75] CT
/Helvetica 10.667 F
GS
[1 0 0 1 0 0] CT
0 0 moveto 
1 -1 scale
(1) t 
GR
GR
GS
[0.75 0 0 0.75 210.75 87.75] CT
/Helvetica 10.667 F
GS
[1 0 0 1 0 0] CT
0 0 moveto 
1 -1 scale
(0) t 
GR
GR
GS
[0.75 0 0 0.75 216 83.25] CT
/Helvetica 13.333 F
GS
[1 0 0 1 0 0] CT
0 0 moveto 
1 -1 scale
(S) t 
GR
GR
GS
[0.75 0 0 0.75 222.75 87.75] CT
/Helvetica 10.667 F
GS
[1 0 0 1 0 0] CT
0 0 moveto 
1 -1 scale
(2) t 
GR
GR
GS
[0.75 0 0 0.75 267.75 87.75] CT
/Helvetica 10.667 F
GS
[1 0 0 1 0 0] CT
0 0 moveto 
1 -1 scale
(0) t 
GR
GR
GS
[0.75 0 0 0.75 273 83.25] CT
/Helvetica 13.333 F
GS
[1 0 0 1 0 0] CT
0 0 moveto 
1 -1 scale
(S) t 
GR
GR
GS
[0.75 0 0 0.75 279.75 87.75] CT
/Helvetica 10.667 F
GS
[1 0 0 1 0 0] CT
0 0 moveto 
1 -1 scale
(3) t 
GR
GR
GS
[0.75 0 0 0.75 323.25 87.75] CT
/Helvetica 10.667 F
GS
[1 0 0 1 0 0] CT
0 0 moveto 
1 -1 scale
(0) t 
GR
GR
GS
[0.75 0 0 0.75 328.5 83.25] CT
/Helvetica 13.333 F
GS
[1 0 0 1 0 0] CT
0 0 moveto 
1 -1 scale
(S) t 
GR
GR
GS
[0.75 0 0 0.75 335.25 87.75] CT
/Helvetica 10.667 F
GS
[1 0 0 1 0 0] CT
0 0 moveto 
1 -1 scale
(4) t 
GR
GR
GS
[0.75 0 0 0.75 378 87.75] CT
/Helvetica 10.667 F
GS
[1 0 0 1 0 0] CT
0 0 moveto 
1 -1 scale
(0) t 
GR
GR
GS
[0.75 0 0 0.75 383.25 83.25] CT
/Helvetica 13.333 F
GS
[1 0 0 1 0 0] CT
0 0 moveto 
1 -1 scale
(S) t 
GR
GR
GS
[0.75 0 0 0.75 390 87.75] CT
/Helvetica 10.667 F
GS
[1 0 0 1 0 0] CT
0 0 moveto 
1 -1 scale
(5) t 
GR
GR
GS
[0.75 0 0 0.75 431.25 87.75] CT
/Helvetica 10.667 F
GS
[1 0 0 1 0 0] CT
0 0 moveto 
1 -1 scale
(0) t 
GR
GR
GS
[0.75 0 0 0.75 436.5 83.25] CT
/Helvetica 13.333 F
GS
[1 0 0 1 0 0] CT
0 0 moveto 
1 -1 scale
(S) t 
GR
GR
GS
[0.75 0 0 0.75 443.25 87.75] CT
/Helvetica 10.667 F
GS
[1 0 0 1 0 0] CT
0 0 moveto 
1 -1 scale
(6) t 
GR
GR
GS
[0.75 0 0 0.75 484.5 87.75] CT
/Helvetica 10.667 F
GS
[1 0 0 1 0 0] CT
0 0 moveto 
1 -1 scale
(0) t 
GR
GR
GS
[0.75 0 0 0.75 489.75 83.25] CT
/Helvetica 13.333 F
GS
[1 0 0 1 0 0] CT
0 0 moveto 
1 -1 scale
(S) t 
GR
GR
GS
[0.75 0 0 0.75 496.5 87.75] CT
/Helvetica 10.667 F
GS
[1 0 0 1 0 0] CT
0 0 moveto 
1 -1 scale
(7) t 
GR
GR
GS
[0.75 0 0 0.75 537 87.75] CT
/Helvetica 10.667 F
GS
[1 0 0 1 0 0] CT
0 0 moveto 
1 -1 scale
(0) t 
GR
GR
GS
[0.75 0 0 0.75 542.25 83.25] CT
/Helvetica 13.333 F
GS
[1 0 0 1 0 0] CT
0 0 moveto 
1 -1 scale
(S) t 
GR
GR
GS
[0.75 0 0 0.75 549 87.75] CT
/Helvetica 10.667 F
GS
[1 0 0 1 0 0] CT
0 0 moveto 
1 -1 scale
(8) t 
GR
GR
GS
[0.75 0 0 0.75 588.75 87.75] CT
/Helvetica 10.667 F
GS
[1 0 0 1 0 0] CT
0 0 moveto 
1 -1 scale
(0) t 
GR
GR
GS
[0.75 0 0 0.75 594 83.25] CT
/Helvetica 13.333 F
GS
[1 0 0 1 0 0] CT
0 0 moveto 
1 -1 scale
(S) t 
GR
GR
GS
[0.75 0 0 0.75 600.75 87.75] CT
/Helvetica 10.667 F
GS
[1 0 0 1 0 0] CT
0 0 moveto 
1 -1 scale
(9) t 
GR
GR
GS
[0.75 0 0 0.75 639 87.75] CT
/Helvetica 10.667 F
GS
[1 0 0 1 0 0] CT
0 0 moveto 
1 -1 scale
(0) t 
GR
GR
GS
[0.75 0 0 0.75 644.25 83.25] CT
/Helvetica 13.333 F
GS
[1 0 0 1 0 0] CT
0 0 moveto 
1 -1 scale
(S) t 
GR
GR
GS
[0.75 0 0 0.75 651 87.75] CT
/Helvetica 10.667 F
GS
[1 0 0 1 0 0] CT
0 0 moveto 
1 -1 scale
(10) t 
GR
GR
GS
[0.75 0 0 0.75 690.75 87.75] CT
/Helvetica 10.667 F
GS
[1 0 0 1 0 0] CT
0 0 moveto 
1 -1 scale
(0) t 
GR
GR
GS
[0.75 0 0 0.75 696 83.25] CT
/Helvetica 13.333 F
GS
[1 0 0 1 0 0] CT
0 0 moveto 
1 -1 scale
(S) t 
GR
GR
GS
[0.75 0 0 0.75 702.75 87.75] CT
/Helvetica 10.667 F
GS
[1 0 0 1 0 0] CT
0 0 moveto 
1 -1 scale
(11) t 
GR
GR
GS
[0.75 0 0 0.75 742.5 87.75] CT
/Helvetica 10.667 F
GS
[1 0 0 1 0 0] CT
0 0 moveto 
1 -1 scale
(0) t 
GR
GR
GS
[0.75 0 0 0.75 747.75 83.25] CT
/Helvetica 13.333 F
GS
[1 0 0 1 0 0] CT
0 0 moveto 
1 -1 scale
(S) t 
GR
GR
GS
[0.75 0 0 0.75 754.5 87.75] CT
/Helvetica 10.667 F
GS
[1 0 0 1 0 0] CT
0 0 moveto 
1 -1 scale
(12) t 
GR
GR
GS
[0.75 0 0 0.75 793.5 87.75] CT
/Helvetica 10.667 F
GS
[1 0 0 1 0 0] CT
0 0 moveto 
1 -1 scale
(0) t 
GR
GR
GS
[0.75 0 0 0.75 798.75 83.25] CT
/Helvetica 13.333 F
GS
[1 0 0 1 0 0] CT
0 0 moveto 
1 -1 scale
(S) t 
GR
GR
GS
[0.75 0 0 0.75 805.5 87.75] CT
/Helvetica 10.667 F
GS
[1 0 0 1 0 0] CT
0 0 moveto 
1 -1 scale
(13) t 
GR
GR
GS
[0.75 0 0 0.75 276.10565 81.9] CT
10.0 ML
N
-2.828 -2.828 M
2.828 2.828 L
-2.828 2.828 M
2.828 -2.828 L
S
GR
GS
[0.75 0 0 0.75 346.83142 81.9] CT
10.0 ML
N
-2.828 -2.828 M
2.828 2.828 L
-2.828 2.828 M
2.828 -2.828 L
S
GR
GS
[0.75 0 0 0.75 412.79645 81.9] CT
10.0 ML
N
-2.828 -2.828 M
2.828 2.828 L
-2.828 2.828 M
2.828 -2.828 L
S
GR
GS
[0.75 0 0 0.75 476.03705 81.9] CT
10.0 ML
N
-2.828 -2.828 M
2.828 2.828 L
-2.828 2.828 M
2.828 -2.828 L
S
GR
GS
[0.75 0 0 0.75 537.46262 81.9] CT
10.0 ML
N
-2.828 -2.828 M
2.828 2.828 L
-2.828 2.828 M
2.828 -2.828 L
S
GR
GS
[0.75 0 0 0.75 597.57193 81.9] CT
10.0 ML
N
-2.828 -2.828 M
2.828 2.828 L
-2.828 2.828 M
2.828 -2.828 L
S
GR
GS
[0.75 0 0 0.75 656.6727 81.9] CT
10.0 ML
N
-2.828 -2.828 M
2.828 2.828 L
-2.828 2.828 M
2.828 -2.828 L
S
GR
GS
[0.75 0 0 0.75 714.97032 81.9] CT
10.0 ML
N
-2.828 -2.828 M
2.828 2.828 L
-2.828 2.828 M
2.828 -2.828 L
S
GR
GS
[0.75 0 0 0.75 0 0] CT
1 LJ
0.667 LW
N
368.141 206 M
368.141 109.2 L
S
GR
GS
[0.75 0 0 0.75 0 0] CT
1 LJ
0.667 LW
N
462.442 206 M
462.442 109.2 L
S
GR
GS
[0.75 0 0 0.75 0 0] CT
1 LJ
0.667 LW
N
550.395 206 M
550.395 109.2 L
S
GR
GS
[0.75 0 0 0.75 0 0] CT
1 LJ
0.667 LW
N
634.716 206 M
634.716 109.2 L
S
GR
GS
[0.75 0 0 0.75 0 0] CT
1 LJ
0.667 LW
N
716.617 206 M
716.617 109.2 L
S
GR
GS
[0.75 0 0 0.75 0 0] CT
1 LJ
0.667 LW
N
796.763 206 M
796.763 109.2 L
S
GR
GS
[0.75 0 0 0.75 0 0] CT
1 LJ
0.667 LW
N
875.564 206 M
875.564 109.2 L
S
GR
GS
[0.75 0 0 0.75 0 0] CT
1 LJ
0.667 LW
N
953.294 206 M
953.294 109.2 L
S
GR
GS
[0.75 0 0 0.75 267 81] CT
/Helvetica 10.667 F
GS
[1 0 0 1 0 0] CT
0 0 moveto 
1 -1 scale
(1) t 
GR
GR
GS
[0.75 0 0 0.75 272.25 76.5] CT
/Helvetica 13.333 F
GS
[1 0 0 1 0 0] CT
0 0 moveto 
1 -1 scale
(S) t 
GR
GR
GS
[0.75 0 0 0.75 279 81] CT
/Helvetica 10.667 F
GS
[1 0 0 1 0 0] CT
0 0 moveto 
1 -1 scale
(0) t 
GR
GR
GS
[0.75 0 0 0.75 337.5 81] CT
/Helvetica 10.667 F
GS
[1 0 0 1 0 0] CT
0 0 moveto 
1 -1 scale
(1) t 
GR
GR
GS
[0.75 0 0 0.75 342.75 76.5] CT
/Helvetica 13.333 F
GS
[1 0 0 1 0 0] CT
0 0 moveto 
1 -1 scale
(S) t 
GR
GR
GS
[0.75 0 0 0.75 349.5 81] CT
/Helvetica 10.667 F
GS
[1 0 0 1 0 0] CT
0 0 moveto 
1 -1 scale
(1) t 
GR
GR
GS
[0.75 0 0 0.75 403.5 81] CT
/Helvetica 10.667 F
GS
[1 0 0 1 0 0] CT
0 0 moveto 
1 -1 scale
(1) t 
GR
GR
GS
[0.75 0 0 0.75 408.75 76.5] CT
/Helvetica 13.333 F
GS
[1 0 0 1 0 0] CT
0 0 moveto 
1 -1 scale
(S) t 
GR
GR
GS
[0.75 0 0 0.75 415.5 81] CT
/Helvetica 10.667 F
GS
[1 0 0 1 0 0] CT
0 0 moveto 
1 -1 scale
(2) t 
GR
GR
GS
[0.75 0 0 0.75 467.25 81] CT
/Helvetica 10.667 F
GS
[1 0 0 1 0 0] CT
0 0 moveto 
1 -1 scale
(1) t 
GR
GR
GS
[0.75 0 0 0.75 472.5 76.5] CT
/Helvetica 13.333 F
GS
[1 0 0 1 0 0] CT
0 0 moveto 
1 -1 scale
(S) t 
GR
GR
GS
[0.75 0 0 0.75 479.25 81] CT
/Helvetica 10.667 F
GS
[1 0 0 1 0 0] CT
0 0 moveto 
1 -1 scale
(3) t 
GR
GR
GS
[0.75 0 0 0.75 528.75 81] CT
/Helvetica 10.667 F
GS
[1 0 0 1 0 0] CT
0 0 moveto 
1 -1 scale
(1) t 
GR
GR
GS
[0.75 0 0 0.75 534 76.5] CT
/Helvetica 13.333 F
GS
[1 0 0 1 0 0] CT
0 0 moveto 
1 -1 scale
(S) t 
GR
GR
GS
[0.75 0 0 0.75 540.75 81] CT
/Helvetica 10.667 F
GS
[1 0 0 1 0 0] CT
0 0 moveto 
1 -1 scale
(4) t 
GR
GR
GS
[0.75 0 0 0.75 588.75 81] CT
/Helvetica 10.667 F
GS
[1 0 0 1 0 0] CT
0 0 moveto 
1 -1 scale
(1) t 
GR
GR
GS
[0.75 0 0 0.75 594 76.5] CT
/Helvetica 13.333 F
GS
[1 0 0 1 0 0] CT
0 0 moveto 
1 -1 scale
(S) t 
GR
GR
GS
[0.75 0 0 0.75 600.75 81] CT
/Helvetica 10.667 F
GS
[1 0 0 1 0 0] CT
0 0 moveto 
1 -1 scale
(5) t 
GR
GR
GS
[0.75 0 0 0.75 648 81] CT
/Helvetica 10.667 F
GS
[1 0 0 1 0 0] CT
0 0 moveto 
1 -1 scale
(1) t 
GR
GR
GS
[0.75 0 0 0.75 653.25 76.5] CT
/Helvetica 13.333 F
GS
[1 0 0 1 0 0] CT
0 0 moveto 
1 -1 scale
(S) t 
GR
GR
GS
[0.75 0 0 0.75 660 81] CT
/Helvetica 10.667 F
GS
[1 0 0 1 0 0] CT
0 0 moveto 
1 -1 scale
(6) t 
GR
GR
GS
[0.75 0 0 0.75 705.75 81] CT
/Helvetica 10.667 F
GS
[1 0 0 1 0 0] CT
0 0 moveto 
1 -1 scale
(1) t 
GR
GR
GS
[0.75 0 0 0.75 711 76.5] CT
/Helvetica 13.333 F
GS
[1 0 0 1 0 0] CT
0 0 moveto 
1 -1 scale
(S) t 
GR
GR
GS
[0.75 0 0 0.75 717.75 81] CT
/Helvetica 10.667 F
GS
[1 0 0 1 0 0] CT
0 0 moveto 
1 -1 scale
(7) t 
GR
GR
GS
[0.75 0 0 0.75 763.5 81] CT
/Helvetica 10.667 F
GS
[1 0 0 1 0 0] CT
0 0 moveto 
1 -1 scale
(1) t 
GR
GR
GS
[0.75 0 0 0.75 768.75 76.5] CT
/Helvetica 13.333 F
GS
[1 0 0 1 0 0] CT
0 0 moveto 
1 -1 scale
(S) t 
GR
GR
GS
[0.75 0 0 0.75 775.5 81] CT
/Helvetica 10.667 F
GS
[1 0 0 1 0 0] CT
0 0 moveto 
1 -1 scale
(8) t 
GR
GR
GS
[0.75 0 0 0.75 820.5 81] CT
/Helvetica 10.667 F
GS
[1 0 0 1 0 0] CT
0 0 moveto 
1 -1 scale
(1) t 
GR
GR
GS
[0.75 0 0 0.75 825.75 76.5] CT
/Helvetica 13.333 F
GS
[1 0 0 1 0 0] CT
0 0 moveto 
1 -1 scale
(S) t 
GR
GR
GS
[0.75 0 0 0.75 832.5 81] CT
/Helvetica 10.667 F
GS
[1 0 0 1 0 0] CT
0 0 moveto 
1 -1 scale
(9) t 
GR
GR
GS
[0.75 0 0 0.75 434.0744 75.3] CT
10.0 ML
N
0 -4 M
0 4 L
-4 0 M
4 0 L
S
GR
GS
[0.75 0 0 0.75 506.44386 75.3] CT
10.0 ML
N
0 -4 M
0 4 L
-4 0 M
4 0 L
S
GR
GS
[0.75 0 0 0.75 575.26602 75.3] CT
10.0 ML
N
0 -4 M
0 4 L
-4 0 M
4 0 L
S
GR
GS
[0.75 0 0 0.75 641.68625 75.3] CT
10.0 ML
N
0 -4 M
0 4 L
-4 0 M
4 0 L
S
GR
GS
[0.75 0 0 0.75 706.34482 75.3] CT
10.0 ML
N
0 -4 M
0 4 L
-4 0 M
4 0 L
S
GR
GS
[0.75 0 0 0.75 0 0] CT
1 LJ
0.667 LW
N
578.766 206 M
578.766 100.4 L
S
GR
GS
[0.75 0 0 0.75 0 0] CT
1 LJ
0.667 LW
N
675.258 206 M
675.258 100.4 L
S
GR
GS
[0.75 0 0 0.75 0 0] CT
1 LJ
0.667 LW
N
767.021 206 M
767.021 100.4 L
S
GR
GS
[0.75 0 0 0.75 0 0] CT
1 LJ
0.667 LW
N
855.582 206 M
855.582 100.4 L
S
GR
GS
[0.75 0 0 0.75 0 0] CT
1 LJ
0.667 LW
N
941.793 206 M
941.793 100.4 L
S
GR
GS
[0.75 0 0 0.75 425.25 75] CT
/Helvetica 10.667 F
GS
[1 0 0 1 0 0] CT
0 0 moveto 
1 -1 scale
(2) t 
GR
GR
GS
[0.75 0 0 0.75 430.5 70.5] CT
/Helvetica 13.333 F
GS
[1 0 0 1 0 0] CT
0 0 moveto 
1 -1 scale
(S) t 
GR
GR
GS
[0.75 0 0 0.75 437.25 75] CT
/Helvetica 10.667 F
GS
[1 0 0 1 0 0] CT
0 0 moveto 
1 -1 scale
(0) t 
GR
GR
GS
[0.75 0 0 0.75 497.25 75] CT
/Helvetica 10.667 F
GS
[1 0 0 1 0 0] CT
0 0 moveto 
1 -1 scale
(2) t 
GR
GR
GS
[0.75 0 0 0.75 502.5 70.5] CT
/Helvetica 13.333 F
GS
[1 0 0 1 0 0] CT
0 0 moveto 
1 -1 scale
(S) t 
GR
GR
GS
[0.75 0 0 0.75 509.25 75] CT
/Helvetica 10.667 F
GS
[1 0 0 1 0 0] CT
0 0 moveto 
1 -1 scale
(1) t 
GR
GR
GS
[0.75 0 0 0.75 566.25 75] CT
/Helvetica 10.667 F
GS
[1 0 0 1 0 0] CT
0 0 moveto 
1 -1 scale
(2) t 
GR
GR
GS
[0.75 0 0 0.75 571.5 70.5] CT
/Helvetica 13.333 F
GS
[1 0 0 1 0 0] CT
0 0 moveto 
1 -1 scale
(S) t 
GR
GR
GS
[0.75 0 0 0.75 578.25 75] CT
/Helvetica 10.667 F
GS
[1 0 0 1 0 0] CT
0 0 moveto 
1 -1 scale
(2) t 
GR
GR
GS
[0.75 0 0 0.75 633 75] CT
/Helvetica 10.667 F
GS
[1 0 0 1 0 0] CT
0 0 moveto 
1 -1 scale
(2) t 
GR
GR
GS
[0.75 0 0 0.75 638.25 70.5] CT
/Helvetica 13.333 F
GS
[1 0 0 1 0 0] CT
0 0 moveto 
1 -1 scale
(S) t 
GR
GR
GS
[0.75 0 0 0.75 645 75] CT
/Helvetica 10.667 F
GS
[1 0 0 1 0 0] CT
0 0 moveto 
1 -1 scale
(3) t 
GR
GR
GS
[0.75 0 0 0.75 697.5 75] CT
/Helvetica 10.667 F
GS
[1 0 0 1 0 0] CT
0 0 moveto 
1 -1 scale
(2) t 
GR
GR
GS
[0.75 0 0 0.75 702.75 70.5] CT
/Helvetica 13.333 F
GS
[1 0 0 1 0 0] CT
0 0 moveto 
1 -1 scale
(S) t 
GR
GR
GS
[0.75 0 0 0.75 709.5 75] CT
/Helvetica 10.667 F
GS
[1 0 0 1 0 0] CT
0 0 moveto 
1 -1 scale
(4) t 
GR
GR
GS
[0.75 0 0 0.75 760.5 75] CT
/Helvetica 10.667 F
GS
[1 0 0 1 0 0] CT
0 0 moveto 
1 -1 scale
(2) t 
GR
GR
GS
[0.75 0 0 0.75 765.75 70.5] CT
/Helvetica 13.333 F
GS
[1 0 0 1 0 0] CT
0 0 moveto 
1 -1 scale
(S) t 
GR
GR
GS
[0.75 0 0 0.75 772.5 75] CT
/Helvetica 10.667 F
GS
[1 0 0 1 0 0] CT
0 0 moveto 
1 -1 scale
(5) t 
GR
GR
GS
[0.75 0 0 0.75 822.75 75] CT
/Helvetica 10.667 F
GS
[1 0 0 1 0 0] CT
0 0 moveto 
1 -1 scale
(2) t 
GR
GR
GS
[0.75 0 0 0.75 828 70.5] CT
/Helvetica 13.333 F
GS
[1 0 0 1 0 0] CT
0 0 moveto 
1 -1 scale
(S) t 
GR
GR
GS
[0.75 0 0 0.75 834.75 75] CT
/Helvetica 10.667 F
GS
[1 0 0 1 0 0] CT
0 0 moveto 
1 -1 scale
(6) t 
GR
GR
GS
[0.75 0 0 0.75 589.4539 68.7] CT
10.0 ML
N
0 5.332 M
-4.618 -2.666 L
4.618 -2.666 L
cp
S
GR
GS
[0.75 0 0 0.75 662.78796 68.7] CT
10.0 ML
N
0 5.332 M
-4.618 -2.666 L
4.618 -2.666 L
cp
S
GR
GS
[0.75 0 0 0.75 733.255 68.7] CT
10.0 ML
N
0 5.332 M
-4.618 -2.666 L
4.618 -2.666 L
cp
S
GR
GS
[0.75 0 0 0.75 0 0] CT
1 LJ
0.667 LW
N
785.939 206 M
785.939 91.6 L
S
GR
GS
[0.75 0 0 0.75 0 0] CT
1 LJ
0.667 LW
N
883.717 206 M
883.717 91.6 L
S
GR
GS
[0.75 0 0 0.75 0 0] CT
1 LJ
0.667 LW
N
977.673 206 M
977.673 91.6 L
S
GR
GS
[0.75 0 0 0.75 580.5 68.25] CT
/Helvetica 10.667 F
GS
[1 0 0 1 0 0] CT
0 0 moveto 
1 -1 scale
(3) t 
GR
GR
GS
[0.75 0 0 0.75 585.75 63.75] CT
/Helvetica 13.333 F
GS
[1 0 0 1 0 0] CT
0 0 moveto 
1 -1 scale
(S) t 
GR
GR
GS
[0.75 0 0 0.75 592.5 68.25] CT
/Helvetica 10.667 F
GS
[1 0 0 1 0 0] CT
0 0 moveto 
1 -1 scale
(0) t 
GR
GR
GS
[0.75 0 0 0.75 654 68.25] CT
/Helvetica 10.667 F
GS
[1 0 0 1 0 0] CT
0 0 moveto 
1 -1 scale
(3) t 
GR
GR
GS
[0.75 0 0 0.75 659.25 63.75] CT
/Helvetica 13.333 F
GS
[1 0 0 1 0 0] CT
0 0 moveto 
1 -1 scale
(S) t 
GR
GR
GS
[0.75 0 0 0.75 666 68.25] CT
/Helvetica 10.667 F
GS
[1 0 0 1 0 0] CT
0 0 moveto 
1 -1 scale
(1) t 
GR
GR
GS
[0.75 0 0 0.75 724.5 68.25] CT
/Helvetica 10.667 F
GS
[1 0 0 1 0 0] CT
0 0 moveto 
1 -1 scale
(3) t 
GR
GR
GS
[0.75 0 0 0.75 729.75 63.75] CT
/Helvetica 13.333 F
GS
[1 0 0 1 0 0] CT
0 0 moveto 
1 -1 scale
(S) t 
GR
GR
GS
[0.75 0 0 0.75 736.5 68.25] CT
/Helvetica 10.667 F
GS
[1 0 0 1 0 0] CT
0 0 moveto 
1 -1 scale
(2) t 
GR
GR
GS
[0.75 0 0 0.75 792.75 68.25] CT
/Helvetica 10.667 F
GS
[1 0 0 1 0 0] CT
0 0 moveto 
1 -1 scale
(3) t 
GR
GR
GS
[0.75 0 0 0.75 798 63.75] CT
/Helvetica 13.333 F
GS
[1 0 0 1 0 0] CT
0 0 moveto 
1 -1 scale
(S) t 
GR
GR
GS
[0.75 0 0 0.75 804.75 68.25] CT
/Helvetica 10.667 F
GS
[1 0 0 1 0 0] CT
0 0 moveto 
1 -1 scale
(3) t 
GR
GR
GS
[0.75 0 0 0.75 744.01236 62.1] CT
10.0 ML
N
-3 -3 M
-3 3 L
3 3 L
3 -3 L
cp
S
GR
GS
[0.75 0 0 0.75 0 0] CT
1 LJ
0.667 LW
N
992.016 206 M
992.016 82.8 L
S
GR
GS
[0.75 0 0 0.75 735 61.5] CT
/Helvetica 10.667 F
GS
[1 0 0 1 0 0] CT
0 0 moveto 
1 -1 scale
(4) t 
GR
GR
GS
[0.75 0 0 0.75 740.25 57] CT
/Helvetica 13.333 F
GS
[1 0 0 1 0 0] CT
0 0 moveto 
1 -1 scale
(S) t 
GR
GR
GS
[0.75 0 0 0.75 747 61.5] CT
/Helvetica 10.667 F
GS
[1 0 0 1 0 0] CT
0 0 moveto 
1 -1 scale
(0) t 
GR
GR
GS
[0.75 0 0 0.75 809.25 61.5] CT
/Helvetica 10.667 F
GS
[1 0 0 1 0 0] CT
0 0 moveto 
1 -1 scale
(4) t 
GR
GR
GS
[0.75 0 0 0.75 814.5 57] CT
/Helvetica 13.333 F
GS
[1 0 0 1 0 0] CT
0 0 moveto 
1 -1 scale
(S) t 
GR
GR
GS
[0.75 0 0 0.75 821.25 61.5] CT
/Helvetica 10.667 F
GS
[1 0 0 1 0 0] CT
0 0 moveto 
1 -1 scale
(1) t 
GR
GR
GS
[0.75 0 0 0.75 0 0] CT
1 GC
N
146 418 M
1018 418 L
1018 287 L
146 287 L
cp
f
GR
GS
[0.75 0 0 0.75 0 0] CT
0.149 GC
2 setlinecap
1 LJ
0.667 LW
N
146 418 M
1018 418 L
S
GR
GS
[0.75 0 0 0.75 0 0] CT
0.149 GC
2 setlinecap
1 LJ
0.667 LW
N
146 287 M
1018 287 L
S
GR
GS
[0.75 0 0 0.75 0 0] CT
0.149 GC
2 setlinecap
1 LJ
0.667 LW
N
146 418 M
146 409.28 L
S
GR
GS
[0.75 0 0 0.75 0 0] CT
0.149 GC
2 setlinecap
1 LJ
0.667 LW
N
270.571 418 M
270.571 409.28 L
S
GR
GS
[0.75 0 0 0.75 0 0] CT
0.149 GC
2 setlinecap
1 LJ
0.667 LW
N
395.143 418 M
395.143 409.28 L
S
GR
GS
[0.75 0 0 0.75 0 0] CT
0.149 GC
2 setlinecap
1 LJ
0.667 LW
N
519.714 418 M
519.714 409.28 L
S
GR
GS
[0.75 0 0 0.75 0 0] CT
0.149 GC
2 setlinecap
1 LJ
0.667 LW
N
644.286 418 M
644.286 409.28 L
S
GR
GS
[0.75 0 0 0.75 0 0] CT
0.149 GC
2 setlinecap
1 LJ
0.667 LW
N
768.857 418 M
768.857 409.28 L
S
GR
GS
[0.75 0 0 0.75 0 0] CT
0.149 GC
2 setlinecap
1 LJ
0.667 LW
N
893.429 418 M
893.429 409.28 L
S
GR
GS
[0.75 0 0 0.75 0 0] CT
0.149 GC
2 setlinecap
1 LJ
0.667 LW
N
1018 418 M
1018 409.28 L
S
GR
GS
[0.75 0 0 0.75 0 0] CT
0.149 GC
2 setlinecap
1 LJ
0.667 LW
N
146 287 M
146 295.72 L
S
GR
GS
[0.75 0 0 0.75 0 0] CT
0.149 GC
2 setlinecap
1 LJ
0.667 LW
N
270.571 287 M
270.571 295.72 L
S
GR
GS
[0.75 0 0 0.75 0 0] CT
0.149 GC
2 setlinecap
1 LJ
0.667 LW
N
395.143 287 M
395.143 295.72 L
S
GR
GS
[0.75 0 0 0.75 0 0] CT
0.149 GC
2 setlinecap
1 LJ
0.667 LW
N
519.714 287 M
519.714 295.72 L
S
GR
GS
[0.75 0 0 0.75 0 0] CT
0.149 GC
2 setlinecap
1 LJ
0.667 LW
N
644.286 287 M
644.286 295.72 L
S
GR
GS
[0.75 0 0 0.75 0 0] CT
0.149 GC
2 setlinecap
1 LJ
0.667 LW
N
768.857 287 M
768.857 295.72 L
S
GR
GS
[0.75 0 0 0.75 0 0] CT
0.149 GC
2 setlinecap
1 LJ
0.667 LW
N
893.429 287 M
893.429 295.72 L
S
GR
GS
[0.75 0 0 0.75 0 0] CT
0.149 GC
2 setlinecap
1 LJ
0.667 LW
N
1018 287 M
1018 295.72 L
S
GR
GS
[0.75 0 0 0.75 109.5 316.89999] CT
0.149 GC
/Helvetica 12.667 F
GS
[1 0 0 1 0 0] CT
-16.5 12 moveto 
1 -1 scale
(2130) t 
GR
GR
GS
[0.75 0 0 0.75 202.92858 316.89999] CT
0.149 GC
/Helvetica 12.667 F
GS
[1 0 0 1 0 0] CT
-16.5 12 moveto 
1 -1 scale
(2140) t 
GR
GR
GS
[0.75 0 0 0.75 296.35714 316.89999] CT
0.149 GC
/Helvetica 12.667 F
GS
[1 0 0 1 0 0] CT
-16.5 12 moveto 
1 -1 scale
(2150) t 
GR
GR
GS
[0.75 0 0 0.75 389.78572 316.89999] CT
0.149 GC
/Helvetica 12.667 F
GS
[1 0 0 1 0 0] CT
-16.5 12 moveto 
1 -1 scale
(2160) t 
GR
GR
GS
[0.75 0 0 0.75 483.21428 316.89999] CT
0.149 GC
/Helvetica 12.667 F
GS
[1 0 0 1 0 0] CT
-16.5 12 moveto 
1 -1 scale
(2170) t 
GR
GR
GS
[0.75 0 0 0.75 576.64284 316.89999] CT
0.149 GC
/Helvetica 12.667 F
GS
[1 0 0 1 0 0] CT
-16.5 12 moveto 
1 -1 scale
(2180) t 
GR
GR
GS
[0.75 0 0 0.75 670.07144 316.89999] CT
0.149 GC
/Helvetica 12.667 F
GS
[1 0 0 1 0 0] CT
-16.5 12 moveto 
1 -1 scale
(2190) t 
GR
GR
GS
[0.75 0 0 0.75 763.5 316.89999] CT
0.149 GC
/Helvetica 12.667 F
GS
[1 0 0 1 0 0] CT
-16.5 12 moveto 
1 -1 scale
(2200) t 
GR
GR
GS
[0.75 0 0 0.75 436.5 328.89999] CT
0.149 GC
/Helvetica 13.933 F
GS
[1 0 0 1 0 0] CT
-73.5 13 moveto 
1 -1 scale
(mode frequency \(Hz\)) t 
GR
GR
GS
[0.75 0 0 0.75 0 0] CT
0.149 GC
2 setlinecap
1 LJ
0.667 LW
N
146 418 M
146 287 L
S
GR
GS
[0.75 0 0 0.75 0 0] CT
0.149 GC
2 setlinecap
1 LJ
0.667 LW
N
1018 418 M
1018 287 L
S
GR
GS
[0.75 0 0 0.75 0 0] CT
0.149 GC
2 setlinecap
1 LJ
0.667 LW
N
146 418 M
154.719 418 L
S
GR
GS
[0.75 0 0 0.75 0 0] CT
0.149 GC
2 setlinecap
1 LJ
0.667 LW
N
146 363.417 M
154.719 363.417 L
S
GR
GS
[0.75 0 0 0.75 0 0] CT
0.149 GC
2 setlinecap
1 LJ
0.667 LW
N
146 308.833 M
154.719 308.833 L
S
GR
GS
[0.75 0 0 0.75 0 0] CT
0.149 GC
2 setlinecap
1 LJ
0.667 LW
N
1018 418 M
1009.281 418 L
S
GR
GS
[0.75 0 0 0.75 0 0] CT
0.149 GC
2 setlinecap
1 LJ
0.667 LW
N
1018 363.417 M
1009.281 363.417 L
S
GR
GS
[0.75 0 0 0.75 0 0] CT
0.149 GC
2 setlinecap
1 LJ
0.667 LW
N
1018 308.833 M
1009.281 308.833 L
S
GR
GS
[0.75 0 0 0.75 106.09907 313.5] CT
0.149 GC
/Helvetica 12.667 F
GS
[1 0 0 1 0 0] CT
-9 4.5 moveto 
1 -1 scale
(0) t 
GR
GR
GS
[0.75 0 0 0.75 106.09907 272.56249] CT
0.149 GC
/Helvetica 12.667 F
GS
[1 0 0 1 0 0] CT
-9 4.5 moveto 
1 -1 scale
(5) t 
GR
GR
GS
[0.75 0 0 0.75 106.09907 231.62501] CT
0.149 GC
/Helvetica 12.667 F
GS
[1 0 0 1 0 0] CT
-17 4.5 moveto 
1 -1 scale
(10) t 
GR
GR
GS
[0 -0.75 0.75 0 90.85078 264.37495] CT
0.149 GC
/Helvetica 13.933 F
GS
[1 0 0 1 0 0] CT
-52.5 -4 moveto 
1 -1 scale
(fake amplitude) t 
GR
GR
GS
[0.75 0 0 0.75 250.5 206.25] CT
/Helvetica-Bold 13.933 F
GS
[1 0 0 1 0 0] CT
0 0 moveto 
1 -1 scale
(ellipticity = 0.05 and global rotation-split singlets for f) t 
GR
GR
GS
[0.75 0 0 0.75 573.75 210.75] CT
/Helvetica-Bold 11.147 F
GS
[1 0 0 1 0 0] CT
0 0 moveto 
1 -1 scale
(o) t 
GR
GR
GS
[0.75 0 0 0.75 579.75 206.25] CT
/Helvetica-Bold 13.933 F
GS
[1 0 0 1 0 0] CT
0 0 moveto 
1 -1 scale
( = 0 Hz) t 
GR
GR
GS
[0.75 0 0 0.75 0 0] CT
0.149 GC
1 LJ
0.667 LW
N
146 418 M
1018 418 L
S
GR
GS
[0.75 0 0 0.75 691.62662 231.62501] CT
10.0 ML
N
4 0 M
4 -2.209 2.209 -4 0 -4 C
-2.209 -4 -4 -2.209 -4 0 C
-4 2.209 -2.209 4 0 4 C
2.209 4 4 2.209 4 0 C
cp
S
GR
GS
[0.75 0 0 0.75 691.62662 231.62501] CT
10.0 ML
N
4 0 M
4 -2.209 2.209 -4 0 -4 C
-2.209 -4 -4 -2.209 -4 0 C
-4 2.209 -2.209 4 0 4 C
2.209 4 4 2.209 4 0 C
cp
S
GR
GS
[0.75 0 0 0.75 0 0] CT
1 LJ
0.667 LW
N
922.169 418 M
922.169 308.833 L
S
GR
GS
[0.75 0 0 0.75 0 0] CT
1 LJ
0.667 LW
N
922.169 418 M
922.169 308.833 L
S
GR
GS
[0.75 0 0 0.75 677.45494 235.71874] CT
0 0 1 RC
10.0 ML
N
4 0 M
4 -2.209 2.209 -4 0 -4 C
-2.209 -4 -4 -2.209 -4 0 C
-4 2.209 -2.209 4 0 4 C
2.209 4 4 2.209 4 0 C
cp
S
GR
GS
[0.75 0 0 0.75 677.45494 235.71874] CT
0 0 1 RC
10.0 ML
N
4 0 M
4 -2.209 2.209 -4 0 -4 C
-2.209 -4 -4 -2.209 -4 0 C
-4 2.209 -2.209 4 0 4 C
2.209 4 4 2.209 4 0 C
cp
S
GR
GS
[0.75 0 0 0.75 0 0] CT
0 0 1 RC
1 LJ
0.667 LW
N
903.273 418 M
903.273 314.292 L
S
GR
GS
[0.75 0 0 0.75 0 0] CT
0 0 1 RC
1 LJ
0.667 LW
N
903.273 418 M
903.273 314.292 L
S
GR
GS
[0.75 0 0 0.75 634.9422 239.8125] CT
1 0 0 RC
10.0 ML
N
4 0 M
4 -2.209 2.209 -4 0 -4 C
-2.209 -4 -4 -2.209 -4 0 C
-4 2.209 -2.209 4 0 4 C
2.209 4 4 2.209 4 0 C
cp
S
GR
GS
[0.75 0 0 0.75 634.9422 239.8125] CT
1 0 0 RC
10.0 ML
N
4 0 M
4 -2.209 2.209 -4 0 -4 C
-2.209 -4 -4 -2.209 -4 0 C
-4 2.209 -2.209 4 0 4 C
2.209 4 4 2.209 4 0 C
cp
S
GR
GS
[0.75 0 0 0.75 0 0] CT
1 0 0 RC
1 LJ
0.667 LW
N
846.59 418 M
846.59 319.75 L
S
GR
GS
[0.75 0 0 0.75 0 0] CT
1 0 0 RC
1 LJ
0.667 LW
N
846.59 418 M
846.59 319.75 L
S
GR
GS
[0.75 0 0 0.75 564.08611 243.90626] CT
1 0 1 RC
10.0 ML
N
4 0 M
4 -2.209 2.209 -4 0 -4 C
-2.209 -4 -4 -2.209 -4 0 C
-4 2.209 -2.209 4 0 4 C
2.209 4 4 2.209 4 0 C
cp
S
GR
GS
[0.75 0 0 0.75 564.08611 243.90626] CT
1 0 1 RC
10.0 ML
N
4 0 M
4 -2.209 2.209 -4 0 -4 C
-2.209 -4 -4 -2.209 -4 0 C
-4 2.209 -2.209 4 0 4 C
2.209 4 4 2.209 4 0 C
cp
S
GR
GS
[0.75 0 0 0.75 0 0] CT
1 0 1 RC
1 LJ
0.667 LW
N
752.115 418 M
752.115 325.208 L
S
GR
GS
[0.75 0 0 0.75 0 0] CT
1 0 1 RC
1 LJ
0.667 LW
N
752.115 418 M
752.115 325.208 L
S
GR
GS
[0.75 0 0 0.75 464.8867 247.99999] CT
0 1 0 RC
10.0 ML
N
4 0 M
4 -2.209 2.209 -4 0 -4 C
-2.209 -4 -4 -2.209 -4 0 C
-4 2.209 -2.209 4 0 4 C
2.209 4 4 2.209 4 0 C
cp
S
GR
GS
[0.75 0 0 0.75 464.8867 247.99999] CT
0 1 0 RC
10.0 ML
N
4 0 M
4 -2.209 2.209 -4 0 -4 C
-2.209 -4 -4 -2.209 -4 0 C
-4 2.209 -2.209 4 0 4 C
2.209 4 4 2.209 4 0 C
cp
S
GR
GS
[0.75 0 0 0.75 0 0] CT
0 1 0 RC
1 LJ
0.667 LW
N
619.849 418 M
619.849 330.667 L
S
GR
GS
[0.75 0 0 0.75 0 0] CT
0 1 0 RC
1 LJ
0.667 LW
N
619.849 418 M
619.849 330.667 L
S
GR
GS
[0.75 0 0 0.75 337.34619 252.09375] CT
10.0 ML
N
4 0 M
4 -2.209 2.209 -4 0 -4 C
-2.209 -4 -4 -2.209 -4 0 C
-4 2.209 -2.209 4 0 4 C
2.209 4 4 2.209 4 0 C
cp
S
GR
GS
[0.75 0 0 0.75 337.34619 252.09375] CT
10.0 ML
N
4 0 M
4 -2.209 2.209 -4 0 -4 C
-2.209 -4 -4 -2.209 -4 0 C
-4 2.209 -2.209 4 0 4 C
2.209 4 4 2.209 4 0 C
cp
S
GR
GS
[0.75 0 0 0.75 0 0] CT
1 LJ
0.667 LW
N
449.795 418 M
449.795 336.125 L
S
GR
GS
[0.75 0 0 0.75 0 0] CT
1 LJ
0.667 LW
N
449.795 418 M
449.795 336.125 L
S
GR
GS
[0.75 0 0 0.75 181.46235 256.18751] CT
0 0 1 RC
10.0 ML
N
4 0 M
4 -2.209 2.209 -4 0 -4 C
-2.209 -4 -4 -2.209 -4 0 C
-4 2.209 -2.209 4 0 4 C
2.209 4 4 2.209 4 0 C
cp
S
GR
GS
[0.75 0 0 0.75 181.46235 256.18751] CT
0 0 1 RC
10.0 ML
N
4 0 M
4 -2.209 2.209 -4 0 -4 C
-2.209 -4 -4 -2.209 -4 0 C
-4 2.209 -2.209 4 0 4 C
2.209 4 4 2.209 4 0 C
cp
S
GR
GS
[0.75 0 0 0.75 0 0] CT
0 0 1 RC
1 LJ
0.667 LW
N
241.95 418 M
241.95 341.583 L
S
GR
GS
[0.75 0 0 0.75 0 0] CT
0 0 1 RC
1 LJ
0.667 LW
N
241.95 418 M
241.95 341.583 L
S
GR
GS
[0.75 0 0 0.75 168.14605 231.62501] CT
10.0 ML
N
0 -4 M
0 4 L
-4 0 M
4 0 L
S
GR
GS
[0.75 0 0 0.75 168.14605 231.62501] CT
10.0 ML
N
0 -4 M
0 4 L
-4 0 M
4 0 L
S
GR
GS
[0.75 0 0 0.75 0 0] CT
1 LJ
0.667 LW
N
224.195 418 M
224.195 308.833 L
S
GR
GS
[0.75 0 0 0.75 0 0] CT
1 LJ
0.667 LW
N
224.195 418 M
224.195 308.833 L
S
GR
GS
[0.75 0 0 0.75 0 0] CT
1 GC
N
146 630 M
1018 630 L
1018 499 L
146 499 L
cp
f
GR
GS
[0.75 0 0 0.75 0 0] CT
0.149 GC
2 setlinecap
1 LJ
0.667 LW
N
146 630 M
1018 630 L
S
GR
GS
[0.75 0 0 0.75 0 0] CT
0.149 GC
2 setlinecap
1 LJ
0.667 LW
N
146 499 M
1018 499 L
S
GR
GS
[0.75 0 0 0.75 0 0] CT
0.149 GC
2 setlinecap
1 LJ
0.667 LW
N
146 630 M
146 621.28 L
S
GR
GS
[0.75 0 0 0.75 0 0] CT
0.149 GC
2 setlinecap
1 LJ
0.667 LW
N
270.571 630 M
270.571 621.28 L
S
GR
GS
[0.75 0 0 0.75 0 0] CT
0.149 GC
2 setlinecap
1 LJ
0.667 LW
N
395.143 630 M
395.143 621.28 L
S
GR
GS
[0.75 0 0 0.75 0 0] CT
0.149 GC
2 setlinecap
1 LJ
0.667 LW
N
519.714 630 M
519.714 621.28 L
S
GR
GS
[0.75 0 0 0.75 0 0] CT
0.149 GC
2 setlinecap
1 LJ
0.667 LW
N
644.286 630 M
644.286 621.28 L
S
GR
GS
[0.75 0 0 0.75 0 0] CT
0.149 GC
2 setlinecap
1 LJ
0.667 LW
N
768.857 630 M
768.857 621.28 L
S
GR
GS
[0.75 0 0 0.75 0 0] CT
0.149 GC
2 setlinecap
1 LJ
0.667 LW
N
893.429 630 M
893.429 621.28 L
S
GR
GS
[0.75 0 0 0.75 0 0] CT
0.149 GC
2 setlinecap
1 LJ
0.667 LW
N
1018 630 M
1018 621.28 L
S
GR
GS
[0.75 0 0 0.75 0 0] CT
0.149 GC
2 setlinecap
1 LJ
0.667 LW
N
146 499 M
146 507.72 L
S
GR
GS
[0.75 0 0 0.75 0 0] CT
0.149 GC
2 setlinecap
1 LJ
0.667 LW
N
270.571 499 M
270.571 507.72 L
S
GR
GS
[0.75 0 0 0.75 0 0] CT
0.149 GC
2 setlinecap
1 LJ
0.667 LW
N
395.143 499 M
395.143 507.72 L
S
GR
GS
[0.75 0 0 0.75 0 0] CT
0.149 GC
2 setlinecap
1 LJ
0.667 LW
N
519.714 499 M
519.714 507.72 L
S
GR
GS
[0.75 0 0 0.75 0 0] CT
0.149 GC
2 setlinecap
1 LJ
0.667 LW
N
644.286 499 M
644.286 507.72 L
S
GR
GS
[0.75 0 0 0.75 0 0] CT
0.149 GC
2 setlinecap
1 LJ
0.667 LW
N
768.857 499 M
768.857 507.72 L
S
GR
GS
[0.75 0 0 0.75 0 0] CT
0.149 GC
2 setlinecap
1 LJ
0.667 LW
N
893.429 499 M
893.429 507.72 L
S
GR
GS
[0.75 0 0 0.75 0 0] CT
0.149 GC
2 setlinecap
1 LJ
0.667 LW
N
1018 499 M
1018 507.72 L
S
GR
GS
[0.75 0 0 0.75 109.5 475.89999] CT
0.149 GC
/Helvetica 12.667 F
GS
[1 0 0 1 0 0] CT
-16.5 12 moveto 
1 -1 scale
(2130) t 
GR
GR
GS
[0.75 0 0 0.75 202.92858 475.89999] CT
0.149 GC
/Helvetica 12.667 F
GS
[1 0 0 1 0 0] CT
-16.5 12 moveto 
1 -1 scale
(2140) t 
GR
GR
GS
[0.75 0 0 0.75 296.35714 475.89999] CT
0.149 GC
/Helvetica 12.667 F
GS
[1 0 0 1 0 0] CT
-16.5 12 moveto 
1 -1 scale
(2150) t 
GR
GR
GS
[0.75 0 0 0.75 389.78572 475.89999] CT
0.149 GC
/Helvetica 12.667 F
GS
[1 0 0 1 0 0] CT
-16.5 12 moveto 
1 -1 scale
(2160) t 
GR
GR
GS
[0.75 0 0 0.75 483.21428 475.89999] CT
0.149 GC
/Helvetica 12.667 F
GS
[1 0 0 1 0 0] CT
-16.5 12 moveto 
1 -1 scale
(2170) t 
GR
GR
GS
[0.75 0 0 0.75 576.64284 475.89999] CT
0.149 GC
/Helvetica 12.667 F
GS
[1 0 0 1 0 0] CT
-16.5 12 moveto 
1 -1 scale
(2180) t 
GR
GR
GS
[0.75 0 0 0.75 670.07144 475.89999] CT
0.149 GC
/Helvetica 12.667 F
GS
[1 0 0 1 0 0] CT
-16.5 12 moveto 
1 -1 scale
(2190) t 
GR
GR
GS
[0.75 0 0 0.75 763.5 475.89999] CT
0.149 GC
/Helvetica 12.667 F
GS
[1 0 0 1 0 0] CT
-16.5 12 moveto 
1 -1 scale
(2200) t 
GR
GR
GS
[0.75 0 0 0.75 436.5 487.89999] CT
0.149 GC
/Helvetica 13.933 F
GS
[1 0 0 1 0 0] CT
-73.5 13 moveto 
1 -1 scale
(mode frequency \(Hz\)) t 
GR
GR
GS
[0.75 0 0 0.75 0 0] CT
0.149 GC
2 setlinecap
1 LJ
0.667 LW
N
146 630 M
146 499 L
S
GR
GS
[0.75 0 0 0.75 0 0] CT
0.149 GC
2 setlinecap
1 LJ
0.667 LW
N
1018 630 M
1018 499 L
S
GR
GS
[0.75 0 0 0.75 0 0] CT
0.149 GC
2 setlinecap
1 LJ
0.667 LW
N
146 630 M
154.719 630 L
S
GR
GS
[0.75 0 0 0.75 0 0] CT
0.149 GC
2 setlinecap
1 LJ
0.667 LW
N
146 597.25 M
154.719 597.25 L
S
GR
GS
[0.75 0 0 0.75 0 0] CT
0.149 GC
2 setlinecap
1 LJ
0.667 LW
N
146 564.5 M
154.719 564.5 L
S
GR
GS
[0.75 0 0 0.75 0 0] CT
0.149 GC
2 setlinecap
1 LJ
0.667 LW
N
146 531.75 M
154.719 531.75 L
S
GR
GS
[0.75 0 0 0.75 0 0] CT
0.149 GC
2 setlinecap
1 LJ
0.667 LW
N
146 499 M
154.719 499 L
S
GR
GS
[0.75 0 0 0.75 0 0] CT
0.149 GC
2 setlinecap
1 LJ
0.667 LW
N
1018 630 M
1009.281 630 L
S
GR
GS
[0.75 0 0 0.75 0 0] CT
0.149 GC
2 setlinecap
1 LJ
0.667 LW
N
1018 597.25 M
1009.281 597.25 L
S
GR
GS
[0.75 0 0 0.75 0 0] CT
0.149 GC
2 setlinecap
1 LJ
0.667 LW
N
1018 564.5 M
1009.281 564.5 L
S
GR
GS
[0.75 0 0 0.75 0 0] CT
0.149 GC
2 setlinecap
1 LJ
0.667 LW
N
1018 531.75 M
1009.281 531.75 L
S
GR
GS
[0.75 0 0 0.75 0 0] CT
0.149 GC
2 setlinecap
1 LJ
0.667 LW
N
1018 499 M
1009.281 499 L
S
GR
GS
[0.75 0 0 0.75 106.09907 472.5] CT
0.149 GC
/Helvetica 12.667 F
GS
[1 0 0 1 0 0] CT
-9 4.5 moveto 
1 -1 scale
(0) t 
GR
GR
GS
[0.75 0 0 0.75 106.09907 447.9375] CT
0.149 GC
/Helvetica 12.667 F
GS
[1 0 0 1 0 0] CT
-29 4.5 moveto 
1 -1 scale
(0.02) t 
GR
GR
GS
[0.75 0 0 0.75 106.09907 423.375] CT
0.149 GC
/Helvetica 12.667 F
GS
[1 0 0 1 0 0] CT
-29 4.5 moveto 
1 -1 scale
(0.04) t 
GR
GR
GS
[0.75 0 0 0.75 106.09907 398.8125] CT
0.149 GC
/Helvetica 12.667 F
GS
[1 0 0 1 0 0] CT
-29 4.5 moveto 
1 -1 scale
(0.06) t 
GR
GR
GS
[0.75 0 0 0.75 106.09907 374.25] CT
0.149 GC
/Helvetica 12.667 F
GS
[1 0 0 1 0 0] CT
-29 4.5 moveto 
1 -1 scale
(0.08) t 
GR
GR
GS
[0 -0.75 0.75 0 81.85007 423.37495] CT
0.149 GC
/Helvetica 13.933 F
GS
[1 0 0 1 0 0] CT
-68 -4 moveto 
1 -1 scale
(pressure amplitude) t 
GR
GR
GS
[0.75 0 0 0.75 183.75 352.5] CT
/Helvetica-Bold 13.933 F
GS
[1 0 0 1 0 0] CT
0 0 moveto 
1 -1 scale
(Lorentzian spectra for ellipticity = 0.05 and global rotation-split singlets for f) t 
GR
GR
GS
[0.75 0 0 0.75 641.25 357] CT
/Helvetica-Bold 11.147 F
GS
[1 0 0 1 0 0] CT
0 0 moveto 
1 -1 scale
(o) t 
GR
GR
GS
[0.75 0 0 0.75 647.25 352.5] CT
/Helvetica-Bold 13.933 F
GS
[1 0 0 1 0 0] CT
0 0 moveto 
1 -1 scale
( = 0 Hz) t 
GR
GR
GS
[0.75 0 0 0.75 354.75 369] CT
/Helvetica-Bold 13.933 F
GS
[1 0 0 1 0 0] CT
0 0 moveto 
1 -1 scale
(HP at lat 45, micro at lat 32) t 
GR
GR
GS
[0.75 0 0 0.75 0 0] CT
0 0.447 0.741 RC
1 LJ
0.667 LW
N
145.896 619.278 M
146 619.273 L
147.247 619.212 L
148.491 619.15 L
149.738 619.086 L
150.982 619.02 L
152.229 618.953 L
153.476 618.883 L
154.719 618.812 L
155.966 618.738 L
157.21 618.662 L
158.457 618.583 L
159.704 618.502 L
160.948 618.418 L
162.195 618.332 L
163.439 618.242 L
164.686 618.149 L
165.933 618.053 L
167.177 617.953 L
168.423 617.849 L
169.667 617.741 L
170.914 617.629 L
172.161 617.512 L
173.405 617.39 L
174.652 617.252 L
175.896 617.119 L
177.143 616.98 L
178.39 616.834 L
179.634 616.68 L
180.881 616.519 L
182.124 616.35 L
183.371 616.171 L
184.618 615.981 L
185.862 615.781 L
187.109 615.568 L
188.353 615.342 L
189.6 615.102 L
190.847 614.844 L
192.091 614.568 L
193.338 614.272 L
194.582 613.953 L
195.829 613.607 L
197.076 613.232 L
198.319 612.823 L
199.566 612.372 L
200.81 611.879 L
202.057 611.334 L
203.304 610.726 L
204.548 610.044 L
205.795 609.274 L
207.039 608.395 L
208.286 607.377 L
209.533 606.195 L
210.777 604.795 L
212.023 603.107 L
213.267 601.03 L
214.514 598.405 L
215.761 594.974 L
217.005 590.288 L
218.252 583.513 L
219.496 572.943 L
220.743 554.937 L
221.99 524.623 L
223.234 507.957 L
224.481 537.443 L
225.725 562.229 L
226.971 576.222 L
228.218 584.606 L
229.462 590.096 L
230.709 593.974 L
231.953 596.886 L
233.2 599.181 L
234.447 601.061 L
235.691 602.643 L
236.938 604.002 L
238.182 605.183 L
239.429 606.22 L
240.676 607.137 L
241.919 607.951 L
243.166 608.678 L
244.41 609.328 L
245.657 609.913 L
246.904 610.439 L
248.148 610.915 L
249.395 611.347 L
250.639 611.739 L
251.886 612.097 L
253.133 612.423 L
254.377 612.722 L
255.623 612.996 L
256.867 613.248 L
258.114 613.48 L
259.361 613.693 L
260.605 613.891 L
261.852 614.019 L
263.096 614.188 L
264.343 614.344 L
265.59 614.489 L
266.834 614.623 L
268.081 614.748 L
269.324 614.864 L
270.571 614.972 L
271.818 615.071 L
273.062 615.164 L
274.309 615.25 L
275.553 615.33 L
276.8 615.404 L
278.047 615.473 L
279.291 615.536 L
280.538 615.595 L
281.782 615.649 L
283.029 615.698 L
284.276 615.744 L
285.519 615.786 L
286.766 615.824 L
288.01 615.858 L
289.257 615.889 L
290.504 615.917 L
291.748 615.942 L
292.995 615.963 L
294.239 615.982 L
295.486 615.998 L
296.733 616.012 L
297.977 616.023 L
299.223 616.031 L
300.467 616.037 L
301.714 616.041 L
302.961 616.042 L
304.205 616.042 L
305.452 616.039 L
306.696 616.033 L
307.943 616.026 L
309.19 616.017 L
310.434 616.006 L
311.681 615.992 L
312.924 615.977 L
314.171 615.96 L
315.418 615.941 L
316.662 615.92 L
317.909 615.897 L
319.153 615.872 L
320.4 615.845 L
321.647 615.817 L
322.891 615.787 L
324.138 615.754 L
325.382 615.72 L
326.629 615.684 L
327.875 615.646 L
329.119 615.607 L
330.366 615.565 L
331.61 615.521 L
332.857 615.475 L
334.104 615.428 L
335.348 615.378 L
336.595 615.327 L
337.839 615.273 L
339.086 615.217 L
340.333 615.159 L
341.577 615.099 L
342.823 615.036 L
344.067 614.971 L
345.314 614.904 L
346.561 614.835 L
347.805 614.763 L
349.052 614.688 L
350.296 614.611 L
351.543 614.531 L
352.79 614.449 L
354.034 614.363 L
355.281 614.275 L
356.525 614.184 L
357.771 614.089 L
359.018 613.991 L
360.262 613.89 L
361.509 613.785 L
362.753 613.677 L
364 613.564 L
365.247 613.448 L
366.491 613.328 L
367.738 613.203 L
368.982 613.074 L
370.229 612.94 L
371.475 612.802 L
372.719 612.658 L
373.966 612.508 L
375.21 612.353 L
376.457 612.192 L
377.704 612.025 L
378.948 611.851 L
380.195 611.67 L
381.439 611.481 L
382.686 611.285 L
383.933 611.081 L
385.177 610.867 L
386.423 610.644 L
387.667 610.412 L
388.914 610.168 L
390.161 609.914 L
391.405 609.647 L
392.652 609.367 L
393.896 609.074 L
395.143 608.766 L
396.39 608.441 L
397.634 608.1 L
398.881 607.74 L
400.125 607.36 L
401.371 606.958 L
402.618 606.533 L
403.862 606.082 L
405.109 605.604 L
406.353 605.095 L
407.6 604.554 L
408.847 603.976 L
410.091 603.36 L
411.338 602.7 L
412.582 601.992 L
413.829 601.233 L
415.076 600.417 L
416.319 599.538 L
417.566 598.591 L
418.81 597.569 L
420.057 596.465 L
421.304 595.274 L
422.548 593.99 L
423.795 592.607 L
425.039 591.123 L
426.286 589.539 L
427.533 587.864 L
428.777 586.114 L
430.023 584.317 L
431.267 582.519 L
432.514 580.785 L
433.761 579.197 L
435.005 577.856 L
436.252 576.86 L
437.496 576.297 L
438.743 576.217 L
439.99 576.626 L
441.234 577.478 L
442.481 578.693 L
443.724 580.171 L
444.971 581.813 L
446.218 583.53 L
447.462 585.257 L
448.709 586.943 L
449.953 588.558 L
451.2 590.083 L
452.447 591.508 L
453.691 592.833 L
454.938 594.059 L
456.182 595.189 L
457.429 596.23 L
458.676 597.189 L
459.919 598.071 L
461.166 598.884 L
462.41 599.632 L
463.657 600.322 L
464.904 600.959 L
466.148 601.547 L
467.395 602.091 L
468.639 602.594 L
469.886 603.06 L
471.133 603.492 L
472.377 603.893 L
473.623 604.265 L
474.867 604.61 L
476.114 604.93 L
477.361 605.228 L
478.605 605.505 L
479.852 605.762 L
481.096 606 L
482.343 606.222 L
483.59 606.427 L
484.834 606.617 L
486.081 606.794 L
487.324 606.956 L
488.571 607.106 L
489.818 607.245 L
491.062 607.371 L
492.309 607.487 L
493.553 607.593 L
494.8 607.689 L
496.047 607.775 L
497.291 607.852 L
498.538 607.921 L
499.782 607.981 L
501.029 608.033 L
502.276 608.077 L
503.519 608.114 L
504.766 608.143 L
506.01 608.164 L
507.257 608.179 L
508.504 608.186 L
509.748 608.187 L
510.995 608.18 L
512.239 608.167 L
513.486 608.148 L
514.733 608.122 L
515.977 608.089 L
517.223 608.049 L
518.467 608.003 L
519.714 607.95 L
520.961 607.891 L
522.205 607.825 L
523.452 607.752 L
524.696 607.673 L
525.943 607.716 L
527.19 607.623 L
528.434 607.522 L
529.681 607.414 L
530.924 607.298 L
532.171 607.175 L
533.418 607.044 L
534.662 606.905 L
535.909 606.757 L
537.153 606.601 L
538.4 606.436 L
539.647 606.262 L
540.891 606.078 L
542.138 605.884 L
543.382 605.68 L
544.629 605.465 L
545.875 605.239 L
547.119 605.001 L
548.366 604.751 L
549.61 604.488 L
550.857 604.211 L
552.104 603.92 L
553.348 603.613 L
554.595 603.291 L
555.839 602.952 L
557.086 602.594 L
558.333 602.218 L
559.577 601.821 L
560.823 601.403 L
562.067 600.962 L
563.314 600.496 L
564.561 600.004 L
565.805 599.484 L
567.052 598.933 L
568.296 598.35 L
569.543 597.732 L
570.79 597.075 L
572.034 596.378 L
573.281 595.636 L
574.524 594.846 L
575.771 594.004 L
577.018 593.104 L
578.262 592.142 L
579.509 591.112 L
580.753 590.007 L
582 588.82 L
583.247 587.544 L
584.491 586.169 L
585.738 584.687 L
586.982 583.086 L
588.229 581.355 L
589.476 579.482 L
590.719 577.456 L
591.966 575.263 L
593.21 572.892 L
594.457 570.335 L
595.704 567.587 L
596.948 564.65 L
598.195 561.539 L
599.439 558.286 L
600.686 554.945 L
601.933 551.602 L
603.177 548.382 L
604.423 545.441 L
605.667 542.765 L
606.914 540.951 L
608.161 539.96 L
609.405 539.89 L
610.652 540.749 L
611.896 542.452 L
613.143 544.847 L
614.39 547.742 L
615.634 550.948 L
616.881 554.301 L
618.125 557.671 L
619.371 560.966 L
620.618 564.126 L
621.862 567.116 L
623.109 569.92 L
624.353 572.532 L
625.6 574.956 L
626.847 577.201 L
628.091 579.278 L
629.338 581.199 L
630.582 582.976 L
631.829 584.621 L
633.076 586.146 L
634.319 587.562 L
635.566 588.878 L
636.81 590.103 L
638.057 591.245 L
639.304 592.311 L
640.548 593.309 L
641.795 594.243 L
643.039 595.12 L
644.286 595.943 L
645.533 596.718 L
646.777 597.448 L
648.023 598.137 L
649.267 598.787 L
650.514 599.402 L
651.761 599.985 L
653.005 600.537 L
654.252 601.061 L
655.496 601.558 L
656.743 602.031 L
657.99 602.482 L
659.234 602.91 L
660.481 603.319 L
661.724 603.709 L
662.971 604.081 L
664.218 604.436 L
665.462 604.776 L
666.709 605.101 L
667.953 605.412 L
669.2 605.709 L
670.447 605.994 L
671.691 606.267 L
672.938 606.529 L
674.182 606.78 L
675.429 607.021 L
676.675 607.252 L
677.919 607.473 L
679.166 607.686 L
680.41 607.89 L
681.657 608.085 L
682.904 608.273 L
684.148 608.453 L
685.395 608.626 L
686.639 608.792 L
687.886 608.95 L
689.133 609.102 L
690.377 609.247 L
691.623 609.386 L
692.867 609.519 L
694.114 609.646 L
695.361 609.767 L
696.605 609.882 L
697.852 609.991 L
699.096 610.094 L
700.343 610.191 L
701.59 610.283 L
702.834 610.37 L
704.081 610.45 L
705.325 610.525 L
706.571 610.593 L
707.818 610.656 L
709.062 610.713 L
710.309 610.763 L
711.553 610.807 L
712.8 610.845 L
714.047 610.875 L
715.291 610.898 L
716.538 610.914 L
717.782 610.921 L
719.029 610.92 L
720.276 610.91 L
721.519 610.891 L
722.766 610.862 L
724.01 610.822 L
725.257 610.77 L
726.504 610.741 L
727.748 610.666 L
728.995 610.581 L
730.239 610.484 L
731.486 610.378 L
732.733 610.266 L
733.977 610.151 L
735.223 610.041 L
736.467 609.942 L
737.714 609.864 L
738.961 609.817 L
740.205 609.809 L
741.452 609.843 L
742.696 609.922 L
743.943 610.04 L
745.19 610.191 L
746.434 610.364 L
747.681 610.551 L
748.924 610.742 L
750.171 610.933 L
751.418 611.119 L
752.662 611.295 L
753.909 611.462 L
755.153 611.617 L
756.4 611.761 L
757.647 611.894 L
758.891 612.016 L
760.138 612.128 L
761.382 612.23 L
762.629 612.323 L
763.875 612.407 L
765.119 612.484 L
766.366 612.553 L
767.61 612.615 L
768.857 612.67 L
770.104 612.719 L
771.348 612.762 L
772.595 612.799 L
773.839 612.831 L
775.086 612.858 L
776.333 612.879 L
777.577 612.896 L
778.823 612.907 L
780.067 612.914 L
781.314 612.916 L
782.561 612.913 L
783.805 612.906 L
785.052 612.894 L
786.296 612.878 L
787.543 612.856 L
788.79 612.83 L
790.034 612.799 L
791.281 612.763 L
792.524 612.721 L
793.771 612.675 L
795.018 612.623 L
796.262 612.565 L
797.509 612.501 L
798.753 612.431 L
800 612.355 L
801.247 612.271 L
802.491 612.18 L
803.738 612.082 L
804.982 611.975 L
806.229 611.859 L
807.476 611.734 L
808.719 611.599 L
809.966 611.453 L
811.21 611.295 L
812.457 611.07 L
813.704 610.886 L
814.948 610.687 L
816.195 610.472 L
817.439 610.24 L
818.686 609.99 L
819.933 609.72 L
821.177 609.43 L
822.423 609.119 L
823.667 608.787 L
824.914 608.435 L
826.161 608.066 L
827.405 607.685 L
828.652 607.299 L
829.896 606.919 L
831.143 606.559 L
832.39 606.235 L
833.634 605.965 L
834.881 605.762 L
836.125 605.635 L
837.371 605.585 L
838.618 605.603 L
839.862 605.676 L
841.109 605.786 L
842.353 605.915 L
843.6 606.048 L
844.847 606.174 L
846.091 606.282 L
847.338 606.368 L
848.582 606.427 L
849.829 606.457 L
851.076 606.456 L
852.319 606.424 L
853.566 606.361 L
854.81 606.266 L
856.057 606.139 L
857.304 605.98 L
858.548 605.787 L
859.795 605.561 L
861.039 605.301 L
862.286 605.004 L
863.533 604.669 L
864.777 604.294 L
866.023 603.877 L
867.267 603.415 L
868.514 602.905 L
869.761 602.343 L
871.005 601.724 L
872.252 601.046 L
873.496 600.303 L
874.743 599.491 L
875.99 598.606 L
877.234 597.643 L
878.481 596.602 L
879.724 595.482 L
880.971 594.288 L
882.218 592.999 L
883.462 591.696 L
884.709 590.377 L
885.953 589.084 L
887.2 587.874 L
888.447 586.81 L
889.691 585.96 L
890.938 585.378 L
892.182 585.1 L
893.429 585.125 L
894.675 585.422 L
895.919 585.936 L
897.166 586.597 L
898.41 587.341 L
899.657 588.11 L
900.904 588.863 L
902.148 589.576 L
903.395 590.24 L
904.639 590.861 L
905.886 591.456 L
907.133 592.052 L
908.377 593.003 L
909.623 593.687 L
910.867 594.446 L
912.114 595.286 L
913.361 596.2 L
914.605 597.169 L
915.852 598.168 L
917.096 599.174 L
918.343 600.166 L
919.59 601.128 L
920.834 602.049 L
922.081 602.924 L
923.325 603.748 L
924.571 604.522 L
925.818 605.247 L
927.062 605.925 L
928.309 606.56 L
929.553 607.153 L
930.8 607.708 L
932.047 608.229 L
933.291 608.717 L
934.538 609.176 L
935.782 609.608 L
937.029 610.015 L
938.276 610.399 L
939.519 610.762 L
940.766 611.106 L
942.01 611.432 L
943.257 611.741 L
944.504 612.035 L
945.748 612.315 L
946.995 612.748 L
948.239 613.002 L
949.486 613.246 L
950.733 613.478 L
951.977 613.701 L
953.223 613.915 L
954.467 614.12 L
955.714 614.317 L
956.961 614.506 L
958.205 614.688 L
959.452 614.863 L
960.696 615.032 L
961.943 615.195 L
963.19 615.352 L
964.434 615.504 L
965.681 615.651 L
966.924 615.793 L
968.171 615.931 L
969.418 616.064 L
970.662 616.193 L
971.909 616.318 L
973.153 616.44 L
974.4 616.558 L
975.647 616.672 L
976.891 616.784 L
978.138 616.892 L
979.382 616.997 L
980.629 617.1 L
981.875 617.2 L
983.119 617.297 L
984.366 617.391 L
985.61 617.484 L
986.857 617.574 L
988.104 617.662 L
989.348 617.748 L
990.595 617.831 L
991.839 617.913 L
993.086 617.993 L
994.333 618.071 L
995.577 618.148 L
996.823 618.222 L
998.067 618.295 L
999.314 618.367 L
1000.561 618.437 L
1001.805 618.506 L
1003.052 618.573 L
1004.296 618.639 L
1005.543 618.703 L
1006.79 618.766 L
1008.034 618.828 L
1009.281 618.889 L
1010.524 618.949 L
1011.771 619.008 L
1013.018 619.065 L
1014.262 619.121 L
1015.509 619.177 L
1016.753 619.231 L
1018 619.285 L
1018.104 619.289 L
S
GR
%%Trailer
%%Pages: 1
%%EOF
