%!PS-Adobe-3.0 EPSF-3.0
%%Creator: (MATLAB, The Mathworks, Inc. Version 9.4.0.813654 \(R2018a\). Operating System: Linux)
%%Title: /data/geodynamo/natafh/Dynamo/Acoustics/elastic_shell/Figures/ZoRo2/1S1.eps
%%CreationDate: 2018-12-21T13:14:16
%%Pages: (atend)
%%BoundingBox: 0 0 844 531
%%LanguageLevel: 3
%%EndComments
%%BeginProlog
%%BeginResource: procset (Apache XML Graphics Std ProcSet) 1.2 0
%%Version: 1.2 0
%%Copyright: (Copyright 2001-2003,2010 The Apache Software Foundation. License terms: http://www.apache.org/licenses/LICENSE-2.0)
/bd{bind def}bind def
/ld{load def}bd
/GR/grestore ld
/GS/gsave ld
/RM/rmoveto ld
/C/curveto ld
/t/show ld
/L/lineto ld
/ML/setmiterlimit ld
/CT/concat ld
/f/fill ld
/N/newpath ld
/S/stroke ld
/CC/setcmykcolor ld
/A/ashow ld
/cp/closepath ld
/RC/setrgbcolor ld
/LJ/setlinejoin ld
/GC/setgray ld
/LW/setlinewidth ld
/M/moveto ld
/re {4 2 roll M
1 index 0 rlineto
0 exch rlineto
neg 0 rlineto
cp } bd
/_ctm matrix def
/_tm matrix def
/BT { _ctm currentmatrix pop matrix _tm copy pop 0 0 moveto } bd
/ET { _ctm setmatrix } bd
/iTm { _ctm setmatrix _tm concat } bd
/Tm { _tm astore pop iTm 0 0 moveto } bd
/ux 0.0 def
/uy 0.0 def
/F {
  /Tp exch def
  /Tf exch def
  Tf findfont Tp scalefont setfont
  /cf Tf def  /cs Tp def
} bd
/ULS {currentpoint /uy exch def /ux exch def} bd
/ULE {
  /Tcx currentpoint pop def
  gsave
  newpath
  cf findfont cs scalefont dup
  /FontMatrix get 0 get /Ts exch def /FontInfo get dup
  /UnderlinePosition get Ts mul /To exch def
  /UnderlineThickness get Ts mul /Tt exch def
  ux uy To add moveto  Tcx uy To add lineto
  Tt setlinewidth stroke
  grestore
} bd
/OLE {
  /Tcx currentpoint pop def
  gsave
  newpath
  cf findfont cs scalefont dup
  /FontMatrix get 0 get /Ts exch def /FontInfo get dup
  /UnderlinePosition get Ts mul /To exch def
  /UnderlineThickness get Ts mul /Tt exch def
  ux uy To add cs add moveto Tcx uy To add cs add lineto
  Tt setlinewidth stroke
  grestore
} bd
/SOE {
  /Tcx currentpoint pop def
  gsave
  newpath
  cf findfont cs scalefont dup
  /FontMatrix get 0 get /Ts exch def /FontInfo get dup
  /UnderlinePosition get Ts mul /To exch def
  /UnderlineThickness get Ts mul /Tt exch def
  ux uy To add cs 10 mul 26 idiv add moveto Tcx uy To add cs 10 mul 26 idiv add lineto
  Tt setlinewidth stroke
  grestore
} bd
/QT {
/Y22 exch store
/X22 exch store
/Y21 exch store
/X21 exch store
currentpoint
/Y21 load 2 mul add 3 div exch
/X21 load 2 mul add 3 div exch
/X21 load 2 mul /X22 load add 3 div
/Y21 load 2 mul /Y22 load add 3 div
/X22 load /Y22 load curveto
} bd
/SSPD {
dup length /d exch dict def
{
/v exch def
/k exch def
currentpagedevice k known {
/cpdv currentpagedevice k get def
v cpdv ne {
/upd false def
/nullv v type /nulltype eq def
/nullcpdv cpdv type /nulltype eq def
nullv nullcpdv or
{
/upd true def
} {
/sametype v type cpdv type eq def
sametype {
v type /arraytype eq {
/vlen v length def
/cpdvlen cpdv length def
vlen cpdvlen eq {
0 1 vlen 1 sub {
/i exch def
/obj v i get def
/cpdobj cpdv i get def
obj cpdobj ne {
/upd true def
exit
} if
} for
} {
/upd true def
} ifelse
} {
v type /dicttype eq {
v {
/dv exch def
/dk exch def
/cpddv cpdv dk get def
dv cpddv ne {
/upd true def
exit
} if
} forall
} {
/upd true def
} ifelse
} ifelse
} if
} ifelse
upd true eq {
d k v put
} if
} if
} if
} forall
d length 0 gt {
d setpagedevice
} if
} bd
/RE { % /NewFontName [NewEncodingArray] /FontName RE -
  findfont dup length dict begin
  {
    1 index /FID ne
    {def} {pop pop} ifelse
  } forall
  /Encoding exch def
  /FontName 1 index def
  currentdict definefont pop
  end
} bind def
%%EndResource
%%BeginResource: procset (Apache XML Graphics EPS ProcSet) 1.0 0
%%Version: 1.0 0
%%Copyright: (Copyright 2002-2003 The Apache Software Foundation. License terms: http://www.apache.org/licenses/LICENSE-2.0)
/BeginEPSF { %def
/b4_Inc_state save def         % Save state for cleanup
/dict_count countdictstack def % Count objects on dict stack
/op_count count 1 sub def      % Count objects on operand stack
userdict begin                 % Push userdict on dict stack
/showpage { } def              % Redefine showpage, { } = null proc
0 setgray 0 setlinecap         % Prepare graphics state
1 setlinewidth 0 setlinejoin
10 setmiterlimit [ ] 0 setdash newpath
/languagelevel where           % If level not equal to 1 then
{pop languagelevel             % set strokeadjust and
1 ne                           % overprint to their defaults.
{false setstrokeadjust false setoverprint
} if
} if
} bd
/EndEPSF { %def
count op_count sub {pop} repeat            % Clean up stacks
countdictstack dict_count sub {end} repeat
b4_Inc_state restore
} bd
%%EndResource
%FOPBeginFontDict
%%IncludeResource: font Courier-Oblique
%%IncludeResource: font Courier-BoldOblique
%%IncludeResource: font Courier-Bold
%%IncludeResource: font ZapfDingbats
%%IncludeResource: font Symbol
%%IncludeResource: font Helvetica
%%IncludeResource: font Helvetica-Oblique
%%IncludeResource: font Helvetica-Bold
%%IncludeResource: font Helvetica-BoldOblique
%%IncludeResource: font Times-Roman
%%IncludeResource: font Times-Italic
%%IncludeResource: font Times-Bold
%%IncludeResource: font Times-BoldItalic
%%IncludeResource: font Courier
%FOPEndFontDict
%%BeginResource: encoding WinAnsiEncoding
/WinAnsiEncoding [
/.notdef /.notdef /.notdef /.notdef /.notdef
/.notdef /.notdef /.notdef /.notdef /.notdef
/.notdef /.notdef /.notdef /.notdef /.notdef
/.notdef /.notdef /.notdef /.notdef /.notdef
/.notdef /.notdef /.notdef /.notdef /.notdef
/.notdef /.notdef /.notdef /.notdef /.notdef
/.notdef /.notdef /space /exclam /quotedbl
/numbersign /dollar /percent /ampersand /quotesingle
/parenleft /parenright /asterisk /plus /comma
/hyphen /period /slash /zero /one
/two /three /four /five /six
/seven /eight /nine /colon /semicolon
/less /equal /greater /question /at
/A /B /C /D /E
/F /G /H /I /J
/K /L /M /N /O
/P /Q /R /S /T
/U /V /W /X /Y
/Z /bracketleft /backslash /bracketright /asciicircum
/underscore /quoteleft /a /b /c
/d /e /f /g /h
/i /j /k /l /m
/n /o /p /q /r
/s /t /u /v /w
/x /y /z /braceleft /bar
/braceright /asciitilde /bullet /Euro /bullet
/quotesinglbase /florin /quotedblbase /ellipsis /dagger
/daggerdbl /circumflex /perthousand /Scaron /guilsinglleft
/OE /bullet /Zcaron /bullet /bullet
/quoteleft /quoteright /quotedblleft /quotedblright /bullet
/endash /emdash /asciitilde /trademark /scaron
/guilsinglright /oe /bullet /zcaron /Ydieresis
/space /exclamdown /cent /sterling /currency
/yen /brokenbar /section /dieresis /copyright
/ordfeminine /guillemotleft /logicalnot /sfthyphen /registered
/macron /degree /plusminus /twosuperior /threesuperior
/acute /mu /paragraph /middot /cedilla
/onesuperior /ordmasculine /guillemotright /onequarter /onehalf
/threequarters /questiondown /Agrave /Aacute /Acircumflex
/Atilde /Adieresis /Aring /AE /Ccedilla
/Egrave /Eacute /Ecircumflex /Edieresis /Igrave
/Iacute /Icircumflex /Idieresis /Eth /Ntilde
/Ograve /Oacute /Ocircumflex /Otilde /Odieresis
/multiply /Oslash /Ugrave /Uacute /Ucircumflex
/Udieresis /Yacute /Thorn /germandbls /agrave
/aacute /acircumflex /atilde /adieresis /aring
/ae /ccedilla /egrave /eacute /ecircumflex
/edieresis /igrave /iacute /icircumflex /idieresis
/eth /ntilde /ograve /oacute /ocircumflex
/otilde /odieresis /divide /oslash /ugrave
/uacute /ucircumflex /udieresis /yacute /thorn
/ydieresis
] def
%%EndResource
%FOPBeginFontReencode
/Courier-Oblique findfont
dup length dict begin
  {1 index /FID ne {def} {pop pop} ifelse} forall
  /Encoding WinAnsiEncoding def
  currentdict
end
/Courier-Oblique exch definefont pop
/Courier-BoldOblique findfont
dup length dict begin
  {1 index /FID ne {def} {pop pop} ifelse} forall
  /Encoding WinAnsiEncoding def
  currentdict
end
/Courier-BoldOblique exch definefont pop
/Courier-Bold findfont
dup length dict begin
  {1 index /FID ne {def} {pop pop} ifelse} forall
  /Encoding WinAnsiEncoding def
  currentdict
end
/Courier-Bold exch definefont pop
/Helvetica findfont
dup length dict begin
  {1 index /FID ne {def} {pop pop} ifelse} forall
  /Encoding WinAnsiEncoding def
  currentdict
end
/Helvetica exch definefont pop
/Helvetica-Oblique findfont
dup length dict begin
  {1 index /FID ne {def} {pop pop} ifelse} forall
  /Encoding WinAnsiEncoding def
  currentdict
end
/Helvetica-Oblique exch definefont pop
/Helvetica-Bold findfont
dup length dict begin
  {1 index /FID ne {def} {pop pop} ifelse} forall
  /Encoding WinAnsiEncoding def
  currentdict
end
/Helvetica-Bold exch definefont pop
/Helvetica-BoldOblique findfont
dup length dict begin
  {1 index /FID ne {def} {pop pop} ifelse} forall
  /Encoding WinAnsiEncoding def
  currentdict
end
/Helvetica-BoldOblique exch definefont pop
/Times-Roman findfont
dup length dict begin
  {1 index /FID ne {def} {pop pop} ifelse} forall
  /Encoding WinAnsiEncoding def
  currentdict
end
/Times-Roman exch definefont pop
/Times-Italic findfont
dup length dict begin
  {1 index /FID ne {def} {pop pop} ifelse} forall
  /Encoding WinAnsiEncoding def
  currentdict
end
/Times-Italic exch definefont pop
/Times-Bold findfont
dup length dict begin
  {1 index /FID ne {def} {pop pop} ifelse} forall
  /Encoding WinAnsiEncoding def
  currentdict
end
/Times-Bold exch definefont pop
/Times-BoldItalic findfont
dup length dict begin
  {1 index /FID ne {def} {pop pop} ifelse} forall
  /Encoding WinAnsiEncoding def
  currentdict
end
/Times-BoldItalic exch definefont pop
/Courier findfont
dup length dict begin
  {1 index /FID ne {def} {pop pop} ifelse} forall
  /Encoding WinAnsiEncoding def
  currentdict
end
/Courier exch definefont pop
%FOPEndFontReencode
%%EndProlog
%%Page: 1 1
%%PageBoundingBox: 0 0 844 531
%%BeginPageSetup
[1 0 0 -1 0 531] CT
%%EndPageSetup
GS
[0.75 0 0 0.75 0 0] CT
1 GC
N
0 0 1125 708 re
f
GR
GS
[0.75 0 0 0.75 0 0] CT
1 GC
N
0 0 1125 708 re
f
GR
GS
[0.75 0 0 0.75 0 0] CT
1 GC
N
146 206 M
1018 206 L
1018 74 L
146 74 L
cp
f
GR
GS
[0.75 0 0 0.75 0 0] CT
0.149 GC
2 setlinecap
1 LJ
0.667 LW
N
146 206 M
1018 206 L
S
GR
GS
[0.75 0 0 0.75 0 0] CT
0.149 GC
2 setlinecap
1 LJ
0.667 LW
N
146 74 M
1018 74 L
S
GR
GS
[0.75 0 0 0.75 0 0] CT
0.149 GC
2 setlinecap
1 LJ
0.667 LW
N
193.135 206 M
193.135 197.28 L
S
GR
GS
[0.75 0 0 0.75 0 0] CT
0.149 GC
2 setlinecap
1 LJ
0.667 LW
N
310.973 206 M
310.973 197.28 L
S
GR
GS
[0.75 0 0 0.75 0 0] CT
0.149 GC
2 setlinecap
1 LJ
0.667 LW
N
428.811 206 M
428.811 197.28 L
S
GR
GS
[0.75 0 0 0.75 0 0] CT
0.149 GC
2 setlinecap
1 LJ
0.667 LW
N
546.649 206 M
546.649 197.28 L
S
GR
GS
[0.75 0 0 0.75 0 0] CT
0.149 GC
2 setlinecap
1 LJ
0.667 LW
N
664.487 206 M
664.487 197.28 L
S
GR
GS
[0.75 0 0 0.75 0 0] CT
0.149 GC
2 setlinecap
1 LJ
0.667 LW
N
782.324 206 M
782.324 197.28 L
S
GR
GS
[0.75 0 0 0.75 0 0] CT
0.149 GC
2 setlinecap
1 LJ
0.667 LW
N
900.162 206 M
900.162 197.28 L
S
GR
GS
[0.75 0 0 0.75 0 0] CT
0.149 GC
2 setlinecap
1 LJ
0.667 LW
N
1018 206 M
1018 197.28 L
S
GR
GS
[0.75 0 0 0.75 0 0] CT
0.149 GC
2 setlinecap
1 LJ
0.667 LW
N
193.135 74 M
193.135 82.72 L
S
GR
GS
[0.75 0 0 0.75 0 0] CT
0.149 GC
2 setlinecap
1 LJ
0.667 LW
N
310.973 74 M
310.973 82.72 L
S
GR
GS
[0.75 0 0 0.75 0 0] CT
0.149 GC
2 setlinecap
1 LJ
0.667 LW
N
428.811 74 M
428.811 82.72 L
S
GR
GS
[0.75 0 0 0.75 0 0] CT
0.149 GC
2 setlinecap
1 LJ
0.667 LW
N
546.649 74 M
546.649 82.72 L
S
GR
GS
[0.75 0 0 0.75 0 0] CT
0.149 GC
2 setlinecap
1 LJ
0.667 LW
N
664.487 74 M
664.487 82.72 L
S
GR
GS
[0.75 0 0 0.75 0 0] CT
0.149 GC
2 setlinecap
1 LJ
0.667 LW
N
782.324 74 M
782.324 82.72 L
S
GR
GS
[0.75 0 0 0.75 0 0] CT
0.149 GC
2 setlinecap
1 LJ
0.667 LW
N
900.162 74 M
900.162 82.72 L
S
GR
GS
[0.75 0 0 0.75 0 0] CT
0.149 GC
2 setlinecap
1 LJ
0.667 LW
N
1018 74 M
1018 82.72 L
S
GR
GS
[0.75 0 0 0.75 144.85135 157.90001] CT
0.149 GC
/Helvetica 12.667 F
GS
[1 0 0 1 0 0] CT
-12.5 12 moveto 
1 -1 scale
(500) t 
GR
GR
GS
[0.75 0 0 0.75 233.22972 157.90001] CT
0.149 GC
/Helvetica 12.667 F
GS
[1 0 0 1 0 0] CT
-16.5 12 moveto 
1 -1 scale
(1000) t 
GR
GR
GS
[0.75 0 0 0.75 321.60812 157.90001] CT
0.149 GC
/Helvetica 12.667 F
GS
[1 0 0 1 0 0] CT
-16.5 12 moveto 
1 -1 scale
(1500) t 
GR
GR
GS
[0.75 0 0 0.75 409.98647 157.90001] CT
0.149 GC
/Helvetica 12.667 F
GS
[1 0 0 1 0 0] CT
-16.5 12 moveto 
1 -1 scale
(2000) t 
GR
GR
GS
[0.75 0 0 0.75 498.36488 157.90001] CT
0.149 GC
/Helvetica 12.667 F
GS
[1 0 0 1 0 0] CT
-16.5 12 moveto 
1 -1 scale
(2500) t 
GR
GR
GS
[0.75 0 0 0.75 586.74326 157.90001] CT
0.149 GC
/Helvetica 12.667 F
GS
[1 0 0 1 0 0] CT
-16.5 12 moveto 
1 -1 scale
(3000) t 
GR
GR
GS
[0.75 0 0 0.75 675.12163 157.90001] CT
0.149 GC
/Helvetica 12.667 F
GS
[1 0 0 1 0 0] CT
-16.5 12 moveto 
1 -1 scale
(3500) t 
GR
GR
GS
[0.75 0 0 0.75 763.5 157.90001] CT
0.149 GC
/Helvetica 12.667 F
GS
[1 0 0 1 0 0] CT
-16.5 12 moveto 
1 -1 scale
(4000) t 
GR
GR
GS
[0.75 0 0 0.75 436.50032 169.89999] CT
0.149 GC
/Helvetica 13.933 F
GS
[1 0 0 1 0 0] CT
-73.5 13 moveto 
1 -1 scale
(mode frequency \(Hz\)) t 
GR
GR
GS
[0.75 0 0 0.75 0 0] CT
0.149 GC
2 setlinecap
1 LJ
0.667 LW
N
146 206 M
146 74 L
S
GR
GS
[0.75 0 0 0.75 0 0] CT
0.149 GC
2 setlinecap
1 LJ
0.667 LW
N
1018 206 M
1018 74 L
S
GR
GS
[0.75 0 0 0.75 0 0] CT
0.149 GC
2 setlinecap
1 LJ
0.667 LW
N
146 206 M
154.72 206 L
S
GR
GS
[0.75 0 0 0.75 0 0] CT
0.149 GC
2 setlinecap
1 LJ
0.667 LW
N
146 162 M
154.72 162 L
S
GR
GS
[0.75 0 0 0.75 0 0] CT
0.149 GC
2 setlinecap
1 LJ
0.667 LW
N
146 118 M
154.72 118 L
S
GR
GS
[0.75 0 0 0.75 0 0] CT
0.149 GC
2 setlinecap
1 LJ
0.667 LW
N
146 74 M
154.72 74 L
S
GR
GS
[0.75 0 0 0.75 0 0] CT
0.149 GC
2 setlinecap
1 LJ
0.667 LW
N
1018 206 M
1009.28 206 L
S
GR
GS
[0.75 0 0 0.75 0 0] CT
0.149 GC
2 setlinecap
1 LJ
0.667 LW
N
1018 162 M
1009.28 162 L
S
GR
GS
[0.75 0 0 0.75 0 0] CT
0.149 GC
2 setlinecap
1 LJ
0.667 LW
N
1018 118 M
1009.28 118 L
S
GR
GS
[0.75 0 0 0.75 0 0] CT
0.149 GC
2 setlinecap
1 LJ
0.667 LW
N
1018 74 M
1009.28 74 L
S
GR
GS
[0.75 0 0 0.75 106.09999 154.5] CT
0.149 GC
/Helvetica 12.667 F
GS
[1 0 0 1 0 0] CT
-9 4.5 moveto 
1 -1 scale
(0) t 
GR
GR
GS
[0.75 0 0 0.75 106.09999 121.5] CT
0.149 GC
/Helvetica 12.667 F
GS
[1 0 0 1 0 0] CT
-9 4.5 moveto 
1 -1 scale
(5) t 
GR
GR
GS
[0.75 0 0 0.75 106.09999 88.5] CT
0.149 GC
/Helvetica 12.667 F
GS
[1 0 0 1 0 0] CT
-17 4.5 moveto 
1 -1 scale
(10) t 
GR
GR
GS
[0.75 0 0 0.75 106.09999 55.5] CT
0.149 GC
/Helvetica 12.667 F
GS
[1 0 0 1 0 0] CT
-17 4.5 moveto 
1 -1 scale
(15) t 
GR
GR
GS
[0 -0.75 0.75 0 90.85 104.99995] CT
0.149 GC
/Helvetica 13.933 F
GS
[1 0 0 1 0 0] CT
-52.5 -4 moveto 
1 -1 scale
(fake amplitude) t 
GR
GR
GS
[0.75 0 0 0.75 436.50041 53.54062] CT
/Helvetica-Bold 13.933 F
GS
[1 0 0 1 0 0] CT
-184 -4 moveto 
1 -1 scale
(degenerate SNRI multiplets for ZoRo2-rigid-air) t 
GR
GR
GS
[0.75 0 0 0.75 0 0] CT
0.149 GC
1 LJ
0.667 LW
N
146 206 M
1018 206 L
S
GR
GS
[0.75 0 0 0.75 158.21801 88.5] CT
10.0 ML
N
4 0 M
4 -2.209 2.209 -4 0 -4 C
-2.209 -4 -4 -2.209 -4 0 C
-4 2.209 -2.209 4 0 4 C
2.209 4 4 2.209 4 0 C
cp
S
GR
GS
[0.75 0 0 0.75 219.83066 88.5] CT
10.0 ML
N
4 0 M
4 -2.209 2.209 -4 0 -4 C
-2.209 -4 -4 -2.209 -4 0 C
-4 2.209 -2.209 4 0 4 C
2.209 4 4 2.209 4 0 C
cp
S
GR
GS
[0.75 0 0 0.75 277.11697 88.5] CT
10.0 ML
N
4 0 M
4 -2.209 2.209 -4 0 -4 C
-2.209 -4 -4 -2.209 -4 0 C
-4 2.209 -2.209 4 0 4 C
2.209 4 4 2.209 4 0 C
cp
S
GR
GS
[0.75 0 0 0.75 332.47735 88.5] CT
10.0 ML
N
4 0 M
4 -2.209 2.209 -4 0 -4 C
-2.209 -4 -4 -2.209 -4 0 C
-4 2.209 -2.209 4 0 4 C
2.209 4 4 2.209 4 0 C
cp
S
GR
GS
[0.75 0 0 0.75 386.72076 88.5] CT
10.0 ML
N
4 0 M
4 -2.209 2.209 -4 0 -4 C
-2.209 -4 -4 -2.209 -4 0 C
-4 2.209 -2.209 4 0 4 C
2.209 4 4 2.209 4 0 C
cp
S
GR
GS
[0.75 0 0 0.75 440.22464 88.5] CT
10.0 ML
N
4 0 M
4 -2.209 2.209 -4 0 -4 C
-2.209 -4 -4 -2.209 -4 0 C
-4 2.209 -2.209 4 0 4 C
2.209 4 4 2.209 4 0 C
cp
S
GR
GS
[0.75 0 0 0.75 493.1976 88.5] CT
10.0 ML
N
4 0 M
4 -2.209 2.209 -4 0 -4 C
-2.209 -4 -4 -2.209 -4 0 C
-4 2.209 -2.209 4 0 4 C
2.209 4 4 2.209 4 0 C
cp
S
GR
GS
[0.75 0 0 0.75 545.76837 88.5] CT
10.0 ML
N
4 0 M
4 -2.209 2.209 -4 0 -4 C
-2.209 -4 -4 -2.209 -4 0 C
-4 2.209 -2.209 4 0 4 C
2.209 4 4 2.209 4 0 C
cp
S
GR
GS
[0.75 0 0 0.75 598.02219 88.5] CT
10.0 ML
N
4 0 M
4 -2.209 2.209 -4 0 -4 C
-2.209 -4 -4 -2.209 -4 0 C
-4 2.209 -2.209 4 0 4 C
2.209 4 4 2.209 4 0 C
cp
S
GR
GS
[0.75 0 0 0.75 650.01878 88.5] CT
10.0 ML
N
4 0 M
4 -2.209 2.209 -4 0 -4 C
-2.209 -4 -4 -2.209 -4 0 C
-4 2.209 -2.209 4 0 4 C
2.209 4 4 2.209 4 0 C
cp
S
GR
GS
[0.75 0 0 0.75 701.80188 88.5] CT
10.0 ML
N
4 0 M
4 -2.209 2.209 -4 0 -4 C
-2.209 -4 -4 -2.209 -4 0 C
-4 2.209 -2.209 4 0 4 C
2.209 4 4 2.209 4 0 C
cp
S
GR
GS
[0.75 0 0 0.75 753.40425 88.5] CT
10.0 ML
N
4 0 M
4 -2.209 2.209 -4 0 -4 C
-2.209 -4 -4 -2.209 -4 0 C
-4 2.209 -2.209 4 0 4 C
2.209 4 4 2.209 4 0 C
cp
S
GR
GS
[0.75 0 0 0.75 0 0] CT
1 LJ
0.667 LW
N
210.957 206 M
210.957 118 L
S
GR
GS
[0.75 0 0 0.75 0 0] CT
1 LJ
0.667 LW
N
293.108 206 M
293.108 118 L
S
GR
GS
[0.75 0 0 0.75 0 0] CT
1 LJ
0.667 LW
N
369.489 206 M
369.489 118 L
S
GR
GS
[0.75 0 0 0.75 0 0] CT
1 LJ
0.667 LW
N
443.303 206 M
443.303 118 L
S
GR
GS
[0.75 0 0 0.75 0 0] CT
1 LJ
0.667 LW
N
515.628 206 M
515.628 118 L
S
GR
GS
[0.75 0 0 0.75 0 0] CT
1 LJ
0.667 LW
N
586.966 206 M
586.966 118 L
S
GR
GS
[0.75 0 0 0.75 0 0] CT
1 LJ
0.667 LW
N
657.597 206 M
657.597 118 L
S
GR
GS
[0.75 0 0 0.75 0 0] CT
1 LJ
0.667 LW
N
727.691 206 M
727.691 118 L
S
GR
GS
[0.75 0 0 0.75 0 0] CT
1 LJ
0.667 LW
N
797.363 206 M
797.363 118 L
S
GR
GS
[0.75 0 0 0.75 0 0] CT
1 LJ
0.667 LW
N
866.692 206 M
866.692 118 L
S
GR
GS
[0.75 0 0 0.75 0 0] CT
1 LJ
0.667 LW
N
935.736 206 M
935.736 118 L
S
GR
GS
[0.75 0 0 0.75 0 0] CT
1 LJ
0.667 LW
N
1004.539 206 M
1004.539 118 L
S
GR
GS
[0.75 0 0 0.75 47.25 87.75] CT
/Helvetica 10.667 F
GS
[1 0 0 1 0 0] CT
0 0 moveto 
1 -1 scale
(0) t 
GR
GR
GS
[0.75 0 0 0.75 52.5 83.25] CT
/Helvetica 13.333 F
GS
[1 0 0 1 0 0] CT
0 0 moveto 
1 -1 scale
(S) t 
GR
GR
GS
[0.75 0 0 0.75 59.25 87.75] CT
/Helvetica 10.667 F
GS
[1 0 0 1 0 0] CT
0 0 moveto 
1 -1 scale
(0) t 
GR
GR
GS
[0.75 0 0 0.75 149.25 87.75] CT
/Helvetica 10.667 F
GS
[1 0 0 1 0 0] CT
0 0 moveto 
1 -1 scale
(0) t 
GR
GR
GS
[0.75 0 0 0.75 154.5 83.25] CT
/Helvetica 13.333 F
GS
[1 0 0 1 0 0] CT
0 0 moveto 
1 -1 scale
(S) t 
GR
GR
GS
[0.75 0 0 0.75 161.25 87.75] CT
/Helvetica 10.667 F
GS
[1 0 0 1 0 0] CT
0 0 moveto 
1 -1 scale
(1) t 
GR
GR
GS
[0.75 0 0 0.75 210.75 87.75] CT
/Helvetica 10.667 F
GS
[1 0 0 1 0 0] CT
0 0 moveto 
1 -1 scale
(0) t 
GR
GR
GS
[0.75 0 0 0.75 216 83.25] CT
/Helvetica 13.333 F
GS
[1 0 0 1 0 0] CT
0 0 moveto 
1 -1 scale
(S) t 
GR
GR
GS
[0.75 0 0 0.75 222.75 87.75] CT
/Helvetica 10.667 F
GS
[1 0 0 1 0 0] CT
0 0 moveto 
1 -1 scale
(2) t 
GR
GR
GS
[0.75 0 0 0.75 267.75 87.75] CT
/Helvetica 10.667 F
GS
[1 0 0 1 0 0] CT
0 0 moveto 
1 -1 scale
(0) t 
GR
GR
GS
[0.75 0 0 0.75 273 83.25] CT
/Helvetica 13.333 F
GS
[1 0 0 1 0 0] CT
0 0 moveto 
1 -1 scale
(S) t 
GR
GR
GS
[0.75 0 0 0.75 279.75 87.75] CT
/Helvetica 10.667 F
GS
[1 0 0 1 0 0] CT
0 0 moveto 
1 -1 scale
(3) t 
GR
GR
GS
[0.75 0 0 0.75 323.25 87.75] CT
/Helvetica 10.667 F
GS
[1 0 0 1 0 0] CT
0 0 moveto 
1 -1 scale
(0) t 
GR
GR
GS
[0.75 0 0 0.75 328.5 83.25] CT
/Helvetica 13.333 F
GS
[1 0 0 1 0 0] CT
0 0 moveto 
1 -1 scale
(S) t 
GR
GR
GS
[0.75 0 0 0.75 335.25 87.75] CT
/Helvetica 10.667 F
GS
[1 0 0 1 0 0] CT
0 0 moveto 
1 -1 scale
(4) t 
GR
GR
GS
[0.75 0 0 0.75 378 87.75] CT
/Helvetica 10.667 F
GS
[1 0 0 1 0 0] CT
0 0 moveto 
1 -1 scale
(0) t 
GR
GR
GS
[0.75 0 0 0.75 383.25 83.25] CT
/Helvetica 13.333 F
GS
[1 0 0 1 0 0] CT
0 0 moveto 
1 -1 scale
(S) t 
GR
GR
GS
[0.75 0 0 0.75 390 87.75] CT
/Helvetica 10.667 F
GS
[1 0 0 1 0 0] CT
0 0 moveto 
1 -1 scale
(5) t 
GR
GR
GS
[0.75 0 0 0.75 431.25 87.75] CT
/Helvetica 10.667 F
GS
[1 0 0 1 0 0] CT
0 0 moveto 
1 -1 scale
(0) t 
GR
GR
GS
[0.75 0 0 0.75 436.5 83.25] CT
/Helvetica 13.333 F
GS
[1 0 0 1 0 0] CT
0 0 moveto 
1 -1 scale
(S) t 
GR
GR
GS
[0.75 0 0 0.75 443.25 87.75] CT
/Helvetica 10.667 F
GS
[1 0 0 1 0 0] CT
0 0 moveto 
1 -1 scale
(6) t 
GR
GR
GS
[0.75 0 0 0.75 484.5 87.75] CT
/Helvetica 10.667 F
GS
[1 0 0 1 0 0] CT
0 0 moveto 
1 -1 scale
(0) t 
GR
GR
GS
[0.75 0 0 0.75 489.75 83.25] CT
/Helvetica 13.333 F
GS
[1 0 0 1 0 0] CT
0 0 moveto 
1 -1 scale
(S) t 
GR
GR
GS
[0.75 0 0 0.75 496.5 87.75] CT
/Helvetica 10.667 F
GS
[1 0 0 1 0 0] CT
0 0 moveto 
1 -1 scale
(7) t 
GR
GR
GS
[0.75 0 0 0.75 537 87.75] CT
/Helvetica 10.667 F
GS
[1 0 0 1 0 0] CT
0 0 moveto 
1 -1 scale
(0) t 
GR
GR
GS
[0.75 0 0 0.75 542.25 83.25] CT
/Helvetica 13.333 F
GS
[1 0 0 1 0 0] CT
0 0 moveto 
1 -1 scale
(S) t 
GR
GR
GS
[0.75 0 0 0.75 549 87.75] CT
/Helvetica 10.667 F
GS
[1 0 0 1 0 0] CT
0 0 moveto 
1 -1 scale
(8) t 
GR
GR
GS
[0.75 0 0 0.75 588.75 87.75] CT
/Helvetica 10.667 F
GS
[1 0 0 1 0 0] CT
0 0 moveto 
1 -1 scale
(0) t 
GR
GR
GS
[0.75 0 0 0.75 594 83.25] CT
/Helvetica 13.333 F
GS
[1 0 0 1 0 0] CT
0 0 moveto 
1 -1 scale
(S) t 
GR
GR
GS
[0.75 0 0 0.75 600.75 87.75] CT
/Helvetica 10.667 F
GS
[1 0 0 1 0 0] CT
0 0 moveto 
1 -1 scale
(9) t 
GR
GR
GS
[0.75 0 0 0.75 639 87.75] CT
/Helvetica 10.667 F
GS
[1 0 0 1 0 0] CT
0 0 moveto 
1 -1 scale
(0) t 
GR
GR
GS
[0.75 0 0 0.75 644.25 83.25] CT
/Helvetica 13.333 F
GS
[1 0 0 1 0 0] CT
0 0 moveto 
1 -1 scale
(S) t 
GR
GR
GS
[0.75 0 0 0.75 651 87.75] CT
/Helvetica 10.667 F
GS
[1 0 0 1 0 0] CT
0 0 moveto 
1 -1 scale
(10) t 
GR
GR
GS
[0.75 0 0 0.75 690.75 87.75] CT
/Helvetica 10.667 F
GS
[1 0 0 1 0 0] CT
0 0 moveto 
1 -1 scale
(0) t 
GR
GR
GS
[0.75 0 0 0.75 696 83.25] CT
/Helvetica 13.333 F
GS
[1 0 0 1 0 0] CT
0 0 moveto 
1 -1 scale
(S) t 
GR
GR
GS
[0.75 0 0 0.75 702.75 87.75] CT
/Helvetica 10.667 F
GS
[1 0 0 1 0 0] CT
0 0 moveto 
1 -1 scale
(11) t 
GR
GR
GS
[0.75 0 0 0.75 742.5 87.75] CT
/Helvetica 10.667 F
GS
[1 0 0 1 0 0] CT
0 0 moveto 
1 -1 scale
(0) t 
GR
GR
GS
[0.75 0 0 0.75 747.75 83.25] CT
/Helvetica 13.333 F
GS
[1 0 0 1 0 0] CT
0 0 moveto 
1 -1 scale
(S) t 
GR
GR
GS
[0.75 0 0 0.75 754.5 87.75] CT
/Helvetica 10.667 F
GS
[1 0 0 1 0 0] CT
0 0 moveto 
1 -1 scale
(12) t 
GR
GR
GS
[0.75 0 0 0.75 793.5 87.75] CT
/Helvetica 10.667 F
GS
[1 0 0 1 0 0] CT
0 0 moveto 
1 -1 scale
(0) t 
GR
GR
GS
[0.75 0 0 0.75 798.75 83.25] CT
/Helvetica 13.333 F
GS
[1 0 0 1 0 0] CT
0 0 moveto 
1 -1 scale
(S) t 
GR
GR
GS
[0.75 0 0 0.75 805.5 87.75] CT
/Helvetica 10.667 F
GS
[1 0 0 1 0 0] CT
0 0 moveto 
1 -1 scale
(13) t 
GR
GR
GS
[0.75 0 0 0.75 276.10565 81.9] CT
10.0 ML
N
-2.828 -2.828 M
2.828 2.828 L
-2.828 2.828 M
2.828 -2.828 L
S
GR
GS
[0.75 0 0 0.75 346.83142 81.9] CT
10.0 ML
N
-2.828 -2.828 M
2.828 2.828 L
-2.828 2.828 M
2.828 -2.828 L
S
GR
GS
[0.75 0 0 0.75 412.79645 81.9] CT
10.0 ML
N
-2.828 -2.828 M
2.828 2.828 L
-2.828 2.828 M
2.828 -2.828 L
S
GR
GS
[0.75 0 0 0.75 476.03705 81.9] CT
10.0 ML
N
-2.828 -2.828 M
2.828 2.828 L
-2.828 2.828 M
2.828 -2.828 L
S
GR
GS
[0.75 0 0 0.75 537.46262 81.9] CT
10.0 ML
N
-2.828 -2.828 M
2.828 2.828 L
-2.828 2.828 M
2.828 -2.828 L
S
GR
GS
[0.75 0 0 0.75 597.57193 81.9] CT
10.0 ML
N
-2.828 -2.828 M
2.828 2.828 L
-2.828 2.828 M
2.828 -2.828 L
S
GR
GS
[0.75 0 0 0.75 656.6727 81.9] CT
10.0 ML
N
-2.828 -2.828 M
2.828 2.828 L
-2.828 2.828 M
2.828 -2.828 L
S
GR
GS
[0.75 0 0 0.75 714.97032 81.9] CT
10.0 ML
N
-2.828 -2.828 M
2.828 2.828 L
-2.828 2.828 M
2.828 -2.828 L
S
GR
GS
[0.75 0 0 0.75 0 0] CT
1 LJ
0.667 LW
N
368.141 206 M
368.141 109.2 L
S
GR
GS
[0.75 0 0 0.75 0 0] CT
1 LJ
0.667 LW
N
462.442 206 M
462.442 109.2 L
S
GR
GS
[0.75 0 0 0.75 0 0] CT
1 LJ
0.667 LW
N
550.395 206 M
550.395 109.2 L
S
GR
GS
[0.75 0 0 0.75 0 0] CT
1 LJ
0.667 LW
N
634.716 206 M
634.716 109.2 L
S
GR
GS
[0.75 0 0 0.75 0 0] CT
1 LJ
0.667 LW
N
716.617 206 M
716.617 109.2 L
S
GR
GS
[0.75 0 0 0.75 0 0] CT
1 LJ
0.667 LW
N
796.763 206 M
796.763 109.2 L
S
GR
GS
[0.75 0 0 0.75 0 0] CT
1 LJ
0.667 LW
N
875.564 206 M
875.564 109.2 L
S
GR
GS
[0.75 0 0 0.75 0 0] CT
1 LJ
0.667 LW
N
953.294 206 M
953.294 109.2 L
S
GR
GS
[0.75 0 0 0.75 267 81] CT
/Helvetica 10.667 F
GS
[1 0 0 1 0 0] CT
0 0 moveto 
1 -1 scale
(1) t 
GR
GR
GS
[0.75 0 0 0.75 272.25 76.5] CT
/Helvetica 13.333 F
GS
[1 0 0 1 0 0] CT
0 0 moveto 
1 -1 scale
(S) t 
GR
GR
GS
[0.75 0 0 0.75 279 81] CT
/Helvetica 10.667 F
GS
[1 0 0 1 0 0] CT
0 0 moveto 
1 -1 scale
(0) t 
GR
GR
GS
[0.75 0 0 0.75 337.5 81] CT
/Helvetica 10.667 F
GS
[1 0 0 1 0 0] CT
0 0 moveto 
1 -1 scale
(1) t 
GR
GR
GS
[0.75 0 0 0.75 342.75 76.5] CT
/Helvetica 13.333 F
GS
[1 0 0 1 0 0] CT
0 0 moveto 
1 -1 scale
(S) t 
GR
GR
GS
[0.75 0 0 0.75 349.5 81] CT
/Helvetica 10.667 F
GS
[1 0 0 1 0 0] CT
0 0 moveto 
1 -1 scale
(1) t 
GR
GR
GS
[0.75 0 0 0.75 403.5 81] CT
/Helvetica 10.667 F
GS
[1 0 0 1 0 0] CT
0 0 moveto 
1 -1 scale
(1) t 
GR
GR
GS
[0.75 0 0 0.75 408.75 76.5] CT
/Helvetica 13.333 F
GS
[1 0 0 1 0 0] CT
0 0 moveto 
1 -1 scale
(S) t 
GR
GR
GS
[0.75 0 0 0.75 415.5 81] CT
/Helvetica 10.667 F
GS
[1 0 0 1 0 0] CT
0 0 moveto 
1 -1 scale
(2) t 
GR
GR
GS
[0.75 0 0 0.75 467.25 81] CT
/Helvetica 10.667 F
GS
[1 0 0 1 0 0] CT
0 0 moveto 
1 -1 scale
(1) t 
GR
GR
GS
[0.75 0 0 0.75 472.5 76.5] CT
/Helvetica 13.333 F
GS
[1 0 0 1 0 0] CT
0 0 moveto 
1 -1 scale
(S) t 
GR
GR
GS
[0.75 0 0 0.75 479.25 81] CT
/Helvetica 10.667 F
GS
[1 0 0 1 0 0] CT
0 0 moveto 
1 -1 scale
(3) t 
GR
GR
GS
[0.75 0 0 0.75 528.75 81] CT
/Helvetica 10.667 F
GS
[1 0 0 1 0 0] CT
0 0 moveto 
1 -1 scale
(1) t 
GR
GR
GS
[0.75 0 0 0.75 534 76.5] CT
/Helvetica 13.333 F
GS
[1 0 0 1 0 0] CT
0 0 moveto 
1 -1 scale
(S) t 
GR
GR
GS
[0.75 0 0 0.75 540.75 81] CT
/Helvetica 10.667 F
GS
[1 0 0 1 0 0] CT
0 0 moveto 
1 -1 scale
(4) t 
GR
GR
GS
[0.75 0 0 0.75 588.75 81] CT
/Helvetica 10.667 F
GS
[1 0 0 1 0 0] CT
0 0 moveto 
1 -1 scale
(1) t 
GR
GR
GS
[0.75 0 0 0.75 594 76.5] CT
/Helvetica 13.333 F
GS
[1 0 0 1 0 0] CT
0 0 moveto 
1 -1 scale
(S) t 
GR
GR
GS
[0.75 0 0 0.75 600.75 81] CT
/Helvetica 10.667 F
GS
[1 0 0 1 0 0] CT
0 0 moveto 
1 -1 scale
(5) t 
GR
GR
GS
[0.75 0 0 0.75 648 81] CT
/Helvetica 10.667 F
GS
[1 0 0 1 0 0] CT
0 0 moveto 
1 -1 scale
(1) t 
GR
GR
GS
[0.75 0 0 0.75 653.25 76.5] CT
/Helvetica 13.333 F
GS
[1 0 0 1 0 0] CT
0 0 moveto 
1 -1 scale
(S) t 
GR
GR
GS
[0.75 0 0 0.75 660 81] CT
/Helvetica 10.667 F
GS
[1 0 0 1 0 0] CT
0 0 moveto 
1 -1 scale
(6) t 
GR
GR
GS
[0.75 0 0 0.75 705.75 81] CT
/Helvetica 10.667 F
GS
[1 0 0 1 0 0] CT
0 0 moveto 
1 -1 scale
(1) t 
GR
GR
GS
[0.75 0 0 0.75 711 76.5] CT
/Helvetica 13.333 F
GS
[1 0 0 1 0 0] CT
0 0 moveto 
1 -1 scale
(S) t 
GR
GR
GS
[0.75 0 0 0.75 717.75 81] CT
/Helvetica 10.667 F
GS
[1 0 0 1 0 0] CT
0 0 moveto 
1 -1 scale
(7) t 
GR
GR
GS
[0.75 0 0 0.75 763.5 81] CT
/Helvetica 10.667 F
GS
[1 0 0 1 0 0] CT
0 0 moveto 
1 -1 scale
(1) t 
GR
GR
GS
[0.75 0 0 0.75 768.75 76.5] CT
/Helvetica 13.333 F
GS
[1 0 0 1 0 0] CT
0 0 moveto 
1 -1 scale
(S) t 
GR
GR
GS
[0.75 0 0 0.75 775.5 81] CT
/Helvetica 10.667 F
GS
[1 0 0 1 0 0] CT
0 0 moveto 
1 -1 scale
(8) t 
GR
GR
GS
[0.75 0 0 0.75 820.5 81] CT
/Helvetica 10.667 F
GS
[1 0 0 1 0 0] CT
0 0 moveto 
1 -1 scale
(1) t 
GR
GR
GS
[0.75 0 0 0.75 825.75 76.5] CT
/Helvetica 13.333 F
GS
[1 0 0 1 0 0] CT
0 0 moveto 
1 -1 scale
(S) t 
GR
GR
GS
[0.75 0 0 0.75 832.5 81] CT
/Helvetica 10.667 F
GS
[1 0 0 1 0 0] CT
0 0 moveto 
1 -1 scale
(9) t 
GR
GR
GS
[0.75 0 0 0.75 434.0744 75.3] CT
10.0 ML
N
0 -4 M
0 4 L
-4 0 M
4 0 L
S
GR
GS
[0.75 0 0 0.75 506.44386 75.3] CT
10.0 ML
N
0 -4 M
0 4 L
-4 0 M
4 0 L
S
GR
GS
[0.75 0 0 0.75 575.26602 75.3] CT
10.0 ML
N
0 -4 M
0 4 L
-4 0 M
4 0 L
S
GR
GS
[0.75 0 0 0.75 641.68625 75.3] CT
10.0 ML
N
0 -4 M
0 4 L
-4 0 M
4 0 L
S
GR
GS
[0.75 0 0 0.75 706.34482 75.3] CT
10.0 ML
N
0 -4 M
0 4 L
-4 0 M
4 0 L
S
GR
GS
[0.75 0 0 0.75 0 0] CT
1 LJ
0.667 LW
N
578.766 206 M
578.766 100.4 L
S
GR
GS
[0.75 0 0 0.75 0 0] CT
1 LJ
0.667 LW
N
675.258 206 M
675.258 100.4 L
S
GR
GS
[0.75 0 0 0.75 0 0] CT
1 LJ
0.667 LW
N
767.021 206 M
767.021 100.4 L
S
GR
GS
[0.75 0 0 0.75 0 0] CT
1 LJ
0.667 LW
N
855.582 206 M
855.582 100.4 L
S
GR
GS
[0.75 0 0 0.75 0 0] CT
1 LJ
0.667 LW
N
941.793 206 M
941.793 100.4 L
S
GR
GS
[0.75 0 0 0.75 425.25 75] CT
/Helvetica 10.667 F
GS
[1 0 0 1 0 0] CT
0 0 moveto 
1 -1 scale
(2) t 
GR
GR
GS
[0.75 0 0 0.75 430.5 70.5] CT
/Helvetica 13.333 F
GS
[1 0 0 1 0 0] CT
0 0 moveto 
1 -1 scale
(S) t 
GR
GR
GS
[0.75 0 0 0.75 437.25 75] CT
/Helvetica 10.667 F
GS
[1 0 0 1 0 0] CT
0 0 moveto 
1 -1 scale
(0) t 
GR
GR
GS
[0.75 0 0 0.75 497.25 75] CT
/Helvetica 10.667 F
GS
[1 0 0 1 0 0] CT
0 0 moveto 
1 -1 scale
(2) t 
GR
GR
GS
[0.75 0 0 0.75 502.5 70.5] CT
/Helvetica 13.333 F
GS
[1 0 0 1 0 0] CT
0 0 moveto 
1 -1 scale
(S) t 
GR
GR
GS
[0.75 0 0 0.75 509.25 75] CT
/Helvetica 10.667 F
GS
[1 0 0 1 0 0] CT
0 0 moveto 
1 -1 scale
(1) t 
GR
GR
GS
[0.75 0 0 0.75 566.25 75] CT
/Helvetica 10.667 F
GS
[1 0 0 1 0 0] CT
0 0 moveto 
1 -1 scale
(2) t 
GR
GR
GS
[0.75 0 0 0.75 571.5 70.5] CT
/Helvetica 13.333 F
GS
[1 0 0 1 0 0] CT
0 0 moveto 
1 -1 scale
(S) t 
GR
GR
GS
[0.75 0 0 0.75 578.25 75] CT
/Helvetica 10.667 F
GS
[1 0 0 1 0 0] CT
0 0 moveto 
1 -1 scale
(2) t 
GR
GR
GS
[0.75 0 0 0.75 633 75] CT
/Helvetica 10.667 F
GS
[1 0 0 1 0 0] CT
0 0 moveto 
1 -1 scale
(2) t 
GR
GR
GS
[0.75 0 0 0.75 638.25 70.5] CT
/Helvetica 13.333 F
GS
[1 0 0 1 0 0] CT
0 0 moveto 
1 -1 scale
(S) t 
GR
GR
GS
[0.75 0 0 0.75 645 75] CT
/Helvetica 10.667 F
GS
[1 0 0 1 0 0] CT
0 0 moveto 
1 -1 scale
(3) t 
GR
GR
GS
[0.75 0 0 0.75 697.5 75] CT
/Helvetica 10.667 F
GS
[1 0 0 1 0 0] CT
0 0 moveto 
1 -1 scale
(2) t 
GR
GR
GS
[0.75 0 0 0.75 702.75 70.5] CT
/Helvetica 13.333 F
GS
[1 0 0 1 0 0] CT
0 0 moveto 
1 -1 scale
(S) t 
GR
GR
GS
[0.75 0 0 0.75 709.5 75] CT
/Helvetica 10.667 F
GS
[1 0 0 1 0 0] CT
0 0 moveto 
1 -1 scale
(4) t 
GR
GR
GS
[0.75 0 0 0.75 760.5 75] CT
/Helvetica 10.667 F
GS
[1 0 0 1 0 0] CT
0 0 moveto 
1 -1 scale
(2) t 
GR
GR
GS
[0.75 0 0 0.75 765.75 70.5] CT
/Helvetica 13.333 F
GS
[1 0 0 1 0 0] CT
0 0 moveto 
1 -1 scale
(S) t 
GR
GR
GS
[0.75 0 0 0.75 772.5 75] CT
/Helvetica 10.667 F
GS
[1 0 0 1 0 0] CT
0 0 moveto 
1 -1 scale
(5) t 
GR
GR
GS
[0.75 0 0 0.75 822.75 75] CT
/Helvetica 10.667 F
GS
[1 0 0 1 0 0] CT
0 0 moveto 
1 -1 scale
(2) t 
GR
GR
GS
[0.75 0 0 0.75 828 70.5] CT
/Helvetica 13.333 F
GS
[1 0 0 1 0 0] CT
0 0 moveto 
1 -1 scale
(S) t 
GR
GR
GS
[0.75 0 0 0.75 834.75 75] CT
/Helvetica 10.667 F
GS
[1 0 0 1 0 0] CT
0 0 moveto 
1 -1 scale
(6) t 
GR
GR
GS
[0.75 0 0 0.75 589.4539 68.7] CT
10.0 ML
N
0 5.332 M
-4.618 -2.666 L
4.618 -2.666 L
cp
S
GR
GS
[0.75 0 0 0.75 662.78796 68.7] CT
10.0 ML
N
0 5.332 M
-4.618 -2.666 L
4.618 -2.666 L
cp
S
GR
GS
[0.75 0 0 0.75 733.255 68.7] CT
10.0 ML
N
0 5.332 M
-4.618 -2.666 L
4.618 -2.666 L
cp
S
GR
GS
[0.75 0 0 0.75 0 0] CT
1 LJ
0.667 LW
N
785.939 206 M
785.939 91.6 L
S
GR
GS
[0.75 0 0 0.75 0 0] CT
1 LJ
0.667 LW
N
883.717 206 M
883.717 91.6 L
S
GR
GS
[0.75 0 0 0.75 0 0] CT
1 LJ
0.667 LW
N
977.673 206 M
977.673 91.6 L
S
GR
GS
[0.75 0 0 0.75 580.5 68.25] CT
/Helvetica 10.667 F
GS
[1 0 0 1 0 0] CT
0 0 moveto 
1 -1 scale
(3) t 
GR
GR
GS
[0.75 0 0 0.75 585.75 63.75] CT
/Helvetica 13.333 F
GS
[1 0 0 1 0 0] CT
0 0 moveto 
1 -1 scale
(S) t 
GR
GR
GS
[0.75 0 0 0.75 592.5 68.25] CT
/Helvetica 10.667 F
GS
[1 0 0 1 0 0] CT
0 0 moveto 
1 -1 scale
(0) t 
GR
GR
GS
[0.75 0 0 0.75 654 68.25] CT
/Helvetica 10.667 F
GS
[1 0 0 1 0 0] CT
0 0 moveto 
1 -1 scale
(3) t 
GR
GR
GS
[0.75 0 0 0.75 659.25 63.75] CT
/Helvetica 13.333 F
GS
[1 0 0 1 0 0] CT
0 0 moveto 
1 -1 scale
(S) t 
GR
GR
GS
[0.75 0 0 0.75 666 68.25] CT
/Helvetica 10.667 F
GS
[1 0 0 1 0 0] CT
0 0 moveto 
1 -1 scale
(1) t 
GR
GR
GS
[0.75 0 0 0.75 724.5 68.25] CT
/Helvetica 10.667 F
GS
[1 0 0 1 0 0] CT
0 0 moveto 
1 -1 scale
(3) t 
GR
GR
GS
[0.75 0 0 0.75 729.75 63.75] CT
/Helvetica 13.333 F
GS
[1 0 0 1 0 0] CT
0 0 moveto 
1 -1 scale
(S) t 
GR
GR
GS
[0.75 0 0 0.75 736.5 68.25] CT
/Helvetica 10.667 F
GS
[1 0 0 1 0 0] CT
0 0 moveto 
1 -1 scale
(2) t 
GR
GR
GS
[0.75 0 0 0.75 792.75 68.25] CT
/Helvetica 10.667 F
GS
[1 0 0 1 0 0] CT
0 0 moveto 
1 -1 scale
(3) t 
GR
GR
GS
[0.75 0 0 0.75 798 63.75] CT
/Helvetica 13.333 F
GS
[1 0 0 1 0 0] CT
0 0 moveto 
1 -1 scale
(S) t 
GR
GR
GS
[0.75 0 0 0.75 804.75 68.25] CT
/Helvetica 10.667 F
GS
[1 0 0 1 0 0] CT
0 0 moveto 
1 -1 scale
(3) t 
GR
GR
GS
[0.75 0 0 0.75 744.01236 62.1] CT
10.0 ML
N
-3 -3 M
-3 3 L
3 3 L
3 -3 L
cp
S
GR
GS
[0.75 0 0 0.75 0 0] CT
1 LJ
0.667 LW
N
992.016 206 M
992.016 82.8 L
S
GR
GS
[0.75 0 0 0.75 735 61.5] CT
/Helvetica 10.667 F
GS
[1 0 0 1 0 0] CT
0 0 moveto 
1 -1 scale
(4) t 
GR
GR
GS
[0.75 0 0 0.75 740.25 57] CT
/Helvetica 13.333 F
GS
[1 0 0 1 0 0] CT
0 0 moveto 
1 -1 scale
(S) t 
GR
GR
GS
[0.75 0 0 0.75 747 61.5] CT
/Helvetica 10.667 F
GS
[1 0 0 1 0 0] CT
0 0 moveto 
1 -1 scale
(0) t 
GR
GR
GS
[0.75 0 0 0.75 809.25 61.5] CT
/Helvetica 10.667 F
GS
[1 0 0 1 0 0] CT
0 0 moveto 
1 -1 scale
(4) t 
GR
GR
GS
[0.75 0 0 0.75 814.5 57] CT
/Helvetica 13.333 F
GS
[1 0 0 1 0 0] CT
0 0 moveto 
1 -1 scale
(S) t 
GR
GR
GS
[0.75 0 0 0.75 821.25 61.5] CT
/Helvetica 10.667 F
GS
[1 0 0 1 0 0] CT
0 0 moveto 
1 -1 scale
(1) t 
GR
GR
GS
[0.75 0 0 0.75 0 0] CT
1 GC
N
146 418 M
1018 418 L
1018 287 L
146 287 L
cp
f
GR
GS
[0.75 0 0 0.75 0 0] CT
0.149 GC
2 setlinecap
1 LJ
0.667 LW
N
146 418 M
1018 418 L
S
GR
GS
[0.75 0 0 0.75 0 0] CT
0.149 GC
2 setlinecap
1 LJ
0.667 LW
N
146 287 M
1018 287 L
S
GR
GS
[0.75 0 0 0.75 0 0] CT
0.149 GC
2 setlinecap
1 LJ
0.667 LW
N
146 418 M
146 409.28 L
S
GR
GS
[0.75 0 0 0.75 0 0] CT
0.149 GC
2 setlinecap
1 LJ
0.667 LW
N
255 418 M
255 409.28 L
S
GR
GS
[0.75 0 0 0.75 0 0] CT
0.149 GC
2 setlinecap
1 LJ
0.667 LW
N
364 418 M
364 409.28 L
S
GR
GS
[0.75 0 0 0.75 0 0] CT
0.149 GC
2 setlinecap
1 LJ
0.667 LW
N
473 418 M
473 409.28 L
S
GR
GS
[0.75 0 0 0.75 0 0] CT
0.149 GC
2 setlinecap
1 LJ
0.667 LW
N
582 418 M
582 409.28 L
S
GR
GS
[0.75 0 0 0.75 0 0] CT
0.149 GC
2 setlinecap
1 LJ
0.667 LW
N
691 418 M
691 409.28 L
S
GR
GS
[0.75 0 0 0.75 0 0] CT
0.149 GC
2 setlinecap
1 LJ
0.667 LW
N
800 418 M
800 409.28 L
S
GR
GS
[0.75 0 0 0.75 0 0] CT
0.149 GC
2 setlinecap
1 LJ
0.667 LW
N
909 418 M
909 409.28 L
S
GR
GS
[0.75 0 0 0.75 0 0] CT
0.149 GC
2 setlinecap
1 LJ
0.667 LW
N
1018 418 M
1018 409.28 L
S
GR
GS
[0.75 0 0 0.75 0 0] CT
0.149 GC
2 setlinecap
1 LJ
0.667 LW
N
146 287 M
146 295.72 L
S
GR
GS
[0.75 0 0 0.75 0 0] CT
0.149 GC
2 setlinecap
1 LJ
0.667 LW
N
255 287 M
255 295.72 L
S
GR
GS
[0.75 0 0 0.75 0 0] CT
0.149 GC
2 setlinecap
1 LJ
0.667 LW
N
364 287 M
364 295.72 L
S
GR
GS
[0.75 0 0 0.75 0 0] CT
0.149 GC
2 setlinecap
1 LJ
0.667 LW
N
473 287 M
473 295.72 L
S
GR
GS
[0.75 0 0 0.75 0 0] CT
0.149 GC
2 setlinecap
1 LJ
0.667 LW
N
582 287 M
582 295.72 L
S
GR
GS
[0.75 0 0 0.75 0 0] CT
0.149 GC
2 setlinecap
1 LJ
0.667 LW
N
691 287 M
691 295.72 L
S
GR
GS
[0.75 0 0 0.75 0 0] CT
0.149 GC
2 setlinecap
1 LJ
0.667 LW
N
800 287 M
800 295.72 L
S
GR
GS
[0.75 0 0 0.75 0 0] CT
0.149 GC
2 setlinecap
1 LJ
0.667 LW
N
909 287 M
909 295.72 L
S
GR
GS
[0.75 0 0 0.75 0 0] CT
0.149 GC
2 setlinecap
1 LJ
0.667 LW
N
1018 287 M
1018 295.72 L
S
GR
GS
[0.75 0 0 0.75 109.5 316.89999] CT
0.149 GC
/Helvetica 12.667 F
GS
[1 0 0 1 0 0] CT
-16.5 12 moveto 
1 -1 scale
(1600) t 
GR
GR
GS
[0.75 0 0 0.75 191.25 316.89999] CT
0.149 GC
/Helvetica 12.667 F
GS
[1 0 0 1 0 0] CT
-16.5 12 moveto 
1 -1 scale
(1610) t 
GR
GR
GS
[0.75 0 0 0.75 273 316.89999] CT
0.149 GC
/Helvetica 12.667 F
GS
[1 0 0 1 0 0] CT
-16.5 12 moveto 
1 -1 scale
(1620) t 
GR
GR
GS
[0.75 0 0 0.75 354.75 316.89999] CT
0.149 GC
/Helvetica 12.667 F
GS
[1 0 0 1 0 0] CT
-16.5 12 moveto 
1 -1 scale
(1630) t 
GR
GR
GS
[0.75 0 0 0.75 436.5 316.89999] CT
0.149 GC
/Helvetica 12.667 F
GS
[1 0 0 1 0 0] CT
-16.5 12 moveto 
1 -1 scale
(1640) t 
GR
GR
GS
[0.75 0 0 0.75 518.25 316.89999] CT
0.149 GC
/Helvetica 12.667 F
GS
[1 0 0 1 0 0] CT
-16.5 12 moveto 
1 -1 scale
(1650) t 
GR
GR
GS
[0.75 0 0 0.75 600 316.89999] CT
0.149 GC
/Helvetica 12.667 F
GS
[1 0 0 1 0 0] CT
-16.5 12 moveto 
1 -1 scale
(1660) t 
GR
GR
GS
[0.75 0 0 0.75 681.75 316.89999] CT
0.149 GC
/Helvetica 12.667 F
GS
[1 0 0 1 0 0] CT
-16.5 12 moveto 
1 -1 scale
(1670) t 
GR
GR
GS
[0.75 0 0 0.75 763.5 316.89999] CT
0.149 GC
/Helvetica 12.667 F
GS
[1 0 0 1 0 0] CT
-16.5 12 moveto 
1 -1 scale
(1680) t 
GR
GR
GS
[0.75 0 0 0.75 436.5 328.89999] CT
0.149 GC
/Helvetica 13.933 F
GS
[1 0 0 1 0 0] CT
-73.5 13 moveto 
1 -1 scale
(mode frequency \(Hz\)) t 
GR
GR
GS
[0.75 0 0 0.75 0 0] CT
0.149 GC
2 setlinecap
1 LJ
0.667 LW
N
146 418 M
146 287 L
S
GR
GS
[0.75 0 0 0.75 0 0] CT
0.149 GC
2 setlinecap
1 LJ
0.667 LW
N
1018 418 M
1018 287 L
S
GR
GS
[0.75 0 0 0.75 0 0] CT
0.149 GC
2 setlinecap
1 LJ
0.667 LW
N
146 418 M
154.721 418 L
S
GR
GS
[0.75 0 0 0.75 0 0] CT
0.149 GC
2 setlinecap
1 LJ
0.667 LW
N
146 352.5 M
154.721 352.5 L
S
GR
GS
[0.75 0 0 0.75 0 0] CT
0.149 GC
2 setlinecap
1 LJ
0.667 LW
N
146 287 M
154.721 287 L
S
GR
GS
[0.75 0 0 0.75 0 0] CT
0.149 GC
2 setlinecap
1 LJ
0.667 LW
N
1018 418 M
1009.279 418 L
S
GR
GS
[0.75 0 0 0.75 0 0] CT
0.149 GC
2 setlinecap
1 LJ
0.667 LW
N
1018 352.5 M
1009.279 352.5 L
S
GR
GS
[0.75 0 0 0.75 0 0] CT
0.149 GC
2 setlinecap
1 LJ
0.667 LW
N
1018 287 M
1009.279 287 L
S
GR
GS
[0.75 0 0 0.75 106.10007 313.5] CT
0.149 GC
/Helvetica 12.667 F
GS
[1 0 0 1 0 0] CT
-9 4.5 moveto 
1 -1 scale
(0) t 
GR
GR
GS
[0.75 0 0 0.75 106.10007 264.375] CT
0.149 GC
/Helvetica 12.667 F
GS
[1 0 0 1 0 0] CT
-9 4.5 moveto 
1 -1 scale
(5) t 
GR
GR
GS
[0.75 0 0 0.75 106.10007 215.25] CT
0.149 GC
/Helvetica 12.667 F
GS
[1 0 0 1 0 0] CT
-17 4.5 moveto 
1 -1 scale
(10) t 
GR
GR
GS
[0 -0.75 0.75 0 90.84978 264.37495] CT
0.149 GC
/Helvetica 13.933 F
GS
[1 0 0 1 0 0] CT
-52.5 -4 moveto 
1 -1 scale
(fake amplitude) t 
GR
GR
GS
[0.75 0 0 0.75 250.5 206.25] CT
/Helvetica-Bold 13.933 F
GS
[1 0 0 1 0 0] CT
0 0 moveto 
1 -1 scale
(ellipticity = 0.05 and global rotation-split singlets for f) t 
GR
GR
GS
[0.75 0 0 0.75 573.75 210.75] CT
/Helvetica-Bold 11.147 F
GS
[1 0 0 1 0 0] CT
0 0 moveto 
1 -1 scale
(o) t 
GR
GR
GS
[0.75 0 0 0.75 579.75 206.25] CT
/Helvetica-Bold 13.933 F
GS
[1 0 0 1 0 0] CT
0 0 moveto 
1 -1 scale
( = 0 Hz) t 
GR
GR
GS
[0.75 0 0 0.75 0 0] CT
0.149 GC
1 LJ
0.667 LW
N
146 418 M
1018 418 L
S
GR
GS
[0.75 0 0 0.75 653.7692 215.25] CT
10.0 ML
N
-2.828 -2.828 M
2.828 2.828 L
-2.828 2.828 M
2.828 -2.828 L
S
GR
GS
[0.75 0 0 0.75 653.7692 215.25] CT
10.0 ML
N
-2.828 -2.828 M
2.828 2.828 L
-2.828 2.828 M
2.828 -2.828 L
S
GR
GS
[0.75 0 0 0.75 0 0] CT
1 LJ
0.667 LW
N
871.692 418 M
871.692 287 L
S
GR
GS
[0.75 0 0 0.75 0 0] CT
1 LJ
0.667 LW
N
871.692 418 M
871.692 287 L
S
GR
GS
[0.75 0 0 0.75 360.98305 220.16249] CT
0 0 1 RC
10.0 ML
N
-2.828 -2.828 M
2.828 2.828 L
-2.828 2.828 M
2.828 -2.828 L
S
GR
GS
[0.75 0 0 0.75 360.98305 220.16249] CT
0 0 1 RC
10.0 ML
N
-2.828 -2.828 M
2.828 2.828 L
-2.828 2.828 M
2.828 -2.828 L
S
GR
GS
[0.75 0 0 0.75 0 0] CT
0 0 1 RC
1 LJ
0.667 LW
N
481.311 418 M
481.311 293.55 L
S
GR
GS
[0.75 0 0 0.75 0 0] CT
0 0 1 RC
1 LJ
0.667 LW
N
481.311 418 M
481.311 293.55 L
S
GR
GS
[0.75 0 0 0.75 0 0] CT
1 GC
N
146 630 M
1018 630 L
1018 499 L
146 499 L
cp
f
GR
GS
[0.75 0 0 0.75 0 0] CT
0.149 GC
2 setlinecap
1 LJ
0.667 LW
N
146 630 M
1018 630 L
S
GR
GS
[0.75 0 0 0.75 0 0] CT
0.149 GC
2 setlinecap
1 LJ
0.667 LW
N
146 499 M
1018 499 L
S
GR
GS
[0.75 0 0 0.75 0 0] CT
0.149 GC
2 setlinecap
1 LJ
0.667 LW
N
146 630 M
146 621.28 L
S
GR
GS
[0.75 0 0 0.75 0 0] CT
0.149 GC
2 setlinecap
1 LJ
0.667 LW
N
255 630 M
255 621.28 L
S
GR
GS
[0.75 0 0 0.75 0 0] CT
0.149 GC
2 setlinecap
1 LJ
0.667 LW
N
364 630 M
364 621.28 L
S
GR
GS
[0.75 0 0 0.75 0 0] CT
0.149 GC
2 setlinecap
1 LJ
0.667 LW
N
473 630 M
473 621.28 L
S
GR
GS
[0.75 0 0 0.75 0 0] CT
0.149 GC
2 setlinecap
1 LJ
0.667 LW
N
582 630 M
582 621.28 L
S
GR
GS
[0.75 0 0 0.75 0 0] CT
0.149 GC
2 setlinecap
1 LJ
0.667 LW
N
691 630 M
691 621.28 L
S
GR
GS
[0.75 0 0 0.75 0 0] CT
0.149 GC
2 setlinecap
1 LJ
0.667 LW
N
800 630 M
800 621.28 L
S
GR
GS
[0.75 0 0 0.75 0 0] CT
0.149 GC
2 setlinecap
1 LJ
0.667 LW
N
909 630 M
909 621.28 L
S
GR
GS
[0.75 0 0 0.75 0 0] CT
0.149 GC
2 setlinecap
1 LJ
0.667 LW
N
1018 630 M
1018 621.28 L
S
GR
GS
[0.75 0 0 0.75 0 0] CT
0.149 GC
2 setlinecap
1 LJ
0.667 LW
N
146 499 M
146 507.72 L
S
GR
GS
[0.75 0 0 0.75 0 0] CT
0.149 GC
2 setlinecap
1 LJ
0.667 LW
N
255 499 M
255 507.72 L
S
GR
GS
[0.75 0 0 0.75 0 0] CT
0.149 GC
2 setlinecap
1 LJ
0.667 LW
N
364 499 M
364 507.72 L
S
GR
GS
[0.75 0 0 0.75 0 0] CT
0.149 GC
2 setlinecap
1 LJ
0.667 LW
N
473 499 M
473 507.72 L
S
GR
GS
[0.75 0 0 0.75 0 0] CT
0.149 GC
2 setlinecap
1 LJ
0.667 LW
N
582 499 M
582 507.72 L
S
GR
GS
[0.75 0 0 0.75 0 0] CT
0.149 GC
2 setlinecap
1 LJ
0.667 LW
N
691 499 M
691 507.72 L
S
GR
GS
[0.75 0 0 0.75 0 0] CT
0.149 GC
2 setlinecap
1 LJ
0.667 LW
N
800 499 M
800 507.72 L
S
GR
GS
[0.75 0 0 0.75 0 0] CT
0.149 GC
2 setlinecap
1 LJ
0.667 LW
N
909 499 M
909 507.72 L
S
GR
GS
[0.75 0 0 0.75 0 0] CT
0.149 GC
2 setlinecap
1 LJ
0.667 LW
N
1018 499 M
1018 507.72 L
S
GR
GS
[0.75 0 0 0.75 109.5 475.89999] CT
0.149 GC
/Helvetica 12.667 F
GS
[1 0 0 1 0 0] CT
-16.5 12 moveto 
1 -1 scale
(1600) t 
GR
GR
GS
[0.75 0 0 0.75 191.25 475.89999] CT
0.149 GC
/Helvetica 12.667 F
GS
[1 0 0 1 0 0] CT
-16.5 12 moveto 
1 -1 scale
(1610) t 
GR
GR
GS
[0.75 0 0 0.75 273 475.89999] CT
0.149 GC
/Helvetica 12.667 F
GS
[1 0 0 1 0 0] CT
-16.5 12 moveto 
1 -1 scale
(1620) t 
GR
GR
GS
[0.75 0 0 0.75 354.75 475.89999] CT
0.149 GC
/Helvetica 12.667 F
GS
[1 0 0 1 0 0] CT
-16.5 12 moveto 
1 -1 scale
(1630) t 
GR
GR
GS
[0.75 0 0 0.75 436.5 475.89999] CT
0.149 GC
/Helvetica 12.667 F
GS
[1 0 0 1 0 0] CT
-16.5 12 moveto 
1 -1 scale
(1640) t 
GR
GR
GS
[0.75 0 0 0.75 518.25 475.89999] CT
0.149 GC
/Helvetica 12.667 F
GS
[1 0 0 1 0 0] CT
-16.5 12 moveto 
1 -1 scale
(1650) t 
GR
GR
GS
[0.75 0 0 0.75 600 475.89999] CT
0.149 GC
/Helvetica 12.667 F
GS
[1 0 0 1 0 0] CT
-16.5 12 moveto 
1 -1 scale
(1660) t 
GR
GR
GS
[0.75 0 0 0.75 681.75 475.89999] CT
0.149 GC
/Helvetica 12.667 F
GS
[1 0 0 1 0 0] CT
-16.5 12 moveto 
1 -1 scale
(1670) t 
GR
GR
GS
[0.75 0 0 0.75 763.5 475.89999] CT
0.149 GC
/Helvetica 12.667 F
GS
[1 0 0 1 0 0] CT
-16.5 12 moveto 
1 -1 scale
(1680) t 
GR
GR
GS
[0.75 0 0 0.75 436.5 487.89999] CT
0.149 GC
/Helvetica 13.933 F
GS
[1 0 0 1 0 0] CT
-73.5 13 moveto 
1 -1 scale
(mode frequency \(Hz\)) t 
GR
GR
GS
[0.75 0 0 0.75 0 0] CT
0.149 GC
2 setlinecap
1 LJ
0.667 LW
N
146 630 M
146 499 L
S
GR
GS
[0.75 0 0 0.75 0 0] CT
0.149 GC
2 setlinecap
1 LJ
0.667 LW
N
1018 630 M
1018 499 L
S
GR
GS
[0.75 0 0 0.75 0 0] CT
0.149 GC
2 setlinecap
1 LJ
0.667 LW
N
146 630 M
154.721 630 L
S
GR
GS
[0.75 0 0 0.75 0 0] CT
0.149 GC
2 setlinecap
1 LJ
0.667 LW
N
146 597.25 M
154.721 597.25 L
S
GR
GS
[0.75 0 0 0.75 0 0] CT
0.149 GC
2 setlinecap
1 LJ
0.667 LW
N
146 564.5 M
154.721 564.5 L
S
GR
GS
[0.75 0 0 0.75 0 0] CT
0.149 GC
2 setlinecap
1 LJ
0.667 LW
N
146 531.75 M
154.721 531.75 L
S
GR
GS
[0.75 0 0 0.75 0 0] CT
0.149 GC
2 setlinecap
1 LJ
0.667 LW
N
146 499 M
154.721 499 L
S
GR
GS
[0.75 0 0 0.75 0 0] CT
0.149 GC
2 setlinecap
1 LJ
0.667 LW
N
1018 630 M
1009.279 630 L
S
GR
GS
[0.75 0 0 0.75 0 0] CT
0.149 GC
2 setlinecap
1 LJ
0.667 LW
N
1018 597.25 M
1009.279 597.25 L
S
GR
GS
[0.75 0 0 0.75 0 0] CT
0.149 GC
2 setlinecap
1 LJ
0.667 LW
N
1018 564.5 M
1009.279 564.5 L
S
GR
GS
[0.75 0 0 0.75 0 0] CT
0.149 GC
2 setlinecap
1 LJ
0.667 LW
N
1018 531.75 M
1009.279 531.75 L
S
GR
GS
[0.75 0 0 0.75 0 0] CT
0.149 GC
2 setlinecap
1 LJ
0.667 LW
N
1018 499 M
1009.279 499 L
S
GR
GS
[0.75 0 0 0.75 106.10007 472.5] CT
0.149 GC
/Helvetica 12.667 F
GS
[1 0 0 1 0 0] CT
-9 4.5 moveto 
1 -1 scale
(0) t 
GR
GR
GS
[0.75 0 0 0.75 106.10007 447.9375] CT
0.149 GC
/Helvetica 12.667 F
GS
[1 0 0 1 0 0] CT
-29 4.5 moveto 
1 -1 scale
(0.05) t 
GR
GR
GS
[0.75 0 0 0.75 106.10007 423.375] CT
0.149 GC
/Helvetica 12.667 F
GS
[1 0 0 1 0 0] CT
-21 4.5 moveto 
1 -1 scale
(0.1) t 
GR
GR
GS
[0.75 0 0 0.75 106.10007 398.8125] CT
0.149 GC
/Helvetica 12.667 F
GS
[1 0 0 1 0 0] CT
-29 4.5 moveto 
1 -1 scale
(0.15) t 
GR
GR
GS
[0.75 0 0 0.75 106.10007 374.25] CT
0.149 GC
/Helvetica 12.667 F
GS
[1 0 0 1 0 0] CT
-21 4.5 moveto 
1 -1 scale
(0.2) t 
GR
GR
GS
[0 -0.75 0.75 0 81.8505 423.37495] CT
0.149 GC
/Helvetica 13.933 F
GS
[1 0 0 1 0 0] CT
-68 -4 moveto 
1 -1 scale
(pressure amplitude) t 
GR
GR
GS
[0.75 0 0 0.75 183.75 352.5] CT
/Helvetica-Bold 13.933 F
GS
[1 0 0 1 0 0] CT
0 0 moveto 
1 -1 scale
(Lorentzian spectra for ellipticity = 0.05 and global rotation-split singlets for f) t 
GR
GR
GS
[0.75 0 0 0.75 641.25 357] CT
/Helvetica-Bold 11.147 F
GS
[1 0 0 1 0 0] CT
0 0 moveto 
1 -1 scale
(o) t 
GR
GR
GS
[0.75 0 0 0.75 647.25 352.5] CT
/Helvetica-Bold 13.933 F
GS
[1 0 0 1 0 0] CT
0 0 moveto 
1 -1 scale
( = 0 Hz) t 
GR
GR
GS
[0.75 0 0 0.75 354.75 369] CT
/Helvetica-Bold 13.933 F
GS
[1 0 0 1 0 0] CT
0 0 moveto 
1 -1 scale
(HP at lat 45, micro at lat 32) t 
GR
GR
GS
[0.75 0 0 0.75 0 0] CT
0 0.447 0.741 RC
1 LJ
0.667 LW
N
145.896 625.235 M
146 625.236 L
147.09 625.244 L
148.179 625.251 L
149.271 625.259 L
150.36 625.267 L
151.45 625.275 L
152.54 625.282 L
153.629 625.29 L
154.721 625.297 L
155.81 625.304 L
156.9 625.312 L
157.99 625.319 L
159.079 625.326 L
160.171 625.333 L
161.26 625.34 L
162.35 625.347 L
163.44 625.354 L
164.529 625.36 L
165.621 625.367 L
166.71 625.374 L
167.8 625.38 L
168.89 625.387 L
169.979 625.393 L
171.071 625.399 L
172.16 625.406 L
173.25 625.412 L
174.34 625.418 L
175.429 625.424 L
176.521 625.43 L
177.61 625.436 L
178.7 625.442 L
179.79 625.447 L
180.879 625.453 L
181.971 625.459 L
183.06 625.464 L
184.15 625.47 L
185.24 625.475 L
186.329 625.48 L
187.421 625.486 L
188.51 625.491 L
189.6 625.496 L
190.69 625.501 L
191.779 625.506 L
192.871 625.511 L
193.96 625.516 L
195.05 625.521 L
196.14 625.526 L
197.229 625.53 L
198.321 625.535 L
199.41 625.54 L
200.5 625.544 L
201.59 625.549 L
202.679 625.553 L
203.771 625.557 L
204.86 625.562 L
205.95 625.566 L
207.04 625.57 L
208.129 625.574 L
209.221 625.578 L
210.31 625.582 L
211.4 625.586 L
212.49 625.59 L
213.579 625.594 L
214.671 625.597 L
215.76 625.601 L
216.85 625.604 L
217.94 625.608 L
219.029 625.611 L
220.121 625.615 L
221.21 625.618 L
222.3 625.621 L
223.39 625.625 L
224.479 625.628 L
225.571 625.631 L
226.66 625.634 L
227.75 625.637 L
228.84 625.64 L
229.929 625.643 L
231.021 625.645 L
232.11 625.648 L
233.2 625.651 L
234.29 625.653 L
235.379 625.656 L
236.471 625.658 L
237.56 625.661 L
238.65 625.663 L
239.74 625.665 L
240.829 625.668 L
241.921 625.67 L
243.01 625.672 L
244.1 625.674 L
245.19 625.676 L
246.279 625.678 L
247.371 625.68 L
248.46 625.681 L
249.55 625.683 L
250.64 625.685 L
251.729 625.686 L
252.821 625.688 L
253.91 625.689 L
255 625.691 L
256.09 625.692 L
257.179 625.693 L
258.271 625.694 L
259.36 625.695 L
260.45 625.696 L
261.54 625.697 L
262.629 625.698 L
263.721 625.699 L
264.81 625.7 L
265.9 625.701 L
266.99 625.701 L
268.079 625.702 L
269.171 625.702 L
270.26 625.703 L
271.35 625.703 L
272.44 625.703 L
273.529 625.703 L
274.621 625.704 L
275.71 625.704 L
276.8 625.704 L
277.89 625.703 L
278.979 625.703 L
280.071 625.703 L
281.16 625.703 L
282.25 625.702 L
283.34 625.702 L
284.429 625.701 L
285.521 625.7 L
286.61 625.7 L
287.7 625.699 L
288.79 625.698 L
289.879 625.697 L
290.971 625.696 L
292.06 625.695 L
293.15 625.693 L
294.24 625.692 L
295.329 625.69 L
296.421 625.689 L
297.51 625.687 L
298.6 625.686 L
299.69 625.684 L
300.779 625.682 L
301.871 625.68 L
302.96 625.678 L
304.05 625.676 L
305.14 625.673 L
306.229 625.671 L
307.321 625.668 L
308.41 625.666 L
309.5 625.663 L
310.59 625.66 L
311.679 625.657 L
312.771 625.654 L
313.86 625.651 L
314.95 625.648 L
316.04 625.644 L
317.129 625.641 L
318.221 625.637 L
319.31 625.634 L
320.4 625.63 L
321.49 625.626 L
322.579 625.622 L
323.671 625.617 L
324.76 625.613 L
325.85 625.608 L
326.94 625.604 L
328.029 625.599 L
329.121 625.594 L
330.21 625.589 L
331.3 625.584 L
332.39 625.578 L
333.479 625.573 L
334.571 625.567 L
335.66 625.561 L
336.75 625.555 L
337.84 625.549 L
338.929 625.543 L
340.021 625.536 L
341.11 625.53 L
342.2 625.523 L
343.29 625.516 L
344.379 625.509 L
345.471 625.501 L
346.56 625.494 L
347.65 625.486 L
348.74 625.478 L
349.829 625.47 L
350.921 625.461 L
352.01 625.453 L
353.1 625.444 L
354.19 625.435 L
355.279 625.425 L
356.371 625.416 L
357.46 625.406 L
358.55 625.396 L
359.64 625.386 L
360.729 625.375 L
361.821 625.364 L
362.91 625.353 L
364 625.342 L
365.09 625.33 L
366.179 625.318 L
367.271 625.306 L
368.36 625.293 L
369.45 625.281 L
370.54 625.267 L
371.629 625.254 L
372.721 625.24 L
373.81 625.226 L
374.9 625.211 L
375.99 625.196 L
377.079 625.18 L
378.171 625.165 L
379.26 625.148 L
380.35 625.132 L
381.44 625.115 L
382.529 625.097 L
383.621 625.079 L
384.71 625.06 L
385.8 625.041 L
386.89 625.022 L
387.979 625.002 L
389.071 624.981 L
390.16 624.96 L
391.25 624.938 L
392.34 624.915 L
393.429 624.892 L
394.521 624.868 L
395.61 624.844 L
396.7 624.819 L
397.79 624.793 L
398.879 624.766 L
399.971 624.738 L
401.06 624.71 L
402.15 624.681 L
403.24 624.651 L
404.329 624.619 L
405.421 624.587 L
406.51 624.554 L
407.6 624.52 L
408.69 624.484 L
409.779 624.448 L
410.871 624.41 L
411.96 624.371 L
413.05 624.331 L
414.14 624.289 L
415.229 624.245 L
416.321 624.201 L
417.41 624.154 L
418.5 624.106 L
419.59 624.056 L
420.679 624.004 L
421.771 623.949 L
422.86 623.893 L
423.95 623.835 L
425.04 623.774 L
426.129 623.71 L
427.221 623.644 L
428.31 623.575 L
429.4 623.503 L
430.49 623.428 L
431.579 623.349 L
432.671 623.267 L
433.76 623.18 L
434.85 623.089 L
435.94 622.994 L
437.029 622.894 L
438.121 622.789 L
439.21 622.678 L
440.3 622.56 L
441.39 622.436 L
442.479 622.305 L
443.571 622.166 L
444.66 622.019 L
445.75 621.862 L
446.84 621.694 L
447.929 621.516 L
449.021 621.324 L
450.11 621.119 L
451.2 620.899 L
452.29 620.661 L
453.379 620.405 L
454.471 620.126 L
455.56 619.823 L
456.65 619.492 L
457.74 619.13 L
458.829 618.731 L
459.921 618.289 L
461.01 617.798 L
462.1 617.249 L
463.19 616.631 L
464.279 615.93 L
465.371 615.128 L
466.46 614.203 L
467.55 613.124 L
468.64 611.848 L
469.729 610.318 L
470.821 608.45 L
471.91 606.12 L
473 603.136 L
474.09 599.186 L
475.179 593.731 L
476.271 585.767 L
477.36 573.271 L
478.45 552.015 L
479.54 516.683 L
480.514 498.984 L
S
GR
GS
[0.75 0 0 0.75 0 0] CT
0 0.447 0.741 RC
1 LJ
0.667 LW
N
480.696 498.984 M
481.721 530.986 L
482.81 561.146 L
483.9 578.538 L
484.99 589.054 L
486.079 595.949 L
487.171 600.777 L
488.26 604.332 L
489.35 607.054 L
490.44 609.202 L
491.529 610.939 L
492.621 612.372 L
493.71 613.574 L
494.8 614.596 L
495.89 615.477 L
496.979 616.243 L
498.071 616.915 L
499.16 617.51 L
500.25 618.04 L
501.34 618.515 L
502.429 618.944 L
503.521 619.332 L
504.61 619.686 L
505.7 620.009 L
506.79 620.306 L
507.879 620.58 L
508.971 620.833 L
510.06 621.067 L
511.15 621.285 L
512.24 621.488 L
513.329 621.677 L
514.421 621.855 L
515.51 622.022 L
516.6 622.178 L
517.69 622.326 L
518.779 622.465 L
519.871 622.597 L
520.96 622.721 L
522.05 622.839 L
523.14 622.952 L
524.229 623.058 L
525.321 623.16 L
526.41 623.256 L
527.5 623.349 L
528.59 623.437 L
529.679 623.521 L
530.771 623.602 L
531.86 623.679 L
532.95 623.753 L
534.04 623.824 L
535.129 623.893 L
536.221 623.958 L
537.31 624.021 L
538.4 624.082 L
539.49 624.141 L
540.579 624.197 L
541.671 624.252 L
542.76 624.304 L
543.85 624.355 L
544.94 624.404 L
546.029 624.452 L
547.121 624.498 L
548.21 624.542 L
549.3 624.585 L
550.39 624.627 L
551.479 624.668 L
552.571 624.707 L
553.66 624.745 L
554.75 624.782 L
555.84 624.818 L
556.929 624.853 L
558.021 624.887 L
559.11 624.92 L
560.2 624.952 L
561.29 624.983 L
562.379 625.014 L
563.471 625.043 L
564.56 625.072 L
565.65 625.1 L
566.74 625.128 L
567.829 625.154 L
568.921 625.18 L
570.01 625.206 L
571.1 625.23 L
572.19 625.255 L
573.279 625.278 L
574.371 625.301 L
575.46 625.324 L
576.55 625.346 L
577.64 625.367 L
578.729 625.389 L
579.821 625.409 L
580.91 625.429 L
582 625.449 L
583.09 625.468 L
584.179 625.487 L
585.271 625.505 L
586.36 625.523 L
587.45 625.541 L
588.54 625.558 L
589.629 625.575 L
590.721 625.592 L
591.81 625.608 L
592.9 625.624 L
593.99 625.639 L
595.079 625.655 L
596.171 625.67 L
597.26 625.684 L
598.35 625.699 L
599.44 625.713 L
600.529 625.727 L
601.621 625.74 L
602.71 625.753 L
603.8 625.767 L
604.89 625.779 L
605.979 625.792 L
607.071 625.804 L
608.16 625.816 L
609.25 625.828 L
610.34 625.84 L
611.429 625.851 L
612.521 625.862 L
613.61 625.873 L
614.7 625.884 L
615.79 625.895 L
616.879 625.905 L
617.971 625.915 L
619.06 625.925 L
620.15 625.935 L
621.24 625.945 L
622.329 625.954 L
623.421 625.964 L
624.51 625.973 L
625.6 625.982 L
626.69 625.991 L
627.779 625.999 L
628.871 626.008 L
629.96 626.016 L
631.05 626.024 L
632.14 626.032 L
633.229 626.04 L
634.321 626.048 L
635.41 626.056 L
636.5 626.063 L
637.59 626.07 L
638.679 626.078 L
639.771 626.085 L
640.86 626.092 L
641.95 626.098 L
643.04 626.105 L
644.129 626.112 L
645.221 626.118 L
646.31 626.124 L
647.4 626.13 L
648.49 626.136 L
649.579 626.142 L
650.671 626.148 L
651.76 626.154 L
652.85 626.159 L
653.94 626.165 L
655.029 626.17 L
656.121 626.175 L
657.21 626.181 L
658.3 626.186 L
659.39 626.19 L
660.479 626.195 L
661.571 626.2 L
662.66 626.205 L
663.75 626.209 L
664.84 626.213 L
665.929 626.218 L
667.021 626.222 L
668.11 626.226 L
669.2 626.23 L
670.29 626.234 L
671.379 626.237 L
672.471 626.241 L
673.56 626.245 L
674.65 626.248 L
675.74 626.251 L
676.829 626.255 L
677.921 626.258 L
679.01 626.261 L
680.1 626.264 L
681.19 626.267 L
682.279 626.27 L
683.371 626.272 L
684.46 626.275 L
685.55 626.277 L
686.64 626.28 L
687.729 626.282 L
688.821 626.284 L
689.91 626.286 L
691 626.288 L
692.09 626.29 L
693.179 626.292 L
694.271 626.294 L
695.36 626.295 L
696.45 626.297 L
697.54 626.298 L
698.629 626.299 L
699.721 626.301 L
700.81 626.302 L
701.9 626.303 L
702.99 626.304 L
704.079 626.305 L
705.171 626.305 L
706.26 626.306 L
707.35 626.307 L
708.44 626.307 L
709.529 626.307 L
710.621 626.307 L
711.71 626.308 L
712.8 626.308 L
713.89 626.307 L
714.979 626.307 L
716.071 626.307 L
717.16 626.307 L
718.25 626.306 L
719.34 626.305 L
720.429 626.305 L
721.521 626.304 L
722.61 626.303 L
723.7 626.302 L
724.79 626.3 L
725.879 626.299 L
726.971 626.298 L
728.06 626.296 L
729.15 626.294 L
730.24 626.292 L
731.329 626.291 L
732.421 626.288 L
733.51 626.286 L
734.6 626.284 L
735.69 626.281 L
736.779 626.279 L
737.871 626.276 L
738.96 626.273 L
740.05 626.27 L
741.14 626.267 L
742.229 626.263 L
743.321 626.26 L
744.41 626.256 L
745.5 626.252 L
746.59 626.248 L
747.679 626.244 L
748.771 626.24 L
749.86 626.235 L
750.95 626.231 L
752.04 626.226 L
753.129 626.221 L
754.221 626.215 L
755.31 626.21 L
756.4 626.202 L
757.49 626.196 L
758.579 626.19 L
759.671 626.184 L
760.76 626.177 L
761.85 626.17 L
762.94 626.163 L
764.029 626.156 L
765.121 626.149 L
766.21 626.141 L
767.3 626.133 L
768.39 626.125 L
769.479 626.116 L
770.571 626.108 L
771.66 626.099 L
772.75 626.089 L
773.84 626.08 L
774.929 626.07 L
776.021 626.059 L
777.11 626.049 L
778.2 626.038 L
779.29 626.026 L
780.379 626.015 L
781.471 626.003 L
782.56 625.99 L
783.65 625.977 L
784.74 625.964 L
785.829 625.95 L
786.921 625.936 L
788.01 625.921 L
789.1 625.906 L
790.19 625.89 L
791.279 625.874 L
792.371 625.857 L
793.46 625.84 L
794.55 625.822 L
795.64 625.803 L
796.729 625.784 L
797.821 625.764 L
798.91 625.743 L
800 625.722 L
801.09 625.699 L
802.179 625.676 L
803.271 625.653 L
804.36 625.628 L
805.45 625.602 L
806.54 625.575 L
807.629 625.548 L
808.721 625.519 L
809.81 625.489 L
810.9 625.458 L
811.99 625.425 L
813.079 625.392 L
814.171 625.356 L
815.26 625.32 L
816.35 625.281 L
817.44 625.241 L
818.529 625.199 L
819.621 625.156 L
820.71 625.11 L
821.8 625.062 L
822.89 625.012 L
823.979 624.959 L
825.071 624.904 L
826.16 624.845 L
827.25 624.784 L
828.34 624.72 L
829.429 624.651 L
830.521 624.579 L
831.61 624.503 L
832.7 624.422 L
833.79 624.337 L
834.879 624.246 L
835.971 624.149 L
837.06 624.046 L
838.15 623.935 L
839.24 623.817 L
840.329 623.69 L
841.421 623.554 L
842.51 623.406 L
843.6 623.247 L
844.69 623.074 L
845.779 622.886 L
846.871 622.681 L
847.96 622.455 L
849.05 622.207 L
850.14 621.932 L
851.229 621.627 L
852.321 621.285 L
853.41 620.9 L
854.5 620.463 L
855.59 619.963 L
856.679 619.386 L
857.771 618.713 L
858.86 617.917 L
859.95 616.962 L
861.04 615.796 L
862.129 614.341 L
863.221 612.478 L
864.31 610.011 L
865.4 606.603 L
866.49 601.628 L
867.579 593.821 L
868.671 580.54 L
869.76 558.463 L
870.85 546.1 L
871.94 567.402 L
873.029 586.25 L
874.121 597.118 L
875.21 603.691 L
876.3 608 L
877.39 611.018 L
878.479 613.241 L
879.571 614.943 L
880.66 616.286 L
881.75 617.373 L
882.84 618.269 L
883.929 619.022 L
885.021 619.662 L
886.11 620.213 L
887.2 620.693 L
888.29 621.114 L
889.379 621.487 L
890.471 621.819 L
891.56 622.117 L
892.65 622.386 L
893.74 622.63 L
894.829 622.852 L
895.921 623.055 L
897.01 623.242 L
898.1 623.414 L
899.19 623.573 L
900.279 623.721 L
901.371 623.858 L
902.46 623.986 L
903.55 624.106 L
904.64 624.218 L
905.729 624.323 L
906.821 624.422 L
907.91 624.515 L
909 624.594 L
910.09 624.677 L
911.179 624.756 L
912.271 624.831 L
913.36 624.903 L
914.45 624.97 L
915.54 625.035 L
916.629 625.096 L
917.721 625.155 L
918.81 625.211 L
919.9 625.265 L
920.99 625.317 L
922.079 625.366 L
923.171 625.414 L
924.26 625.459 L
925.35 625.503 L
926.44 625.545 L
927.529 625.586 L
928.621 625.625 L
929.71 625.663 L
930.8 625.699 L
931.89 625.734 L
932.979 625.768 L
934.071 625.801 L
935.16 625.833 L
936.25 625.864 L
937.34 625.894 L
938.429 625.923 L
939.521 625.951 L
940.61 625.978 L
941.7 626.005 L
942.79 626.03 L
943.879 626.055 L
944.971 626.08 L
946.06 626.103 L
947.15 626.126 L
948.24 626.149 L
949.329 626.171 L
950.421 626.192 L
951.51 626.213 L
952.6 626.233 L
953.69 626.253 L
954.779 626.272 L
955.871 626.291 L
956.96 626.309 L
958.05 626.327 L
959.14 626.344 L
960.229 626.361 L
961.321 626.378 L
962.41 626.394 L
963.5 626.41 L
964.59 626.426 L
965.679 626.441 L
966.771 626.456 L
967.86 626.471 L
968.95 626.486 L
970.04 626.5 L
971.129 626.514 L
972.221 626.527 L
973.31 626.54 L
974.4 626.553 L
975.49 626.566 L
976.579 626.579 L
977.671 626.591 L
978.76 626.603 L
979.85 626.615 L
980.94 626.627 L
982.029 626.638 L
983.121 626.65 L
984.21 626.661 L
985.3 626.672 L
986.39 626.682 L
987.479 626.693 L
988.571 626.703 L
989.66 626.713 L
990.75 626.723 L
991.84 626.733 L
992.929 626.743 L
994.021 626.752 L
995.11 626.762 L
996.2 626.771 L
997.29 626.78 L
998.379 626.789 L
999.471 626.798 L
1000.56 626.807 L
1001.65 626.815 L
1002.74 626.824 L
1003.829 626.832 L
1004.921 626.84 L
1006.01 626.848 L
1007.1 626.856 L
1008.19 626.864 L
1009.279 626.872 L
1010.371 626.88 L
1011.46 626.887 L
1012.55 626.895 L
1013.64 626.902 L
1014.729 626.909 L
1015.821 626.917 L
1016.91 626.924 L
1018 626.931 L
1018.104 626.931 L
S
GR
%%Trailer
%%Pages: 1
%%EOF
