%!PS-Adobe-3.0 EPSF-3.0
%%Creator: (MATLAB, The Mathworks, Inc. Version 9.4.0.813654 \(R2018a\). Operating System: Linux)
%%Title: /data/geodynamo/natafh/Dynamo/Acoustics/elastic_shell/Figures/ZoRo2/2S3.eps
%%CreationDate: 2018-12-21T13:25:56
%%Pages: (atend)
%%BoundingBox: 0 0 844 531
%%LanguageLevel: 3
%%EndComments
%%BeginProlog
%%BeginResource: procset (Apache XML Graphics Std ProcSet) 1.2 0
%%Version: 1.2 0
%%Copyright: (Copyright 2001-2003,2010 The Apache Software Foundation. License terms: http://www.apache.org/licenses/LICENSE-2.0)
/bd{bind def}bind def
/ld{load def}bd
/GR/grestore ld
/GS/gsave ld
/RM/rmoveto ld
/C/curveto ld
/t/show ld
/L/lineto ld
/ML/setmiterlimit ld
/CT/concat ld
/f/fill ld
/N/newpath ld
/S/stroke ld
/CC/setcmykcolor ld
/A/ashow ld
/cp/closepath ld
/RC/setrgbcolor ld
/LJ/setlinejoin ld
/GC/setgray ld
/LW/setlinewidth ld
/M/moveto ld
/re {4 2 roll M
1 index 0 rlineto
0 exch rlineto
neg 0 rlineto
cp } bd
/_ctm matrix def
/_tm matrix def
/BT { _ctm currentmatrix pop matrix _tm copy pop 0 0 moveto } bd
/ET { _ctm setmatrix } bd
/iTm { _ctm setmatrix _tm concat } bd
/Tm { _tm astore pop iTm 0 0 moveto } bd
/ux 0.0 def
/uy 0.0 def
/F {
  /Tp exch def
  /Tf exch def
  Tf findfont Tp scalefont setfont
  /cf Tf def  /cs Tp def
} bd
/ULS {currentpoint /uy exch def /ux exch def} bd
/ULE {
  /Tcx currentpoint pop def
  gsave
  newpath
  cf findfont cs scalefont dup
  /FontMatrix get 0 get /Ts exch def /FontInfo get dup
  /UnderlinePosition get Ts mul /To exch def
  /UnderlineThickness get Ts mul /Tt exch def
  ux uy To add moveto  Tcx uy To add lineto
  Tt setlinewidth stroke
  grestore
} bd
/OLE {
  /Tcx currentpoint pop def
  gsave
  newpath
  cf findfont cs scalefont dup
  /FontMatrix get 0 get /Ts exch def /FontInfo get dup
  /UnderlinePosition get Ts mul /To exch def
  /UnderlineThickness get Ts mul /Tt exch def
  ux uy To add cs add moveto Tcx uy To add cs add lineto
  Tt setlinewidth stroke
  grestore
} bd
/SOE {
  /Tcx currentpoint pop def
  gsave
  newpath
  cf findfont cs scalefont dup
  /FontMatrix get 0 get /Ts exch def /FontInfo get dup
  /UnderlinePosition get Ts mul /To exch def
  /UnderlineThickness get Ts mul /Tt exch def
  ux uy To add cs 10 mul 26 idiv add moveto Tcx uy To add cs 10 mul 26 idiv add lineto
  Tt setlinewidth stroke
  grestore
} bd
/QT {
/Y22 exch store
/X22 exch store
/Y21 exch store
/X21 exch store
currentpoint
/Y21 load 2 mul add 3 div exch
/X21 load 2 mul add 3 div exch
/X21 load 2 mul /X22 load add 3 div
/Y21 load 2 mul /Y22 load add 3 div
/X22 load /Y22 load curveto
} bd
/SSPD {
dup length /d exch dict def
{
/v exch def
/k exch def
currentpagedevice k known {
/cpdv currentpagedevice k get def
v cpdv ne {
/upd false def
/nullv v type /nulltype eq def
/nullcpdv cpdv type /nulltype eq def
nullv nullcpdv or
{
/upd true def
} {
/sametype v type cpdv type eq def
sametype {
v type /arraytype eq {
/vlen v length def
/cpdvlen cpdv length def
vlen cpdvlen eq {
0 1 vlen 1 sub {
/i exch def
/obj v i get def
/cpdobj cpdv i get def
obj cpdobj ne {
/upd true def
exit
} if
} for
} {
/upd true def
} ifelse
} {
v type /dicttype eq {
v {
/dv exch def
/dk exch def
/cpddv cpdv dk get def
dv cpddv ne {
/upd true def
exit
} if
} forall
} {
/upd true def
} ifelse
} ifelse
} if
} ifelse
upd true eq {
d k v put
} if
} if
} if
} forall
d length 0 gt {
d setpagedevice
} if
} bd
/RE { % /NewFontName [NewEncodingArray] /FontName RE -
  findfont dup length dict begin
  {
    1 index /FID ne
    {def} {pop pop} ifelse
  } forall
  /Encoding exch def
  /FontName 1 index def
  currentdict definefont pop
  end
} bind def
%%EndResource
%%BeginResource: procset (Apache XML Graphics EPS ProcSet) 1.0 0
%%Version: 1.0 0
%%Copyright: (Copyright 2002-2003 The Apache Software Foundation. License terms: http://www.apache.org/licenses/LICENSE-2.0)
/BeginEPSF { %def
/b4_Inc_state save def         % Save state for cleanup
/dict_count countdictstack def % Count objects on dict stack
/op_count count 1 sub def      % Count objects on operand stack
userdict begin                 % Push userdict on dict stack
/showpage { } def              % Redefine showpage, { } = null proc
0 setgray 0 setlinecap         % Prepare graphics state
1 setlinewidth 0 setlinejoin
10 setmiterlimit [ ] 0 setdash newpath
/languagelevel where           % If level not equal to 1 then
{pop languagelevel             % set strokeadjust and
1 ne                           % overprint to their defaults.
{false setstrokeadjust false setoverprint
} if
} if
} bd
/EndEPSF { %def
count op_count sub {pop} repeat            % Clean up stacks
countdictstack dict_count sub {end} repeat
b4_Inc_state restore
} bd
%%EndResource
%FOPBeginFontDict
%%IncludeResource: font Courier-Oblique
%%IncludeResource: font Courier-BoldOblique
%%IncludeResource: font Courier-Bold
%%IncludeResource: font ZapfDingbats
%%IncludeResource: font Symbol
%%IncludeResource: font Helvetica
%%IncludeResource: font Helvetica-Oblique
%%IncludeResource: font Helvetica-Bold
%%IncludeResource: font Helvetica-BoldOblique
%%IncludeResource: font Times-Roman
%%IncludeResource: font Times-Italic
%%IncludeResource: font Times-Bold
%%IncludeResource: font Times-BoldItalic
%%IncludeResource: font Courier
%FOPEndFontDict
%%BeginResource: encoding WinAnsiEncoding
/WinAnsiEncoding [
/.notdef /.notdef /.notdef /.notdef /.notdef
/.notdef /.notdef /.notdef /.notdef /.notdef
/.notdef /.notdef /.notdef /.notdef /.notdef
/.notdef /.notdef /.notdef /.notdef /.notdef
/.notdef /.notdef /.notdef /.notdef /.notdef
/.notdef /.notdef /.notdef /.notdef /.notdef
/.notdef /.notdef /space /exclam /quotedbl
/numbersign /dollar /percent /ampersand /quotesingle
/parenleft /parenright /asterisk /plus /comma
/hyphen /period /slash /zero /one
/two /three /four /five /six
/seven /eight /nine /colon /semicolon
/less /equal /greater /question /at
/A /B /C /D /E
/F /G /H /I /J
/K /L /M /N /O
/P /Q /R /S /T
/U /V /W /X /Y
/Z /bracketleft /backslash /bracketright /asciicircum
/underscore /quoteleft /a /b /c
/d /e /f /g /h
/i /j /k /l /m
/n /o /p /q /r
/s /t /u /v /w
/x /y /z /braceleft /bar
/braceright /asciitilde /bullet /Euro /bullet
/quotesinglbase /florin /quotedblbase /ellipsis /dagger
/daggerdbl /circumflex /perthousand /Scaron /guilsinglleft
/OE /bullet /Zcaron /bullet /bullet
/quoteleft /quoteright /quotedblleft /quotedblright /bullet
/endash /emdash /asciitilde /trademark /scaron
/guilsinglright /oe /bullet /zcaron /Ydieresis
/space /exclamdown /cent /sterling /currency
/yen /brokenbar /section /dieresis /copyright
/ordfeminine /guillemotleft /logicalnot /sfthyphen /registered
/macron /degree /plusminus /twosuperior /threesuperior
/acute /mu /paragraph /middot /cedilla
/onesuperior /ordmasculine /guillemotright /onequarter /onehalf
/threequarters /questiondown /Agrave /Aacute /Acircumflex
/Atilde /Adieresis /Aring /AE /Ccedilla
/Egrave /Eacute /Ecircumflex /Edieresis /Igrave
/Iacute /Icircumflex /Idieresis /Eth /Ntilde
/Ograve /Oacute /Ocircumflex /Otilde /Odieresis
/multiply /Oslash /Ugrave /Uacute /Ucircumflex
/Udieresis /Yacute /Thorn /germandbls /agrave
/aacute /acircumflex /atilde /adieresis /aring
/ae /ccedilla /egrave /eacute /ecircumflex
/edieresis /igrave /iacute /icircumflex /idieresis
/eth /ntilde /ograve /oacute /ocircumflex
/otilde /odieresis /divide /oslash /ugrave
/uacute /ucircumflex /udieresis /yacute /thorn
/ydieresis
] def
%%EndResource
%FOPBeginFontReencode
/Courier-Oblique findfont
dup length dict begin
  {1 index /FID ne {def} {pop pop} ifelse} forall
  /Encoding WinAnsiEncoding def
  currentdict
end
/Courier-Oblique exch definefont pop
/Courier-BoldOblique findfont
dup length dict begin
  {1 index /FID ne {def} {pop pop} ifelse} forall
  /Encoding WinAnsiEncoding def
  currentdict
end
/Courier-BoldOblique exch definefont pop
/Courier-Bold findfont
dup length dict begin
  {1 index /FID ne {def} {pop pop} ifelse} forall
  /Encoding WinAnsiEncoding def
  currentdict
end
/Courier-Bold exch definefont pop
/Helvetica findfont
dup length dict begin
  {1 index /FID ne {def} {pop pop} ifelse} forall
  /Encoding WinAnsiEncoding def
  currentdict
end
/Helvetica exch definefont pop
/Helvetica-Oblique findfont
dup length dict begin
  {1 index /FID ne {def} {pop pop} ifelse} forall
  /Encoding WinAnsiEncoding def
  currentdict
end
/Helvetica-Oblique exch definefont pop
/Helvetica-Bold findfont
dup length dict begin
  {1 index /FID ne {def} {pop pop} ifelse} forall
  /Encoding WinAnsiEncoding def
  currentdict
end
/Helvetica-Bold exch definefont pop
/Helvetica-BoldOblique findfont
dup length dict begin
  {1 index /FID ne {def} {pop pop} ifelse} forall
  /Encoding WinAnsiEncoding def
  currentdict
end
/Helvetica-BoldOblique exch definefont pop
/Times-Roman findfont
dup length dict begin
  {1 index /FID ne {def} {pop pop} ifelse} forall
  /Encoding WinAnsiEncoding def
  currentdict
end
/Times-Roman exch definefont pop
/Times-Italic findfont
dup length dict begin
  {1 index /FID ne {def} {pop pop} ifelse} forall
  /Encoding WinAnsiEncoding def
  currentdict
end
/Times-Italic exch definefont pop
/Times-Bold findfont
dup length dict begin
  {1 index /FID ne {def} {pop pop} ifelse} forall
  /Encoding WinAnsiEncoding def
  currentdict
end
/Times-Bold exch definefont pop
/Times-BoldItalic findfont
dup length dict begin
  {1 index /FID ne {def} {pop pop} ifelse} forall
  /Encoding WinAnsiEncoding def
  currentdict
end
/Times-BoldItalic exch definefont pop
/Courier findfont
dup length dict begin
  {1 index /FID ne {def} {pop pop} ifelse} forall
  /Encoding WinAnsiEncoding def
  currentdict
end
/Courier exch definefont pop
%FOPEndFontReencode
%%EndProlog
%%Page: 1 1
%%PageBoundingBox: 0 0 844 531
%%BeginPageSetup
[1 0 0 -1 0 531] CT
%%EndPageSetup
GS
[0.75 0 0 0.75 0 0] CT
1 GC
N
0 0 1125 708 re
f
GR
GS
[0.75 0 0 0.75 0 0] CT
1 GC
N
0 0 1125 708 re
f
GR
GS
[0.75 0 0 0.75 0 0] CT
1 GC
N
146 206 M
1018 206 L
1018 74 L
146 74 L
cp
f
GR
GS
[0.75 0 0 0.75 0 0] CT
0.149 GC
2 setlinecap
1 LJ
0.667 LW
N
146 206 M
1018 206 L
S
GR
GS
[0.75 0 0 0.75 0 0] CT
0.149 GC
2 setlinecap
1 LJ
0.667 LW
N
146 74 M
1018 74 L
S
GR
GS
[0.75 0 0 0.75 0 0] CT
0.149 GC
2 setlinecap
1 LJ
0.667 LW
N
193.135 206 M
193.135 197.28 L
S
GR
GS
[0.75 0 0 0.75 0 0] CT
0.149 GC
2 setlinecap
1 LJ
0.667 LW
N
310.973 206 M
310.973 197.28 L
S
GR
GS
[0.75 0 0 0.75 0 0] CT
0.149 GC
2 setlinecap
1 LJ
0.667 LW
N
428.811 206 M
428.811 197.28 L
S
GR
GS
[0.75 0 0 0.75 0 0] CT
0.149 GC
2 setlinecap
1 LJ
0.667 LW
N
546.649 206 M
546.649 197.28 L
S
GR
GS
[0.75 0 0 0.75 0 0] CT
0.149 GC
2 setlinecap
1 LJ
0.667 LW
N
664.487 206 M
664.487 197.28 L
S
GR
GS
[0.75 0 0 0.75 0 0] CT
0.149 GC
2 setlinecap
1 LJ
0.667 LW
N
782.324 206 M
782.324 197.28 L
S
GR
GS
[0.75 0 0 0.75 0 0] CT
0.149 GC
2 setlinecap
1 LJ
0.667 LW
N
900.162 206 M
900.162 197.28 L
S
GR
GS
[0.75 0 0 0.75 0 0] CT
0.149 GC
2 setlinecap
1 LJ
0.667 LW
N
1018 206 M
1018 197.28 L
S
GR
GS
[0.75 0 0 0.75 0 0] CT
0.149 GC
2 setlinecap
1 LJ
0.667 LW
N
193.135 74 M
193.135 82.72 L
S
GR
GS
[0.75 0 0 0.75 0 0] CT
0.149 GC
2 setlinecap
1 LJ
0.667 LW
N
310.973 74 M
310.973 82.72 L
S
GR
GS
[0.75 0 0 0.75 0 0] CT
0.149 GC
2 setlinecap
1 LJ
0.667 LW
N
428.811 74 M
428.811 82.72 L
S
GR
GS
[0.75 0 0 0.75 0 0] CT
0.149 GC
2 setlinecap
1 LJ
0.667 LW
N
546.649 74 M
546.649 82.72 L
S
GR
GS
[0.75 0 0 0.75 0 0] CT
0.149 GC
2 setlinecap
1 LJ
0.667 LW
N
664.487 74 M
664.487 82.72 L
S
GR
GS
[0.75 0 0 0.75 0 0] CT
0.149 GC
2 setlinecap
1 LJ
0.667 LW
N
782.324 74 M
782.324 82.72 L
S
GR
GS
[0.75 0 0 0.75 0 0] CT
0.149 GC
2 setlinecap
1 LJ
0.667 LW
N
900.162 74 M
900.162 82.72 L
S
GR
GS
[0.75 0 0 0.75 0 0] CT
0.149 GC
2 setlinecap
1 LJ
0.667 LW
N
1018 74 M
1018 82.72 L
S
GR
GS
[0.75 0 0 0.75 144.85135 157.90001] CT
0.149 GC
/Helvetica 12.667 F
GS
[1 0 0 1 0 0] CT
-12.5 12 moveto 
1 -1 scale
(500) t 
GR
GR
GS
[0.75 0 0 0.75 233.22972 157.90001] CT
0.149 GC
/Helvetica 12.667 F
GS
[1 0 0 1 0 0] CT
-16.5 12 moveto 
1 -1 scale
(1000) t 
GR
GR
GS
[0.75 0 0 0.75 321.60812 157.90001] CT
0.149 GC
/Helvetica 12.667 F
GS
[1 0 0 1 0 0] CT
-16.5 12 moveto 
1 -1 scale
(1500) t 
GR
GR
GS
[0.75 0 0 0.75 409.98647 157.90001] CT
0.149 GC
/Helvetica 12.667 F
GS
[1 0 0 1 0 0] CT
-16.5 12 moveto 
1 -1 scale
(2000) t 
GR
GR
GS
[0.75 0 0 0.75 498.36488 157.90001] CT
0.149 GC
/Helvetica 12.667 F
GS
[1 0 0 1 0 0] CT
-16.5 12 moveto 
1 -1 scale
(2500) t 
GR
GR
GS
[0.75 0 0 0.75 586.74326 157.90001] CT
0.149 GC
/Helvetica 12.667 F
GS
[1 0 0 1 0 0] CT
-16.5 12 moveto 
1 -1 scale
(3000) t 
GR
GR
GS
[0.75 0 0 0.75 675.12163 157.90001] CT
0.149 GC
/Helvetica 12.667 F
GS
[1 0 0 1 0 0] CT
-16.5 12 moveto 
1 -1 scale
(3500) t 
GR
GR
GS
[0.75 0 0 0.75 763.5 157.90001] CT
0.149 GC
/Helvetica 12.667 F
GS
[1 0 0 1 0 0] CT
-16.5 12 moveto 
1 -1 scale
(4000) t 
GR
GR
GS
[0.75 0 0 0.75 436.50032 169.89999] CT
0.149 GC
/Helvetica 13.933 F
GS
[1 0 0 1 0 0] CT
-73.5 13 moveto 
1 -1 scale
(mode frequency \(Hz\)) t 
GR
GR
GS
[0.75 0 0 0.75 0 0] CT
0.149 GC
2 setlinecap
1 LJ
0.667 LW
N
146 206 M
146 74 L
S
GR
GS
[0.75 0 0 0.75 0 0] CT
0.149 GC
2 setlinecap
1 LJ
0.667 LW
N
1018 206 M
1018 74 L
S
GR
GS
[0.75 0 0 0.75 0 0] CT
0.149 GC
2 setlinecap
1 LJ
0.667 LW
N
146 206 M
154.72 206 L
S
GR
GS
[0.75 0 0 0.75 0 0] CT
0.149 GC
2 setlinecap
1 LJ
0.667 LW
N
146 162 M
154.72 162 L
S
GR
GS
[0.75 0 0 0.75 0 0] CT
0.149 GC
2 setlinecap
1 LJ
0.667 LW
N
146 118 M
154.72 118 L
S
GR
GS
[0.75 0 0 0.75 0 0] CT
0.149 GC
2 setlinecap
1 LJ
0.667 LW
N
146 74 M
154.72 74 L
S
GR
GS
[0.75 0 0 0.75 0 0] CT
0.149 GC
2 setlinecap
1 LJ
0.667 LW
N
1018 206 M
1009.28 206 L
S
GR
GS
[0.75 0 0 0.75 0 0] CT
0.149 GC
2 setlinecap
1 LJ
0.667 LW
N
1018 162 M
1009.28 162 L
S
GR
GS
[0.75 0 0 0.75 0 0] CT
0.149 GC
2 setlinecap
1 LJ
0.667 LW
N
1018 118 M
1009.28 118 L
S
GR
GS
[0.75 0 0 0.75 0 0] CT
0.149 GC
2 setlinecap
1 LJ
0.667 LW
N
1018 74 M
1009.28 74 L
S
GR
GS
[0.75 0 0 0.75 106.09999 154.5] CT
0.149 GC
/Helvetica 12.667 F
GS
[1 0 0 1 0 0] CT
-9 4.5 moveto 
1 -1 scale
(0) t 
GR
GR
GS
[0.75 0 0 0.75 106.09999 121.5] CT
0.149 GC
/Helvetica 12.667 F
GS
[1 0 0 1 0 0] CT
-9 4.5 moveto 
1 -1 scale
(5) t 
GR
GR
GS
[0.75 0 0 0.75 106.09999 88.5] CT
0.149 GC
/Helvetica 12.667 F
GS
[1 0 0 1 0 0] CT
-17 4.5 moveto 
1 -1 scale
(10) t 
GR
GR
GS
[0.75 0 0 0.75 106.09999 55.5] CT
0.149 GC
/Helvetica 12.667 F
GS
[1 0 0 1 0 0] CT
-17 4.5 moveto 
1 -1 scale
(15) t 
GR
GR
GS
[0 -0.75 0.75 0 90.85 104.99995] CT
0.149 GC
/Helvetica 13.933 F
GS
[1 0 0 1 0 0] CT
-52.5 -4 moveto 
1 -1 scale
(fake amplitude) t 
GR
GR
GS
[0.75 0 0 0.75 436.50041 53.54062] CT
/Helvetica-Bold 13.933 F
GS
[1 0 0 1 0 0] CT
-184 -4 moveto 
1 -1 scale
(degenerate SNRI multiplets for ZoRo2-rigid-air) t 
GR
GR
GS
[0.75 0 0 0.75 0 0] CT
0.149 GC
1 LJ
0.667 LW
N
146 206 M
1018 206 L
S
GR
GS
[0.75 0 0 0.75 158.21801 88.5] CT
10.0 ML
N
4 0 M
4 -2.209 2.209 -4 0 -4 C
-2.209 -4 -4 -2.209 -4 0 C
-4 2.209 -2.209 4 0 4 C
2.209 4 4 2.209 4 0 C
cp
S
GR
GS
[0.75 0 0 0.75 219.83066 88.5] CT
10.0 ML
N
4 0 M
4 -2.209 2.209 -4 0 -4 C
-2.209 -4 -4 -2.209 -4 0 C
-4 2.209 -2.209 4 0 4 C
2.209 4 4 2.209 4 0 C
cp
S
GR
GS
[0.75 0 0 0.75 277.11697 88.5] CT
10.0 ML
N
4 0 M
4 -2.209 2.209 -4 0 -4 C
-2.209 -4 -4 -2.209 -4 0 C
-4 2.209 -2.209 4 0 4 C
2.209 4 4 2.209 4 0 C
cp
S
GR
GS
[0.75 0 0 0.75 332.47735 88.5] CT
10.0 ML
N
4 0 M
4 -2.209 2.209 -4 0 -4 C
-2.209 -4 -4 -2.209 -4 0 C
-4 2.209 -2.209 4 0 4 C
2.209 4 4 2.209 4 0 C
cp
S
GR
GS
[0.75 0 0 0.75 386.72076 88.5] CT
10.0 ML
N
4 0 M
4 -2.209 2.209 -4 0 -4 C
-2.209 -4 -4 -2.209 -4 0 C
-4 2.209 -2.209 4 0 4 C
2.209 4 4 2.209 4 0 C
cp
S
GR
GS
[0.75 0 0 0.75 440.22464 88.5] CT
10.0 ML
N
4 0 M
4 -2.209 2.209 -4 0 -4 C
-2.209 -4 -4 -2.209 -4 0 C
-4 2.209 -2.209 4 0 4 C
2.209 4 4 2.209 4 0 C
cp
S
GR
GS
[0.75 0 0 0.75 493.1976 88.5] CT
10.0 ML
N
4 0 M
4 -2.209 2.209 -4 0 -4 C
-2.209 -4 -4 -2.209 -4 0 C
-4 2.209 -2.209 4 0 4 C
2.209 4 4 2.209 4 0 C
cp
S
GR
GS
[0.75 0 0 0.75 545.76837 88.5] CT
10.0 ML
N
4 0 M
4 -2.209 2.209 -4 0 -4 C
-2.209 -4 -4 -2.209 -4 0 C
-4 2.209 -2.209 4 0 4 C
2.209 4 4 2.209 4 0 C
cp
S
GR
GS
[0.75 0 0 0.75 598.02219 88.5] CT
10.0 ML
N
4 0 M
4 -2.209 2.209 -4 0 -4 C
-2.209 -4 -4 -2.209 -4 0 C
-4 2.209 -2.209 4 0 4 C
2.209 4 4 2.209 4 0 C
cp
S
GR
GS
[0.75 0 0 0.75 650.01878 88.5] CT
10.0 ML
N
4 0 M
4 -2.209 2.209 -4 0 -4 C
-2.209 -4 -4 -2.209 -4 0 C
-4 2.209 -2.209 4 0 4 C
2.209 4 4 2.209 4 0 C
cp
S
GR
GS
[0.75 0 0 0.75 701.80188 88.5] CT
10.0 ML
N
4 0 M
4 -2.209 2.209 -4 0 -4 C
-2.209 -4 -4 -2.209 -4 0 C
-4 2.209 -2.209 4 0 4 C
2.209 4 4 2.209 4 0 C
cp
S
GR
GS
[0.75 0 0 0.75 753.40425 88.5] CT
10.0 ML
N
4 0 M
4 -2.209 2.209 -4 0 -4 C
-2.209 -4 -4 -2.209 -4 0 C
-4 2.209 -2.209 4 0 4 C
2.209 4 4 2.209 4 0 C
cp
S
GR
GS
[0.75 0 0 0.75 0 0] CT
1 LJ
0.667 LW
N
210.957 206 M
210.957 118 L
S
GR
GS
[0.75 0 0 0.75 0 0] CT
1 LJ
0.667 LW
N
293.108 206 M
293.108 118 L
S
GR
GS
[0.75 0 0 0.75 0 0] CT
1 LJ
0.667 LW
N
369.489 206 M
369.489 118 L
S
GR
GS
[0.75 0 0 0.75 0 0] CT
1 LJ
0.667 LW
N
443.303 206 M
443.303 118 L
S
GR
GS
[0.75 0 0 0.75 0 0] CT
1 LJ
0.667 LW
N
515.628 206 M
515.628 118 L
S
GR
GS
[0.75 0 0 0.75 0 0] CT
1 LJ
0.667 LW
N
586.966 206 M
586.966 118 L
S
GR
GS
[0.75 0 0 0.75 0 0] CT
1 LJ
0.667 LW
N
657.597 206 M
657.597 118 L
S
GR
GS
[0.75 0 0 0.75 0 0] CT
1 LJ
0.667 LW
N
727.691 206 M
727.691 118 L
S
GR
GS
[0.75 0 0 0.75 0 0] CT
1 LJ
0.667 LW
N
797.363 206 M
797.363 118 L
S
GR
GS
[0.75 0 0 0.75 0 0] CT
1 LJ
0.667 LW
N
866.692 206 M
866.692 118 L
S
GR
GS
[0.75 0 0 0.75 0 0] CT
1 LJ
0.667 LW
N
935.736 206 M
935.736 118 L
S
GR
GS
[0.75 0 0 0.75 0 0] CT
1 LJ
0.667 LW
N
1004.539 206 M
1004.539 118 L
S
GR
GS
[0.75 0 0 0.75 47.25 87.75] CT
/Helvetica 10.667 F
GS
[1 0 0 1 0 0] CT
0 0 moveto 
1 -1 scale
(0) t 
GR
GR
GS
[0.75 0 0 0.75 52.5 83.25] CT
/Helvetica 13.333 F
GS
[1 0 0 1 0 0] CT
0 0 moveto 
1 -1 scale
(S) t 
GR
GR
GS
[0.75 0 0 0.75 59.25 87.75] CT
/Helvetica 10.667 F
GS
[1 0 0 1 0 0] CT
0 0 moveto 
1 -1 scale
(0) t 
GR
GR
GS
[0.75 0 0 0.75 149.25 87.75] CT
/Helvetica 10.667 F
GS
[1 0 0 1 0 0] CT
0 0 moveto 
1 -1 scale
(0) t 
GR
GR
GS
[0.75 0 0 0.75 154.5 83.25] CT
/Helvetica 13.333 F
GS
[1 0 0 1 0 0] CT
0 0 moveto 
1 -1 scale
(S) t 
GR
GR
GS
[0.75 0 0 0.75 161.25 87.75] CT
/Helvetica 10.667 F
GS
[1 0 0 1 0 0] CT
0 0 moveto 
1 -1 scale
(1) t 
GR
GR
GS
[0.75 0 0 0.75 210.75 87.75] CT
/Helvetica 10.667 F
GS
[1 0 0 1 0 0] CT
0 0 moveto 
1 -1 scale
(0) t 
GR
GR
GS
[0.75 0 0 0.75 216 83.25] CT
/Helvetica 13.333 F
GS
[1 0 0 1 0 0] CT
0 0 moveto 
1 -1 scale
(S) t 
GR
GR
GS
[0.75 0 0 0.75 222.75 87.75] CT
/Helvetica 10.667 F
GS
[1 0 0 1 0 0] CT
0 0 moveto 
1 -1 scale
(2) t 
GR
GR
GS
[0.75 0 0 0.75 267.75 87.75] CT
/Helvetica 10.667 F
GS
[1 0 0 1 0 0] CT
0 0 moveto 
1 -1 scale
(0) t 
GR
GR
GS
[0.75 0 0 0.75 273 83.25] CT
/Helvetica 13.333 F
GS
[1 0 0 1 0 0] CT
0 0 moveto 
1 -1 scale
(S) t 
GR
GR
GS
[0.75 0 0 0.75 279.75 87.75] CT
/Helvetica 10.667 F
GS
[1 0 0 1 0 0] CT
0 0 moveto 
1 -1 scale
(3) t 
GR
GR
GS
[0.75 0 0 0.75 323.25 87.75] CT
/Helvetica 10.667 F
GS
[1 0 0 1 0 0] CT
0 0 moveto 
1 -1 scale
(0) t 
GR
GR
GS
[0.75 0 0 0.75 328.5 83.25] CT
/Helvetica 13.333 F
GS
[1 0 0 1 0 0] CT
0 0 moveto 
1 -1 scale
(S) t 
GR
GR
GS
[0.75 0 0 0.75 335.25 87.75] CT
/Helvetica 10.667 F
GS
[1 0 0 1 0 0] CT
0 0 moveto 
1 -1 scale
(4) t 
GR
GR
GS
[0.75 0 0 0.75 378 87.75] CT
/Helvetica 10.667 F
GS
[1 0 0 1 0 0] CT
0 0 moveto 
1 -1 scale
(0) t 
GR
GR
GS
[0.75 0 0 0.75 383.25 83.25] CT
/Helvetica 13.333 F
GS
[1 0 0 1 0 0] CT
0 0 moveto 
1 -1 scale
(S) t 
GR
GR
GS
[0.75 0 0 0.75 390 87.75] CT
/Helvetica 10.667 F
GS
[1 0 0 1 0 0] CT
0 0 moveto 
1 -1 scale
(5) t 
GR
GR
GS
[0.75 0 0 0.75 431.25 87.75] CT
/Helvetica 10.667 F
GS
[1 0 0 1 0 0] CT
0 0 moveto 
1 -1 scale
(0) t 
GR
GR
GS
[0.75 0 0 0.75 436.5 83.25] CT
/Helvetica 13.333 F
GS
[1 0 0 1 0 0] CT
0 0 moveto 
1 -1 scale
(S) t 
GR
GR
GS
[0.75 0 0 0.75 443.25 87.75] CT
/Helvetica 10.667 F
GS
[1 0 0 1 0 0] CT
0 0 moveto 
1 -1 scale
(6) t 
GR
GR
GS
[0.75 0 0 0.75 484.5 87.75] CT
/Helvetica 10.667 F
GS
[1 0 0 1 0 0] CT
0 0 moveto 
1 -1 scale
(0) t 
GR
GR
GS
[0.75 0 0 0.75 489.75 83.25] CT
/Helvetica 13.333 F
GS
[1 0 0 1 0 0] CT
0 0 moveto 
1 -1 scale
(S) t 
GR
GR
GS
[0.75 0 0 0.75 496.5 87.75] CT
/Helvetica 10.667 F
GS
[1 0 0 1 0 0] CT
0 0 moveto 
1 -1 scale
(7) t 
GR
GR
GS
[0.75 0 0 0.75 537 87.75] CT
/Helvetica 10.667 F
GS
[1 0 0 1 0 0] CT
0 0 moveto 
1 -1 scale
(0) t 
GR
GR
GS
[0.75 0 0 0.75 542.25 83.25] CT
/Helvetica 13.333 F
GS
[1 0 0 1 0 0] CT
0 0 moveto 
1 -1 scale
(S) t 
GR
GR
GS
[0.75 0 0 0.75 549 87.75] CT
/Helvetica 10.667 F
GS
[1 0 0 1 0 0] CT
0 0 moveto 
1 -1 scale
(8) t 
GR
GR
GS
[0.75 0 0 0.75 588.75 87.75] CT
/Helvetica 10.667 F
GS
[1 0 0 1 0 0] CT
0 0 moveto 
1 -1 scale
(0) t 
GR
GR
GS
[0.75 0 0 0.75 594 83.25] CT
/Helvetica 13.333 F
GS
[1 0 0 1 0 0] CT
0 0 moveto 
1 -1 scale
(S) t 
GR
GR
GS
[0.75 0 0 0.75 600.75 87.75] CT
/Helvetica 10.667 F
GS
[1 0 0 1 0 0] CT
0 0 moveto 
1 -1 scale
(9) t 
GR
GR
GS
[0.75 0 0 0.75 639 87.75] CT
/Helvetica 10.667 F
GS
[1 0 0 1 0 0] CT
0 0 moveto 
1 -1 scale
(0) t 
GR
GR
GS
[0.75 0 0 0.75 644.25 83.25] CT
/Helvetica 13.333 F
GS
[1 0 0 1 0 0] CT
0 0 moveto 
1 -1 scale
(S) t 
GR
GR
GS
[0.75 0 0 0.75 651 87.75] CT
/Helvetica 10.667 F
GS
[1 0 0 1 0 0] CT
0 0 moveto 
1 -1 scale
(10) t 
GR
GR
GS
[0.75 0 0 0.75 690.75 87.75] CT
/Helvetica 10.667 F
GS
[1 0 0 1 0 0] CT
0 0 moveto 
1 -1 scale
(0) t 
GR
GR
GS
[0.75 0 0 0.75 696 83.25] CT
/Helvetica 13.333 F
GS
[1 0 0 1 0 0] CT
0 0 moveto 
1 -1 scale
(S) t 
GR
GR
GS
[0.75 0 0 0.75 702.75 87.75] CT
/Helvetica 10.667 F
GS
[1 0 0 1 0 0] CT
0 0 moveto 
1 -1 scale
(11) t 
GR
GR
GS
[0.75 0 0 0.75 742.5 87.75] CT
/Helvetica 10.667 F
GS
[1 0 0 1 0 0] CT
0 0 moveto 
1 -1 scale
(0) t 
GR
GR
GS
[0.75 0 0 0.75 747.75 83.25] CT
/Helvetica 13.333 F
GS
[1 0 0 1 0 0] CT
0 0 moveto 
1 -1 scale
(S) t 
GR
GR
GS
[0.75 0 0 0.75 754.5 87.75] CT
/Helvetica 10.667 F
GS
[1 0 0 1 0 0] CT
0 0 moveto 
1 -1 scale
(12) t 
GR
GR
GS
[0.75 0 0 0.75 793.5 87.75] CT
/Helvetica 10.667 F
GS
[1 0 0 1 0 0] CT
0 0 moveto 
1 -1 scale
(0) t 
GR
GR
GS
[0.75 0 0 0.75 798.75 83.25] CT
/Helvetica 13.333 F
GS
[1 0 0 1 0 0] CT
0 0 moveto 
1 -1 scale
(S) t 
GR
GR
GS
[0.75 0 0 0.75 805.5 87.75] CT
/Helvetica 10.667 F
GS
[1 0 0 1 0 0] CT
0 0 moveto 
1 -1 scale
(13) t 
GR
GR
GS
[0.75 0 0 0.75 276.10565 81.9] CT
10.0 ML
N
-2.828 -2.828 M
2.828 2.828 L
-2.828 2.828 M
2.828 -2.828 L
S
GR
GS
[0.75 0 0 0.75 346.83142 81.9] CT
10.0 ML
N
-2.828 -2.828 M
2.828 2.828 L
-2.828 2.828 M
2.828 -2.828 L
S
GR
GS
[0.75 0 0 0.75 412.79645 81.9] CT
10.0 ML
N
-2.828 -2.828 M
2.828 2.828 L
-2.828 2.828 M
2.828 -2.828 L
S
GR
GS
[0.75 0 0 0.75 476.03705 81.9] CT
10.0 ML
N
-2.828 -2.828 M
2.828 2.828 L
-2.828 2.828 M
2.828 -2.828 L
S
GR
GS
[0.75 0 0 0.75 537.46262 81.9] CT
10.0 ML
N
-2.828 -2.828 M
2.828 2.828 L
-2.828 2.828 M
2.828 -2.828 L
S
GR
GS
[0.75 0 0 0.75 597.57193 81.9] CT
10.0 ML
N
-2.828 -2.828 M
2.828 2.828 L
-2.828 2.828 M
2.828 -2.828 L
S
GR
GS
[0.75 0 0 0.75 656.6727 81.9] CT
10.0 ML
N
-2.828 -2.828 M
2.828 2.828 L
-2.828 2.828 M
2.828 -2.828 L
S
GR
GS
[0.75 0 0 0.75 714.97032 81.9] CT
10.0 ML
N
-2.828 -2.828 M
2.828 2.828 L
-2.828 2.828 M
2.828 -2.828 L
S
GR
GS
[0.75 0 0 0.75 0 0] CT
1 LJ
0.667 LW
N
368.141 206 M
368.141 109.2 L
S
GR
GS
[0.75 0 0 0.75 0 0] CT
1 LJ
0.667 LW
N
462.442 206 M
462.442 109.2 L
S
GR
GS
[0.75 0 0 0.75 0 0] CT
1 LJ
0.667 LW
N
550.395 206 M
550.395 109.2 L
S
GR
GS
[0.75 0 0 0.75 0 0] CT
1 LJ
0.667 LW
N
634.716 206 M
634.716 109.2 L
S
GR
GS
[0.75 0 0 0.75 0 0] CT
1 LJ
0.667 LW
N
716.617 206 M
716.617 109.2 L
S
GR
GS
[0.75 0 0 0.75 0 0] CT
1 LJ
0.667 LW
N
796.763 206 M
796.763 109.2 L
S
GR
GS
[0.75 0 0 0.75 0 0] CT
1 LJ
0.667 LW
N
875.564 206 M
875.564 109.2 L
S
GR
GS
[0.75 0 0 0.75 0 0] CT
1 LJ
0.667 LW
N
953.294 206 M
953.294 109.2 L
S
GR
GS
[0.75 0 0 0.75 267 81] CT
/Helvetica 10.667 F
GS
[1 0 0 1 0 0] CT
0 0 moveto 
1 -1 scale
(1) t 
GR
GR
GS
[0.75 0 0 0.75 272.25 76.5] CT
/Helvetica 13.333 F
GS
[1 0 0 1 0 0] CT
0 0 moveto 
1 -1 scale
(S) t 
GR
GR
GS
[0.75 0 0 0.75 279 81] CT
/Helvetica 10.667 F
GS
[1 0 0 1 0 0] CT
0 0 moveto 
1 -1 scale
(0) t 
GR
GR
GS
[0.75 0 0 0.75 337.5 81] CT
/Helvetica 10.667 F
GS
[1 0 0 1 0 0] CT
0 0 moveto 
1 -1 scale
(1) t 
GR
GR
GS
[0.75 0 0 0.75 342.75 76.5] CT
/Helvetica 13.333 F
GS
[1 0 0 1 0 0] CT
0 0 moveto 
1 -1 scale
(S) t 
GR
GR
GS
[0.75 0 0 0.75 349.5 81] CT
/Helvetica 10.667 F
GS
[1 0 0 1 0 0] CT
0 0 moveto 
1 -1 scale
(1) t 
GR
GR
GS
[0.75 0 0 0.75 403.5 81] CT
/Helvetica 10.667 F
GS
[1 0 0 1 0 0] CT
0 0 moveto 
1 -1 scale
(1) t 
GR
GR
GS
[0.75 0 0 0.75 408.75 76.5] CT
/Helvetica 13.333 F
GS
[1 0 0 1 0 0] CT
0 0 moveto 
1 -1 scale
(S) t 
GR
GR
GS
[0.75 0 0 0.75 415.5 81] CT
/Helvetica 10.667 F
GS
[1 0 0 1 0 0] CT
0 0 moveto 
1 -1 scale
(2) t 
GR
GR
GS
[0.75 0 0 0.75 467.25 81] CT
/Helvetica 10.667 F
GS
[1 0 0 1 0 0] CT
0 0 moveto 
1 -1 scale
(1) t 
GR
GR
GS
[0.75 0 0 0.75 472.5 76.5] CT
/Helvetica 13.333 F
GS
[1 0 0 1 0 0] CT
0 0 moveto 
1 -1 scale
(S) t 
GR
GR
GS
[0.75 0 0 0.75 479.25 81] CT
/Helvetica 10.667 F
GS
[1 0 0 1 0 0] CT
0 0 moveto 
1 -1 scale
(3) t 
GR
GR
GS
[0.75 0 0 0.75 528.75 81] CT
/Helvetica 10.667 F
GS
[1 0 0 1 0 0] CT
0 0 moveto 
1 -1 scale
(1) t 
GR
GR
GS
[0.75 0 0 0.75 534 76.5] CT
/Helvetica 13.333 F
GS
[1 0 0 1 0 0] CT
0 0 moveto 
1 -1 scale
(S) t 
GR
GR
GS
[0.75 0 0 0.75 540.75 81] CT
/Helvetica 10.667 F
GS
[1 0 0 1 0 0] CT
0 0 moveto 
1 -1 scale
(4) t 
GR
GR
GS
[0.75 0 0 0.75 588.75 81] CT
/Helvetica 10.667 F
GS
[1 0 0 1 0 0] CT
0 0 moveto 
1 -1 scale
(1) t 
GR
GR
GS
[0.75 0 0 0.75 594 76.5] CT
/Helvetica 13.333 F
GS
[1 0 0 1 0 0] CT
0 0 moveto 
1 -1 scale
(S) t 
GR
GR
GS
[0.75 0 0 0.75 600.75 81] CT
/Helvetica 10.667 F
GS
[1 0 0 1 0 0] CT
0 0 moveto 
1 -1 scale
(5) t 
GR
GR
GS
[0.75 0 0 0.75 648 81] CT
/Helvetica 10.667 F
GS
[1 0 0 1 0 0] CT
0 0 moveto 
1 -1 scale
(1) t 
GR
GR
GS
[0.75 0 0 0.75 653.25 76.5] CT
/Helvetica 13.333 F
GS
[1 0 0 1 0 0] CT
0 0 moveto 
1 -1 scale
(S) t 
GR
GR
GS
[0.75 0 0 0.75 660 81] CT
/Helvetica 10.667 F
GS
[1 0 0 1 0 0] CT
0 0 moveto 
1 -1 scale
(6) t 
GR
GR
GS
[0.75 0 0 0.75 705.75 81] CT
/Helvetica 10.667 F
GS
[1 0 0 1 0 0] CT
0 0 moveto 
1 -1 scale
(1) t 
GR
GR
GS
[0.75 0 0 0.75 711 76.5] CT
/Helvetica 13.333 F
GS
[1 0 0 1 0 0] CT
0 0 moveto 
1 -1 scale
(S) t 
GR
GR
GS
[0.75 0 0 0.75 717.75 81] CT
/Helvetica 10.667 F
GS
[1 0 0 1 0 0] CT
0 0 moveto 
1 -1 scale
(7) t 
GR
GR
GS
[0.75 0 0 0.75 763.5 81] CT
/Helvetica 10.667 F
GS
[1 0 0 1 0 0] CT
0 0 moveto 
1 -1 scale
(1) t 
GR
GR
GS
[0.75 0 0 0.75 768.75 76.5] CT
/Helvetica 13.333 F
GS
[1 0 0 1 0 0] CT
0 0 moveto 
1 -1 scale
(S) t 
GR
GR
GS
[0.75 0 0 0.75 775.5 81] CT
/Helvetica 10.667 F
GS
[1 0 0 1 0 0] CT
0 0 moveto 
1 -1 scale
(8) t 
GR
GR
GS
[0.75 0 0 0.75 820.5 81] CT
/Helvetica 10.667 F
GS
[1 0 0 1 0 0] CT
0 0 moveto 
1 -1 scale
(1) t 
GR
GR
GS
[0.75 0 0 0.75 825.75 76.5] CT
/Helvetica 13.333 F
GS
[1 0 0 1 0 0] CT
0 0 moveto 
1 -1 scale
(S) t 
GR
GR
GS
[0.75 0 0 0.75 832.5 81] CT
/Helvetica 10.667 F
GS
[1 0 0 1 0 0] CT
0 0 moveto 
1 -1 scale
(9) t 
GR
GR
GS
[0.75 0 0 0.75 434.0744 75.3] CT
10.0 ML
N
0 -4 M
0 4 L
-4 0 M
4 0 L
S
GR
GS
[0.75 0 0 0.75 506.44386 75.3] CT
10.0 ML
N
0 -4 M
0 4 L
-4 0 M
4 0 L
S
GR
GS
[0.75 0 0 0.75 575.26602 75.3] CT
10.0 ML
N
0 -4 M
0 4 L
-4 0 M
4 0 L
S
GR
GS
[0.75 0 0 0.75 641.68625 75.3] CT
10.0 ML
N
0 -4 M
0 4 L
-4 0 M
4 0 L
S
GR
GS
[0.75 0 0 0.75 706.34482 75.3] CT
10.0 ML
N
0 -4 M
0 4 L
-4 0 M
4 0 L
S
GR
GS
[0.75 0 0 0.75 0 0] CT
1 LJ
0.667 LW
N
578.766 206 M
578.766 100.4 L
S
GR
GS
[0.75 0 0 0.75 0 0] CT
1 LJ
0.667 LW
N
675.258 206 M
675.258 100.4 L
S
GR
GS
[0.75 0 0 0.75 0 0] CT
1 LJ
0.667 LW
N
767.021 206 M
767.021 100.4 L
S
GR
GS
[0.75 0 0 0.75 0 0] CT
1 LJ
0.667 LW
N
855.582 206 M
855.582 100.4 L
S
GR
GS
[0.75 0 0 0.75 0 0] CT
1 LJ
0.667 LW
N
941.793 206 M
941.793 100.4 L
S
GR
GS
[0.75 0 0 0.75 425.25 75] CT
/Helvetica 10.667 F
GS
[1 0 0 1 0 0] CT
0 0 moveto 
1 -1 scale
(2) t 
GR
GR
GS
[0.75 0 0 0.75 430.5 70.5] CT
/Helvetica 13.333 F
GS
[1 0 0 1 0 0] CT
0 0 moveto 
1 -1 scale
(S) t 
GR
GR
GS
[0.75 0 0 0.75 437.25 75] CT
/Helvetica 10.667 F
GS
[1 0 0 1 0 0] CT
0 0 moveto 
1 -1 scale
(0) t 
GR
GR
GS
[0.75 0 0 0.75 497.25 75] CT
/Helvetica 10.667 F
GS
[1 0 0 1 0 0] CT
0 0 moveto 
1 -1 scale
(2) t 
GR
GR
GS
[0.75 0 0 0.75 502.5 70.5] CT
/Helvetica 13.333 F
GS
[1 0 0 1 0 0] CT
0 0 moveto 
1 -1 scale
(S) t 
GR
GR
GS
[0.75 0 0 0.75 509.25 75] CT
/Helvetica 10.667 F
GS
[1 0 0 1 0 0] CT
0 0 moveto 
1 -1 scale
(1) t 
GR
GR
GS
[0.75 0 0 0.75 566.25 75] CT
/Helvetica 10.667 F
GS
[1 0 0 1 0 0] CT
0 0 moveto 
1 -1 scale
(2) t 
GR
GR
GS
[0.75 0 0 0.75 571.5 70.5] CT
/Helvetica 13.333 F
GS
[1 0 0 1 0 0] CT
0 0 moveto 
1 -1 scale
(S) t 
GR
GR
GS
[0.75 0 0 0.75 578.25 75] CT
/Helvetica 10.667 F
GS
[1 0 0 1 0 0] CT
0 0 moveto 
1 -1 scale
(2) t 
GR
GR
GS
[0.75 0 0 0.75 633 75] CT
/Helvetica 10.667 F
GS
[1 0 0 1 0 0] CT
0 0 moveto 
1 -1 scale
(2) t 
GR
GR
GS
[0.75 0 0 0.75 638.25 70.5] CT
/Helvetica 13.333 F
GS
[1 0 0 1 0 0] CT
0 0 moveto 
1 -1 scale
(S) t 
GR
GR
GS
[0.75 0 0 0.75 645 75] CT
/Helvetica 10.667 F
GS
[1 0 0 1 0 0] CT
0 0 moveto 
1 -1 scale
(3) t 
GR
GR
GS
[0.75 0 0 0.75 697.5 75] CT
/Helvetica 10.667 F
GS
[1 0 0 1 0 0] CT
0 0 moveto 
1 -1 scale
(2) t 
GR
GR
GS
[0.75 0 0 0.75 702.75 70.5] CT
/Helvetica 13.333 F
GS
[1 0 0 1 0 0] CT
0 0 moveto 
1 -1 scale
(S) t 
GR
GR
GS
[0.75 0 0 0.75 709.5 75] CT
/Helvetica 10.667 F
GS
[1 0 0 1 0 0] CT
0 0 moveto 
1 -1 scale
(4) t 
GR
GR
GS
[0.75 0 0 0.75 760.5 75] CT
/Helvetica 10.667 F
GS
[1 0 0 1 0 0] CT
0 0 moveto 
1 -1 scale
(2) t 
GR
GR
GS
[0.75 0 0 0.75 765.75 70.5] CT
/Helvetica 13.333 F
GS
[1 0 0 1 0 0] CT
0 0 moveto 
1 -1 scale
(S) t 
GR
GR
GS
[0.75 0 0 0.75 772.5 75] CT
/Helvetica 10.667 F
GS
[1 0 0 1 0 0] CT
0 0 moveto 
1 -1 scale
(5) t 
GR
GR
GS
[0.75 0 0 0.75 822.75 75] CT
/Helvetica 10.667 F
GS
[1 0 0 1 0 0] CT
0 0 moveto 
1 -1 scale
(2) t 
GR
GR
GS
[0.75 0 0 0.75 828 70.5] CT
/Helvetica 13.333 F
GS
[1 0 0 1 0 0] CT
0 0 moveto 
1 -1 scale
(S) t 
GR
GR
GS
[0.75 0 0 0.75 834.75 75] CT
/Helvetica 10.667 F
GS
[1 0 0 1 0 0] CT
0 0 moveto 
1 -1 scale
(6) t 
GR
GR
GS
[0.75 0 0 0.75 589.4539 68.7] CT
10.0 ML
N
0 5.332 M
-4.618 -2.666 L
4.618 -2.666 L
cp
S
GR
GS
[0.75 0 0 0.75 662.78796 68.7] CT
10.0 ML
N
0 5.332 M
-4.618 -2.666 L
4.618 -2.666 L
cp
S
GR
GS
[0.75 0 0 0.75 733.255 68.7] CT
10.0 ML
N
0 5.332 M
-4.618 -2.666 L
4.618 -2.666 L
cp
S
GR
GS
[0.75 0 0 0.75 0 0] CT
1 LJ
0.667 LW
N
785.939 206 M
785.939 91.6 L
S
GR
GS
[0.75 0 0 0.75 0 0] CT
1 LJ
0.667 LW
N
883.717 206 M
883.717 91.6 L
S
GR
GS
[0.75 0 0 0.75 0 0] CT
1 LJ
0.667 LW
N
977.673 206 M
977.673 91.6 L
S
GR
GS
[0.75 0 0 0.75 580.5 68.25] CT
/Helvetica 10.667 F
GS
[1 0 0 1 0 0] CT
0 0 moveto 
1 -1 scale
(3) t 
GR
GR
GS
[0.75 0 0 0.75 585.75 63.75] CT
/Helvetica 13.333 F
GS
[1 0 0 1 0 0] CT
0 0 moveto 
1 -1 scale
(S) t 
GR
GR
GS
[0.75 0 0 0.75 592.5 68.25] CT
/Helvetica 10.667 F
GS
[1 0 0 1 0 0] CT
0 0 moveto 
1 -1 scale
(0) t 
GR
GR
GS
[0.75 0 0 0.75 654 68.25] CT
/Helvetica 10.667 F
GS
[1 0 0 1 0 0] CT
0 0 moveto 
1 -1 scale
(3) t 
GR
GR
GS
[0.75 0 0 0.75 659.25 63.75] CT
/Helvetica 13.333 F
GS
[1 0 0 1 0 0] CT
0 0 moveto 
1 -1 scale
(S) t 
GR
GR
GS
[0.75 0 0 0.75 666 68.25] CT
/Helvetica 10.667 F
GS
[1 0 0 1 0 0] CT
0 0 moveto 
1 -1 scale
(1) t 
GR
GR
GS
[0.75 0 0 0.75 724.5 68.25] CT
/Helvetica 10.667 F
GS
[1 0 0 1 0 0] CT
0 0 moveto 
1 -1 scale
(3) t 
GR
GR
GS
[0.75 0 0 0.75 729.75 63.75] CT
/Helvetica 13.333 F
GS
[1 0 0 1 0 0] CT
0 0 moveto 
1 -1 scale
(S) t 
GR
GR
GS
[0.75 0 0 0.75 736.5 68.25] CT
/Helvetica 10.667 F
GS
[1 0 0 1 0 0] CT
0 0 moveto 
1 -1 scale
(2) t 
GR
GR
GS
[0.75 0 0 0.75 792.75 68.25] CT
/Helvetica 10.667 F
GS
[1 0 0 1 0 0] CT
0 0 moveto 
1 -1 scale
(3) t 
GR
GR
GS
[0.75 0 0 0.75 798 63.75] CT
/Helvetica 13.333 F
GS
[1 0 0 1 0 0] CT
0 0 moveto 
1 -1 scale
(S) t 
GR
GR
GS
[0.75 0 0 0.75 804.75 68.25] CT
/Helvetica 10.667 F
GS
[1 0 0 1 0 0] CT
0 0 moveto 
1 -1 scale
(3) t 
GR
GR
GS
[0.75 0 0 0.75 744.01236 62.1] CT
10.0 ML
N
-3 -3 M
-3 3 L
3 3 L
3 -3 L
cp
S
GR
GS
[0.75 0 0 0.75 0 0] CT
1 LJ
0.667 LW
N
992.016 206 M
992.016 82.8 L
S
GR
GS
[0.75 0 0 0.75 735 61.5] CT
/Helvetica 10.667 F
GS
[1 0 0 1 0 0] CT
0 0 moveto 
1 -1 scale
(4) t 
GR
GR
GS
[0.75 0 0 0.75 740.25 57] CT
/Helvetica 13.333 F
GS
[1 0 0 1 0 0] CT
0 0 moveto 
1 -1 scale
(S) t 
GR
GR
GS
[0.75 0 0 0.75 747 61.5] CT
/Helvetica 10.667 F
GS
[1 0 0 1 0 0] CT
0 0 moveto 
1 -1 scale
(0) t 
GR
GR
GS
[0.75 0 0 0.75 809.25 61.5] CT
/Helvetica 10.667 F
GS
[1 0 0 1 0 0] CT
0 0 moveto 
1 -1 scale
(4) t 
GR
GR
GS
[0.75 0 0 0.75 814.5 57] CT
/Helvetica 13.333 F
GS
[1 0 0 1 0 0] CT
0 0 moveto 
1 -1 scale
(S) t 
GR
GR
GS
[0.75 0 0 0.75 821.25 61.5] CT
/Helvetica 10.667 F
GS
[1 0 0 1 0 0] CT
0 0 moveto 
1 -1 scale
(1) t 
GR
GR
GS
[0.75 0 0 0.75 0 0] CT
1 GC
N
146 418 M
1018 418 L
1018 287 L
146 287 L
cp
f
GR
GS
[0.75 0 0 0.75 0 0] CT
0.149 GC
2 setlinecap
1 LJ
0.667 LW
N
146 418 M
1018 418 L
S
GR
GS
[0.75 0 0 0.75 0 0] CT
0.149 GC
2 setlinecap
1 LJ
0.667 LW
N
146 287 M
1018 287 L
S
GR
GS
[0.75 0 0 0.75 0 0] CT
0.149 GC
2 setlinecap
1 LJ
0.667 LW
N
146 418 M
146 409.28 L
S
GR
GS
[0.75 0 0 0.75 0 0] CT
0.149 GC
2 setlinecap
1 LJ
0.667 LW
N
233.2 418 M
233.2 409.28 L
S
GR
GS
[0.75 0 0 0.75 0 0] CT
0.149 GC
2 setlinecap
1 LJ
0.667 LW
N
320.4 418 M
320.4 409.28 L
S
GR
GS
[0.75 0 0 0.75 0 0] CT
0.149 GC
2 setlinecap
1 LJ
0.667 LW
N
407.6 418 M
407.6 409.28 L
S
GR
GS
[0.75 0 0 0.75 0 0] CT
0.149 GC
2 setlinecap
1 LJ
0.667 LW
N
494.8 418 M
494.8 409.28 L
S
GR
GS
[0.75 0 0 0.75 0 0] CT
0.149 GC
2 setlinecap
1 LJ
0.667 LW
N
582 418 M
582 409.28 L
S
GR
GS
[0.75 0 0 0.75 0 0] CT
0.149 GC
2 setlinecap
1 LJ
0.667 LW
N
669.2 418 M
669.2 409.28 L
S
GR
GS
[0.75 0 0 0.75 0 0] CT
0.149 GC
2 setlinecap
1 LJ
0.667 LW
N
756.4 418 M
756.4 409.28 L
S
GR
GS
[0.75 0 0 0.75 0 0] CT
0.149 GC
2 setlinecap
1 LJ
0.667 LW
N
843.6 418 M
843.6 409.28 L
S
GR
GS
[0.75 0 0 0.75 0 0] CT
0.149 GC
2 setlinecap
1 LJ
0.667 LW
N
930.8 418 M
930.8 409.28 L
S
GR
GS
[0.75 0 0 0.75 0 0] CT
0.149 GC
2 setlinecap
1 LJ
0.667 LW
N
1018 418 M
1018 409.28 L
S
GR
GS
[0.75 0 0 0.75 0 0] CT
0.149 GC
2 setlinecap
1 LJ
0.667 LW
N
146 287 M
146 295.72 L
S
GR
GS
[0.75 0 0 0.75 0 0] CT
0.149 GC
2 setlinecap
1 LJ
0.667 LW
N
233.2 287 M
233.2 295.72 L
S
GR
GS
[0.75 0 0 0.75 0 0] CT
0.149 GC
2 setlinecap
1 LJ
0.667 LW
N
320.4 287 M
320.4 295.72 L
S
GR
GS
[0.75 0 0 0.75 0 0] CT
0.149 GC
2 setlinecap
1 LJ
0.667 LW
N
407.6 287 M
407.6 295.72 L
S
GR
GS
[0.75 0 0 0.75 0 0] CT
0.149 GC
2 setlinecap
1 LJ
0.667 LW
N
494.8 287 M
494.8 295.72 L
S
GR
GS
[0.75 0 0 0.75 0 0] CT
0.149 GC
2 setlinecap
1 LJ
0.667 LW
N
582 287 M
582 295.72 L
S
GR
GS
[0.75 0 0 0.75 0 0] CT
0.149 GC
2 setlinecap
1 LJ
0.667 LW
N
669.2 287 M
669.2 295.72 L
S
GR
GS
[0.75 0 0 0.75 0 0] CT
0.149 GC
2 setlinecap
1 LJ
0.667 LW
N
756.4 287 M
756.4 295.72 L
S
GR
GS
[0.75 0 0 0.75 0 0] CT
0.149 GC
2 setlinecap
1 LJ
0.667 LW
N
843.6 287 M
843.6 295.72 L
S
GR
GS
[0.75 0 0 0.75 0 0] CT
0.149 GC
2 setlinecap
1 LJ
0.667 LW
N
930.8 287 M
930.8 295.72 L
S
GR
GS
[0.75 0 0 0.75 0 0] CT
0.149 GC
2 setlinecap
1 LJ
0.667 LW
N
1018 287 M
1018 295.72 L
S
GR
GS
[0.75 0 0 0.75 109.5 316.89999] CT
0.149 GC
/Helvetica 12.667 F
GS
[1 0 0 1 0 0] CT
-16.5 12 moveto 
1 -1 scale
(2320) t 
GR
GR
GS
[0.75 0 0 0.75 174.9 316.89999] CT
0.149 GC
/Helvetica 12.667 F
GS
[1 0 0 1 0 0] CT
-16.5 12 moveto 
1 -1 scale
(2330) t 
GR
GR
GS
[0.75 0 0 0.75 240.3 316.89999] CT
0.149 GC
/Helvetica 12.667 F
GS
[1 0 0 1 0 0] CT
-16.5 12 moveto 
1 -1 scale
(2340) t 
GR
GR
GS
[0.75 0 0 0.75 305.7 316.89999] CT
0.149 GC
/Helvetica 12.667 F
GS
[1 0 0 1 0 0] CT
-16.5 12 moveto 
1 -1 scale
(2350) t 
GR
GR
GS
[0.75 0 0 0.75 371.09999 316.89999] CT
0.149 GC
/Helvetica 12.667 F
GS
[1 0 0 1 0 0] CT
-16.5 12 moveto 
1 -1 scale
(2360) t 
GR
GR
GS
[0.75 0 0 0.75 436.5 316.89999] CT
0.149 GC
/Helvetica 12.667 F
GS
[1 0 0 1 0 0] CT
-16.5 12 moveto 
1 -1 scale
(2370) t 
GR
GR
GS
[0.75 0 0 0.75 501.90001 316.89999] CT
0.149 GC
/Helvetica 12.667 F
GS
[1 0 0 1 0 0] CT
-16.5 12 moveto 
1 -1 scale
(2380) t 
GR
GR
GS
[0.75 0 0 0.75 567.30002 316.89999] CT
0.149 GC
/Helvetica 12.667 F
GS
[1 0 0 1 0 0] CT
-16.5 12 moveto 
1 -1 scale
(2390) t 
GR
GR
GS
[0.75 0 0 0.75 632.69998 316.89999] CT
0.149 GC
/Helvetica 12.667 F
GS
[1 0 0 1 0 0] CT
-16.5 12 moveto 
1 -1 scale
(2400) t 
GR
GR
GS
[0.75 0 0 0.75 698.09999 316.89999] CT
0.149 GC
/Helvetica 12.667 F
GS
[1 0 0 1 0 0] CT
-16.5 12 moveto 
1 -1 scale
(2410) t 
GR
GR
GS
[0.75 0 0 0.75 763.5 316.89999] CT
0.149 GC
/Helvetica 12.667 F
GS
[1 0 0 1 0 0] CT
-16.5 12 moveto 
1 -1 scale
(2420) t 
GR
GR
GS
[0.75 0 0 0.75 436.5 328.89999] CT
0.149 GC
/Helvetica 13.933 F
GS
[1 0 0 1 0 0] CT
-73.5 13 moveto 
1 -1 scale
(mode frequency \(Hz\)) t 
GR
GR
GS
[0.75 0 0 0.75 0 0] CT
0.149 GC
2 setlinecap
1 LJ
0.667 LW
N
146 418 M
146 287 L
S
GR
GS
[0.75 0 0 0.75 0 0] CT
0.149 GC
2 setlinecap
1 LJ
0.667 LW
N
1018 418 M
1018 287 L
S
GR
GS
[0.75 0 0 0.75 0 0] CT
0.149 GC
2 setlinecap
1 LJ
0.667 LW
N
146 418 M
154.72 418 L
S
GR
GS
[0.75 0 0 0.75 0 0] CT
0.149 GC
2 setlinecap
1 LJ
0.667 LW
N
146 363.417 M
154.72 363.417 L
S
GR
GS
[0.75 0 0 0.75 0 0] CT
0.149 GC
2 setlinecap
1 LJ
0.667 LW
N
146 308.833 M
154.72 308.833 L
S
GR
GS
[0.75 0 0 0.75 0 0] CT
0.149 GC
2 setlinecap
1 LJ
0.667 LW
N
1018 418 M
1009.28 418 L
S
GR
GS
[0.75 0 0 0.75 0 0] CT
0.149 GC
2 setlinecap
1 LJ
0.667 LW
N
1018 363.417 M
1009.28 363.417 L
S
GR
GS
[0.75 0 0 0.75 0 0] CT
0.149 GC
2 setlinecap
1 LJ
0.667 LW
N
1018 308.833 M
1009.28 308.833 L
S
GR
GS
[0.75 0 0 0.75 106.10067 313.5] CT
0.149 GC
/Helvetica 12.667 F
GS
[1 0 0 1 0 0] CT
-9 4.5 moveto 
1 -1 scale
(0) t 
GR
GR
GS
[0.75 0 0 0.75 106.10067 272.56249] CT
0.149 GC
/Helvetica 12.667 F
GS
[1 0 0 1 0 0] CT
-9 4.5 moveto 
1 -1 scale
(5) t 
GR
GR
GS
[0.75 0 0 0.75 106.10067 231.62501] CT
0.149 GC
/Helvetica 12.667 F
GS
[1 0 0 1 0 0] CT
-17 4.5 moveto 
1 -1 scale
(10) t 
GR
GR
GS
[0 -0.75 0.75 0 90.85078 264.37495] CT
0.149 GC
/Helvetica 13.933 F
GS
[1 0 0 1 0 0] CT
-52.5 -4 moveto 
1 -1 scale
(fake amplitude) t 
GR
GR
GS
[0.75 0 0 0.75 250.5 206.25] CT
/Helvetica-Bold 13.933 F
GS
[1 0 0 1 0 0] CT
0 0 moveto 
1 -1 scale
(ellipticity = 0.05 and global rotation-split singlets for f) t 
GR
GR
GS
[0.75 0 0 0.75 573.75 210.75] CT
/Helvetica-Bold 11.147 F
GS
[1 0 0 1 0 0] CT
0 0 moveto 
1 -1 scale
(o) t 
GR
GR
GS
[0.75 0 0 0.75 579.75 206.25] CT
/Helvetica-Bold 13.933 F
GS
[1 0 0 1 0 0] CT
0 0 moveto 
1 -1 scale
( = 0 Hz) t 
GR
GR
GS
[0.75 0 0 0.75 0 0] CT
0.149 GC
1 LJ
0.667 LW
N
146 418 M
1018 418 L
S
GR
GS
[0.75 0 0 0.75 605.27225 231.62501] CT
10.0 ML
N
-2.828 -2.828 M
2.828 2.828 L
-2.828 2.828 M
2.828 -2.828 L
S
GR
GS
[0.75 0 0 0.75 605.27225 231.62501] CT
10.0 ML
N
-2.828 -2.828 M
2.828 2.828 L
-2.828 2.828 M
2.828 -2.828 L
S
GR
GS
[0.75 0 0 0.75 0 0] CT
1 LJ
0.667 LW
N
807.03 418 M
807.03 308.833 L
S
GR
GS
[0.75 0 0 0.75 0 0] CT
1 LJ
0.667 LW
N
807.03 418 M
807.03 308.833 L
S
GR
GS
[0.75 0 0 0.75 569.09628 235.71874] CT
0 0 1 RC
10.0 ML
N
-2.828 -2.828 M
2.828 2.828 L
-2.828 2.828 M
2.828 -2.828 L
S
GR
GS
[0.75 0 0 0.75 569.09628 235.71874] CT
0 0 1 RC
10.0 ML
N
-2.828 -2.828 M
2.828 2.828 L
-2.828 2.828 M
2.828 -2.828 L
S
GR
GS
[0.75 0 0 0.75 0 0] CT
0 0 1 RC
1 LJ
0.667 LW
N
758.795 418 M
758.795 314.292 L
S
GR
GS
[0.75 0 0 0.75 0 0] CT
0 0 1 RC
1 LJ
0.667 LW
N
758.795 418 M
758.795 314.292 L
S
GR
GS
[0.75 0 0 0.75 460.56995 239.8125] CT
1 0 0 RC
10.0 ML
N
-2.828 -2.828 M
2.828 2.828 L
-2.828 2.828 M
2.828 -2.828 L
S
GR
GS
[0.75 0 0 0.75 460.56995 239.8125] CT
1 0 0 RC
10.0 ML
N
-2.828 -2.828 M
2.828 2.828 L
-2.828 2.828 M
2.828 -2.828 L
S
GR
GS
[0.75 0 0 0.75 0 0] CT
1 0 0 RC
1 LJ
0.667 LW
N
614.093 418 M
614.093 319.75 L
S
GR
GS
[0.75 0 0 0.75 0 0] CT
1 0 0 RC
1 LJ
0.667 LW
N
614.093 418 M
614.093 319.75 L
S
GR
GS
[0.75 0 0 0.75 279.69328 243.90626] CT
1 0 1 RC
10.0 ML
N
-2.828 -2.828 M
2.828 2.828 L
-2.828 2.828 M
2.828 -2.828 L
S
GR
GS
[0.75 0 0 0.75 279.69328 243.90626] CT
1 0 1 RC
10.0 ML
N
-2.828 -2.828 M
2.828 2.828 L
-2.828 2.828 M
2.828 -2.828 L
S
GR
GS
[0.75 0 0 0.75 0 0] CT
1 0 1 RC
1 LJ
0.667 LW
N
372.924 418 M
372.924 325.208 L
S
GR
GS
[0.75 0 0 0.75 0 0] CT
1 0 1 RC
1 LJ
0.667 LW
N
372.924 418 M
372.924 325.208 L
S
GR
GS
[0.75 0 0 0.75 0 0] CT
1 GC
N
146 630 M
1018 630 L
1018 499 L
146 499 L
cp
f
GR
GS
[0.75 0 0 0.75 0 0] CT
0.149 GC
2 setlinecap
1 LJ
0.667 LW
N
146 630 M
1018 630 L
S
GR
GS
[0.75 0 0 0.75 0 0] CT
0.149 GC
2 setlinecap
1 LJ
0.667 LW
N
146 499 M
1018 499 L
S
GR
GS
[0.75 0 0 0.75 0 0] CT
0.149 GC
2 setlinecap
1 LJ
0.667 LW
N
146 630 M
146 621.28 L
S
GR
GS
[0.75 0 0 0.75 0 0] CT
0.149 GC
2 setlinecap
1 LJ
0.667 LW
N
233.2 630 M
233.2 621.28 L
S
GR
GS
[0.75 0 0 0.75 0 0] CT
0.149 GC
2 setlinecap
1 LJ
0.667 LW
N
320.4 630 M
320.4 621.28 L
S
GR
GS
[0.75 0 0 0.75 0 0] CT
0.149 GC
2 setlinecap
1 LJ
0.667 LW
N
407.6 630 M
407.6 621.28 L
S
GR
GS
[0.75 0 0 0.75 0 0] CT
0.149 GC
2 setlinecap
1 LJ
0.667 LW
N
494.8 630 M
494.8 621.28 L
S
GR
GS
[0.75 0 0 0.75 0 0] CT
0.149 GC
2 setlinecap
1 LJ
0.667 LW
N
582 630 M
582 621.28 L
S
GR
GS
[0.75 0 0 0.75 0 0] CT
0.149 GC
2 setlinecap
1 LJ
0.667 LW
N
669.2 630 M
669.2 621.28 L
S
GR
GS
[0.75 0 0 0.75 0 0] CT
0.149 GC
2 setlinecap
1 LJ
0.667 LW
N
756.4 630 M
756.4 621.28 L
S
GR
GS
[0.75 0 0 0.75 0 0] CT
0.149 GC
2 setlinecap
1 LJ
0.667 LW
N
843.6 630 M
843.6 621.28 L
S
GR
GS
[0.75 0 0 0.75 0 0] CT
0.149 GC
2 setlinecap
1 LJ
0.667 LW
N
930.8 630 M
930.8 621.28 L
S
GR
GS
[0.75 0 0 0.75 0 0] CT
0.149 GC
2 setlinecap
1 LJ
0.667 LW
N
1018 630 M
1018 621.28 L
S
GR
GS
[0.75 0 0 0.75 0 0] CT
0.149 GC
2 setlinecap
1 LJ
0.667 LW
N
146 499 M
146 507.72 L
S
GR
GS
[0.75 0 0 0.75 0 0] CT
0.149 GC
2 setlinecap
1 LJ
0.667 LW
N
233.2 499 M
233.2 507.72 L
S
GR
GS
[0.75 0 0 0.75 0 0] CT
0.149 GC
2 setlinecap
1 LJ
0.667 LW
N
320.4 499 M
320.4 507.72 L
S
GR
GS
[0.75 0 0 0.75 0 0] CT
0.149 GC
2 setlinecap
1 LJ
0.667 LW
N
407.6 499 M
407.6 507.72 L
S
GR
GS
[0.75 0 0 0.75 0 0] CT
0.149 GC
2 setlinecap
1 LJ
0.667 LW
N
494.8 499 M
494.8 507.72 L
S
GR
GS
[0.75 0 0 0.75 0 0] CT
0.149 GC
2 setlinecap
1 LJ
0.667 LW
N
582 499 M
582 507.72 L
S
GR
GS
[0.75 0 0 0.75 0 0] CT
0.149 GC
2 setlinecap
1 LJ
0.667 LW
N
669.2 499 M
669.2 507.72 L
S
GR
GS
[0.75 0 0 0.75 0 0] CT
0.149 GC
2 setlinecap
1 LJ
0.667 LW
N
756.4 499 M
756.4 507.72 L
S
GR
GS
[0.75 0 0 0.75 0 0] CT
0.149 GC
2 setlinecap
1 LJ
0.667 LW
N
843.6 499 M
843.6 507.72 L
S
GR
GS
[0.75 0 0 0.75 0 0] CT
0.149 GC
2 setlinecap
1 LJ
0.667 LW
N
930.8 499 M
930.8 507.72 L
S
GR
GS
[0.75 0 0 0.75 0 0] CT
0.149 GC
2 setlinecap
1 LJ
0.667 LW
N
1018 499 M
1018 507.72 L
S
GR
GS
[0.75 0 0 0.75 109.5 475.89999] CT
0.149 GC
/Helvetica 12.667 F
GS
[1 0 0 1 0 0] CT
-16.5 12 moveto 
1 -1 scale
(2320) t 
GR
GR
GS
[0.75 0 0 0.75 174.9 475.89999] CT
0.149 GC
/Helvetica 12.667 F
GS
[1 0 0 1 0 0] CT
-16.5 12 moveto 
1 -1 scale
(2330) t 
GR
GR
GS
[0.75 0 0 0.75 240.3 475.89999] CT
0.149 GC
/Helvetica 12.667 F
GS
[1 0 0 1 0 0] CT
-16.5 12 moveto 
1 -1 scale
(2340) t 
GR
GR
GS
[0.75 0 0 0.75 305.7 475.89999] CT
0.149 GC
/Helvetica 12.667 F
GS
[1 0 0 1 0 0] CT
-16.5 12 moveto 
1 -1 scale
(2350) t 
GR
GR
GS
[0.75 0 0 0.75 371.09999 475.89999] CT
0.149 GC
/Helvetica 12.667 F
GS
[1 0 0 1 0 0] CT
-16.5 12 moveto 
1 -1 scale
(2360) t 
GR
GR
GS
[0.75 0 0 0.75 436.5 475.89999] CT
0.149 GC
/Helvetica 12.667 F
GS
[1 0 0 1 0 0] CT
-16.5 12 moveto 
1 -1 scale
(2370) t 
GR
GR
GS
[0.75 0 0 0.75 501.90001 475.89999] CT
0.149 GC
/Helvetica 12.667 F
GS
[1 0 0 1 0 0] CT
-16.5 12 moveto 
1 -1 scale
(2380) t 
GR
GR
GS
[0.75 0 0 0.75 567.30002 475.89999] CT
0.149 GC
/Helvetica 12.667 F
GS
[1 0 0 1 0 0] CT
-16.5 12 moveto 
1 -1 scale
(2390) t 
GR
GR
GS
[0.75 0 0 0.75 632.69998 475.89999] CT
0.149 GC
/Helvetica 12.667 F
GS
[1 0 0 1 0 0] CT
-16.5 12 moveto 
1 -1 scale
(2400) t 
GR
GR
GS
[0.75 0 0 0.75 698.09999 475.89999] CT
0.149 GC
/Helvetica 12.667 F
GS
[1 0 0 1 0 0] CT
-16.5 12 moveto 
1 -1 scale
(2410) t 
GR
GR
GS
[0.75 0 0 0.75 763.5 475.89999] CT
0.149 GC
/Helvetica 12.667 F
GS
[1 0 0 1 0 0] CT
-16.5 12 moveto 
1 -1 scale
(2420) t 
GR
GR
GS
[0.75 0 0 0.75 436.5 487.89999] CT
0.149 GC
/Helvetica 13.933 F
GS
[1 0 0 1 0 0] CT
-73.5 13 moveto 
1 -1 scale
(mode frequency \(Hz\)) t 
GR
GR
GS
[0.75 0 0 0.75 0 0] CT
0.149 GC
2 setlinecap
1 LJ
0.667 LW
N
146 630 M
146 499 L
S
GR
GS
[0.75 0 0 0.75 0 0] CT
0.149 GC
2 setlinecap
1 LJ
0.667 LW
N
1018 630 M
1018 499 L
S
GR
GS
[0.75 0 0 0.75 0 0] CT
0.149 GC
2 setlinecap
1 LJ
0.667 LW
N
146 630 M
154.72 630 L
S
GR
GS
[0.75 0 0 0.75 0 0] CT
0.149 GC
2 setlinecap
1 LJ
0.667 LW
N
146 586.333 M
154.72 586.333 L
S
GR
GS
[0.75 0 0 0.75 0 0] CT
0.149 GC
2 setlinecap
1 LJ
0.667 LW
N
146 542.667 M
154.72 542.667 L
S
GR
GS
[0.75 0 0 0.75 0 0] CT
0.149 GC
2 setlinecap
1 LJ
0.667 LW
N
146 499 M
154.72 499 L
S
GR
GS
[0.75 0 0 0.75 0 0] CT
0.149 GC
2 setlinecap
1 LJ
0.667 LW
N
1018 630 M
1009.28 630 L
S
GR
GS
[0.75 0 0 0.75 0 0] CT
0.149 GC
2 setlinecap
1 LJ
0.667 LW
N
1018 586.333 M
1009.28 586.333 L
S
GR
GS
[0.75 0 0 0.75 0 0] CT
0.149 GC
2 setlinecap
1 LJ
0.667 LW
N
1018 542.667 M
1009.28 542.667 L
S
GR
GS
[0.75 0 0 0.75 0 0] CT
0.149 GC
2 setlinecap
1 LJ
0.667 LW
N
1018 499 M
1009.28 499 L
S
GR
GS
[0.75 0 0 0.75 106.10067 472.5] CT
0.149 GC
/Helvetica 12.667 F
GS
[1 0 0 1 0 0] CT
-9 4.5 moveto 
1 -1 scale
(0) t 
GR
GR
GS
[0.75 0 0 0.75 106.10067 439.74998] CT
0.149 GC
/Helvetica 12.667 F
GS
[1 0 0 1 0 0] CT
-29 4.5 moveto 
1 -1 scale
(0.05) t 
GR
GR
GS
[0.75 0 0 0.75 106.10067 407.00002] CT
0.149 GC
/Helvetica 12.667 F
GS
[1 0 0 1 0 0] CT
-21 4.5 moveto 
1 -1 scale
(0.1) t 
GR
GR
GS
[0.75 0 0 0.75 106.10067 374.25] CT
0.149 GC
/Helvetica 12.667 F
GS
[1 0 0 1 0 0] CT
-29 4.5 moveto 
1 -1 scale
(0.15) t 
GR
GR
GS
[0 -0.75 0.75 0 81.8503 423.37495] CT
0.149 GC
/Helvetica 13.933 F
GS
[1 0 0 1 0 0] CT
-68 -4 moveto 
1 -1 scale
(pressure amplitude) t 
GR
GR
GS
[0.75 0 0 0.75 183.75 352.5] CT
/Helvetica-Bold 13.933 F
GS
[1 0 0 1 0 0] CT
0 0 moveto 
1 -1 scale
(Lorentzian spectra for ellipticity = 0.05 and global rotation-split singlets for f) t 
GR
GR
GS
[0.75 0 0 0.75 641.25 357] CT
/Helvetica-Bold 11.147 F
GS
[1 0 0 1 0 0] CT
0 0 moveto 
1 -1 scale
(o) t 
GR
GR
GS
[0.75 0 0 0.75 647.25 352.5] CT
/Helvetica-Bold 13.933 F
GS
[1 0 0 1 0 0] CT
0 0 moveto 
1 -1 scale
( = 0 Hz) t 
GR
GR
GS
[0.75 0 0 0.75 354.75 369] CT
/Helvetica-Bold 13.933 F
GS
[1 0 0 1 0 0] CT
0 0 moveto 
1 -1 scale
(HP at lat 45, micro at lat 32) t 
GR
GR
GS
[0.75 0 0 0.75 0 0] CT
0 0.447 0.741 RC
1 LJ
0.667 LW
N
145.896 627.213 M
146 627.213 L
146.873 627.211 L
147.744 627.209 L
148.616 627.207 L
149.487 627.205 L
150.36 627.203 L
151.233 627.201 L
152.104 627.199 L
152.976 627.197 L
153.847 627.195 L
154.72 627.193 L
155.593 627.191 L
156.464 627.189 L
157.336 627.186 L
158.207 627.184 L
159.08 627.182 L
159.953 627.18 L
160.824 627.178 L
161.696 627.176 L
162.567 627.174 L
163.44 627.172 L
164.313 627.169 L
165.184 627.167 L
166.056 627.165 L
166.927 627.163 L
167.8 627.16 L
168.673 627.158 L
169.544 627.156 L
170.416 627.154 L
171.287 627.151 L
172.16 627.149 L
173.033 627.147 L
173.904 627.144 L
174.776 627.142 L
175.647 627.14 L
176.52 627.137 L
177.393 627.135 L
178.264 627.132 L
179.136 627.13 L
180.007 627.127 L
180.88 627.125 L
181.753 627.122 L
182.624 627.12 L
183.496 627.117 L
184.367 627.115 L
185.24 627.112 L
186.113 627.11 L
186.984 627.107 L
187.856 627.104 L
188.727 627.102 L
189.6 627.099 L
190.473 627.097 L
191.344 627.094 L
192.216 627.091 L
193.087 627.088 L
193.96 627.086 L
194.833 627.083 L
195.704 627.08 L
196.576 627.077 L
197.447 627.074 L
198.32 627.072 L
199.193 627.069 L
200.064 627.066 L
200.936 627.063 L
201.807 627.06 L
202.68 627.057 L
203.553 627.054 L
204.424 627.051 L
205.296 627.048 L
206.167 627.045 L
207.04 627.042 L
207.913 627.039 L
208.784 627.036 L
209.656 627.032 L
210.527 627.029 L
211.4 627.026 L
212.273 627.023 L
213.144 627.019 L
214.016 627.016 L
214.887 627.013 L
215.76 627.01 L
216.633 627.006 L
217.504 627.003 L
218.376 626.999 L
219.247 626.996 L
220.12 626.992 L
220.993 626.989 L
221.864 626.985 L
222.736 626.982 L
223.607 626.978 L
224.48 626.974 L
225.353 626.971 L
226.224 626.967 L
227.096 626.963 L
227.967 626.96 L
228.84 626.956 L
229.713 626.952 L
230.584 626.948 L
231.456 626.944 L
232.327 626.94 L
233.2 626.936 L
234.073 626.932 L
234.944 626.928 L
235.816 626.924 L
236.687 626.92 L
237.56 626.916 L
238.433 626.911 L
239.304 626.907 L
240.176 626.903 L
241.047 626.899 L
241.92 626.894 L
242.793 626.89 L
243.664 626.885 L
244.536 626.881 L
245.407 626.876 L
246.28 626.872 L
247.153 626.867 L
248.024 626.862 L
248.896 626.857 L
249.767 626.853 L
250.64 626.848 L
251.513 626.843 L
252.384 626.838 L
253.256 626.833 L
254.127 626.828 L
255 626.823 L
255.873 626.817 L
256.744 626.812 L
257.616 626.807 L
258.487 626.801 L
259.36 626.796 L
260.233 626.79 L
261.104 626.785 L
261.976 626.779 L
262.847 626.773 L
263.72 626.768 L
264.593 626.762 L
265.464 626.756 L
266.336 626.75 L
267.207 626.744 L
268.08 626.737 L
268.953 626.731 L
269.824 626.725 L
270.696 626.718 L
271.567 626.712 L
272.44 626.705 L
273.313 626.699 L
274.184 626.692 L
275.056 626.685 L
275.927 626.678 L
276.8 626.671 L
277.673 626.664 L
278.544 626.656 L
279.416 626.649 L
280.287 626.641 L
281.16 626.634 L
282.033 626.626 L
282.904 626.618 L
283.776 626.61 L
284.647 626.602 L
285.52 626.594 L
286.393 626.585 L
287.264 626.577 L
288.136 626.568 L
289.007 626.559 L
289.88 626.55 L
290.753 626.541 L
291.624 626.532 L
292.496 626.522 L
293.367 626.513 L
294.24 626.503 L
295.113 626.493 L
295.984 626.483 L
296.856 626.472 L
297.727 626.462 L
298.6 626.451 L
299.473 626.44 L
300.344 626.429 L
301.216 626.417 L
302.087 626.406 L
302.96 626.394 L
303.833 626.381 L
304.704 626.369 L
305.576 626.356 L
306.447 626.343 L
307.32 626.33 L
308.193 626.316 L
309.064 626.302 L
309.936 626.288 L
310.807 626.273 L
311.68 626.258 L
312.553 626.242 L
313.424 626.226 L
314.296 626.21 L
315.167 626.193 L
316.04 626.176 L
316.913 626.159 L
317.784 626.141 L
318.656 626.122 L
319.527 626.103 L
320.4 626.083 L
321.273 626.062 L
322.144 626.041 L
323.016 626.019 L
323.887 625.997 L
324.76 625.974 L
325.633 625.95 L
326.504 625.925 L
327.376 625.899 L
328.247 625.873 L
329.12 625.845 L
329.993 625.816 L
330.864 625.786 L
331.736 625.755 L
332.607 625.723 L
333.48 625.689 L
334.353 625.654 L
335.224 625.617 L
336.096 625.579 L
336.967 625.539 L
337.84 625.497 L
338.713 625.452 L
339.584 625.406 L
340.456 625.357 L
341.327 625.305 L
342.2 625.251 L
343.073 625.193 L
343.944 625.132 L
344.816 625.067 L
345.687 624.998 L
346.56 624.924 L
347.433 624.845 L
348.304 624.76 L
349.176 624.669 L
350.047 624.571 L
350.92 624.465 L
351.793 624.35 L
352.664 624.225 L
353.536 624.088 L
354.407 623.937 L
355.28 623.771 L
356.153 623.586 L
357.024 623.38 L
357.896 623.149 L
358.767 622.886 L
359.64 622.587 L
360.513 622.242 L
361.384 621.84 L
362.256 621.366 L
363.127 620.8 L
364 620.11 L
364.873 619.255 L
365.744 618.17 L
366.616 616.754 L
367.487 614.85 L
368.36 612.207 L
369.233 608.474 L
370.104 603.481 L
370.976 598.769 L
371.847 598.781 L
372.72 603.496 L
373.593 608.476 L
374.464 612.196 L
375.336 614.827 L
376.207 616.721 L
377.08 618.127 L
377.953 619.203 L
378.824 620.049 L
379.696 620.73 L
380.567 621.289 L
381.44 621.755 L
382.313 622.149 L
383.184 622.486 L
384.056 622.777 L
384.927 623.032 L
385.8 623.256 L
386.673 623.454 L
387.544 623.631 L
388.416 623.789 L
389.287 623.932 L
390.16 624.062 L
391.033 624.179 L
391.904 624.286 L
392.776 624.385 L
393.647 624.475 L
394.52 624.558 L
395.393 624.635 L
396.264 624.706 L
397.136 624.772 L
398.007 624.833 L
398.88 624.89 L
399.753 624.944 L
400.624 624.993 L
401.496 625.04 L
402.367 625.084 L
403.24 625.125 L
404.113 625.163 L
404.984 625.2 L
405.856 625.234 L
406.727 625.266 L
407.6 625.296 L
408.473 625.325 L
409.344 625.352 L
410.216 625.378 L
411.087 625.402 L
411.96 625.425 L
412.833 625.447 L
413.704 625.467 L
414.576 625.487 L
415.447 625.505 L
416.32 625.523 L
417.193 625.539 L
418.064 625.555 L
418.936 625.57 L
419.807 625.584 L
420.68 625.597 L
421.553 625.61 L
422.424 625.622 L
423.296 625.633 L
424.167 625.644 L
425.04 625.654 L
425.913 625.663 L
426.784 625.672 L
427.656 625.681 L
428.527 625.689 L
429.4 625.696 L
430.273 625.703 L
431.144 625.71 L
432.016 625.716 L
432.887 625.722 L
433.76 625.727 L
434.633 625.732 L
435.504 625.737 L
436.376 625.741 L
437.247 625.745 L
438.12 625.748 L
438.993 625.752 L
439.864 625.755 L
440.736 625.757 L
441.607 625.76 L
442.48 625.762 L
443.353 625.763 L
444.224 625.765 L
445.096 625.766 L
445.967 625.767 L
446.84 625.767 L
447.713 625.768 L
448.584 625.768 L
449.456 625.768 L
450.327 625.768 L
451.2 625.767 L
452.073 625.766 L
452.944 625.765 L
453.816 625.764 L
454.687 625.762 L
455.56 625.761 L
456.433 625.759 L
457.304 625.757 L
458.176 625.754 L
459.047 625.752 L
459.92 625.749 L
460.793 625.746 L
461.664 625.743 L
462.536 625.739 L
463.407 625.736 L
464.28 625.732 L
465.153 625.728 L
466.024 625.724 L
466.896 625.719 L
467.767 625.715 L
468.64 625.71 L
469.513 625.705 L
470.384 625.7 L
471.256 625.695 L
472.127 625.689 L
473 625.684 L
473.873 625.678 L
474.744 625.672 L
475.616 625.665 L
476.487 625.659 L
477.36 625.652 L
478.233 625.645 L
479.104 625.638 L
479.976 625.631 L
480.847 625.623 L
481.72 625.616 L
482.593 625.608 L
483.464 625.6 L
484.336 625.591 L
485.207 625.583 L
486.08 625.574 L
486.953 625.565 L
487.824 625.556 L
488.696 625.547 L
489.567 625.538 L
490.44 625.528 L
491.313 625.518 L
492.184 625.508 L
493.056 625.497 L
493.927 625.487 L
494.8 625.476 L
495.673 625.465 L
496.544 625.453 L
497.416 625.442 L
498.287 625.43 L
499.16 625.418 L
500.033 625.405 L
500.904 625.393 L
501.776 625.38 L
502.647 625.367 L
503.52 625.354 L
504.393 625.34 L
505.264 625.326 L
506.136 625.312 L
507.007 625.297 L
507.88 625.282 L
508.753 625.267 L
509.624 625.252 L
510.496 625.236 L
511.367 625.22 L
512.24 625.204 L
513.113 625.187 L
513.984 625.17 L
514.856 625.152 L
515.727 625.135 L
516.6 625.116 L
517.473 625.098 L
518.344 625.079 L
519.216 625.06 L
520.087 625.04 L
520.96 625.02 L
521.833 624.999 L
522.704 624.978 L
523.576 624.957 L
524.447 624.935 L
525.32 624.913 L
526.193 624.89 L
527.064 624.866 L
527.936 624.842 L
528.807 624.818 L
529.68 624.793 L
530.553 624.768 L
531.424 624.741 L
532.296 624.715 L
533.167 624.688 L
534.04 624.66 L
534.913 624.631 L
535.784 624.602 L
536.656 624.572 L
537.527 624.541 L
538.4 624.51 L
539.273 624.477 L
540.144 624.444 L
541.016 624.41 L
541.887 624.376 L
542.76 624.34 L
543.633 624.304 L
544.504 624.266 L
545.376 624.228 L
546.247 624.188 L
547.12 624.148 L
547.993 624.106 L
548.864 624.063 L
549.736 624.019 L
550.607 623.974 L
551.48 623.928 L
552.353 623.88 L
553.224 623.83 L
554.096 623.779 L
554.967 623.727 L
555.84 623.673 L
556.713 623.617 L
557.584 623.56 L
558.456 623.501 L
559.327 623.439 L
560.2 623.376 L
561.073 623.311 L
561.944 623.243 L
562.816 623.173 L
563.687 623.1 L
564.56 623.025 L
565.433 622.947 L
566.304 622.866 L
567.176 622.782 L
568.047 622.694 L
568.92 622.603 L
569.793 622.509 L
570.664 622.41 L
571.536 622.307 L
572.407 622.2 L
573.28 622.088 L
574.153 621.971 L
575.024 621.849 L
575.896 621.72 L
576.767 621.586 L
577.64 621.445 L
578.513 621.296 L
579.384 621.14 L
580.256 620.975 L
581.127 620.801 L
582 620.617 L
582.873 620.422 L
583.744 620.215 L
584.616 619.995 L
585.487 619.762 L
586.36 619.512 L
587.233 619.245 L
588.104 618.96 L
588.976 618.652 L
589.847 618.321 L
590.72 617.964 L
591.593 617.577 L
592.464 617.155 L
593.336 616.695 L
594.207 616.192 L
595.08 615.637 L
595.953 615.024 L
596.824 614.342 L
597.696 613.58 L
598.567 612.722 L
599.44 611.749 L
600.313 610.637 L
601.184 609.354 L
602.056 607.858 L
602.927 606.092 L
603.8 603.978 L
604.673 601.404 L
605.544 598.21 L
606.416 594.151 L
607.287 588.855 L
608.16 581.727 L
609.033 571.827 L
609.904 557.842 L
610.776 539.134 L
611.647 521.48 L
612.52 521.534 L
613.393 539.225 L
614.264 557.908 L
615.136 571.864 L
616.007 581.741 L
616.88 588.852 L
617.753 594.135 L
618.624 598.181 L
619.496 601.367 L
620.367 603.932 L
621.24 606.038 L
622.113 607.796 L
622.984 609.285 L
623.856 610.56 L
624.727 611.665 L
625.6 612.631 L
626.473 613.482 L
627.344 614.238 L
628.216 614.913 L
629.087 615.52 L
629.96 616.068 L
630.833 616.565 L
631.704 617.018 L
632.576 617.433 L
633.447 617.814 L
634.32 618.165 L
635.193 618.489 L
636.064 618.79 L
636.936 619.069 L
637.807 619.329 L
638.68 619.572 L
639.553 619.799 L
640.424 620.012 L
641.296 620.212 L
642.167 620.4 L
643.04 620.577 L
643.913 620.744 L
644.784 620.902 L
645.656 621.052 L
646.527 621.193 L
647.4 621.328 L
648.273 621.455 L
649.144 621.576 L
650.016 621.692 L
650.887 621.801 L
651.76 621.906 L
652.633 622.006 L
653.504 622.101 L
654.376 622.192 L
655.247 622.279 L
656.12 622.363 L
656.993 622.442 L
657.864 622.519 L
658.736 622.592 L
659.607 622.662 L
660.48 622.729 L
661.353 622.794 L
662.224 622.856 L
663.096 622.915 L
663.967 622.973 L
664.84 623.027 L
665.713 623.08 L
666.584 623.131 L
667.456 623.18 L
668.327 623.227 L
669.2 623.272 L
670.073 623.315 L
670.944 623.357 L
671.816 623.397 L
672.687 623.435 L
673.56 623.472 L
674.433 623.508 L
675.304 623.542 L
676.176 623.575 L
677.047 623.606 L
677.92 623.637 L
678.793 623.666 L
679.664 623.693 L
680.536 623.72 L
681.407 623.746 L
682.28 623.77 L
683.153 623.793 L
684.024 623.816 L
684.896 623.837 L
685.767 623.857 L
686.64 623.876 L
687.513 623.895 L
688.384 623.912 L
689.256 623.928 L
690.127 623.944 L
691 623.958 L
691.873 623.972 L
692.744 623.984 L
693.616 623.932 L
694.487 623.943 L
695.36 623.953 L
696.233 623.962 L
697.104 623.97 L
697.976 623.977 L
698.847 623.984 L
699.72 623.989 L
700.593 623.994 L
701.464 623.997 L
702.336 624 L
703.207 624.001 L
704.08 624.002 L
704.953 624.002 L
705.824 624.001 L
706.696 623.998 L
707.567 623.995 L
708.44 623.991 L
709.313 623.985 L
710.184 623.979 L
711.056 623.971 L
711.927 623.962 L
712.8 623.952 L
713.673 623.94 L
714.544 623.928 L
715.416 623.914 L
716.287 623.898 L
717.16 623.881 L
718.033 623.862 L
718.904 623.841 L
719.776 623.819 L
720.647 623.795 L
721.52 623.769 L
722.393 623.741 L
723.264 623.71 L
724.136 623.677 L
725.007 623.642 L
725.88 623.604 L
726.753 623.563 L
727.624 623.518 L
728.496 623.47 L
729.367 623.419 L
730.24 623.363 L
731.113 623.303 L
731.984 623.237 L
732.856 623.167 L
733.727 623.09 L
734.6 623.007 L
735.473 622.916 L
736.344 622.817 L
737.216 622.708 L
738.087 622.589 L
738.96 622.457 L
739.833 622.312 L
740.704 622.151 L
741.576 621.97 L
742.447 621.768 L
743.32 621.54 L
744.193 621.28 L
745.064 620.982 L
745.936 620.638 L
746.807 620.237 L
747.68 619.762 L
748.553 619.192 L
749.424 618.499 L
750.296 617.637 L
751.167 616.543 L
752.04 615.114 L
752.913 613.19 L
753.784 610.518 L
754.656 606.744 L
755.527 601.696 L
756.4 596.931 L
757.273 596.943 L
758.144 601.712 L
759.016 606.747 L
759.887 610.508 L
760.76 613.167 L
761.633 615.079 L
762.504 616.498 L
763.376 617.583 L
764.247 618.435 L
765.12 619.119 L
765.993 619.678 L
766.864 620.142 L
767.736 620.534 L
768.607 620.866 L
769.48 621.152 L
770.353 621.399 L
771.224 621.615 L
772.096 621.803 L
772.967 621.969 L
773.84 622.114 L
774.713 622.243 L
775.584 622.356 L
776.456 622.456 L
777.327 622.543 L
778.2 622.619 L
779.073 622.685 L
779.944 622.742 L
780.816 622.79 L
781.687 622.829 L
782.56 622.859 L
783.433 622.882 L
784.304 622.896 L
785.176 622.902 L
786.047 622.899 L
786.92 622.888 L
787.793 622.866 L
788.664 622.835 L
789.536 622.792 L
790.407 622.737 L
791.28 622.668 L
792.153 622.583 L
793.024 622.479 L
793.896 622.353 L
794.767 622.199 L
795.64 622.013 L
796.513 621.785 L
797.384 621.505 L
798.256 621.155 L
799.127 620.712 L
800 620.141 L
800.873 619.385 L
801.744 618.357 L
802.616 616.918 L
803.487 614.874 L
804.36 612.13 L
805.233 609.542 L
806.104 609.573 L
806.976 612.211 L
807.847 614.997 L
808.72 617.082 L
809.593 618.563 L
810.464 619.634 L
811.336 620.434 L
812.207 621.051 L
813.08 621.54 L
813.953 621.937 L
814.824 622.265 L
815.696 622.541 L
816.567 622.778 L
817.44 622.982 L
818.313 623.16 L
819.184 623.318 L
820.056 623.458 L
820.927 623.584 L
821.8 623.697 L
822.673 623.8 L
823.544 623.894 L
824.416 623.981 L
825.287 624.06 L
826.16 624.134 L
827.033 624.202 L
827.904 624.265 L
828.776 624.325 L
829.647 624.38 L
830.52 624.432 L
831.393 624.482 L
832.264 624.528 L
833.136 624.572 L
834.007 624.613 L
834.88 624.653 L
835.753 624.69 L
836.624 624.726 L
837.496 624.76 L
838.367 624.792 L
839.24 624.823 L
840.113 624.853 L
840.984 624.881 L
841.856 624.908 L
842.727 624.934 L
843.6 624.96 L
844.473 624.984 L
845.344 625.007 L
846.216 625.03 L
847.087 625.051 L
847.96 625.072 L
848.833 625.092 L
849.704 625.112 L
850.576 625.131 L
851.447 625.149 L
852.32 625.167 L
853.193 625.184 L
854.064 625.2 L
854.936 625.216 L
855.807 625.232 L
856.68 625.247 L
857.553 625.262 L
858.424 625.276 L
859.296 625.29 L
860.167 625.303 L
861.04 625.316 L
861.913 625.329 L
862.784 625.342 L
863.656 625.354 L
864.527 625.365 L
865.4 625.377 L
866.273 625.388 L
867.144 625.399 L
868.016 625.409 L
868.887 625.42 L
869.76 625.43 L
870.633 625.44 L
871.504 625.449 L
872.376 625.459 L
873.247 625.468 L
874.12 625.477 L
874.993 625.485 L
875.864 625.494 L
876.736 625.502 L
877.607 625.51 L
878.48 625.518 L
879.353 625.526 L
880.224 625.533 L
881.096 625.54 L
881.967 625.548 L
882.84 625.555 L
883.713 625.561 L
884.584 625.568 L
885.456 625.575 L
886.327 625.581 L
887.2 625.587 L
888.073 625.593 L
888.944 625.599 L
889.816 625.605 L
890.687 625.611 L
891.56 625.616 L
892.433 625.622 L
893.304 625.627 L
894.176 625.632 L
895.047 625.637 L
895.92 625.642 L
896.793 625.647 L
897.664 625.652 L
898.536 625.656 L
899.407 625.661 L
900.28 625.665 L
901.153 625.669 L
902.024 625.674 L
902.896 625.678 L
903.767 625.682 L
904.64 625.686 L
905.513 625.689 L
906.384 625.693 L
907.256 625.697 L
908.127 625.7 L
909 625.704 L
909.873 625.707 L
910.744 625.71 L
911.616 625.713 L
912.487 625.716 L
913.36 625.719 L
914.233 625.722 L
915.104 625.725 L
915.976 625.728 L
916.847 625.731 L
917.72 625.733 L
918.593 625.736 L
919.464 625.738 L
920.336 625.741 L
921.207 625.743 L
922.08 625.745 L
922.953 625.747 L
923.824 625.749 L
924.696 625.751 L
925.567 625.753 L
926.44 625.755 L
927.313 625.757 L
928.184 625.759 L
929.056 625.761 L
929.927 625.762 L
930.8 625.764 L
931.673 625.765 L
932.544 625.767 L
933.416 625.768 L
934.287 625.769 L
935.16 625.771 L
936.033 625.772 L
936.904 625.773 L
937.776 625.774 L
938.647 625.775 L
939.52 625.776 L
940.393 625.777 L
941.264 625.778 L
942.136 625.779 L
943.007 625.779 L
943.88 625.78 L
944.753 625.781 L
945.624 625.781 L
946.496 625.782 L
947.367 625.782 L
948.24 625.783 L
949.113 625.783 L
949.984 625.784 L
950.856 625.784 L
951.727 625.784 L
952.6 625.784 L
953.473 625.784 L
954.344 625.784 L
955.216 625.784 L
956.087 625.784 L
956.96 625.784 L
957.833 625.784 L
958.704 625.784 L
959.576 625.784 L
960.447 625.783 L
961.32 625.783 L
962.193 625.783 L
963.064 625.782 L
963.936 625.782 L
964.807 625.781 L
965.68 625.781 L
966.553 625.78 L
967.424 625.779 L
968.296 625.779 L
969.167 625.778 L
970.04 625.777 L
970.913 625.776 L
971.784 625.775 L
972.656 625.774 L
973.527 625.773 L
974.4 625.772 L
975.273 625.771 L
976.144 625.77 L
977.016 625.769 L
977.887 625.767 L
978.76 625.766 L
979.633 625.765 L
980.504 625.763 L
981.376 625.762 L
982.247 625.76 L
983.12 625.759 L
983.993 625.757 L
984.864 625.756 L
985.736 625.754 L
986.607 625.752 L
987.48 625.75 L
988.353 625.749 L
989.224 625.747 L
990.096 625.745 L
990.967 625.743 L
991.84 625.741 L
992.713 625.739 L
993.584 625.737 L
994.456 625.735 L
995.327 625.732 L
996.2 625.73 L
997.073 625.728 L
997.944 625.725 L
998.816 625.723 L
999.687 625.721 L
1000.56 625.718 L
1001.433 625.716 L
1002.304 625.713 L
1003.176 625.71 L
1004.047 625.708 L
1004.92 625.705 L
1005.793 625.702 L
1006.664 625.699 L
1007.536 625.696 L
1008.407 625.693 L
1009.28 625.69 L
1010.153 625.687 L
1011.024 625.684 L
1011.896 625.681 L
1012.767 625.678 L
1013.64 625.674 L
1014.513 625.671 L
1015.384 625.668 L
1016.256 625.664 L
1017.127 625.661 L
1018 625.657 L
1018.104 625.657 L
S
GR
%%Trailer
%%Pages: 1
%%EOF
