%!PS-Adobe-3.0 EPSF-3.0
%%Creator: (MATLAB, The Mathworks, Inc. Version 9.4.0.813654 \(R2018a\). Operating System: Linux)
%%Title: /data/geodynamo/natafh/Dynamo/Acoustics/elastic_shell/Figures/ZoRo2/ZoRo2-air-rigid_ellipticity_second_order_m1.eps
%%CreationDate: 2019-03-01T11:27:18
%%Pages: (atend)
%%BoundingBox: 0 0 450 600
%%LanguageLevel: 3
%%EndComments
%%BeginProlog
%%BeginResource: procset (Apache XML Graphics Std ProcSet) 1.2 0
%%Version: 1.2 0
%%Copyright: (Copyright 2001-2003,2010 The Apache Software Foundation. License terms: http://www.apache.org/licenses/LICENSE-2.0)
/bd{bind def}bind def
/ld{load def}bd
/GR/grestore ld
/GS/gsave ld
/RM/rmoveto ld
/C/curveto ld
/t/show ld
/L/lineto ld
/ML/setmiterlimit ld
/CT/concat ld
/f/fill ld
/N/newpath ld
/S/stroke ld
/CC/setcmykcolor ld
/A/ashow ld
/cp/closepath ld
/RC/setrgbcolor ld
/LJ/setlinejoin ld
/GC/setgray ld
/LW/setlinewidth ld
/M/moveto ld
/re {4 2 roll M
1 index 0 rlineto
0 exch rlineto
neg 0 rlineto
cp } bd
/_ctm matrix def
/_tm matrix def
/BT { _ctm currentmatrix pop matrix _tm copy pop 0 0 moveto } bd
/ET { _ctm setmatrix } bd
/iTm { _ctm setmatrix _tm concat } bd
/Tm { _tm astore pop iTm 0 0 moveto } bd
/ux 0.0 def
/uy 0.0 def
/F {
  /Tp exch def
  /Tf exch def
  Tf findfont Tp scalefont setfont
  /cf Tf def  /cs Tp def
} bd
/ULS {currentpoint /uy exch def /ux exch def} bd
/ULE {
  /Tcx currentpoint pop def
  gsave
  newpath
  cf findfont cs scalefont dup
  /FontMatrix get 0 get /Ts exch def /FontInfo get dup
  /UnderlinePosition get Ts mul /To exch def
  /UnderlineThickness get Ts mul /Tt exch def
  ux uy To add moveto  Tcx uy To add lineto
  Tt setlinewidth stroke
  grestore
} bd
/OLE {
  /Tcx currentpoint pop def
  gsave
  newpath
  cf findfont cs scalefont dup
  /FontMatrix get 0 get /Ts exch def /FontInfo get dup
  /UnderlinePosition get Ts mul /To exch def
  /UnderlineThickness get Ts mul /Tt exch def
  ux uy To add cs add moveto Tcx uy To add cs add lineto
  Tt setlinewidth stroke
  grestore
} bd
/SOE {
  /Tcx currentpoint pop def
  gsave
  newpath
  cf findfont cs scalefont dup
  /FontMatrix get 0 get /Ts exch def /FontInfo get dup
  /UnderlinePosition get Ts mul /To exch def
  /UnderlineThickness get Ts mul /Tt exch def
  ux uy To add cs 10 mul 26 idiv add moveto Tcx uy To add cs 10 mul 26 idiv add lineto
  Tt setlinewidth stroke
  grestore
} bd
/QT {
/Y22 exch store
/X22 exch store
/Y21 exch store
/X21 exch store
currentpoint
/Y21 load 2 mul add 3 div exch
/X21 load 2 mul add 3 div exch
/X21 load 2 mul /X22 load add 3 div
/Y21 load 2 mul /Y22 load add 3 div
/X22 load /Y22 load curveto
} bd
/SSPD {
dup length /d exch dict def
{
/v exch def
/k exch def
currentpagedevice k known {
/cpdv currentpagedevice k get def
v cpdv ne {
/upd false def
/nullv v type /nulltype eq def
/nullcpdv cpdv type /nulltype eq def
nullv nullcpdv or
{
/upd true def
} {
/sametype v type cpdv type eq def
sametype {
v type /arraytype eq {
/vlen v length def
/cpdvlen cpdv length def
vlen cpdvlen eq {
0 1 vlen 1 sub {
/i exch def
/obj v i get def
/cpdobj cpdv i get def
obj cpdobj ne {
/upd true def
exit
} if
} for
} {
/upd true def
} ifelse
} {
v type /dicttype eq {
v {
/dv exch def
/dk exch def
/cpddv cpdv dk get def
dv cpddv ne {
/upd true def
exit
} if
} forall
} {
/upd true def
} ifelse
} ifelse
} if
} ifelse
upd true eq {
d k v put
} if
} if
} if
} forall
d length 0 gt {
d setpagedevice
} if
} bd
/RE { % /NewFontName [NewEncodingArray] /FontName RE -
  findfont dup length dict begin
  {
    1 index /FID ne
    {def} {pop pop} ifelse
  } forall
  /Encoding exch def
  /FontName 1 index def
  currentdict definefont pop
  end
} bind def
%%EndResource
%%BeginResource: procset (Apache XML Graphics EPS ProcSet) 1.0 0
%%Version: 1.0 0
%%Copyright: (Copyright 2002-2003 The Apache Software Foundation. License terms: http://www.apache.org/licenses/LICENSE-2.0)
/BeginEPSF { %def
/b4_Inc_state save def         % Save state for cleanup
/dict_count countdictstack def % Count objects on dict stack
/op_count count 1 sub def      % Count objects on operand stack
userdict begin                 % Push userdict on dict stack
/showpage { } def              % Redefine showpage, { } = null proc
0 setgray 0 setlinecap         % Prepare graphics state
1 setlinewidth 0 setlinejoin
10 setmiterlimit [ ] 0 setdash newpath
/languagelevel where           % If level not equal to 1 then
{pop languagelevel             % set strokeadjust and
1 ne                           % overprint to their defaults.
{false setstrokeadjust false setoverprint
} if
} if
} bd
/EndEPSF { %def
count op_count sub {pop} repeat            % Clean up stacks
countdictstack dict_count sub {end} repeat
b4_Inc_state restore
} bd
%%EndResource
%FOPBeginFontDict
%%IncludeResource: font Courier-Oblique
%%IncludeResource: font Courier-BoldOblique
%%IncludeResource: font Courier-Bold
%%IncludeResource: font ZapfDingbats
%%IncludeResource: font Symbol
%%IncludeResource: font Helvetica
%%IncludeResource: font Helvetica-Oblique
%%IncludeResource: font Helvetica-Bold
%%IncludeResource: font Helvetica-BoldOblique
%%IncludeResource: font Times-Roman
%%IncludeResource: font Times-Italic
%%IncludeResource: font Times-Bold
%%IncludeResource: font Times-BoldItalic
%%IncludeResource: font Courier
%FOPEndFontDict
%%BeginResource: encoding WinAnsiEncoding
/WinAnsiEncoding [
/.notdef /.notdef /.notdef /.notdef /.notdef
/.notdef /.notdef /.notdef /.notdef /.notdef
/.notdef /.notdef /.notdef /.notdef /.notdef
/.notdef /.notdef /.notdef /.notdef /.notdef
/.notdef /.notdef /.notdef /.notdef /.notdef
/.notdef /.notdef /.notdef /.notdef /.notdef
/.notdef /.notdef /space /exclam /quotedbl
/numbersign /dollar /percent /ampersand /quotesingle
/parenleft /parenright /asterisk /plus /comma
/hyphen /period /slash /zero /one
/two /three /four /five /six
/seven /eight /nine /colon /semicolon
/less /equal /greater /question /at
/A /B /C /D /E
/F /G /H /I /J
/K /L /M /N /O
/P /Q /R /S /T
/U /V /W /X /Y
/Z /bracketleft /backslash /bracketright /asciicircum
/underscore /quoteleft /a /b /c
/d /e /f /g /h
/i /j /k /l /m
/n /o /p /q /r
/s /t /u /v /w
/x /y /z /braceleft /bar
/braceright /asciitilde /bullet /Euro /bullet
/quotesinglbase /florin /quotedblbase /ellipsis /dagger
/daggerdbl /circumflex /perthousand /Scaron /guilsinglleft
/OE /bullet /Zcaron /bullet /bullet
/quoteleft /quoteright /quotedblleft /quotedblright /bullet
/endash /emdash /asciitilde /trademark /scaron
/guilsinglright /oe /bullet /zcaron /Ydieresis
/space /exclamdown /cent /sterling /currency
/yen /brokenbar /section /dieresis /copyright
/ordfeminine /guillemotleft /logicalnot /sfthyphen /registered
/macron /degree /plusminus /twosuperior /threesuperior
/acute /mu /paragraph /middot /cedilla
/onesuperior /ordmasculine /guillemotright /onequarter /onehalf
/threequarters /questiondown /Agrave /Aacute /Acircumflex
/Atilde /Adieresis /Aring /AE /Ccedilla
/Egrave /Eacute /Ecircumflex /Edieresis /Igrave
/Iacute /Icircumflex /Idieresis /Eth /Ntilde
/Ograve /Oacute /Ocircumflex /Otilde /Odieresis
/multiply /Oslash /Ugrave /Uacute /Ucircumflex
/Udieresis /Yacute /Thorn /germandbls /agrave
/aacute /acircumflex /atilde /adieresis /aring
/ae /ccedilla /egrave /eacute /ecircumflex
/edieresis /igrave /iacute /icircumflex /idieresis
/eth /ntilde /ograve /oacute /ocircumflex
/otilde /odieresis /divide /oslash /ugrave
/uacute /ucircumflex /udieresis /yacute /thorn
/ydieresis
] def
%%EndResource
%FOPBeginFontReencode
/Courier-Oblique findfont
dup length dict begin
  {1 index /FID ne {def} {pop pop} ifelse} forall
  /Encoding WinAnsiEncoding def
  currentdict
end
/Courier-Oblique exch definefont pop
/Courier-BoldOblique findfont
dup length dict begin
  {1 index /FID ne {def} {pop pop} ifelse} forall
  /Encoding WinAnsiEncoding def
  currentdict
end
/Courier-BoldOblique exch definefont pop
/Courier-Bold findfont
dup length dict begin
  {1 index /FID ne {def} {pop pop} ifelse} forall
  /Encoding WinAnsiEncoding def
  currentdict
end
/Courier-Bold exch definefont pop
/Helvetica findfont
dup length dict begin
  {1 index /FID ne {def} {pop pop} ifelse} forall
  /Encoding WinAnsiEncoding def
  currentdict
end
/Helvetica exch definefont pop
/Helvetica-Oblique findfont
dup length dict begin
  {1 index /FID ne {def} {pop pop} ifelse} forall
  /Encoding WinAnsiEncoding def
  currentdict
end
/Helvetica-Oblique exch definefont pop
/Helvetica-Bold findfont
dup length dict begin
  {1 index /FID ne {def} {pop pop} ifelse} forall
  /Encoding WinAnsiEncoding def
  currentdict
end
/Helvetica-Bold exch definefont pop
/Helvetica-BoldOblique findfont
dup length dict begin
  {1 index /FID ne {def} {pop pop} ifelse} forall
  /Encoding WinAnsiEncoding def
  currentdict
end
/Helvetica-BoldOblique exch definefont pop
/Times-Roman findfont
dup length dict begin
  {1 index /FID ne {def} {pop pop} ifelse} forall
  /Encoding WinAnsiEncoding def
  currentdict
end
/Times-Roman exch definefont pop
/Times-Italic findfont
dup length dict begin
  {1 index /FID ne {def} {pop pop} ifelse} forall
  /Encoding WinAnsiEncoding def
  currentdict
end
/Times-Italic exch definefont pop
/Times-Bold findfont
dup length dict begin
  {1 index /FID ne {def} {pop pop} ifelse} forall
  /Encoding WinAnsiEncoding def
  currentdict
end
/Times-Bold exch definefont pop
/Times-BoldItalic findfont
dup length dict begin
  {1 index /FID ne {def} {pop pop} ifelse} forall
  /Encoding WinAnsiEncoding def
  currentdict
end
/Times-BoldItalic exch definefont pop
/Courier findfont
dup length dict begin
  {1 index /FID ne {def} {pop pop} ifelse} forall
  /Encoding WinAnsiEncoding def
  currentdict
end
/Courier exch definefont pop
%FOPEndFontReencode
%%EndProlog
%%Page: 1 1
%%PageBoundingBox: 0 0 450 600
%%BeginPageSetup
[1 0 0 -1 0 600] CT
%%EndPageSetup
GS
[0.75 0 0 0.75 0 0] CT
1 GC
N
0 0 600 800 re
f
GR
GS
[0.75 0 0 0.75 0 0] CT
1 GC
N
0 0 600 800 re
f
GR
GS
[0.75 0 0 0.75 0 0] CT
1 GC
N
78 712 M
543 712 L
543 74 L
78 74 L
cp
f
GR
GS
[0.75 0 0 0.75 0 0] CT
0.873 GC
1 LJ
0.667 LW
N
78 712 M
78 74 L
S
GR
GS
[0.75 0 0 0.75 0 0] CT
0.873 GC
1 LJ
0.667 LW
N
129.667 712 M
129.667 74 L
S
GR
GS
[0.75 0 0 0.75 0 0] CT
0.873 GC
1 LJ
0.667 LW
N
181.333 712 M
181.333 74 L
S
GR
GS
[0.75 0 0 0.75 0 0] CT
0.873 GC
1 LJ
0.667 LW
N
233 712 M
233 74 L
S
GR
GS
[0.75 0 0 0.75 0 0] CT
0.873 GC
1 LJ
0.667 LW
N
284.667 712 M
284.667 74 L
S
GR
GS
[0.75 0 0 0.75 0 0] CT
0.873 GC
1 LJ
0.667 LW
N
336.333 712 M
336.333 74 L
S
GR
GS
[0.75 0 0 0.75 0 0] CT
0.873 GC
1 LJ
0.667 LW
N
388 712 M
388 74 L
S
GR
GS
[0.75 0 0 0.75 0 0] CT
0.873 GC
1 LJ
0.667 LW
N
439.667 712 M
439.667 74 L
S
GR
GS
[0.75 0 0 0.75 0 0] CT
0.873 GC
1 LJ
0.667 LW
N
491.333 712 M
491.333 74 L
S
GR
GS
[0.75 0 0 0.75 0 0] CT
0.873 GC
1 LJ
0.667 LW
N
543 712 M
543 74 L
S
GR
GS
[0.75 0 0 0.75 0 0] CT
0.873 GC
1 LJ
0.667 LW
N
543 712 M
78 712 L
S
GR
GS
[0.75 0 0 0.75 0 0] CT
0.873 GC
1 LJ
0.667 LW
N
543 632.25 M
78 632.25 L
S
GR
GS
[0.75 0 0 0.75 0 0] CT
0.873 GC
1 LJ
0.667 LW
N
543 552.5 M
78 552.5 L
S
GR
GS
[0.75 0 0 0.75 0 0] CT
0.873 GC
1 LJ
0.667 LW
N
543 472.75 M
78 472.75 L
S
GR
GS
[0.75 0 0 0.75 0 0] CT
0.873 GC
1 LJ
0.667 LW
N
543 393 M
78 393 L
S
GR
GS
[0.75 0 0 0.75 0 0] CT
0.873 GC
1 LJ
0.667 LW
N
543 313.25 M
78 313.25 L
S
GR
GS
[0.75 0 0 0.75 0 0] CT
0.873 GC
1 LJ
0.667 LW
N
543 233.5 M
78 233.5 L
S
GR
GS
[0.75 0 0 0.75 0 0] CT
0.873 GC
1 LJ
0.667 LW
N
543 153.75 M
78 153.75 L
S
GR
GS
[0.75 0 0 0.75 0 0] CT
0.873 GC
1 LJ
0.667 LW
N
543 74 M
78 74 L
S
GR
GS
[0.75 0 0 0.75 0 0] CT
0.149 GC
2 setlinecap
1 LJ
0.667 LW
N
78 712 M
543 712 L
S
GR
GS
[0.75 0 0 0.75 0 0] CT
0.149 GC
2 setlinecap
1 LJ
0.667 LW
N
78 74 M
543 74 L
S
GR
GS
[0.75 0 0 0.75 0 0] CT
0.149 GC
2 setlinecap
1 LJ
0.667 LW
N
78 712 M
78 705.62 L
S
GR
GS
[0.75 0 0 0.75 0 0] CT
0.149 GC
2 setlinecap
1 LJ
0.667 LW
N
129.667 712 M
129.667 705.62 L
S
GR
GS
[0.75 0 0 0.75 0 0] CT
0.149 GC
2 setlinecap
1 LJ
0.667 LW
N
181.333 712 M
181.333 705.62 L
S
GR
GS
[0.75 0 0 0.75 0 0] CT
0.149 GC
2 setlinecap
1 LJ
0.667 LW
N
233 712 M
233 705.62 L
S
GR
GS
[0.75 0 0 0.75 0 0] CT
0.149 GC
2 setlinecap
1 LJ
0.667 LW
N
284.667 712 M
284.667 705.62 L
S
GR
GS
[0.75 0 0 0.75 0 0] CT
0.149 GC
2 setlinecap
1 LJ
0.667 LW
N
336.333 712 M
336.333 705.62 L
S
GR
GS
[0.75 0 0 0.75 0 0] CT
0.149 GC
2 setlinecap
1 LJ
0.667 LW
N
388 712 M
388 705.62 L
S
GR
GS
[0.75 0 0 0.75 0 0] CT
0.149 GC
2 setlinecap
1 LJ
0.667 LW
N
439.667 712 M
439.667 705.62 L
S
GR
GS
[0.75 0 0 0.75 0 0] CT
0.149 GC
2 setlinecap
1 LJ
0.667 LW
N
491.333 712 M
491.333 705.62 L
S
GR
GS
[0.75 0 0 0.75 0 0] CT
0.149 GC
2 setlinecap
1 LJ
0.667 LW
N
543 712 M
543 705.62 L
S
GR
GS
[0.75 0 0 0.75 0 0] CT
0.149 GC
2 setlinecap
1 LJ
0.667 LW
N
78 74 M
78 80.38 L
S
GR
GS
[0.75 0 0 0.75 0 0] CT
0.149 GC
2 setlinecap
1 LJ
0.667 LW
N
129.667 74 M
129.667 80.38 L
S
GR
GS
[0.75 0 0 0.75 0 0] CT
0.149 GC
2 setlinecap
1 LJ
0.667 LW
N
181.333 74 M
181.333 80.38 L
S
GR
GS
[0.75 0 0 0.75 0 0] CT
0.149 GC
2 setlinecap
1 LJ
0.667 LW
N
233 74 M
233 80.38 L
S
GR
GS
[0.75 0 0 0.75 0 0] CT
0.149 GC
2 setlinecap
1 LJ
0.667 LW
N
284.667 74 M
284.667 80.38 L
S
GR
GS
[0.75 0 0 0.75 0 0] CT
0.149 GC
2 setlinecap
1 LJ
0.667 LW
N
336.333 74 M
336.333 80.38 L
S
GR
GS
[0.75 0 0 0.75 0 0] CT
0.149 GC
2 setlinecap
1 LJ
0.667 LW
N
388 74 M
388 80.38 L
S
GR
GS
[0.75 0 0 0.75 0 0] CT
0.149 GC
2 setlinecap
1 LJ
0.667 LW
N
439.667 74 M
439.667 80.38 L
S
GR
GS
[0.75 0 0 0.75 0 0] CT
0.149 GC
2 setlinecap
1 LJ
0.667 LW
N
491.333 74 M
491.333 80.38 L
S
GR
GS
[0.75 0 0 0.75 0 0] CT
0.149 GC
2 setlinecap
1 LJ
0.667 LW
N
543 74 M
543 80.38 L
S
GR
GS
[0.75 0 0 0.75 58.5 537.99998] CT
0.149 GC
/Helvetica 13.333 F
GS
[1 0 0 1 0 0] CT
-4.5 13 moveto 
1 -1 scale
(0) t 
GR
GR
GS
[0.75 0 0 0.75 97.25 537.99998] CT
0.149 GC
/Helvetica 13.333 F
GS
[1 0 0 1 0 0] CT
-4.5 13 moveto 
1 -1 scale
(2) t 
GR
GR
GS
[0.75 0 0 0.75 136 537.99998] CT
0.149 GC
/Helvetica 13.333 F
GS
[1 0 0 1 0 0] CT
-4.5 13 moveto 
1 -1 scale
(4) t 
GR
GR
GS
[0.75 0 0 0.75 174.75 537.99998] CT
0.149 GC
/Helvetica 13.333 F
GS
[1 0 0 1 0 0] CT
-4.5 13 moveto 
1 -1 scale
(6) t 
GR
GR
GS
[0.75 0 0 0.75 213.49999 537.99998] CT
0.149 GC
/Helvetica 13.333 F
GS
[1 0 0 1 0 0] CT
-4.5 13 moveto 
1 -1 scale
(8) t 
GR
GR
GS
[0.75 0 0 0.75 252.25001 537.99998] CT
0.149 GC
/Helvetica 13.333 F
GS
[1 0 0 1 0 0] CT
-8.5 13 moveto 
1 -1 scale
(10) t 
GR
GR
GS
[0.75 0 0 0.75 291 537.99998] CT
0.149 GC
/Helvetica 13.333 F
GS
[1 0 0 1 0 0] CT
-8.5 13 moveto 
1 -1 scale
(12) t 
GR
GR
GS
[0.75 0 0 0.75 329.74999 537.99998] CT
0.149 GC
/Helvetica 13.333 F
GS
[1 0 0 1 0 0] CT
-8.5 13 moveto 
1 -1 scale
(14) t 
GR
GR
GS
[0.75 0 0 0.75 368.50001 537.99998] CT
0.149 GC
/Helvetica 13.333 F
GS
[1 0 0 1 0 0] CT
-8.5 13 moveto 
1 -1 scale
(16) t 
GR
GR
GS
[0.75 0 0 0.75 407.25 537.99998] CT
0.149 GC
/Helvetica 13.333 F
GS
[1 0 0 1 0 0] CT
-8.5 13 moveto 
1 -1 scale
(18) t 
GR
GR
GS
[0.75 0 0 0.75 232.87516 551.75002] CT
0.149 GC
/Helvetica 14.667 F
GS
[1 0 0 1 0 0] CT
-86.5 14 moveto 
1 -1 scale
(mode angular number l) t 
GR
GR
GS
[0.75 0 0 0.75 0 0] CT
0.149 GC
2 setlinecap
1 LJ
0.667 LW
N
78 712 M
78 74 L
S
GR
GS
[0.75 0 0 0.75 0 0] CT
0.149 GC
2 setlinecap
1 LJ
0.667 LW
N
543 712 M
543 74 L
S
GR
GS
[0.75 0 0 0.75 0 0] CT
0.149 GC
2 setlinecap
1 LJ
0.667 LW
N
78 712 M
84.38 712 L
S
GR
GS
[0.75 0 0 0.75 0 0] CT
0.149 GC
2 setlinecap
1 LJ
0.667 LW
N
78 632.25 M
84.38 632.25 L
S
GR
GS
[0.75 0 0 0.75 0 0] CT
0.149 GC
2 setlinecap
1 LJ
0.667 LW
N
78 552.5 M
84.38 552.5 L
S
GR
GS
[0.75 0 0 0.75 0 0] CT
0.149 GC
2 setlinecap
1 LJ
0.667 LW
N
78 472.75 M
84.38 472.75 L
S
GR
GS
[0.75 0 0 0.75 0 0] CT
0.149 GC
2 setlinecap
1 LJ
0.667 LW
N
78 393 M
84.38 393 L
S
GR
GS
[0.75 0 0 0.75 0 0] CT
0.149 GC
2 setlinecap
1 LJ
0.667 LW
N
78 313.25 M
84.38 313.25 L
S
GR
GS
[0.75 0 0 0.75 0 0] CT
0.149 GC
2 setlinecap
1 LJ
0.667 LW
N
78 233.5 M
84.38 233.5 L
S
GR
GS
[0.75 0 0 0.75 0 0] CT
0.149 GC
2 setlinecap
1 LJ
0.667 LW
N
78 153.75 M
84.38 153.75 L
S
GR
GS
[0.75 0 0 0.75 0 0] CT
0.149 GC
2 setlinecap
1 LJ
0.667 LW
N
78 74 M
84.38 74 L
S
GR
GS
[0.75 0 0 0.75 0 0] CT
0.149 GC
2 setlinecap
1 LJ
0.667 LW
N
543 712 M
536.62 712 L
S
GR
GS
[0.75 0 0 0.75 0 0] CT
0.149 GC
2 setlinecap
1 LJ
0.667 LW
N
543 632.25 M
536.62 632.25 L
S
GR
GS
[0.75 0 0 0.75 0 0] CT
0.149 GC
2 setlinecap
1 LJ
0.667 LW
N
543 552.5 M
536.62 552.5 L
S
GR
GS
[0.75 0 0 0.75 0 0] CT
0.149 GC
2 setlinecap
1 LJ
0.667 LW
N
543 472.75 M
536.62 472.75 L
S
GR
GS
[0.75 0 0 0.75 0 0] CT
0.149 GC
2 setlinecap
1 LJ
0.667 LW
N
543 393 M
536.62 393 L
S
GR
GS
[0.75 0 0 0.75 0 0] CT
0.149 GC
2 setlinecap
1 LJ
0.667 LW
N
543 313.25 M
536.62 313.25 L
S
GR
GS
[0.75 0 0 0.75 0 0] CT
0.149 GC
2 setlinecap
1 LJ
0.667 LW
N
543 233.5 M
536.62 233.5 L
S
GR
GS
[0.75 0 0 0.75 0 0] CT
0.149 GC
2 setlinecap
1 LJ
0.667 LW
N
543 153.75 M
536.62 153.75 L
S
GR
GS
[0.75 0 0 0.75 0 0] CT
0.149 GC
2 setlinecap
1 LJ
0.667 LW
N
543 74 M
536.62 74 L
S
GR
GS
[0.75 0 0 0.75 54.5 534] CT
0.149 GC
/Helvetica 13.333 F
GS
[1 0 0 1 0 0] CT
-26 4.5 moveto 
1 -1 scale
(-0.4) t 
GR
GR
GS
[0.75 0 0 0.75 54.5 474.1875] CT
0.149 GC
/Helvetica 13.333 F
GS
[1 0 0 1 0 0] CT
-26 4.5 moveto 
1 -1 scale
(-0.2) t 
GR
GR
GS
[0.75 0 0 0.75 54.5 414.375] CT
0.149 GC
/Helvetica 13.333 F
GS
[1 0 0 1 0 0] CT
-9 4.5 moveto 
1 -1 scale
(0) t 
GR
GR
GS
[0.75 0 0 0.75 54.5 354.5625] CT
0.149 GC
/Helvetica 13.333 F
GS
[1 0 0 1 0 0] CT
-22 4.5 moveto 
1 -1 scale
(0.2) t 
GR
GR
GS
[0.75 0 0 0.75 54.5 294.75] CT
0.149 GC
/Helvetica 13.333 F
GS
[1 0 0 1 0 0] CT
-22 4.5 moveto 
1 -1 scale
(0.4) t 
GR
GR
GS
[0.75 0 0 0.75 54.5 234.9375] CT
0.149 GC
/Helvetica 13.333 F
GS
[1 0 0 1 0 0] CT
-22 4.5 moveto 
1 -1 scale
(0.6) t 
GR
GR
GS
[0.75 0 0 0.75 54.5 175.125] CT
0.149 GC
/Helvetica 13.333 F
GS
[1 0 0 1 0 0] CT
-22 4.5 moveto 
1 -1 scale
(0.8) t 
GR
GR
GS
[0.75 0 0 0.75 54.5 115.3125] CT
0.149 GC
/Helvetica 13.333 F
GS
[1 0 0 1 0 0] CT
-9 4.5 moveto 
1 -1 scale
(1) t 
GR
GR
GS
[0.75 0 0 0.75 54.5 55.49999] CT
0.149 GC
/Helvetica 13.333 F
GS
[1 0 0 1 0 0] CT
-22 4.5 moveto 
1 -1 scale
(1.2) t 
GR
GR
GS
[0 -0.75 0.75 0 29.25 449.25] CT
0.149 GC
/Helvetica 14.667 F
GS
[1 0 0 1 0 0] CT
0 0 moveto 
1 -1 scale
(second order ellipticity coefficient x \(l+1\)/\(m+1\)/\(n+1\)) t 
GR
GR
GS
[0 -0.75 0.75 0 24 146.25] CT
0.149 GC
/Helvetica 11.733 F
GS
[1 0 0 1 0 0] CT
0 0 moveto 
1 -1 scale
(2) t 
GR
GR
GS
[0.75 0 0 0.75 34.5 19.5] CT
/Helvetica-Bold 11.733 F
GS
[1 0 0 1 0 0] CT
0 0 moveto 
1 -1 scale
(n) t 
GR
GR
GS
[0.75 0 0 0.75 41.25 14.25] CT
/Helvetica-Bold 14.667 F
GS
[1 0 0 1 0 0] CT
0 0 moveto 
1 -1 scale
(dk2) t 
GR
GR
GS
[0.75 0 0 0.75 64.5 19.5] CT
/Helvetica-Bold 11.733 F
GS
[1 0 0 1 0 0] CT
0 0 moveto 
1 -1 scale
(l) t 
GR
GR
GS
[0.75 0 0 0.75 64.5 9] CT
/Helvetica-Bold 11.733 F
GS
[1 0 0 1 0 0] CT
0 0 moveto 
1 -1 scale
(m) t 
GR
GR
GS
[0.75 0 0 0.75 74.25 14.25] CT
/Helvetica-Bold 14.667 F
GS
[1 0 0 1 0 0] CT
0 0 moveto 
1 -1 scale
( second order ellipticity coefficients x \(l+1\)/\(m+1\)/\(n+1\)) t 
GR
GR
GS
[0.75 0 0 0.75 424.5 9] CT
/Helvetica-Bold 11.733 F
GS
[1 0 0 1 0 0] CT
0 0 moveto 
1 -1 scale
(2) t 
GR
GR
GS
[0.75 0 0 0.75 99 32.25] CT
/Helvetica-Bold 14.667 F
GS
[1 0 0 1 0 0] CT
0 0 moveto 
1 -1 scale
(for modes ) t 
GR
GR
GS
[0.75 0 0 0.75 165.75 37.5] CT
/Helvetica-Bold 11.733 F
GS
[1 0 0 1 0 0] CT
0 0 moveto 
1 -1 scale
(n) t 
GR
GR
GS
[0.75 0 0 0.75 172.5 32.25] CT
/Helvetica-Bold 14.667 F
GS
[1 0 0 1 0 0] CT
0 0 moveto 
1 -1 scale
(S) t 
GR
GR
GS
[0.75 0 0 0.75 180.75 37.5] CT
/Helvetica-Bold 11.733 F
GS
[1 0 0 1 0 0] CT
0 0 moveto 
1 -1 scale
(l) t 
GR
GR
GS
[0.75 0 0 0.75 184.5 32.25] CT
/Helvetica-Bold 14.667 F
GS
[1 0 0 1 0 0] CT
0 0 moveto 
1 -1 scale
( in a sphere of fluid for m = 1) t 
GR
GR
GS
[0.75 0 0 0.75 116.25 50.25] CT
/Helvetica-Bold 14.667 F
GS
[1 0 0 1 0 0] CT
0 0 moveto 
1 -1 scale
(sphere type : ZoRo2     \(01-Mar-2019\)) t 
GR
GR
GS
[0.75 0 0 0.75 77.875 119.85352] CT
N
4 0 M
4 -2.209 2.209 -4 0 -4 C
-2.209 -4 -4 -2.209 -4 0 C
-4 2.209 -2.209 4 0 4 C
2.209 4 4 2.209 4 0 C
cp
f
GR
GS
[0.75 0 0 0.75 77.875 119.85352] CT
10.0 ML
N
4 0 M
4 -2.209 2.209 -4 0 -4 C
-2.209 -4 -4 -2.209 -4 0 C
-4 2.209 -2.209 4 0 4 C
2.209 4 4 2.209 4 0 C
cp
S
GR
GS
[0.75 0 0 0.75 97.25 69.92917] CT
N
/f351177404{4 0 M
4 -2.209 2.209 -4 0 -4 C
-2.209 -4 -4 -2.209 -4 0 C
-4 2.209 -2.209 4 0 4 C
2.209 4 4 2.209 4 0 C
cp}def
f351177404
f
GR
GS
[0.75 0 0 0.75 97.25 69.92917] CT
10.0 ML
N
4 0 M
4 -2.209 2.209 -4 0 -4 C
-2.209 -4 -4 -2.209 -4 0 C
-4 2.209 -2.209 4 0 4 C
2.209 4 4 2.209 4 0 C
cp
S
GR
GS
[0.75 0 0 0.75 116.625 385.5563] CT
N
f351177404
f
GR
GS
[0.75 0 0 0.75 116.625 385.5563] CT
10.0 ML
N
4 0 M
4 -2.209 2.209 -4 0 -4 C
-2.209 -4 -4 -2.209 -4 0 C
-4 2.209 -2.209 4 0 4 C
2.209 4 4 2.209 4 0 C
cp
S
GR
GS
[0.75 0 0 0.75 136 434.72113] CT
N
f351177404
f
GR
GS
[0.75 0 0 0.75 136 434.72113] CT
10.0 ML
N
4 0 M
4 -2.209 2.209 -4 0 -4 C
-2.209 -4 -4 -2.209 -4 0 C
-4 2.209 -2.209 4 0 4 C
2.209 4 4 2.209 4 0 C
cp
S
GR
GS
[0.75 0 0 0.75 155.375 448.46896] CT
N
f351177404
f
GR
GS
[0.75 0 0 0.75 155.375 448.46896] CT
10.0 ML
N
4 0 M
4 -2.209 2.209 -4 0 -4 C
-2.209 -4 -4 -2.209 -4 0 C
-4 2.209 -2.209 4 0 4 C
2.209 4 4 2.209 4 0 C
cp
S
GR
GS
[0.75 0 0 0.75 174.75 451.79329] CT
N
f351177404
f
GR
GS
[0.75 0 0 0.75 174.75 451.79329] CT
10.0 ML
N
4 0 M
4 -2.209 2.209 -4 0 -4 C
-2.209 -4 -4 -2.209 -4 0 C
-4 2.209 -2.209 4 0 4 C
2.209 4 4 2.209 4 0 C
cp
S
GR
GS
[0.75 0 0 0.75 194.12501 450.93073] CT
N
f351177404
f
GR
GS
[0.75 0 0 0.75 194.12501 450.93073] CT
10.0 ML
N
4 0 M
4 -2.209 2.209 -4 0 -4 C
-2.209 -4 -4 -2.209 -4 0 C
-4 2.209 -2.209 4 0 4 C
2.209 4 4 2.209 4 0 C
cp
S
GR
GS
[0.75 0 0 0.75 213.49999 448.05386] CT
N
f351177404
f
GR
GS
[0.75 0 0 0.75 213.49999 448.05386] CT
10.0 ML
N
4 0 M
4 -2.209 2.209 -4 0 -4 C
-2.209 -4 -4 -2.209 -4 0 C
-4 2.209 -2.209 4 0 4 C
2.209 4 4 2.209 4 0 C
cp
S
GR
GS
[0.75 0 0 0.75 232.875 444.08281] CT
N
f351177404
f
GR
GS
[0.75 0 0 0.75 232.875 444.08281] CT
10.0 ML
N
4 0 M
4 -2.209 2.209 -4 0 -4 C
-2.209 -4 -4 -2.209 -4 0 C
-4 2.209 -2.209 4 0 4 C
2.209 4 4 2.209 4 0 C
cp
S
GR
GS
[0.75 0 0 0.75 252.25001 439.46182] CT
N
f351177404
f
GR
GS
[0.75 0 0 0.75 252.25001 439.46182] CT
10.0 ML
N
4 0 M
4 -2.209 2.209 -4 0 -4 C
-2.209 -4 -4 -2.209 -4 0 C
-4 2.209 -2.209 4 0 4 C
2.209 4 4 2.209 4 0 C
cp
S
GR
GS
[0.75 0 0 0.75 271.62499 434.42706] CT
N
f351177404
f
GR
GS
[0.75 0 0 0.75 271.62499 434.42706] CT
10.0 ML
N
4 0 M
4 -2.209 2.209 -4 0 -4 C
-2.209 -4 -4 -2.209 -4 0 C
-4 2.209 -2.209 4 0 4 C
2.209 4 4 2.209 4 0 C
cp
S
GR
GS
[0.75 0 0 0.75 291 429.11375] CT
N
f351177404
f
GR
GS
[0.75 0 0 0.75 291 429.11375] CT
10.0 ML
N
4 0 M
4 -2.209 2.209 -4 0 -4 C
-2.209 -4 -4 -2.209 -4 0 C
-4 2.209 -2.209 4 0 4 C
2.209 4 4 2.209 4 0 C
cp
S
GR
GS
[0.75 0 0 0.75 310.37501 423.60388] CT
N
f351177404
f
GR
GS
[0.75 0 0 0.75 310.37501 423.60388] CT
10.0 ML
N
4 0 M
4 -2.209 2.209 -4 0 -4 C
-2.209 -4 -4 -2.209 -4 0 C
-4 2.209 -2.209 4 0 4 C
2.209 4 4 2.209 4 0 C
cp
S
GR
GS
[0.75 0 0 0.75 329.74999 417.94972] CT
N
f351177404
f
GR
GS
[0.75 0 0 0.75 329.74999 417.94972] CT
10.0 ML
N
4 0 M
4 -2.209 2.209 -4 0 -4 C
-2.209 -4 -4 -2.209 -4 0 C
-4 2.209 -2.209 4 0 4 C
2.209 4 4 2.209 4 0 C
cp
S
GR
GS
[0.75 0 0 0.75 349.125 412.18593] CT
N
f351177404
f
GR
GS
[0.75 0 0 0.75 349.125 412.18593] CT
10.0 ML
N
4 0 M
4 -2.209 2.209 -4 0 -4 C
-2.209 -4 -4 -2.209 -4 0 C
-4 2.209 -2.209 4 0 4 C
2.209 4 4 2.209 4 0 C
cp
S
GR
GS
[0.75 0 0 0.75 368.50001 406.3363] CT
N
f351177404
f
GR
GS
[0.75 0 0 0.75 368.50001 406.3363] CT
10.0 ML
N
4 0 M
4 -2.209 2.209 -4 0 -4 C
-2.209 -4 -4 -2.209 -4 0 C
-4 2.209 -2.209 4 0 4 C
2.209 4 4 2.209 4 0 C
cp
S
GR
GS
[0.75 0 0 0.75 387.87502 400.41779] CT
N
f351177404
f
GR
GS
[0.75 0 0 0.75 387.87502 400.41779] CT
10.0 ML
N
4 0 M
4 -2.209 2.209 -4 0 -4 C
-2.209 -4 -4 -2.209 -4 0 C
-4 2.209 -2.209 4 0 4 C
2.209 4 4 2.209 4 0 C
cp
S
GR
GS
[0.75 0 0 0.75 407.25 394.44264] CT
N
f351177404
f
GR
GS
[0.75 0 0 0.75 407.25 394.44264] CT
10.0 ML
N
4 0 M
4 -2.209 2.209 -4 0 -4 C
-2.209 -4 -4 -2.209 -4 0 C
-4 2.209 -2.209 4 0 4 C
2.209 4 4 2.209 4 0 C
cp
S
GR
GS
[0.75 0 0 0.75 77.875 314.98668] CT
0 0 1 RC
N
/f1719669614{-2.828 -2.828 M
2.828 2.828 L
-2.828 2.828 M
2.828 -2.828 L}def
f1719669614
f
GR
GS
[0.75 0 0 0.75 77.875 314.98668] CT
0 0 1 RC
10.0 ML
N
-2.828 -2.828 M
2.828 2.828 L
-2.828 2.828 M
2.828 -2.828 L
S
GR
GS
[0.75 0 0 0.75 97.25 274.99912] CT
0 0 1 RC
N
f1719669614
f
GR
GS
[0.75 0 0 0.75 97.25 274.99912] CT
0 0 1 RC
10.0 ML
N
-2.828 -2.828 M
2.828 2.828 L
-2.828 2.828 M
2.828 -2.828 L
S
GR
GS
[0.75 0 0 0.75 116.625 443.75734] CT
0 0 1 RC
N
f1719669614
f
GR
GS
[0.75 0 0 0.75 116.625 443.75734] CT
0 0 1 RC
10.0 ML
N
-2.828 -2.828 M
2.828 2.828 L
-2.828 2.828 M
2.828 -2.828 L
S
GR
GS
[0.75 0 0 0.75 136 467.19397] CT
0 0 1 RC
N
f1719669614
f
GR
GS
[0.75 0 0 0.75 136 467.19397] CT
0 0 1 RC
10.0 ML
N
-2.828 -2.828 M
2.828 2.828 L
-2.828 2.828 M
2.828 -2.828 L
S
GR
GS
[0.75 0 0 0.75 155.375 473.7702] CT
0 0 1 RC
N
f1719669614
f
GR
GS
[0.75 0 0 0.75 155.375 473.7702] CT
0 0 1 RC
10.0 ML
N
-2.828 -2.828 M
2.828 2.828 L
-2.828 2.828 M
2.828 -2.828 L
S
GR
GS
[0.75 0 0 0.75 174.75 475.92201] CT
0 0 1 RC
N
f1719669614
f
GR
GS
[0.75 0 0 0.75 174.75 475.92201] CT
0 0 1 RC
10.0 ML
N
-2.828 -2.828 M
2.828 2.828 L
-2.828 2.828 M
2.828 -2.828 L
S
GR
GS
[0.75 0 0 0.75 194.12501 476.47504] CT
0 0 1 RC
N
f1719669614
f
GR
GS
[0.75 0 0 0.75 194.12501 476.47504] CT
0 0 1 RC
10.0 ML
N
-2.828 -2.828 M
2.828 2.828 L
-2.828 2.828 M
2.828 -2.828 L
S
GR
GS
[0.75 0 0 0.75 213.49999 476.33212] CT
0 0 1 RC
N
f1719669614
f
GR
GS
[0.75 0 0 0.75 213.49999 476.33212] CT
0 0 1 RC
10.0 ML
N
-2.828 -2.828 M
2.828 2.828 L
-2.828 2.828 M
2.828 -2.828 L
S
GR
GS
[0.75 0 0 0.75 232.875 475.84474] CT
0 0 1 RC
N
f1719669614
f
GR
GS
[0.75 0 0 0.75 232.875 475.84474] CT
0 0 1 RC
10.0 ML
N
-2.828 -2.828 M
2.828 2.828 L
-2.828 2.828 M
2.828 -2.828 L
S
GR
GS
[0.75 0 0 0.75 252.25001 475.16904] CT
0 0 1 RC
N
f1719669614
f
GR
GS
[0.75 0 0 0.75 252.25001 475.16904] CT
0 0 1 RC
10.0 ML
N
-2.828 -2.828 M
2.828 2.828 L
-2.828 2.828 M
2.828 -2.828 L
S
GR
GS
[0.75 0 0 0.75 271.62499 474.38145] CT
0 0 1 RC
N
f1719669614
f
GR
GS
[0.75 0 0 0.75 271.62499 474.38145] CT
0 0 1 RC
10.0 ML
N
-2.828 -2.828 M
2.828 2.828 L
-2.828 2.828 M
2.828 -2.828 L
S
GR
GS
[0.75 0 0 0.75 291 473.52209] CT
0 0 1 RC
N
f1719669614
f
GR
GS
[0.75 0 0 0.75 291 473.52209] CT
0 0 1 RC
10.0 ML
N
-2.828 -2.828 M
2.828 2.828 L
-2.828 2.828 M
2.828 -2.828 L
S
GR
GS
[0.75 0 0 0.75 310.37501 472.61348] CT
0 0 1 RC
N
f1719669614
f
GR
GS
[0.75 0 0 0.75 310.37501 472.61348] CT
0 0 1 RC
10.0 ML
N
-2.828 -2.828 M
2.828 2.828 L
-2.828 2.828 M
2.828 -2.828 L
S
GR
GS
[0.75 0 0 0.75 329.74999 471.66879] CT
0 0 1 RC
N
f1719669614
f
GR
GS
[0.75 0 0 0.75 329.74999 471.66879] CT
0 0 1 RC
10.0 ML
N
-2.828 -2.828 M
2.828 2.828 L
-2.828 2.828 M
2.828 -2.828 L
S
GR
GS
[0.75 0 0 0.75 349.125 470.69609] CT
0 0 1 RC
N
f1719669614
f
GR
GS
[0.75 0 0 0.75 349.125 470.69609] CT
0 0 1 RC
10.0 ML
N
-2.828 -2.828 M
2.828 2.828 L
-2.828 2.828 M
2.828 -2.828 L
S
GR
GS
[0.75 0 0 0.75 368.50001 469.70064] CT
0 0 1 RC
N
f1719669614
f
GR
GS
[0.75 0 0 0.75 368.50001 469.70064] CT
0 0 1 RC
10.0 ML
N
-2.828 -2.828 M
2.828 2.828 L
-2.828 2.828 M
2.828 -2.828 L
S
GR
GS
[0.75 0 0 0.75 387.87502 468.68591] CT
0 0 1 RC
N
f1719669614
f
GR
GS
[0.75 0 0 0.75 387.87502 468.68591] CT
0 0 1 RC
10.0 ML
N
-2.828 -2.828 M
2.828 2.828 L
-2.828 2.828 M
2.828 -2.828 L
S
GR
GS
[0.75 0 0 0.75 407.25 467.65425] CT
0 0 1 RC
N
f1719669614
f
GR
GS
[0.75 0 0 0.75 407.25 467.65425] CT
0 0 1 RC
10.0 ML
N
-2.828 -2.828 M
2.828 2.828 L
-2.828 2.828 M
2.828 -2.828 L
S
GR
GS
[0.75 0 0 0.75 77.875 340.51659] CT
1 0 0 RC
N
/f860094634{0 -4 M
0 4 L
-4 0 M
4 0 L}def
f860094634
f
GR
GS
[0.75 0 0 0.75 77.875 340.51659] CT
1 0 0 RC
10.0 ML
N
0 -4 M
0 4 L
-4 0 M
4 0 L
S
GR
GS
[0.75 0 0 0.75 97.25 306.93153] CT
1 0 0 RC
N
f860094634
f
GR
GS
[0.75 0 0 0.75 97.25 306.93153] CT
1 0 0 RC
10.0 ML
N
0 -4 M
0 4 L
-4 0 M
4 0 L
S
GR
GS
[0.75 0 0 0.75 116.625 452.47668] CT
1 0 0 RC
N
f860094634
f
GR
GS
[0.75 0 0 0.75 116.625 452.47668] CT
1 0 0 RC
10.0 ML
N
0 -4 M
0 4 L
-4 0 M
4 0 L
S
GR
GS
[0.75 0 0 0.75 136 469.07487] CT
1 0 0 RC
N
f860094634
f
GR
GS
[0.75 0 0 0.75 136 469.07487] CT
1 0 0 RC
10.0 ML
N
0 -4 M
0 4 L
-4 0 M
4 0 L
S
GR
GS
[0.75 0 0 0.75 155.375 472.36844] CT
1 0 0 RC
N
f860094634
f
GR
GS
[0.75 0 0 0.75 155.375 472.36844] CT
1 0 0 RC
10.0 ML
N
0 -4 M
0 4 L
-4 0 M
4 0 L
S
GR
GS
[0.75 0 0 0.75 174.75 472.69826] CT
1 0 0 RC
N
f860094634
f
GR
GS
[0.75 0 0 0.75 174.75 472.69826] CT
1 0 0 RC
10.0 ML
N
0 -4 M
0 4 L
-4 0 M
4 0 L
S
GR
GS
[0.75 0 0 0.75 194.12501 472.18803] CT
1 0 0 RC
N
f860094634
f
GR
GS
[0.75 0 0 0.75 194.12501 472.18803] CT
1 0 0 RC
10.0 ML
N
0 -4 M
0 4 L
-4 0 M
4 0 L
S
GR
GS
[0.75 0 0 0.75 213.49999 471.4324] CT
1 0 0 RC
N
f860094634
f
GR
GS
[0.75 0 0 0.75 213.49999 471.4324] CT
1 0 0 RC
10.0 ML
N
0 -4 M
0 4 L
-4 0 M
4 0 L
S
GR
GS
[0.75 0 0 0.75 232.875 470.62468] CT
1 0 0 RC
N
f860094634
f
GR
GS
[0.75 0 0 0.75 232.875 470.62468] CT
1 0 0 RC
10.0 ML
N
0 -4 M
0 4 L
-4 0 M
4 0 L
S
GR
GS
[0.75 0 0 0.75 252.25001 469.83092] CT
1 0 0 RC
N
f860094634
f
GR
GS
[0.75 0 0 0.75 252.25001 469.83092] CT
1 0 0 RC
10.0 ML
N
0 -4 M
0 4 L
-4 0 M
4 0 L
S
GR
GS
[0.75 0 0 0.75 271.62499 469.07217] CT
1 0 0 RC
N
f860094634
f
GR
GS
[0.75 0 0 0.75 271.62499 469.07217] CT
1 0 0 RC
10.0 ML
N
0 -4 M
0 4 L
-4 0 M
4 0 L
S
GR
GS
[0.75 0 0 0.75 291 468.35248] CT
1 0 0 RC
N
f860094634
f
GR
GS
[0.75 0 0 0.75 291 468.35248] CT
1 0 0 RC
10.0 ML
N
0 -4 M
0 4 L
-4 0 M
4 0 L
S
GR
GS
[0.75 0 0 0.75 310.37501 467.66972] CT
1 0 0 RC
N
f860094634
f
GR
GS
[0.75 0 0 0.75 310.37501 467.66972] CT
1 0 0 RC
10.0 ML
N
0 -4 M
0 4 L
-4 0 M
4 0 L
S
GR
GS
[0.75 0 0 0.75 329.74999 467.01965] CT
1 0 0 RC
N
f860094634
f
GR
GS
[0.75 0 0 0.75 329.74999 467.01965] CT
1 0 0 RC
10.0 ML
N
0 -4 M
0 4 L
-4 0 M
4 0 L
S
GR
GS
[0.75 0 0 0.75 349.125 466.39769] CT
1 0 0 RC
N
f860094634
f
GR
GS
[0.75 0 0 0.75 349.125 466.39769] CT
1 0 0 RC
10.0 ML
N
0 -4 M
0 4 L
-4 0 M
4 0 L
S
GR
GS
[0.75 0 0 0.75 368.50001 465.79944] CT
1 0 0 RC
N
f860094634
f
GR
GS
[0.75 0 0 0.75 368.50001 465.79944] CT
1 0 0 RC
10.0 ML
N
0 -4 M
0 4 L
-4 0 M
4 0 L
S
GR
GS
[0.75 0 0 0.75 387.87502 465.22105] CT
1 0 0 RC
N
f860094634
f
GR
GS
[0.75 0 0 0.75 387.87502 465.22105] CT
1 0 0 RC
10.0 ML
N
0 -4 M
0 4 L
-4 0 M
4 0 L
S
GR
GS
[0.75 0 0 0.75 407.25 464.65919] CT
1 0 0 RC
N
f860094634
f
GR
GS
[0.75 0 0 0.75 407.25 464.65919] CT
1 0 0 RC
10.0 ML
N
0 -4 M
0 4 L
-4 0 M
4 0 L
S
GR
GS
[0.75 0 0 0.75 77.875 349.26734] CT
1 0 1 RC
N
/f1022997606{0 5.332 M
-4.618 -2.666 L
4.618 -2.666 L
cp}def
f1022997606
f
GR
GS
[0.75 0 0 0.75 77.875 349.26734] CT
1 0 1 RC
10.0 ML
N
0 5.332 M
-4.618 -2.666 L
4.618 -2.666 L
cp
S
GR
GS
[0.75 0 0 0.75 97.25 319.58958] CT
1 0 1 RC
N
f1022997606
f
GR
GS
[0.75 0 0 0.75 97.25 319.58958] CT
1 0 1 RC
10.0 ML
N
0 5.332 M
-4.618 -2.666 L
4.618 -2.666 L
cp
S
GR
GS
[0.75 0 0 0.75 116.625 453.93311] CT
1 0 1 RC
N
f1022997606
f
GR
GS
[0.75 0 0 0.75 116.625 453.93311] CT
1 0 1 RC
10.0 ML
N
0 5.332 M
-4.618 -2.666 L
4.618 -2.666 L
cp
S
GR
GS
[0.75 0 0 0.75 136 467.10846] CT
1 0 1 RC
N
f1022997606
f
GR
GS
[0.75 0 0 0.75 136 467.10846] CT
1 0 1 RC
10.0 ML
N
0 5.332 M
-4.618 -2.666 L
4.618 -2.666 L
cp
S
GR
GS
[0.75 0 0 0.75 155.375 468.6899] CT
1 0 1 RC
N
f1022997606
f
GR
GS
[0.75 0 0 0.75 155.375 468.6899] CT
1 0 1 RC
10.0 ML
N
0 5.332 M
-4.618 -2.666 L
4.618 -2.666 L
cp
S
GR
GS
[0.75 0 0 0.75 174.75 468.01199] CT
1 0 1 RC
N
f1022997606
f
GR
GS
[0.75 0 0 0.75 174.75 468.01199] CT
1 0 1 RC
10.0 ML
N
0 5.332 M
-4.618 -2.666 L
4.618 -2.666 L
cp
S
GR
GS
[0.75 0 0 0.75 194.12501 466.85944] CT
1 0 1 RC
N
f1022997606
f
GR
GS
[0.75 0 0 0.75 194.12501 466.85944] CT
1 0 1 RC
10.0 ML
N
0 5.332 M
-4.618 -2.666 L
4.618 -2.666 L
cp
S
GR
GS
[0.75 0 0 0.75 213.49999 465.67786] CT
1 0 1 RC
N
f1022997606
f
GR
GS
[0.75 0 0 0.75 213.49999 465.67786] CT
1 0 1 RC
10.0 ML
N
0 5.332 M
-4.618 -2.666 L
4.618 -2.666 L
cp
S
GR
GS
[0.75 0 0 0.75 232.875 464.58421] CT
1 0 1 RC
N
f1022997606
f
GR
GS
[0.75 0 0 0.75 232.875 464.58421] CT
1 0 1 RC
10.0 ML
N
0 5.332 M
-4.618 -2.666 L
4.618 -2.666 L
cp
S
GR
GS
[0.75 0 0 0.75 252.25001 463.60117] CT
1 0 1 RC
N
f1022997606
f
GR
GS
[0.75 0 0 0.75 252.25001 463.60117] CT
1 0 1 RC
10.0 ML
N
0 5.332 M
-4.618 -2.666 L
4.618 -2.666 L
cp
S
GR
GS
[0.75 0 0 0.75 271.62499 462.72304] CT
1 0 1 RC
N
f1022997606
f
GR
GS
[0.75 0 0 0.75 271.62499 462.72304] CT
1 0 1 RC
10.0 ML
N
0 5.332 M
-4.618 -2.666 L
4.618 -2.666 L
cp
S
GR
GS
[0.75 0 0 0.75 291 461.93669] CT
1 0 1 RC
N
f1022997606
f
GR
GS
[0.75 0 0 0.75 291 461.93669] CT
1 0 1 RC
10.0 ML
N
0 5.332 M
-4.618 -2.666 L
4.618 -2.666 L
cp
S
GR
GS
[0.75 0 0 0.75 310.37501 461.22816] CT
1 0 1 RC
N
f1022997606
f
GR
GS
[0.75 0 0 0.75 310.37501 461.22816] CT
1 0 1 RC
10.0 ML
N
0 5.332 M
-4.618 -2.666 L
4.618 -2.666 L
cp
S
GR
GS
[0.75 0 0 0.75 329.74999 460.58496] CT
1 0 1 RC
N
f1022997606
f
GR
GS
[0.75 0 0 0.75 329.74999 460.58496] CT
1 0 1 RC
10.0 ML
N
0 5.332 M
-4.618 -2.666 L
4.618 -2.666 L
cp
S
GR
GS
[0.75 0 0 0.75 349.125 459.99637] CT
1 0 1 RC
N
f1022997606
f
GR
GS
[0.75 0 0 0.75 349.125 459.99637] CT
1 0 1 RC
10.0 ML
N
0 5.332 M
-4.618 -2.666 L
4.618 -2.666 L
cp
S
GR
GS
[0.75 0 0 0.75 368.50001 459.45351] CT
1 0 1 RC
N
f1022997606
f
GR
GS
[0.75 0 0 0.75 368.50001 459.45351] CT
1 0 1 RC
10.0 ML
N
0 5.332 M
-4.618 -2.666 L
4.618 -2.666 L
cp
S
GR
GS
[0.75 0 0 0.75 387.87502 458.94905] CT
1 0 1 RC
N
f1022997606
f
GR
GS
[0.75 0 0 0.75 387.87502 458.94905] CT
1 0 1 RC
10.0 ML
N
0 5.332 M
-4.618 -2.666 L
4.618 -2.666 L
cp
S
GR
GS
[0.75 0 0 0.75 407.25 458.47701] CT
1 0 1 RC
N
f1022997606
f
GR
GS
[0.75 0 0 0.75 407.25 458.47701] CT
1 0 1 RC
10.0 ML
N
0 5.332 M
-4.618 -2.666 L
4.618 -2.666 L
cp
S
GR
GS
[0.75 0 0 0.75 77.875 353.29021] CT
0 1 0 RC
N
/f227889816{-3 -3 M
-3 3 L
3 3 L
3 -3 L
cp}def
f227889816
f
GR
GS
[0.75 0 0 0.75 77.875 353.29021] CT
0 1 0 RC
10.0 ML
N
-3 -3 M
-3 3 L
3 3 L
3 -3 L
cp
S
GR
GS
[0.75 0 0 0.75 97.25 326.19683] CT
0 1 0 RC
N
f227889816
f
GR
GS
[0.75 0 0 0.75 97.25 326.19683] CT
0 1 0 RC
10.0 ML
N
-3 -3 M
-3 3 L
3 3 L
3 -3 L
cp
S
GR
GS
[0.75 0 0 0.75 116.625 453.87167] CT
0 1 0 RC
N
f227889816
f
GR
GS
[0.75 0 0 0.75 116.625 453.87167] CT
0 1 0 RC
10.0 ML
N
-3 -3 M
-3 3 L
3 3 L
3 -3 L
cp
S
GR
GS
[0.75 0 0 0.75 136 464.99117] CT
0 1 0 RC
N
f227889816
f
GR
GS
[0.75 0 0 0.75 136 464.99117] CT
0 1 0 RC
10.0 ML
N
-3 -3 M
-3 3 L
3 3 L
3 -3 L
cp
S
GR
GS
[0.75 0 0 0.75 155.375 465.53238] CT
0 1 0 RC
N
f227889816
f
GR
GS
[0.75 0 0 0.75 155.375 465.53238] CT
0 1 0 RC
10.0 ML
N
-3 -3 M
-3 3 L
3 3 L
3 -3 L
cp
S
GR
GS
[0.75 0 0 0.75 174.75 464.23109] CT
0 1 0 RC
N
f227889816
f
GR
GS
[0.75 0 0 0.75 174.75 464.23109] CT
0 1 0 RC
10.0 ML
N
-3 -3 M
-3 3 L
3 3 L
3 -3 L
cp
S
GR
GS
[0.75 0 0 0.75 194.12501 462.67035] CT
0 1 0 RC
N
f227889816
f
GR
GS
[0.75 0 0 0.75 194.12501 462.67035] CT
0 1 0 RC
10.0 ML
N
-3 -3 M
-3 3 L
3 3 L
3 -3 L
cp
S
GR
GS
[0.75 0 0 0.75 213.49999 461.20734] CT
0 1 0 RC
N
f227889816
f
GR
GS
[0.75 0 0 0.75 213.49999 461.20734] CT
0 1 0 RC
10.0 ML
N
-3 -3 M
-3 3 L
3 3 L
3 -3 L
cp
S
GR
GS
[0.75 0 0 0.75 232.875 459.91374] CT
0 1 0 RC
N
f227889816
f
GR
GS
[0.75 0 0 0.75 232.875 459.91374] CT
0 1 0 RC
10.0 ML
N
-3 -3 M
-3 3 L
3 3 L
3 -3 L
cp
S
GR
GS
[0.75 0 0 0.75 252.25001 458.78668] CT
0 1 0 RC
N
f227889816
f
GR
GS
[0.75 0 0 0.75 252.25001 458.78668] CT
0 1 0 RC
10.0 ML
N
-3 -3 M
-3 3 L
3 3 L
3 -3 L
cp
S
GR
GS
[0.75 0 0 0.75 271.62499 457.80482] CT
0 1 0 RC
N
f227889816
f
GR
GS
[0.75 0 0 0.75 271.62499 457.80482] CT
0 1 0 RC
10.0 ML
N
-3 -3 M
-3 3 L
3 3 L
3 -3 L
cp
S
GR
GS
[0.75 0 0 0.75 291 456.94492] CT
0 1 0 RC
N
f227889816
f
GR
GS
[0.75 0 0 0.75 291 456.94492] CT
0 1 0 RC
10.0 ML
N
-3 -3 M
-3 3 L
3 3 L
3 -3 L
cp
S
GR
GS
[0.75 0 0 0.75 310.37501 456.18622] CT
0 1 0 RC
N
f227889816
f
GR
GS
[0.75 0 0 0.75 310.37501 456.18622] CT
0 1 0 RC
10.0 ML
N
-3 -3 M
-3 3 L
3 3 L
3 -3 L
cp
S
GR
GS
[0.75 0 0 0.75 329.74999 455.51134] CT
0 1 0 RC
N
f227889816
f
GR
GS
[0.75 0 0 0.75 329.74999 455.51134] CT
0 1 0 RC
10.0 ML
N
-3 -3 M
-3 3 L
3 3 L
3 -3 L
cp
S
GR
GS
[0.75 0 0 0.75 349.125 454.90608] CT
0 1 0 RC
N
f227889816
f
GR
GS
[0.75 0 0 0.75 349.125 454.90608] CT
0 1 0 RC
10.0 ML
N
-3 -3 M
-3 3 L
3 3 L
3 -3 L
cp
S
GR
GS
[0.75 0 0 0.75 368.50001 454.35901] CT
0 1 0 RC
N
f227889816
f
GR
GS
[0.75 0 0 0.75 368.50001 454.35901] CT
0 1 0 RC
10.0 ML
N
-3 -3 M
-3 3 L
3 3 L
3 -3 L
cp
S
GR
GS
[0.75 0 0 0.75 387.87502 453.86082] CT
0 1 0 RC
N
f227889816
f
GR
GS
[0.75 0 0 0.75 387.87502 453.86082] CT
0 1 0 RC
10.0 ML
N
-3 -3 M
-3 3 L
3 3 L
3 -3 L
cp
S
GR
GS
[0.75 0 0 0.75 407.25 453.40388] CT
0 1 0 RC
N
f227889816
f
GR
GS
[0.75 0 0 0.75 407.25 453.40388] CT
0 1 0 RC
10.0 ML
N
-3 -3 M
-3 3 L
3 3 L
3 -3 L
cp
S
GR
GS
[0.75 0 0 0.75 77.875 355.46862] CT
N
/f-1741330208{-3.804 -1.236 M
-0.94 -1.236 L
0 -4 L
0.94 -1.236 L
3.804 -1.236 L
1.522 0.494 L
2.351 3.236 L
0 1.6 L
-2.351 3.236 L
-1.522 0.494 L
cp}def
f-1741330208
f
GR
GS
[0.75 0 0 0.75 77.875 355.46862] CT
10.0 ML
N
-3.804 -1.236 M
-0.94 -1.236 L
0 -4 L
0.94 -1.236 L
3.804 -1.236 L
1.522 0.494 L
2.351 3.236 L
0 1.6 L
-2.351 3.236 L
-1.522 0.494 L
cp
S
GR
GS
[0.75 0 0 0.75 97.25 330.20084] CT
N
f-1741330208
f
GR
GS
[0.75 0 0 0.75 97.25 330.20084] CT
10.0 ML
N
-3.804 -1.236 M
-0.94 -1.236 L
0 -4 L
0.94 -1.236 L
3.804 -1.236 L
1.522 0.494 L
2.351 3.236 L
0 1.6 L
-2.351 3.236 L
-1.522 0.494 L
cp
S
GR
GS
[0.75 0 0 0.75 116.625 453.44055] CT
N
f-1741330208
f
GR
GS
[0.75 0 0 0.75 116.625 453.44055] CT
10.0 ML
N
-3.804 -1.236 M
-0.94 -1.236 L
0 -4 L
0.94 -1.236 L
3.804 -1.236 L
1.522 0.494 L
2.351 3.236 L
0 1.6 L
-2.351 3.236 L
-1.522 0.494 L
cp
S
GR
GS
[0.75 0 0 0.75 136 463.18913] CT
N
f-1741330208
f
GR
GS
[0.75 0 0 0.75 136 463.18913] CT
10.0 ML
N
-3.804 -1.236 M
-0.94 -1.236 L
0 -4 L
0.94 -1.236 L
3.804 -1.236 L
1.522 0.494 L
2.351 3.236 L
0 1.6 L
-2.351 3.236 L
-1.522 0.494 L
cp
S
GR
GS
[0.75 0 0 0.75 155.375 463.03391] CT
N
f-1741330208
f
GR
GS
[0.75 0 0 0.75 155.375 463.03391] CT
10.0 ML
N
-3.804 -1.236 M
-0.94 -1.236 L
0 -4 L
0.94 -1.236 L
3.804 -1.236 L
1.522 0.494 L
2.351 3.236 L
0 1.6 L
-2.351 3.236 L
-1.522 0.494 L
cp
S
GR
GS
[0.75 0 0 0.75 174.75 461.31226] CT
N
f-1741330208
f
GR
GS
[0.75 0 0 0.75 174.75 461.31226] CT
10.0 ML
N
-3.804 -1.236 M
-0.94 -1.236 L
0 -4 L
0.94 -1.236 L
3.804 -1.236 L
1.522 0.494 L
2.351 3.236 L
0 1.6 L
-2.351 3.236 L
-1.522 0.494 L
cp
S
GR
GS
[0.75 0 0 0.75 194.12501 459.47305] CT
N
f-1741330208
f
GR
GS
[0.75 0 0 0.75 194.12501 459.47305] CT
10.0 ML
N
-3.804 -1.236 M
-0.94 -1.236 L
0 -4 L
0.94 -1.236 L
3.804 -1.236 L
1.522 0.494 L
2.351 3.236 L
0 1.6 L
-2.351 3.236 L
-1.522 0.494 L
cp
S
GR
GS
[0.75 0 0 0.75 213.49999 457.81476] CT
N
f-1741330208
f
GR
GS
[0.75 0 0 0.75 213.49999 457.81476] CT
10.0 ML
N
-3.804 -1.236 M
-0.94 -1.236 L
0 -4 L
0.94 -1.236 L
3.804 -1.236 L
1.522 0.494 L
2.351 3.236 L
0 1.6 L
-2.351 3.236 L
-1.522 0.494 L
cp
S
GR
GS
[0.75 0 0 0.75 232.875 456.37912] CT
N
f-1741330208
f
GR
GS
[0.75 0 0 0.75 232.875 456.37912] CT
10.0 ML
N
-3.804 -1.236 M
-0.94 -1.236 L
0 -4 L
0.94 -1.236 L
3.804 -1.236 L
1.522 0.494 L
2.351 3.236 L
0 1.6 L
-2.351 3.236 L
-1.522 0.494 L
cp
S
GR
GS
[0.75 0 0 0.75 252.25001 455.14636] CT
N
f-1741330208
f
GR
GS
[0.75 0 0 0.75 252.25001 455.14636] CT
10.0 ML
N
-3.804 -1.236 M
-0.94 -1.236 L
0 -4 L
0.94 -1.236 L
3.804 -1.236 L
1.522 0.494 L
2.351 3.236 L
0 1.6 L
-2.351 3.236 L
-1.522 0.494 L
cp
S
GR
GS
[0.75 0 0 0.75 271.62499 454.0849] CT
N
f-1741330208
f
GR
GS
[0.75 0 0 0.75 271.62499 454.0849] CT
10.0 ML
N
-3.804 -1.236 M
-0.94 -1.236 L
0 -4 L
0.94 -1.236 L
3.804 -1.236 L
1.522 0.494 L
2.351 3.236 L
0 1.6 L
-2.351 3.236 L
-1.522 0.494 L
cp
S
GR
GS
[0.75 0 0 0.75 291 453.16479] CT
N
f-1741330208
f
GR
GS
[0.75 0 0 0.75 291 453.16479] CT
10.0 ML
N
-3.804 -1.236 M
-0.94 -1.236 L
0 -4 L
0.94 -1.236 L
3.804 -1.236 L
1.522 0.494 L
2.351 3.236 L
0 1.6 L
-2.351 3.236 L
-1.522 0.494 L
cp
S
GR
GS
[0.75 0 0 0.75 310.37501 452.36087] CT
N
f-1741330208
f
GR
GS
[0.75 0 0 0.75 310.37501 452.36087] CT
10.0 ML
N
-3.804 -1.236 M
-0.94 -1.236 L
0 -4 L
0.94 -1.236 L
3.804 -1.236 L
1.522 0.494 L
2.351 3.236 L
0 1.6 L
-2.351 3.236 L
-1.522 0.494 L
cp
S
GR
GS
[0.75 0 0 0.75 329.74999 451.65253] CT
N
f-1741330208
f
GR
GS
[0.75 0 0 0.75 329.74999 451.65253] CT
10.0 ML
N
-3.804 -1.236 M
-0.94 -1.236 L
0 -4 L
0.94 -1.236 L
3.804 -1.236 L
1.522 0.494 L
2.351 3.236 L
0 1.6 L
-2.351 3.236 L
-1.522 0.494 L
cp
S
GR
GS
[0.75 0 0 0.75 349.125 451.02342] CT
N
f-1741330208
f
GR
GS
[0.75 0 0 0.75 349.125 451.02342] CT
10.0 ML
N
-3.804 -1.236 M
-0.94 -1.236 L
0 -4 L
0.94 -1.236 L
3.804 -1.236 L
1.522 0.494 L
2.351 3.236 L
0 1.6 L
-2.351 3.236 L
-1.522 0.494 L
cp
S
GR
GS
[0.75 0 0 0.75 368.50001 450.46033] CT
N
f-1741330208
f
GR
GS
[0.75 0 0 0.75 368.50001 450.46033] CT
10.0 ML
N
-3.804 -1.236 M
-0.94 -1.236 L
0 -4 L
0.94 -1.236 L
3.804 -1.236 L
1.522 0.494 L
2.351 3.236 L
0 1.6 L
-2.351 3.236 L
-1.522 0.494 L
cp
S
GR
GS
[0.75 0 0 0.75 387.87502 449.95271] CT
N
f-1741330208
f
GR
GS
[0.75 0 0 0.75 387.87502 449.95271] CT
10.0 ML
N
-3.804 -1.236 M
-0.94 -1.236 L
0 -4 L
0.94 -1.236 L
3.804 -1.236 L
1.522 0.494 L
2.351 3.236 L
0 1.6 L
-2.351 3.236 L
-1.522 0.494 L
cp
S
GR
GS
[0.75 0 0 0.75 407.25 449.49193] CT
N
f-1741330208
f
GR
GS
[0.75 0 0 0.75 407.25 449.49193] CT
10.0 ML
N
-3.804 -1.236 M
-0.94 -1.236 L
0 -4 L
0.94 -1.236 L
3.804 -1.236 L
1.522 0.494 L
2.351 3.236 L
0 1.6 L
-2.351 3.236 L
-1.522 0.494 L
cp
S
GR
GS
[0.75 0 0 0.75 77.875 356.77986] CT
0 0 1 RC
N
/f1737057230{-3.464 -2 M
-1.155 -2 L
0 -4 L
1.155 -2 L
3.464 -2 L
2 0 L
3.464 2 L
1.155 2 L
0 4 L
-1.155 2 L
-3.464 2 L
-2 0 L
cp}def
f1737057230
f
GR
GS
[0.75 0 0 0.75 77.875 356.77986] CT
0 0 1 RC
10.0 ML
N
-3.464 -2 M
-1.155 -2 L
0 -4 L
1.155 -2 L
3.464 -2 L
2 0 L
3.464 2 L
1.155 2 L
0 4 L
-1.155 2 L
-3.464 2 L
-2 0 L
cp
S
GR
GS
[0.75 0 0 0.75 97.25 332.86713] CT
0 0 1 RC
N
f1737057230
f
GR
GS
[0.75 0 0 0.75 97.25 332.86713] CT
0 0 1 RC
10.0 ML
N
-3.464 -2 M
-1.155 -2 L
0 -4 L
1.155 -2 L
3.464 -2 L
2 0 L
3.464 2 L
1.155 2 L
0 4 L
-1.155 2 L
-3.464 2 L
-2 0 L
cp
S
GR
GS
[0.75 0 0 0.75 116.625 452.94141] CT
0 0 1 RC
N
f1737057230
f
GR
GS
[0.75 0 0 0.75 116.625 452.94141] CT
0 0 1 RC
10.0 ML
N
-3.464 -2 M
-1.155 -2 L
0 -4 L
1.155 -2 L
3.464 -2 L
2 0 L
3.464 2 L
1.155 2 L
0 4 L
-1.155 2 L
-3.464 2 L
-2 0 L
cp
S
GR
GS
[0.75 0 0 0.75 136 461.71088] CT
0 0 1 RC
N
f1737057230
f
GR
GS
[0.75 0 0 0.75 136 461.71088] CT
0 0 1 RC
10.0 ML
N
-3.464 -2 M
-1.155 -2 L
0 -4 L
1.155 -2 L
3.464 -2 L
2 0 L
3.464 2 L
1.155 2 L
0 4 L
-1.155 2 L
-3.464 2 L
-2 0 L
cp
S
GR
GS
[0.75 0 0 0.75 155.375 461.05756] CT
0 0 1 RC
N
f1737057230
f
GR
GS
[0.75 0 0 0.75 155.375 461.05756] CT
0 0 1 RC
10.0 ML
N
-3.464 -2 M
-1.155 -2 L
0 -4 L
1.155 -2 L
3.464 -2 L
2 0 L
3.464 2 L
1.155 2 L
0 4 L
-1.155 2 L
-3.464 2 L
-2 0 L
cp
S
GR
GS
[0.75 0 0 0.75 174.75 459.03429] CT
0 0 1 RC
N
f1737057230
f
GR
GS
[0.75 0 0 0.75 174.75 459.03429] CT
0 0 1 RC
10.0 ML
N
-3.464 -2 M
-1.155 -2 L
0 -4 L
1.155 -2 L
3.464 -2 L
2 0 L
3.464 2 L
1.155 2 L
0 4 L
-1.155 2 L
-3.464 2 L
-2 0 L
cp
S
GR
GS
[0.75 0 0 0.75 194.12501 456.99417] CT
0 0 1 RC
N
f1737057230
f
GR
GS
[0.75 0 0 0.75 194.12501 456.99417] CT
0 0 1 RC
10.0 ML
N
-3.464 -2 M
-1.155 -2 L
0 -4 L
1.155 -2 L
3.464 -2 L
2 0 L
3.464 2 L
1.155 2 L
0 4 L
-1.155 2 L
-3.464 2 L
-2 0 L
cp
S
GR
GS
[0.75 0 0 0.75 213.49999 455.19374] CT
0 0 1 RC
N
f1737057230
f
GR
GS
[0.75 0 0 0.75 213.49999 455.19374] CT
0 0 1 RC
10.0 ML
N
-3.464 -2 M
-1.155 -2 L
0 -4 L
1.155 -2 L
3.464 -2 L
2 0 L
3.464 2 L
1.155 2 L
0 4 L
-1.155 2 L
-3.464 2 L
-2 0 L
cp
S
GR
GS
[0.75 0 0 0.75 232.875 453.6535] CT
0 0 1 RC
N
f1737057230
f
GR
GS
[0.75 0 0 0.75 232.875 453.6535] CT
0 0 1 RC
10.0 ML
N
-3.464 -2 M
-1.155 -2 L
0 -4 L
1.155 -2 L
3.464 -2 L
2 0 L
3.464 2 L
1.155 2 L
0 4 L
-1.155 2 L
-3.464 2 L
-2 0 L
cp
S
GR
GS
[0.75 0 0 0.75 252.25001 452.3416] CT
0 0 1 RC
N
f1737057230
f
GR
GS
[0.75 0 0 0.75 252.25001 452.3416] CT
0 0 1 RC
10.0 ML
N
-3.464 -2 M
-1.155 -2 L
0 -4 L
1.155 -2 L
3.464 -2 L
2 0 L
3.464 2 L
1.155 2 L
0 4 L
-1.155 2 L
-3.464 2 L
-2 0 L
cp
S
GR
GS
[0.75 0 0 0.75 271.62499 451.21921] CT
0 0 1 RC
N
f1737057230
f
GR
GS
[0.75 0 0 0.75 271.62499 451.21921] CT
0 0 1 RC
10.0 ML
N
-3.464 -2 M
-1.155 -2 L
0 -4 L
1.155 -2 L
3.464 -2 L
2 0 L
3.464 2 L
1.155 2 L
0 4 L
-1.155 2 L
-3.464 2 L
-2 0 L
cp
S
GR
GS
[0.75 0 0 0.75 291 450.25163] CT
0 0 1 RC
N
f1737057230
f
GR
GS
[0.75 0 0 0.75 291 450.25163] CT
0 0 1 RC
10.0 ML
N
-3.464 -2 M
-1.155 -2 L
0 -4 L
1.155 -2 L
3.464 -2 L
2 0 L
3.464 2 L
1.155 2 L
0 4 L
-1.155 2 L
-3.464 2 L
-2 0 L
cp
S
GR
GS
[0.75 0 0 0.75 310.37501 449.41058] CT
0 0 1 RC
N
f1737057230
f
GR
GS
[0.75 0 0 0.75 310.37501 449.41058] CT
0 0 1 RC
10.0 ML
N
-3.464 -2 M
-1.155 -2 L
0 -4 L
1.155 -2 L
3.464 -2 L
2 0 L
3.464 2 L
1.155 2 L
0 4 L
-1.155 2 L
-3.464 2 L
-2 0 L
cp
S
GR
GS
[0.75 0 0 0.75 329.74999 448.67331] CT
0 0 1 RC
N
f1737057230
f
GR
GS
[0.75 0 0 0.75 329.74999 448.67331] CT
0 0 1 RC
10.0 ML
N
-3.464 -2 M
-1.155 -2 L
0 -4 L
1.155 -2 L
3.464 -2 L
2 0 L
3.464 2 L
1.155 2 L
0 4 L
-1.155 2 L
-3.464 2 L
-2 0 L
cp
S
GR
GS
[0.75 0 0 0.75 349.125 448.02182] CT
0 0 1 RC
N
f1737057230
f
GR
GS
[0.75 0 0 0.75 349.125 448.02182] CT
0 0 1 RC
10.0 ML
N
-3.464 -2 M
-1.155 -2 L
0 -4 L
1.155 -2 L
3.464 -2 L
2 0 L
3.464 2 L
1.155 2 L
0 4 L
-1.155 2 L
-3.464 2 L
-2 0 L
cp
S
GR
GS
[0.75 0 0 0.75 368.50001 447.44179] CT
0 0 1 RC
N
f1737057230
f
GR
GS
[0.75 0 0 0.75 368.50001 447.44179] CT
0 0 1 RC
10.0 ML
N
-3.464 -2 M
-1.155 -2 L
0 -4 L
1.155 -2 L
3.464 -2 L
2 0 L
3.464 2 L
1.155 2 L
0 4 L
-1.155 2 L
-3.464 2 L
-2 0 L
cp
S
GR
GS
[0.75 0 0 0.75 387.87502 446.92163] CT
0 0 1 RC
N
f1737057230
f
GR
GS
[0.75 0 0 0.75 387.87502 446.92163] CT
0 0 1 RC
10.0 ML
N
-3.464 -2 M
-1.155 -2 L
0 -4 L
1.155 -2 L
3.464 -2 L
2 0 L
3.464 2 L
1.155 2 L
0 4 L
-1.155 2 L
-3.464 2 L
-2 0 L
cp
S
GR
GS
[0.75 0 0 0.75 407.25 446.45219] CT
0 0 1 RC
N
f1737057230
f
GR
GS
[0.75 0 0 0.75 407.25 446.45219] CT
0 0 1 RC
10.0 ML
N
-3.464 -2 M
-1.155 -2 L
0 -4 L
1.155 -2 L
3.464 -2 L
2 0 L
3.464 2 L
1.155 2 L
0 4 L
-1.155 2 L
-3.464 2 L
-2 0 L
cp
S
GR
GS
[0.75 0 0 0.75 77.875 357.63002] CT
1 0 0 RC
N
f351177404
f
GR
GS
[0.75 0 0 0.75 77.875 357.63002] CT
1 0 0 RC
10.0 ML
N
4 0 M
4 -2.209 2.209 -4 0 -4 C
-2.209 -4 -4 -2.209 -4 0 C
-4 2.209 -2.209 4 0 4 C
2.209 4 4 2.209 4 0 C
cp
S
GR
GS
[0.75 0 0 0.75 97.25 334.76173] CT
1 0 0 RC
N
f351177404
f
GR
GS
[0.75 0 0 0.75 97.25 334.76173] CT
1 0 0 RC
10.0 ML
N
4 0 M
4 -2.209 2.209 -4 0 -4 C
-2.209 -4 -4 -2.209 -4 0 C
-4 2.209 -2.209 4 0 4 C
2.209 4 4 2.209 4 0 C
cp
S
GR
GS
[0.75 0 0 0.75 116.625 452.46249] CT
1 0 0 RC
N
f351177404
f
GR
GS
[0.75 0 0 0.75 116.625 452.46249] CT
1 0 0 RC
10.0 ML
N
4 0 M
4 -2.209 2.209 -4 0 -4 C
-2.209 -4 -4 -2.209 -4 0 C
-4 2.209 -2.209 4 0 4 C
2.209 4 4 2.209 4 0 C
cp
S
GR
GS
[0.75 0 0 0.75 136 460.49776] CT
1 0 0 RC
N
f351177404
f
GR
GS
[0.75 0 0 0.75 136 460.49776] CT
1 0 0 RC
10.0 ML
N
4 0 M
4 -2.209 2.209 -4 0 -4 C
-2.209 -4 -4 -2.209 -4 0 C
-4 2.209 -2.209 4 0 4 C
2.209 4 4 2.209 4 0 C
cp
S
GR
GS
[0.75 0 0 0.75 155.375 459.47086] CT
1 0 0 RC
N
f351177404
f
GR
GS
[0.75 0 0 0.75 155.375 459.47086] CT
1 0 0 RC
10.0 ML
N
4 0 M
4 -2.209 2.209 -4 0 -4 C
-2.209 -4 -4 -2.209 -4 0 C
-4 2.209 -2.209 4 0 4 C
2.209 4 4 2.209 4 0 C
cp
S
GR
GS
[0.75 0 0 0.75 174.75 457.22108] CT
1 0 0 RC
N
f351177404
f
GR
GS
[0.75 0 0 0.75 174.75 457.22108] CT
1 0 0 RC
10.0 ML
N
4 0 M
4 -2.209 2.209 -4 0 -4 C
-2.209 -4 -4 -2.209 -4 0 C
-4 2.209 -2.209 4 0 4 C
2.209 4 4 2.209 4 0 C
cp
S
GR
GS
[0.75 0 0 0.75 194.12501 455.02959] CT
1 0 0 RC
N
f351177404
f
GR
GS
[0.75 0 0 0.75 194.12501 455.02959] CT
1 0 0 RC
10.0 ML
N
4 0 M
4 -2.209 2.209 -4 0 -4 C
-2.209 -4 -4 -2.209 -4 0 C
-4 2.209 -2.209 4 0 4 C
2.209 4 4 2.209 4 0 C
cp
S
GR
GS
[0.75 0 0 0.75 213.49999 453.12158] CT
1 0 0 RC
N
f351177404
f
GR
GS
[0.75 0 0 0.75 213.49999 453.12158] CT
1 0 0 RC
10.0 ML
N
4 0 M
4 -2.209 2.209 -4 0 -4 C
-2.209 -4 -4 -2.209 -4 0 C
-4 2.209 -2.209 4 0 4 C
2.209 4 4 2.209 4 0 C
cp
S
GR
GS
[0.75 0 0 0.75 232.875 451.50156] CT
1 0 0 RC
N
f351177404
f
GR
GS
[0.75 0 0 0.75 232.875 451.50156] CT
1 0 0 RC
10.0 ML
N
4 0 M
4 -2.209 2.209 -4 0 -4 C
-2.209 -4 -4 -2.209 -4 0 C
-4 2.209 -2.209 4 0 4 C
2.209 4 4 2.209 4 0 C
cp
S
GR
GS
[0.75 0 0 0.75 252.25001 450.12877] CT
1 0 0 RC
N
f351177404
f
GR
GS
[0.75 0 0 0.75 252.25001 450.12877] CT
1 0 0 RC
10.0 ML
N
4 0 M
4 -2.209 2.209 -4 0 -4 C
-2.209 -4 -4 -2.209 -4 0 C
-4 2.209 -2.209 4 0 4 C
2.209 4 4 2.209 4 0 C
cp
S
GR
GS
[0.75 0 0 0.75 271.62499 448.95886] CT
1 0 0 RC
N
f351177404
f
GR
GS
[0.75 0 0 0.75 271.62499 448.95886] CT
1 0 0 RC
10.0 ML
N
4 0 M
4 -2.209 2.209 -4 0 -4 C
-2.209 -4 -4 -2.209 -4 0 C
-4 2.209 -2.209 4 0 4 C
2.209 4 4 2.209 4 0 C
cp
S
GR
GS
[0.75 0 0 0.75 291 447.95375] CT
1 0 0 RC
N
f351177404
f
GR
GS
[0.75 0 0 0.75 291 447.95375] CT
1 0 0 RC
10.0 ML
N
4 0 M
4 -2.209 2.209 -4 0 -4 C
-2.209 -4 -4 -2.209 -4 0 C
-4 2.209 -2.209 4 0 4 C
2.209 4 4 2.209 4 0 C
cp
S
GR
GS
[0.75 0 0 0.75 310.37501 447.08272] CT
1 0 0 RC
N
f351177404
f
GR
GS
[0.75 0 0 0.75 310.37501 447.08272] CT
1 0 0 RC
10.0 ML
N
4 0 M
4 -2.209 2.209 -4 0 -4 C
-2.209 -4 -4 -2.209 -4 0 C
-4 2.209 -2.209 4 0 4 C
2.209 4 4 2.209 4 0 C
cp
S
GR
GS
[0.75 0 0 0.75 329.74999 446.32141] CT
1 0 0 RC
N
f351177404
f
GR
GS
[0.75 0 0 0.75 329.74999 446.32141] CT
1 0 0 RC
10.0 ML
N
4 0 M
4 -2.209 2.209 -4 0 -4 C
-2.209 -4 -4 -2.209 -4 0 C
-4 2.209 -2.209 4 0 4 C
2.209 4 4 2.209 4 0 C
cp
S
GR
GS
[0.75 0 0 0.75 349.125 445.65065] CT
1 0 0 RC
N
f351177404
f
GR
GS
[0.75 0 0 0.75 349.125 445.65065] CT
1 0 0 RC
10.0 ML
N
4 0 M
4 -2.209 2.209 -4 0 -4 C
-2.209 -4 -4 -2.209 -4 0 C
-4 2.209 -2.209 4 0 4 C
2.209 4 4 2.209 4 0 C
cp
S
GR
GS
[0.75 0 0 0.75 368.50001 445.05524] CT
1 0 0 RC
N
f351177404
f
GR
GS
[0.75 0 0 0.75 368.50001 445.05524] CT
1 0 0 RC
10.0 ML
N
4 0 M
4 -2.209 2.209 -4 0 -4 C
-2.209 -4 -4 -2.209 -4 0 C
-4 2.209 -2.209 4 0 4 C
2.209 4 4 2.209 4 0 C
cp
S
GR
GS
[0.75 0 0 0.75 387.87502 444.52299] CT
1 0 0 RC
N
f351177404
f
GR
GS
[0.75 0 0 0.75 387.87502 444.52299] CT
1 0 0 RC
10.0 ML
N
4 0 M
4 -2.209 2.209 -4 0 -4 C
-2.209 -4 -4 -2.209 -4 0 C
-4 2.209 -2.209 4 0 4 C
2.209 4 4 2.209 4 0 C
cp
S
GR
GS
[0.75 0 0 0.75 407.25 444.04417] CT
1 0 0 RC
N
f351177404
f
GR
GS
[0.75 0 0 0.75 407.25 444.04417] CT
1 0 0 RC
10.0 ML
N
4 0 M
4 -2.209 2.209 -4 0 -4 C
-2.209 -4 -4 -2.209 -4 0 C
-4 2.209 -2.209 4 0 4 C
2.209 4 4 2.209 4 0 C
cp
S
GR
GS
[0.75 0 0 0.75 0 0] CT
1 GC
N
/f1588965850{532 212 M
532 85 L
455 85 L
455 212 L
cp}def
f1588965850
f
GR
GS
[0.75 0 0 0.75 376.5 70.84706] CT
/Helvetica 12 F
GS
[1 0 0 1 0 0] CT
0 4.5 moveto 
1 -1 scale
(n=0) t 
GR
GR
GS
[0.75 0 0 0.75 359.25 70.84706] CT
N
f351177404
f
GR
GS
[0.75 0 0 0.75 359.25 70.84706] CT
10.0 ML
N
4 0 M
4 -2.209 2.209 -4 0 -4 C
-2.209 -4 -4 -2.209 -4 0 C
-4 2.209 -2.209 4 0 4 C
2.209 4 4 2.209 4 0 C
cp
S
GR
GS
[0.75 0 0 0.75 376.5 82.42647] CT
/Helvetica 12 F
GS
[1 0 0 1 0 0] CT
0 4.5 moveto 
1 -1 scale
(n=1) t 
GR
GR
GS
[0.75 0 0 0.75 359.25 82.42647] CT
0 0 1 RC
N
f1719669614
f
GR
GS
[0.75 0 0 0.75 359.25 82.42647] CT
0 0 1 RC
10.0 ML
N
-2.828 -2.828 M
2.828 2.828 L
-2.828 2.828 M
2.828 -2.828 L
S
GR
GS
[0.75 0 0 0.75 376.5 94.00588] CT
/Helvetica 12 F
GS
[1 0 0 1 0 0] CT
0 4.5 moveto 
1 -1 scale
(n=2) t 
GR
GR
GS
[0.75 0 0 0.75 359.25 94.00588] CT
1 0 0 RC
N
f860094634
f
GR
GS
[0.75 0 0 0.75 359.25 94.00588] CT
1 0 0 RC
10.0 ML
N
0 -4 M
0 4 L
-4 0 M
4 0 L
S
GR
GS
[0.75 0 0 0.75 376.5 105.5853] CT
/Helvetica 12 F
GS
[1 0 0 1 0 0] CT
0 4.5 moveto 
1 -1 scale
(n=3) t 
GR
GR
GS
[0.75 0 0 0.75 359.25 105.5853] CT
1 0 1 RC
N
f1022997606
f
GR
GS
[0.75 0 0 0.75 359.25 105.5853] CT
1 0 1 RC
10.0 ML
N
0 5.332 M
-4.618 -2.666 L
4.618 -2.666 L
cp
S
GR
GS
[0.75 0 0 0.75 376.5 117.1647] CT
/Helvetica 12 F
GS
[1 0 0 1 0 0] CT
0 4.5 moveto 
1 -1 scale
(n=4) t 
GR
GR
GS
[0.75 0 0 0.75 359.25 117.1647] CT
0 1 0 RC
N
f227889816
f
GR
GS
[0.75 0 0 0.75 359.25 117.1647] CT
0 1 0 RC
10.0 ML
N
-3 -3 M
-3 3 L
3 3 L
3 -3 L
cp
S
GR
GS
[0.75 0 0 0.75 376.5 128.74412] CT
/Helvetica 12 F
GS
[1 0 0 1 0 0] CT
0 4.5 moveto 
1 -1 scale
(n=5) t 
GR
GR
GS
[0.75 0 0 0.75 359.25 128.74412] CT
N
f-1741330208
f
GR
GS
[0.75 0 0 0.75 359.25 128.74412] CT
10.0 ML
N
-3.804 -1.236 M
-0.94 -1.236 L
0 -4 L
0.94 -1.236 L
3.804 -1.236 L
1.522 0.494 L
2.351 3.236 L
0 1.6 L
-2.351 3.236 L
-1.522 0.494 L
cp
S
GR
GS
[0.75 0 0 0.75 376.5 140.32353] CT
/Helvetica 12 F
GS
[1 0 0 1 0 0] CT
0 4.5 moveto 
1 -1 scale
(n=6) t 
GR
GR
GS
[0.75 0 0 0.75 359.25 140.32353] CT
0 0 1 RC
N
f1737057230
f
GR
GS
[0.75 0 0 0.75 359.25 140.32353] CT
0 0 1 RC
10.0 ML
N
-3.464 -2 M
-1.155 -2 L
0 -4 L
1.155 -2 L
3.464 -2 L
2 0 L
3.464 2 L
1.155 2 L
0 4 L
-1.155 2 L
-3.464 2 L
-2 0 L
cp
S
GR
GS
[0.75 0 0 0.75 376.5 151.90295] CT
/Helvetica 12 F
GS
[1 0 0 1 0 0] CT
0 4.5 moveto 
1 -1 scale
(n=7) t 
GR
GR
GS
[0.75 0 0 0.75 359.25 151.90295] CT
1 0 0 RC
N
f351177404
f
GR
GS
[0.75 0 0 0.75 359.25 151.90295] CT
1 0 0 RC
10.0 ML
N
4 0 M
4 -2.209 2.209 -4 0 -4 C
-2.209 -4 -4 -2.209 -4 0 C
-4 2.209 -2.209 4 0 4 C
2.209 4 4 2.209 4 0 C
cp
S
GR
GS
[0.75 0 0 0.75 0 0] CT
0.149 GC
10.0 ML
0.667 LW
N
455 212 M
455 85 L
532 85 L
532 212 L
cp
S
GR
%%Trailer
%%Pages: 1
%%EOF
