%!PS-Adobe-3.0 EPSF-3.0
%%Creator: (MATLAB, The Mathworks, Inc. Version 9.6.0.1335978 \(R2019a\) Update 8. Operating System: Mac OS X)
%%Title: /Users/natafhenri-claude/Documents/Recherche/Acoustics/compute_modes/Figures/ZoRo2/ZoRo2-argon-rigid_attenuation.eps
%%CreationDate: 2021-09-24T15:28:59
%%Pages: (atend)
%%BoundingBox: 0 0 600 800
%%LanguageLevel: 3
%%EndComments
%%BeginProlog
%%BeginResource: procset (Apache XML Graphics Std ProcSet) 1.2 0
%%Version: 1.2 0
%%Copyright: (Copyright 2001-2003,2010 The Apache Software Foundation. License terms: http://www.apache.org/licenses/LICENSE-2.0)
/bd{bind def}bind def
/ld{load def}bd
/GR/grestore ld
/GS/gsave ld
/RM/rmoveto ld
/C/curveto ld
/t/show ld
/L/lineto ld
/ML/setmiterlimit ld
/CT/concat ld
/f/fill ld
/N/newpath ld
/S/stroke ld
/CC/setcmykcolor ld
/A/ashow ld
/cp/closepath ld
/RC/setrgbcolor ld
/LJ/setlinejoin ld
/GC/setgray ld
/LW/setlinewidth ld
/M/moveto ld
/re {4 2 roll M
1 index 0 rlineto
0 exch rlineto
neg 0 rlineto
cp } bd
/_ctm matrix def
/_tm matrix def
/BT { _ctm currentmatrix pop matrix _tm copy pop 0 0 moveto } bd
/ET { _ctm setmatrix } bd
/iTm { _ctm setmatrix _tm concat } bd
/Tm { _tm astore pop iTm 0 0 moveto } bd
/ux 0.0 def
/uy 0.0 def
/F {
  /Tp exch def
  /Tf exch def
  Tf findfont Tp scalefont setfont
  /cf Tf def  /cs Tp def
} bd
/ULS {currentpoint /uy exch def /ux exch def} bd
/ULE {
  /Tcx currentpoint pop def
  gsave
  newpath
  cf findfont cs scalefont dup
  /FontMatrix get 0 get /Ts exch def /FontInfo get dup
  /UnderlinePosition get Ts mul /To exch def
  /UnderlineThickness get Ts mul /Tt exch def
  ux uy To add moveto  Tcx uy To add lineto
  Tt setlinewidth stroke
  grestore
} bd
/OLE {
  /Tcx currentpoint pop def
  gsave
  newpath
  cf findfont cs scalefont dup
  /FontMatrix get 0 get /Ts exch def /FontInfo get dup
  /UnderlinePosition get Ts mul /To exch def
  /UnderlineThickness get Ts mul /Tt exch def
  ux uy To add cs add moveto Tcx uy To add cs add lineto
  Tt setlinewidth stroke
  grestore
} bd
/SOE {
  /Tcx currentpoint pop def
  gsave
  newpath
  cf findfont cs scalefont dup
  /FontMatrix get 0 get /Ts exch def /FontInfo get dup
  /UnderlinePosition get Ts mul /To exch def
  /UnderlineThickness get Ts mul /Tt exch def
  ux uy To add cs 10 mul 26 idiv add moveto Tcx uy To add cs 10 mul 26 idiv add lineto
  Tt setlinewidth stroke
  grestore
} bd
/QT {
/Y22 exch store
/X22 exch store
/Y21 exch store
/X21 exch store
currentpoint
/Y21 load 2 mul add 3 div exch
/X21 load 2 mul add 3 div exch
/X21 load 2 mul /X22 load add 3 div
/Y21 load 2 mul /Y22 load add 3 div
/X22 load /Y22 load curveto
} bd
/SSPD {
dup length /d exch dict def
{
/v exch def
/k exch def
currentpagedevice k known {
/cpdv currentpagedevice k get def
v cpdv ne {
/upd false def
/nullv v type /nulltype eq def
/nullcpdv cpdv type /nulltype eq def
nullv nullcpdv or
{
/upd true def
} {
/sametype v type cpdv type eq def
sametype {
v type /arraytype eq {
/vlen v length def
/cpdvlen cpdv length def
vlen cpdvlen eq {
0 1 vlen 1 sub {
/i exch def
/obj v i get def
/cpdobj cpdv i get def
obj cpdobj ne {
/upd true def
exit
} if
} for
} {
/upd true def
} ifelse
} {
v type /dicttype eq {
v {
/dv exch def
/dk exch def
/cpddv cpdv dk get def
dv cpddv ne {
/upd true def
exit
} if
} forall
} {
/upd true def
} ifelse
} ifelse
} if
} ifelse
upd true eq {
d k v put
} if
} if
} if
} forall
d length 0 gt {
d setpagedevice
} if
} bd
/RE { % /NewFontName [NewEncodingArray] /FontName RE -
  findfont dup length dict begin
  {
    1 index /FID ne
    {def} {pop pop} ifelse
  } forall
  /Encoding exch def
  /FontName 1 index def
  currentdict definefont pop
  end
} bind def
%%EndResource
%%BeginResource: procset (Apache XML Graphics EPS ProcSet) 1.0 0
%%Version: 1.0 0
%%Copyright: (Copyright 2002-2003 The Apache Software Foundation. License terms: http://www.apache.org/licenses/LICENSE-2.0)
/BeginEPSF { %def
/b4_Inc_state save def         % Save state for cleanup
/dict_count countdictstack def % Count objects on dict stack
/op_count count 1 sub def      % Count objects on operand stack
userdict begin                 % Push userdict on dict stack
/showpage { } def              % Redefine showpage, { } = null proc
0 setgray 0 setlinecap         % Prepare graphics state
1 setlinewidth 0 setlinejoin
10 setmiterlimit [ ] 0 setdash newpath
/languagelevel where           % If level not equal to 1 then
{pop languagelevel             % set strokeadjust and
1 ne                           % overprint to their defaults.
{false setstrokeadjust false setoverprint
} if
} if
} bd
/EndEPSF { %def
count op_count sub {pop} repeat            % Clean up stacks
countdictstack dict_count sub {end} repeat
b4_Inc_state restore
} bd
%%EndResource
%FOPBeginFontDict
%%IncludeResource: font Courier-Oblique
%%IncludeResource: font Courier-BoldOblique
%%IncludeResource: font Courier-Bold
%%IncludeResource: font ZapfDingbats
%%IncludeResource: font Symbol
%%IncludeResource: font Helvetica
%%IncludeResource: font Helvetica-Oblique
%%IncludeResource: font Helvetica-Bold
%%IncludeResource: font Helvetica-BoldOblique
%%IncludeResource: font Times-Roman
%%IncludeResource: font Times-Italic
%%IncludeResource: font Times-Bold
%%IncludeResource: font Times-BoldItalic
%%IncludeResource: font Courier
%FOPEndFontDict
%%BeginResource: encoding WinAnsiEncoding
/WinAnsiEncoding [
/.notdef /.notdef /.notdef /.notdef /.notdef
/.notdef /.notdef /.notdef /.notdef /.notdef
/.notdef /.notdef /.notdef /.notdef /.notdef
/.notdef /.notdef /.notdef /.notdef /.notdef
/.notdef /.notdef /.notdef /.notdef /.notdef
/.notdef /.notdef /.notdef /.notdef /.notdef
/.notdef /.notdef /space /exclam /quotedbl
/numbersign /dollar /percent /ampersand /quotesingle
/parenleft /parenright /asterisk /plus /comma
/hyphen /period /slash /zero /one
/two /three /four /five /six
/seven /eight /nine /colon /semicolon
/less /equal /greater /question /at
/A /B /C /D /E
/F /G /H /I /J
/K /L /M /N /O
/P /Q /R /S /T
/U /V /W /X /Y
/Z /bracketleft /backslash /bracketright /asciicircum
/underscore /quoteleft /a /b /c
/d /e /f /g /h
/i /j /k /l /m
/n /o /p /q /r
/s /t /u /v /w
/x /y /z /braceleft /bar
/braceright /asciitilde /bullet /Euro /bullet
/quotesinglbase /florin /quotedblbase /ellipsis /dagger
/daggerdbl /circumflex /perthousand /Scaron /guilsinglleft
/OE /bullet /Zcaron /bullet /bullet
/quoteleft /quoteright /quotedblleft /quotedblright /bullet
/endash /emdash /asciitilde /trademark /scaron
/guilsinglright /oe /bullet /zcaron /Ydieresis
/space /exclamdown /cent /sterling /currency
/yen /brokenbar /section /dieresis /copyright
/ordfeminine /guillemotleft /logicalnot /sfthyphen /registered
/macron /degree /plusminus /twosuperior /threesuperior
/acute /mu /paragraph /middot /cedilla
/onesuperior /ordmasculine /guillemotright /onequarter /onehalf
/threequarters /questiondown /Agrave /Aacute /Acircumflex
/Atilde /Adieresis /Aring /AE /Ccedilla
/Egrave /Eacute /Ecircumflex /Edieresis /Igrave
/Iacute /Icircumflex /Idieresis /Eth /Ntilde
/Ograve /Oacute /Ocircumflex /Otilde /Odieresis
/multiply /Oslash /Ugrave /Uacute /Ucircumflex
/Udieresis /Yacute /Thorn /germandbls /agrave
/aacute /acircumflex /atilde /adieresis /aring
/ae /ccedilla /egrave /eacute /ecircumflex
/edieresis /igrave /iacute /icircumflex /idieresis
/eth /ntilde /ograve /oacute /ocircumflex
/otilde /odieresis /divide /oslash /ugrave
/uacute /ucircumflex /udieresis /yacute /thorn
/ydieresis
] def
%%EndResource
%FOPBeginFontReencode
/Courier-Oblique findfont
dup length dict begin
  {1 index /FID ne {def} {pop pop} ifelse} forall
  /Encoding WinAnsiEncoding def
  currentdict
end
/Courier-Oblique exch definefont pop
/Courier-BoldOblique findfont
dup length dict begin
  {1 index /FID ne {def} {pop pop} ifelse} forall
  /Encoding WinAnsiEncoding def
  currentdict
end
/Courier-BoldOblique exch definefont pop
/Courier-Bold findfont
dup length dict begin
  {1 index /FID ne {def} {pop pop} ifelse} forall
  /Encoding WinAnsiEncoding def
  currentdict
end
/Courier-Bold exch definefont pop
/Helvetica findfont
dup length dict begin
  {1 index /FID ne {def} {pop pop} ifelse} forall
  /Encoding WinAnsiEncoding def
  currentdict
end
/Helvetica exch definefont pop
/Helvetica-Oblique findfont
dup length dict begin
  {1 index /FID ne {def} {pop pop} ifelse} forall
  /Encoding WinAnsiEncoding def
  currentdict
end
/Helvetica-Oblique exch definefont pop
/Helvetica-Bold findfont
dup length dict begin
  {1 index /FID ne {def} {pop pop} ifelse} forall
  /Encoding WinAnsiEncoding def
  currentdict
end
/Helvetica-Bold exch definefont pop
/Helvetica-BoldOblique findfont
dup length dict begin
  {1 index /FID ne {def} {pop pop} ifelse} forall
  /Encoding WinAnsiEncoding def
  currentdict
end
/Helvetica-BoldOblique exch definefont pop
/Times-Roman findfont
dup length dict begin
  {1 index /FID ne {def} {pop pop} ifelse} forall
  /Encoding WinAnsiEncoding def
  currentdict
end
/Times-Roman exch definefont pop
/Times-Italic findfont
dup length dict begin
  {1 index /FID ne {def} {pop pop} ifelse} forall
  /Encoding WinAnsiEncoding def
  currentdict
end
/Times-Italic exch definefont pop
/Times-Bold findfont
dup length dict begin
  {1 index /FID ne {def} {pop pop} ifelse} forall
  /Encoding WinAnsiEncoding def
  currentdict
end
/Times-Bold exch definefont pop
/Times-BoldItalic findfont
dup length dict begin
  {1 index /FID ne {def} {pop pop} ifelse} forall
  /Encoding WinAnsiEncoding def
  currentdict
end
/Times-BoldItalic exch definefont pop
/Courier findfont
dup length dict begin
  {1 index /FID ne {def} {pop pop} ifelse} forall
  /Encoding WinAnsiEncoding def
  currentdict
end
/Courier exch definefont pop
%FOPEndFontReencode
%%EndProlog
%%Page: 1 1
%%PageBoundingBox: 0 0 600 800
%%BeginPageSetup
[1 0 0 -1 0 800] CT
%%EndPageSetup
GS
1 GC
N
0 0 600 800 re
f
GR
GS
1 GC
N
0 0 600 800 re
f
GR
GS
1 GC
N
78 712 M
543 712 L
543 60 L
78 60 L
cp
f
GR
GS
0.873 GC
1 LJ
0.5 LW
N
78 712 M
78 60 L
S
GR
GS
0.873 GC
1 LJ
0.5 LW
N
129.667 712 M
129.667 60 L
S
GR
GS
0.873 GC
1 LJ
0.5 LW
N
181.333 712 M
181.333 60 L
S
GR
GS
0.873 GC
1 LJ
0.5 LW
N
233 712 M
233 60 L
S
GR
GS
0.873 GC
1 LJ
0.5 LW
N
284.667 712 M
284.667 60 L
S
GR
GS
0.873 GC
1 LJ
0.5 LW
N
336.333 712 M
336.333 60 L
S
GR
GS
0.873 GC
1 LJ
0.5 LW
N
388 712 M
388 60 L
S
GR
GS
0.873 GC
1 LJ
0.5 LW
N
439.667 712 M
439.667 60 L
S
GR
GS
0.873 GC
1 LJ
0.5 LW
N
491.333 712 M
491.333 60 L
S
GR
GS
0.873 GC
1 LJ
0.5 LW
N
543 712 M
543 60 L
S
GR
GS
0.873 GC
1 LJ
0.5 LW
N
543 712 M
78 712 L
S
GR
GS
0.873 GC
1 LJ
0.5 LW
N
543 618.857 M
78 618.857 L
S
GR
GS
0.873 GC
1 LJ
0.5 LW
N
543 525.714 M
78 525.714 L
S
GR
GS
0.873 GC
1 LJ
0.5 LW
N
543 432.571 M
78 432.571 L
S
GR
GS
0.873 GC
1 LJ
0.5 LW
N
543 339.429 M
78 339.429 L
S
GR
GS
0.873 GC
1 LJ
0.5 LW
N
543 246.286 M
78 246.286 L
S
GR
GS
0.873 GC
1 LJ
0.5 LW
N
543 153.143 M
78 153.143 L
S
GR
GS
0.873 GC
1 LJ
0.5 LW
N
543 60 M
78 60 L
S
GR
GS
0.149 GC
2 setlinecap
1 LJ
0.5 LW
N
78 712 M
543 712 L
S
GR
GS
0.149 GC
2 setlinecap
1 LJ
0.5 LW
N
78 60 M
543 60 L
S
GR
GS
0.149 GC
2 setlinecap
1 LJ
0.5 LW
N
78 712 M
78 705.48 L
S
GR
GS
0.149 GC
2 setlinecap
1 LJ
0.5 LW
N
129.667 712 M
129.667 705.48 L
S
GR
GS
0.149 GC
2 setlinecap
1 LJ
0.5 LW
N
181.333 712 M
181.333 705.48 L
S
GR
GS
0.149 GC
2 setlinecap
1 LJ
0.5 LW
N
233 712 M
233 705.48 L
S
GR
GS
0.149 GC
2 setlinecap
1 LJ
0.5 LW
N
284.667 712 M
284.667 705.48 L
S
GR
GS
0.149 GC
2 setlinecap
1 LJ
0.5 LW
N
336.333 712 M
336.333 705.48 L
S
GR
GS
0.149 GC
2 setlinecap
1 LJ
0.5 LW
N
388 712 M
388 705.48 L
S
GR
GS
0.149 GC
2 setlinecap
1 LJ
0.5 LW
N
439.667 712 M
439.667 705.48 L
S
GR
GS
0.149 GC
2 setlinecap
1 LJ
0.5 LW
N
491.333 712 M
491.333 705.48 L
S
GR
GS
0.149 GC
2 setlinecap
1 LJ
0.5 LW
N
543 712 M
543 705.48 L
S
GR
GS
0.149 GC
2 setlinecap
1 LJ
0.5 LW
N
78 60 M
78 66.52 L
S
GR
GS
0.149 GC
2 setlinecap
1 LJ
0.5 LW
N
129.667 60 M
129.667 66.52 L
S
GR
GS
0.149 GC
2 setlinecap
1 LJ
0.5 LW
N
181.333 60 M
181.333 66.52 L
S
GR
GS
0.149 GC
2 setlinecap
1 LJ
0.5 LW
N
233 60 M
233 66.52 L
S
GR
GS
0.149 GC
2 setlinecap
1 LJ
0.5 LW
N
284.667 60 M
284.667 66.52 L
S
GR
GS
0.149 GC
2 setlinecap
1 LJ
0.5 LW
N
336.333 60 M
336.333 66.52 L
S
GR
GS
0.149 GC
2 setlinecap
1 LJ
0.5 LW
N
388 60 M
388 66.52 L
S
GR
GS
0.149 GC
2 setlinecap
1 LJ
0.5 LW
N
439.667 60 M
439.667 66.52 L
S
GR
GS
0.149 GC
2 setlinecap
1 LJ
0.5 LW
N
491.333 60 M
491.333 66.52 L
S
GR
GS
0.149 GC
2 setlinecap
1 LJ
0.5 LW
N
543 60 M
543 66.52 L
S
GR
GS
[1 0 0 1 78 716] CT
0.149 GC
/Helvetica 10 F
GS
[1 0 0 1 0 0] CT
-3 10 moveto 
1 -1 scale
(0) t 
GR
GR
GS
[1 0 0 1 129.66667 716] CT
0.149 GC
/Helvetica 10 F
GS
[1 0 0 1 0 0] CT
-3 10 moveto 
1 -1 scale
(2) t 
GR
GR
GS
[1 0 0 1 181.33333 716] CT
0.149 GC
/Helvetica 10 F
GS
[1 0 0 1 0 0] CT
-3 10 moveto 
1 -1 scale
(4) t 
GR
GR
GS
[1 0 0 1 233 716] CT
0.149 GC
/Helvetica 10 F
GS
[1 0 0 1 0 0] CT
-3 10 moveto 
1 -1 scale
(6) t 
GR
GR
GS
[1 0 0 1 284.66666 716] CT
0.149 GC
/Helvetica 10 F
GS
[1 0 0 1 0 0] CT
-3 10 moveto 
1 -1 scale
(8) t 
GR
GR
GS
[1 0 0 1 336.33334 716] CT
0.149 GC
/Helvetica 10 F
GS
[1 0 0 1 0 0] CT
-6 10 moveto 
1 -1 scale
(10) t 
GR
GR
GS
[1 0 0 1 388 716] CT
0.149 GC
/Helvetica 10 F
GS
[1 0 0 1 0 0] CT
-6 10 moveto 
1 -1 scale
(12) t 
GR
GR
GS
[1 0 0 1 439.66666 716] CT
0.149 GC
/Helvetica 10 F
GS
[1 0 0 1 0 0] CT
-6 10 moveto 
1 -1 scale
(14) t 
GR
GR
GS
[1 0 0 1 491.33334 716] CT
0.149 GC
/Helvetica 10 F
GS
[1 0 0 1 0 0] CT
-6 10 moveto 
1 -1 scale
(16) t 
GR
GR
GS
[1 0 0 1 543 716] CT
0.149 GC
/Helvetica 10 F
GS
[1 0 0 1 0 0] CT
-6 10 moveto 
1 -1 scale
(18) t 
GR
GR
GS
[1 0 0 1 310.50021 730] CT
0.149 GC
/Helvetica 11 F
GS
[1 0 0 1 0 0] CT
-57 11 moveto 
1 -1 scale
(mode angular number l) t 
GR
GR
GS
0.149 GC
2 setlinecap
1 LJ
0.5 LW
N
78 712 M
78 60 L
S
GR
GS
0.149 GC
2 setlinecap
1 LJ
0.5 LW
N
543 712 M
543 60 L
S
GR
GS
0.149 GC
2 setlinecap
1 LJ
0.5 LW
N
78 712 M
84.52 712 L
S
GR
GS
0.149 GC
2 setlinecap
1 LJ
0.5 LW
N
78 618.857 M
84.52 618.857 L
S
GR
GS
0.149 GC
2 setlinecap
1 LJ
0.5 LW
N
78 525.714 M
84.52 525.714 L
S
GR
GS
0.149 GC
2 setlinecap
1 LJ
0.5 LW
N
78 432.571 M
84.52 432.571 L
S
GR
GS
0.149 GC
2 setlinecap
1 LJ
0.5 LW
N
78 339.429 M
84.52 339.429 L
S
GR
GS
0.149 GC
2 setlinecap
1 LJ
0.5 LW
N
78 246.286 M
84.52 246.286 L
S
GR
GS
0.149 GC
2 setlinecap
1 LJ
0.5 LW
N
78 153.143 M
84.52 153.143 L
S
GR
GS
0.149 GC
2 setlinecap
1 LJ
0.5 LW
N
78 60 M
84.52 60 L
S
GR
GS
0.149 GC
2 setlinecap
1 LJ
0.5 LW
N
543 712 M
536.48 712 L
S
GR
GS
0.149 GC
2 setlinecap
1 LJ
0.5 LW
N
543 618.857 M
536.48 618.857 L
S
GR
GS
0.149 GC
2 setlinecap
1 LJ
0.5 LW
N
543 525.714 M
536.48 525.714 L
S
GR
GS
0.149 GC
2 setlinecap
1 LJ
0.5 LW
N
543 432.571 M
536.48 432.571 L
S
GR
GS
0.149 GC
2 setlinecap
1 LJ
0.5 LW
N
543 339.429 M
536.48 339.429 L
S
GR
GS
0.149 GC
2 setlinecap
1 LJ
0.5 LW
N
543 246.286 M
536.48 246.286 L
S
GR
GS
0.149 GC
2 setlinecap
1 LJ
0.5 LW
N
543 153.143 M
536.48 153.143 L
S
GR
GS
0.149 GC
2 setlinecap
1 LJ
0.5 LW
N
543 60 M
536.48 60 L
S
GR
GS
[1 0 0 1 74 712] CT
0.149 GC
/Helvetica 10 F
GS
[1 0 0 1 0 0] CT
-6 3.5 moveto 
1 -1 scale
(0) t 
GR
GR
GS
[1 0 0 1 74 618.85712] CT
0.149 GC
/Helvetica 10 F
GS
[1 0 0 1 0 0] CT
-14 3.5 moveto 
1 -1 scale
(0.5) t 
GR
GR
GS
[1 0 0 1 74 525.71429] CT
0.149 GC
/Helvetica 10 F
GS
[1 0 0 1 0 0] CT
-6 3.5 moveto 
1 -1 scale
(1) t 
GR
GR
GS
[1 0 0 1 74 432.57144] CT
0.149 GC
/Helvetica 10 F
GS
[1 0 0 1 0 0] CT
-14 3.5 moveto 
1 -1 scale
(1.5) t 
GR
GR
GS
[1 0 0 1 74 339.42856] CT
0.149 GC
/Helvetica 10 F
GS
[1 0 0 1 0 0] CT
-6 3.5 moveto 
1 -1 scale
(2) t 
GR
GR
GS
[1 0 0 1 74 246.28572] CT
0.149 GC
/Helvetica 10 F
GS
[1 0 0 1 0 0] CT
-14 3.5 moveto 
1 -1 scale
(2.5) t 
GR
GR
GS
[1 0 0 1 74 153.14285] CT
0.149 GC
/Helvetica 10 F
GS
[1 0 0 1 0 0] CT
-6 3.5 moveto 
1 -1 scale
(3) t 
GR
GR
GS
[1 0 0 1 74 60] CT
0.149 GC
/Helvetica 10 F
GS
[1 0 0 1 0 0] CT
-14 3.5 moveto 
1 -1 scale
(3.5) t 
GR
GR
GS
[0 -1 1 0 50 430] CT
0.149 GC
/Helvetica 11 F
GS
[1 0 0 1 0 0] CT
0 0 moveto 
1 -1 scale
(g) t 
GR
GR
GS
[0 -1 1 0 55 423] CT
0.149 GC
/Helvetica 8.8 F
GS
[1 0 0 1 0 0] CT
0 0 moveto 
1 -1 scale
(nl) t 
GR
GR
GS
[0 -1 1 0 50 416] CT
0.149 GC
/Helvetica 11 F
GS
[1 0 0 1 0 0] CT
0 0 moveto 
1 -1 scale
( half-width \(Hz\)) t 
GR
GR
GS
[1 0 0 1 234 22] CT
/Helvetica-Bold 11 F
GS
[1 0 0 1 0 0] CT
0 0 moveto 
1 -1 scale
(g) t 
GR
GR
GS
[1 0 0 1 241 27] CT
/Helvetica-Bold 8.8 F
GS
[1 0 0 1 0 0] CT
0 0 moveto 
1 -1 scale
(nl) t 
GR
GR
GS
[1 0 0 1 249 22] CT
/Helvetica-Bold 11 F
GS
[1 0 0 1 0 0] CT
0 0 moveto 
1 -1 scale
( half-widths for modes ) t 
GR
GR
GS
[1 0 0 1 371 27] CT
/Helvetica-Bold 8.8 F
GS
[1 0 0 1 0 0] CT
0 0 moveto 
1 -1 scale
(n) t 
GR
GR
GS
[1 0 0 1 377 22] CT
/Helvetica-Bold 11 F
GS
[1 0 0 1 0 0] CT
0 0 moveto 
1 -1 scale
(S) t 
GR
GR
GS
[1 0 0 1 385 27] CT
/Helvetica-Bold 8.8 F
GS
[1 0 0 1 0 0] CT
0 0 moveto 
1 -1 scale
(l) t 
GR
GR
GS
[1 0 0 1 135 40] CT
/Helvetica-Bold 11 F
GS
[1 0 0 1 0 0] CT
0 0 moveto 
1 -1 scale
(in a spherical shell of fluid enclosed between inner and outer shells) t 
GR
GR
GS
[1 0 0 1 182 54] CT
/Helvetica-Bold 11 F
GS
[1 0 0 1 0 0] CT
0 0 moveto 
1 -1 scale
(sphere type : ZoRo2-argon-rigid     \(24-Sep-2021\)) t 
GR
GR
GS
[1 0 0 1 103.83334 657.81415] CT
N
3 0 M
3 -1.657 1.657 -3 0 -3 C
-1.657 -3 -3 -1.657 -3 0 C
-3 1.657 -1.657 3 0 3 C
1.657 3 3 1.657 3 0 C
cp
f
GR
GS
[1 0 0 1 103.83334 657.81415] CT
10.0 ML
N
3 0 M
3 -1.657 1.657 -3 0 -3 C
-1.657 -3 -3 -1.657 -3 0 C
-3 1.657 -1.657 3 0 3 C
1.657 3 3 1.657 3 0 C
cp
S
GR
GS
[1 0 0 1 129.66667 627.36731] CT
N
/f-2087191549{3 0 M
3 -1.657 1.657 -3 0 -3 C
-1.657 -3 -3 -1.657 -3 0 C
-3 1.657 -1.657 3 0 3 C
1.657 3 3 1.657 3 0 C
cp}def
f-2087191549
f
GR
GS
[1 0 0 1 129.66667 627.36731] CT
10.0 ML
N
3 0 M
3 -1.657 1.657 -3 0 -3 C
-1.657 -3 -3 -1.657 -3 0 C
-3 1.657 -1.657 3 0 3 C
1.657 3 3 1.657 3 0 C
cp
S
GR
GS
[1 0 0 1 155.5 596.98724] CT
N
f-2087191549
f
GR
GS
[1 0 0 1 155.5 596.98724] CT
10.0 ML
N
3 0 M
3 -1.657 1.657 -3 0 -3 C
-1.657 -3 -3 -1.657 -3 0 C
-3 1.657 -1.657 3 0 3 C
1.657 3 3 1.657 3 0 C
cp
S
GR
GS
[1 0 0 1 181.33333 566.19891] CT
N
f-2087191549
f
GR
GS
[1 0 0 1 181.33333 566.19891] CT
10.0 ML
N
3 0 M
3 -1.657 1.657 -3 0 -3 C
-1.657 -3 -3 -1.657 -3 0 C
-3 1.657 -1.657 3 0 3 C
1.657 3 3 1.657 3 0 C
cp
S
GR
GS
[1 0 0 1 207.16667 534.92401] CT
N
f-2087191549
f
GR
GS
[1 0 0 1 207.16667 534.92401] CT
10.0 ML
N
3 0 M
3 -1.657 1.657 -3 0 -3 C
-1.657 -3 -3 -1.657 -3 0 C
-3 1.657 -1.657 3 0 3 C
1.657 3 3 1.657 3 0 C
cp
S
GR
GS
[1 0 0 1 233 503.1615] CT
N
f-2087191549
f
GR
GS
[1 0 0 1 233 503.1615] CT
10.0 ML
N
3 0 M
3 -1.657 1.657 -3 0 -3 C
-1.657 -3 -3 -1.657 -3 0 C
-3 1.657 -1.657 3 0 3 C
1.657 3 3 1.657 3 0 C
cp
S
GR
GS
[1 0 0 1 258.83334 470.93027] CT
N
f-2087191549
f
GR
GS
[1 0 0 1 258.83334 470.93027] CT
10.0 ML
N
3 0 M
3 -1.657 1.657 -3 0 -3 C
-1.657 -3 -3 -1.657 -3 0 C
-3 1.657 -1.657 3 0 3 C
1.657 3 3 1.657 3 0 C
cp
S
GR
GS
[1 0 0 1 284.66666 438.25388] CT
N
f-2087191549
f
GR
GS
[1 0 0 1 284.66666 438.25388] CT
10.0 ML
N
3 0 M
3 -1.657 1.657 -3 0 -3 C
-1.657 -3 -3 -1.657 -3 0 C
-3 1.657 -1.657 3 0 3 C
1.657 3 3 1.657 3 0 C
cp
S
GR
GS
[1 0 0 1 310.5 405.15582] CT
N
f-2087191549
f
GR
GS
[1 0 0 1 310.5 405.15582] CT
10.0 ML
N
3 0 M
3 -1.657 1.657 -3 0 -3 C
-1.657 -3 -3 -1.657 -3 0 C
-3 1.657 -1.657 3 0 3 C
1.657 3 3 1.657 3 0 C
cp
S
GR
GS
[1 0 0 1 336.33334 371.65823] CT
N
f-2087191549
f
GR
GS
[1 0 0 1 336.33334 371.65823] CT
10.0 ML
N
3 0 M
3 -1.657 1.657 -3 0 -3 C
-1.657 -3 -3 -1.657 -3 0 C
-3 1.657 -1.657 3 0 3 C
1.657 3 3 1.657 3 0 C
cp
S
GR
GS
[1 0 0 1 362.16666 337.78125] CT
N
f-2087191549
f
GR
GS
[1 0 0 1 362.16666 337.78125] CT
10.0 ML
N
3 0 M
3 -1.657 1.657 -3 0 -3 C
-1.657 -3 -3 -1.657 -3 0 C
-3 1.657 -1.657 3 0 3 C
1.657 3 3 1.657 3 0 C
cp
S
GR
GS
[1 0 0 1 388 303.54309] CT
N
f-2087191549
f
GR
GS
[1 0 0 1 388 303.54309] CT
10.0 ML
N
3 0 M
3 -1.657 1.657 -3 0 -3 C
-1.657 -3 -3 -1.657 -3 0 C
-3 1.657 -1.657 3 0 3 C
1.657 3 3 1.657 3 0 C
cp
S
GR
GS
[1 0 0 1 413.83334 268.96039] CT
N
f-2087191549
f
GR
GS
[1 0 0 1 413.83334 268.96039] CT
10.0 ML
N
3 0 M
3 -1.657 1.657 -3 0 -3 C
-1.657 -3 -3 -1.657 -3 0 C
-3 1.657 -1.657 3 0 3 C
1.657 3 3 1.657 3 0 C
cp
S
GR
GS
[1 0 0 1 439.66666 234.04793] CT
N
f-2087191549
f
GR
GS
[1 0 0 1 439.66666 234.04793] CT
10.0 ML
N
3 0 M
3 -1.657 1.657 -3 0 -3 C
-1.657 -3 -3 -1.657 -3 0 C
-3 1.657 -1.657 3 0 3 C
1.657 3 3 1.657 3 0 C
cp
S
GR
GS
[1 0 0 1 465.5 198.81943] CT
N
f-2087191549
f
GR
GS
[1 0 0 1 465.5 198.81943] CT
10.0 ML
N
3 0 M
3 -1.657 1.657 -3 0 -3 C
-1.657 -3 -3 -1.657 -3 0 C
-3 1.657 -1.657 3 0 3 C
1.657 3 3 1.657 3 0 C
cp
S
GR
GS
[1 0 0 1 491.33334 163.28719] CT
N
f-2087191549
f
GR
GS
[1 0 0 1 491.33334 163.28719] CT
10.0 ML
N
3 0 M
3 -1.657 1.657 -3 0 -3 C
-1.657 -3 -3 -1.657 -3 0 C
-3 1.657 -1.657 3 0 3 C
1.657 3 3 1.657 3 0 C
cp
S
GR
GS
[1 0 0 1 517.16669 127.46252] CT
N
f-2087191549
f
GR
GS
[1 0 0 1 517.16669 127.46252] CT
10.0 ML
N
3 0 M
3 -1.657 1.657 -3 0 -3 C
-1.657 -3 -3 -1.657 -3 0 C
-3 1.657 -1.657 3 0 3 C
1.657 3 3 1.657 3 0 C
cp
S
GR
GS
[1 0 0 1 543 91.35574] CT
N
f-2087191549
f
GR
GS
[1 0 0 1 543 91.35574] CT
10.0 ML
N
3 0 M
3 -1.657 1.657 -3 0 -3 C
-1.657 -3 -3 -1.657 -3 0 C
-3 1.657 -1.657 3 0 3 C
1.657 3 3 1.657 3 0 C
cp
S
GR
GS
[1 0 0 1 78 684.33923] CT
0 0 1 RC
N
/f1363619694{-2.121 -2.121 M
2.121 2.121 L
-2.121 2.121 M
2.121 -2.121 L}def
f1363619694
f
GR
GS
[1 0 0 1 78 684.33923] CT
0 0 1 RC
10.0 ML
N
-2.121 -2.121 M
2.121 2.121 L
-2.121 2.121 M
2.121 -2.121 L
S
GR
GS
[1 0 0 1 103.83334 675.85059] CT
0 0 1 RC
N
f1363619694
f
GR
GS
[1 0 0 1 103.83334 675.85059] CT
0 0 1 RC
10.0 ML
N
-2.121 -2.121 M
2.121 2.121 L
-2.121 2.121 M
2.121 -2.121 L
S
GR
GS
[1 0 0 1 129.66667 666.58197] CT
0 0 1 RC
N
f1363619694
f
GR
GS
[1 0 0 1 129.66667 666.58197] CT
0 0 1 RC
10.0 ML
N
-2.121 -2.121 M
2.121 2.121 L
-2.121 2.121 M
2.121 -2.121 L
S
GR
GS
[1 0 0 1 155.5 656.86987] CT
0 0 1 RC
N
f1363619694
f
GR
GS
[1 0 0 1 155.5 656.86987] CT
0 0 1 RC
10.0 ML
N
-2.121 -2.121 M
2.121 2.121 L
-2.121 2.121 M
2.121 -2.121 L
S
GR
GS
[1 0 0 1 181.33333 646.84033] CT
0 0 1 RC
N
f1363619694
f
GR
GS
[1 0 0 1 181.33333 646.84033] CT
0 0 1 RC
10.0 ML
N
-2.121 -2.121 M
2.121 2.121 L
-2.121 2.121 M
2.121 -2.121 L
S
GR
GS
[1 0 0 1 207.16667 636.55658] CT
0 0 1 RC
N
f1363619694
f
GR
GS
[1 0 0 1 207.16667 636.55658] CT
0 0 1 RC
10.0 ML
N
-2.121 -2.121 M
2.121 2.121 L
-2.121 2.121 M
2.121 -2.121 L
S
GR
GS
[1 0 0 1 233 626.05627] CT
0 0 1 RC
N
f1363619694
f
GR
GS
[1 0 0 1 233 626.05627] CT
0 0 1 RC
10.0 ML
N
-2.121 -2.121 M
2.121 2.121 L
-2.121 2.121 M
2.121 -2.121 L
S
GR
GS
[1 0 0 1 258.83334 615.36456] CT
0 0 1 RC
N
f1363619694
f
GR
GS
[1 0 0 1 258.83334 615.36456] CT
0 0 1 RC
10.0 ML
N
-2.121 -2.121 M
2.121 2.121 L
-2.121 2.121 M
2.121 -2.121 L
S
GR
GS
[1 0 0 1 284.66666 604.49939] CT
0 0 1 RC
N
f1363619694
f
GR
GS
[1 0 0 1 284.66666 604.49939] CT
0 0 1 RC
10.0 ML
N
-2.121 -2.121 M
2.121 2.121 L
-2.121 2.121 M
2.121 -2.121 L
S
GR
GS
[1 0 0 1 310.5 593.47455] CT
0 0 1 RC
N
f1363619694
f
GR
GS
[1 0 0 1 310.5 593.47455] CT
0 0 1 RC
10.0 ML
N
-2.121 -2.121 M
2.121 2.121 L
-2.121 2.121 M
2.121 -2.121 L
S
GR
GS
[1 0 0 1 336.33334 582.3009] CT
0 0 1 RC
N
f1363619694
f
GR
GS
[1 0 0 1 336.33334 582.3009] CT
0 0 1 RC
10.0 ML
N
-2.121 -2.121 M
2.121 2.121 L
-2.121 2.121 M
2.121 -2.121 L
S
GR
GS
[1 0 0 1 362.16666 570.98724] CT
0 0 1 RC
N
f1363619694
f
GR
GS
[1 0 0 1 362.16666 570.98724] CT
0 0 1 RC
10.0 ML
N
-2.121 -2.121 M
2.121 2.121 L
-2.121 2.121 M
2.121 -2.121 L
S
GR
GS
[1 0 0 1 388 559.54102] CT
0 0 1 RC
N
f1363619694
f
GR
GS
[1 0 0 1 388 559.54102] CT
0 0 1 RC
10.0 ML
N
-2.121 -2.121 M
2.121 2.121 L
-2.121 2.121 M
2.121 -2.121 L
S
GR
GS
[1 0 0 1 413.83334 547.96851] CT
0 0 1 RC
N
f1363619694
f
GR
GS
[1 0 0 1 413.83334 547.96851] CT
0 0 1 RC
10.0 ML
N
-2.121 -2.121 M
2.121 2.121 L
-2.121 2.121 M
2.121 -2.121 L
S
GR
GS
[1 0 0 1 439.66666 536.27521] CT
0 0 1 RC
N
f1363619694
f
GR
GS
[1 0 0 1 439.66666 536.27521] CT
0 0 1 RC
10.0 ML
N
-2.121 -2.121 M
2.121 2.121 L
-2.121 2.121 M
2.121 -2.121 L
S
GR
GS
[1 0 0 1 465.5 524.46588] CT
0 0 1 RC
N
f1363619694
f
GR
GS
[1 0 0 1 465.5 524.46588] CT
0 0 1 RC
10.0 ML
N
-2.121 -2.121 M
2.121 2.121 L
-2.121 2.121 M
2.121 -2.121 L
S
GR
GS
[1 0 0 1 491.33334 512.54474] CT
0 0 1 RC
N
f1363619694
f
GR
GS
[1 0 0 1 491.33334 512.54474] CT
0 0 1 RC
10.0 ML
N
-2.121 -2.121 M
2.121 2.121 L
-2.121 2.121 M
2.121 -2.121 L
S
GR
GS
[1 0 0 1 517.16669 500.51563] CT
0 0 1 RC
N
f1363619694
f
GR
GS
[1 0 0 1 517.16669 500.51563] CT
0 0 1 RC
10.0 ML
N
-2.121 -2.121 M
2.121 2.121 L
-2.121 2.121 M
2.121 -2.121 L
S
GR
GS
[1 0 0 1 543 488.38196] CT
0 0 1 RC
N
f1363619694
f
GR
GS
[1 0 0 1 543 488.38196] CT
0 0 1 RC
10.0 ML
N
-2.121 -2.121 M
2.121 2.121 L
-2.121 2.121 M
2.121 -2.121 L
S
GR
GS
[1 0 0 1 78 675.33087] CT
1 0 0 RC
N
/f909745642{0 -3 M
0 3 L
-3 0 M
3 0 L}def
f909745642
f
GR
GS
[1 0 0 1 78 675.33087] CT
1 0 0 RC
10.0 ML
N
0 -3 M
0 3 L
-3 0 M
3 0 L
S
GR
GS
[1 0 0 1 103.83334 669.63135] CT
1 0 0 RC
N
f909745642
f
GR
GS
[1 0 0 1 103.83334 669.63135] CT
1 0 0 RC
10.0 ML
N
0 -3 M
0 3 L
-3 0 M
3 0 L
S
GR
GS
[1 0 0 1 129.66667 663.24731] CT
1 0 0 RC
N
f909745642
f
GR
GS
[1 0 0 1 129.66667 663.24731] CT
1 0 0 RC
10.0 ML
N
0 -3 M
0 3 L
-3 0 M
3 0 L
S
GR
GS
[1 0 0 1 155.5 656.45099] CT
1 0 0 RC
N
f909745642
f
GR
GS
[1 0 0 1 155.5 656.45099] CT
1 0 0 RC
10.0 ML
N
0 -3 M
0 3 L
-3 0 M
3 0 L
S
GR
GS
[1 0 0 1 181.33333 649.36566] CT
1 0 0 RC
N
f909745642
f
GR
GS
[1 0 0 1 181.33333 649.36566] CT
1 0 0 RC
10.0 ML
N
0 -3 M
0 3 L
-3 0 M
3 0 L
S
GR
GS
[1 0 0 1 207.16667 642.05756] CT
1 0 0 RC
N
f909745642
f
GR
GS
[1 0 0 1 207.16667 642.05756] CT
1 0 0 RC
10.0 ML
N
0 -3 M
0 3 L
-3 0 M
3 0 L
S
GR
GS
[1 0 0 1 233 634.56635] CT
1 0 0 RC
N
f909745642
f
GR
GS
[1 0 0 1 233 634.56635] CT
1 0 0 RC
10.0 ML
N
0 -3 M
0 3 L
-3 0 M
3 0 L
S
GR
GS
[1 0 0 1 258.83334 626.91803] CT
1 0 0 RC
N
f909745642
f
GR
GS
[1 0 0 1 258.83334 626.91803] CT
1 0 0 RC
10.0 ML
N
0 -3 M
0 3 L
-3 0 M
3 0 L
S
GR
GS
[1 0 0 1 284.66666 619.1308] CT
1 0 0 RC
N
f909745642
f
GR
GS
[1 0 0 1 284.66666 619.1308] CT
1 0 0 RC
10.0 ML
N
0 -3 M
0 3 L
-3 0 M
3 0 L
S
GR
GS
[1 0 0 1 310.5 611.21771] CT
1 0 0 RC
N
f909745642
f
GR
GS
[1 0 0 1 310.5 611.21771] CT
1 0 0 RC
10.0 ML
N
0 -3 M
0 3 L
-3 0 M
3 0 L
S
GR
GS
[1 0 0 1 336.33334 603.18903] CT
1 0 0 RC
N
f909745642
f
GR
GS
[1 0 0 1 336.33334 603.18903] CT
1 0 0 RC
10.0 ML
N
0 -3 M
0 3 L
-3 0 M
3 0 L
S
GR
GS
[1 0 0 1 362.16666 595.05249] CT
1 0 0 RC
N
f909745642
f
GR
GS
[1 0 0 1 362.16666 595.05249] CT
1 0 0 RC
10.0 ML
N
0 -3 M
0 3 L
-3 0 M
3 0 L
S
GR
GS
[1 0 0 1 388 586.81464] CT
1 0 0 RC
N
f909745642
f
GR
GS
[1 0 0 1 388 586.81464] CT
1 0 0 RC
10.0 ML
N
0 -3 M
0 3 L
-3 0 M
3 0 L
S
GR
GS
[1 0 0 1 413.83334 578.48065] CT
1 0 0 RC
N
f909745642
f
GR
GS
[1 0 0 1 413.83334 578.48065] CT
1 0 0 RC
10.0 ML
N
0 -3 M
0 3 L
-3 0 M
3 0 L
S
GR
GS
[1 0 0 1 439.66666 570.05505] CT
1 0 0 RC
N
f909745642
f
GR
GS
[1 0 0 1 439.66666 570.05505] CT
1 0 0 RC
10.0 ML
N
0 -3 M
0 3 L
-3 0 M
3 0 L
S
GR
GS
[1 0 0 1 465.5 561.54156] CT
1 0 0 RC
N
f909745642
f
GR
GS
[1 0 0 1 465.5 561.54156] CT
1 0 0 RC
10.0 ML
N
0 -3 M
0 3 L
-3 0 M
3 0 L
S
GR
GS
[1 0 0 1 491.33334 552.94348] CT
1 0 0 RC
N
f909745642
f
GR
GS
[1 0 0 1 491.33334 552.94348] CT
1 0 0 RC
10.0 ML
N
0 -3 M
0 3 L
-3 0 M
3 0 L
S
GR
GS
[1 0 0 1 517.16669 544.26373] CT
1 0 0 RC
N
f909745642
f
GR
GS
[1 0 0 1 517.16669 544.26373] CT
1 0 0 RC
10.0 ML
N
0 -3 M
0 3 L
-3 0 M
3 0 L
S
GR
GS
[1 0 0 1 543 535.50482] CT
1 0 0 RC
N
f909745642
f
GR
GS
[1 0 0 1 543 535.50482] CT
1 0 0 RC
10.0 ML
N
0 -3 M
0 3 L
-3 0 M
3 0 L
S
GR
GS
[1 0 0 1 78 667.85608] CT
1 0 1 RC
N
/f1414333259{0 3.999 M
-3.463 -2 L
3.463 -2 L
cp}def
f1414333259
f
GR
GS
[1 0 0 1 78 667.85608] CT
1 0 1 RC
10.0 ML
N
0 3.999 M
-3.463 -2 L
3.463 -2 L
cp
S
GR
GS
[1 0 0 1 103.83334 663.26056] CT
1 0 1 RC
N
f1414333259
f
GR
GS
[1 0 0 1 103.83334 663.26056] CT
1 0 1 RC
10.0 ML
N
0 3.999 M
-3.463 -2 L
3.463 -2 L
cp
S
GR
GS
[1 0 0 1 129.66667 658.11218] CT
1 0 1 RC
N
f1414333259
f
GR
GS
[1 0 0 1 129.66667 658.11218] CT
1 0 1 RC
10.0 ML
N
0 3.999 M
-3.463 -2 L
3.463 -2 L
cp
S
GR
GS
[1 0 0 1 155.5 652.60059] CT
1 0 1 RC
N
f1414333259
f
GR
GS
[1 0 0 1 155.5 652.60059] CT
1 0 1 RC
10.0 ML
N
0 3.999 M
-3.463 -2 L
3.463 -2 L
cp
S
GR
GS
[1 0 0 1 181.33333 646.82501] CT
1 0 1 RC
N
f1414333259
f
GR
GS
[1 0 0 1 181.33333 646.82501] CT
1 0 1 RC
10.0 ML
N
0 3.999 M
-3.463 -2 L
3.463 -2 L
cp
S
GR
GS
[1 0 0 1 207.16667 640.84344] CT
1 0 1 RC
N
f1414333259
f
GR
GS
[1 0 0 1 207.16667 640.84344] CT
1 0 1 RC
10.0 ML
N
0 3.999 M
-3.463 -2 L
3.463 -2 L
cp
S
GR
GS
[1 0 0 1 233 634.69257] CT
1 0 1 RC
N
f1414333259
f
GR
GS
[1 0 0 1 233 634.69257] CT
1 0 1 RC
10.0 ML
N
0 3.999 M
-3.463 -2 L
3.463 -2 L
cp
S
GR
GS
[1 0 0 1 258.83334 628.39716] CT
1 0 1 RC
N
f1414333259
f
GR
GS
[1 0 0 1 258.83334 628.39716] CT
1 0 1 RC
10.0 ML
N
0 3.999 M
-3.463 -2 L
3.463 -2 L
cp
S
GR
GS
[1 0 0 1 284.66666 621.97479] CT
1 0 1 RC
N
f1414333259
f
GR
GS
[1 0 0 1 284.66666 621.97479] CT
1 0 1 RC
10.0 ML
N
0 3.999 M
-3.463 -2 L
3.463 -2 L
cp
S
GR
GS
[1 0 0 1 310.5 615.43842] CT
1 0 1 RC
N
f1414333259
f
GR
GS
[1 0 0 1 310.5 615.43842] CT
1 0 1 RC
10.0 ML
N
0 3.999 M
-3.463 -2 L
3.463 -2 L
cp
S
GR
GS
[1 0 0 1 336.33334 608.79779] CT
1 0 1 RC
N
f1414333259
f
GR
GS
[1 0 0 1 336.33334 608.79779] CT
1 0 1 RC
10.0 ML
N
0 3.999 M
-3.463 -2 L
3.463 -2 L
cp
S
GR
GS
[1 0 0 1 362.16666 602.06073] CT
1 0 1 RC
N
f1414333259
f
GR
GS
[1 0 0 1 362.16666 602.06073] CT
1 0 1 RC
10.0 ML
N
0 3.999 M
-3.463 -2 L
3.463 -2 L
cp
S
GR
GS
[1 0 0 1 388 595.23328] CT
1 0 1 RC
N
f1414333259
f
GR
GS
[1 0 0 1 388 595.23328] CT
1 0 1 RC
10.0 ML
N
0 3.999 M
-3.463 -2 L
3.463 -2 L
cp
S
GR
GS
[1 0 0 1 413.83334 588.32062] CT
1 0 1 RC
N
f1414333259
f
GR
GS
[1 0 0 1 413.83334 588.32062] CT
1 0 1 RC
10.0 ML
N
0 3.999 M
-3.463 -2 L
3.463 -2 L
cp
S
GR
GS
[1 0 0 1 439.66666 581.32684] CT
1 0 1 RC
N
f1414333259
f
GR
GS
[1 0 0 1 439.66666 581.32684] CT
1 0 1 RC
10.0 ML
N
0 3.999 M
-3.463 -2 L
3.463 -2 L
cp
S
GR
GS
[1 0 0 1 465.5 574.25555] CT
1 0 1 RC
N
f1414333259
f
GR
GS
[1 0 0 1 465.5 574.25555] CT
1 0 1 RC
10.0 ML
N
0 3.999 M
-3.463 -2 L
3.463 -2 L
cp
S
GR
GS
[1 0 0 1 491.33334 567.10986] CT
1 0 1 RC
N
f1414333259
f
GR
GS
[1 0 0 1 491.33334 567.10986] CT
1 0 1 RC
10.0 ML
N
0 3.999 M
-3.463 -2 L
3.463 -2 L
cp
S
GR
GS
[1 0 0 1 517.16669 559.89227] CT
1 0 1 RC
N
f1414333259
f
GR
GS
[1 0 0 1 517.16669 559.89227] CT
1 0 1 RC
10.0 ML
N
0 3.999 M
-3.463 -2 L
3.463 -2 L
cp
S
GR
GS
[1 0 0 1 543 552.60522] CT
1 0 1 RC
N
f1414333259
f
GR
GS
[1 0 0 1 543 552.60522] CT
1 0 1 RC
10.0 ML
N
0 3.999 M
-3.463 -2 L
3.463 -2 L
cp
S
GR
GS
[1 0 0 1 78 661.10492] CT
0 1 0 RC
N
/f701565780{-2 -2 M
-2 2 L
2 2 L
2 -2 L
cp}def
f701565780
f
GR
GS
[1 0 0 1 78 661.10492] CT
0 1 0 RC
10.0 ML
N
-2 -2 M
-2 2 L
2 2 L
2 -2 L
cp
S
GR
GS
[1 0 0 1 103.83334 657.08118] CT
0 1 0 RC
N
f701565780
f
GR
GS
[1 0 0 1 103.83334 657.08118] CT
0 1 0 RC
10.0 ML
N
-2 -2 M
-2 2 L
2 2 L
2 -2 L
cp
S
GR
GS
[1 0 0 1 129.66667 652.60431] CT
0 1 0 RC
N
f701565780
f
GR
GS
[1 0 0 1 129.66667 652.60431] CT
0 1 0 RC
10.0 ML
N
-2 -2 M
-2 2 L
2 2 L
2 -2 L
cp
S
GR
GS
[1 0 0 1 155.5 647.80908] CT
0 1 0 RC
N
f701565780
f
GR
GS
[1 0 0 1 155.5 647.80908] CT
0 1 0 RC
10.0 ML
N
-2 -2 M
-2 2 L
2 2 L
2 -2 L
cp
S
GR
GS
[1 0 0 1 181.33333 642.77338] CT
0 1 0 RC
N
f701565780
f
GR
GS
[1 0 0 1 181.33333 642.77338] CT
0 1 0 RC
10.0 ML
N
-2 -2 M
-2 2 L
2 2 L
2 -2 L
cp
S
GR
GS
[1 0 0 1 207.16667 637.5459] CT
0 1 0 RC
N
f701565780
f
GR
GS
[1 0 0 1 207.16667 637.5459] CT
0 1 0 RC
10.0 ML
N
-2 -2 M
-2 2 L
2 2 L
2 -2 L
cp
S
GR
GS
[1 0 0 1 233 632.15912] CT
0 1 0 RC
N
f701565780
f
GR
GS
[1 0 0 1 233 632.15912] CT
0 1 0 RC
10.0 ML
N
-2 -2 M
-2 2 L
2 2 L
2 -2 L
cp
S
GR
GS
[1 0 0 1 258.83334 626.63562] CT
0 1 0 RC
N
f701565780
f
GR
GS
[1 0 0 1 258.83334 626.63562] CT
0 1 0 RC
10.0 ML
N
-2 -2 M
-2 2 L
2 2 L
2 -2 L
cp
S
GR
GS
[1 0 0 1 284.66666 620.99188] CT
0 1 0 RC
N
f701565780
f
GR
GS
[1 0 0 1 284.66666 620.99188] CT
0 1 0 RC
10.0 ML
N
-2 -2 M
-2 2 L
2 2 L
2 -2 L
cp
S
GR
GS
[1 0 0 1 310.5 615.24017] CT
0 1 0 RC
N
f701565780
f
GR
GS
[1 0 0 1 310.5 615.24017] CT
0 1 0 RC
10.0 ML
N
-2 -2 M
-2 2 L
2 2 L
2 -2 L
cp
S
GR
GS
[1 0 0 1 336.33334 609.39001] CT
0 1 0 RC
N
f701565780
f
GR
GS
[1 0 0 1 336.33334 609.39001] CT
0 1 0 RC
10.0 ML
N
-2 -2 M
-2 2 L
2 2 L
2 -2 L
cp
S
GR
GS
[1 0 0 1 362.16666 603.44879] CT
0 1 0 RC
N
f701565780
f
GR
GS
[1 0 0 1 362.16666 603.44879] CT
0 1 0 RC
10.0 ML
N
-2 -2 M
-2 2 L
2 2 L
2 -2 L
cp
S
GR
GS
[1 0 0 1 388 597.42255] CT
0 1 0 RC
N
f701565780
f
GR
GS
[1 0 0 1 388 597.42255] CT
0 1 0 RC
10.0 ML
N
-2 -2 M
-2 2 L
2 2 L
2 -2 L
cp
S
GR
GS
[1 0 0 1 413.83334 591.31622] CT
0 1 0 RC
N
f701565780
f
GR
GS
[1 0 0 1 413.83334 591.31622] CT
0 1 0 RC
10.0 ML
N
-2 -2 M
-2 2 L
2 2 L
2 -2 L
cp
S
GR
GS
[1 0 0 1 439.66666 585.13397] CT
0 1 0 RC
N
f701565780
f
GR
GS
[1 0 0 1 439.66666 585.13397] CT
0 1 0 RC
10.0 ML
N
-2 -2 M
-2 2 L
2 2 L
2 -2 L
cp
S
GR
GS
[1 0 0 1 465.5 578.87915] CT
0 1 0 RC
N
f701565780
f
GR
GS
[1 0 0 1 465.5 578.87915] CT
0 1 0 RC
10.0 ML
N
-2 -2 M
-2 2 L
2 2 L
2 -2 L
cp
S
GR
GS
[1 0 0 1 491.33334 572.55475] CT
0 1 0 RC
N
f701565780
f
GR
GS
[1 0 0 1 491.33334 572.55475] CT
0 1 0 RC
10.0 ML
N
-2 -2 M
-2 2 L
2 2 L
2 -2 L
cp
S
GR
GS
[1 0 0 1 517.16669 566.16333] CT
0 1 0 RC
N
f701565780
f
GR
GS
[1 0 0 1 517.16669 566.16333] CT
0 1 0 RC
10.0 ML
N
-2 -2 M
-2 2 L
2 2 L
2 -2 L
cp
S
GR
GS
[1 0 0 1 543 559.70709] CT
0 1 0 RC
N
f701565780
f
GR
GS
[1 0 0 1 543 559.70709] CT
0 1 0 RC
10.0 ML
N
-2 -2 M
-2 2 L
2 2 L
2 -2 L
cp
S
GR
GS
[1 0 0 1 78 654.75031] CT
N
/f-500281869{-2.853 -0.927 M
-0.705 -0.927 L
0 -3 L
0.705 -0.927 L
2.853 -0.927 L
1.141 0.371 L
1.763 2.427 L
0 1.2 L
-1.763 2.427 L
-1.141 0.371 L
cp}def
f-500281869
f
GR
GS
[1 0 0 1 78 654.75031] CT
10.0 ML
N
-2.853 -0.927 M
-0.705 -0.927 L
0 -3 L
0.705 -0.927 L
2.853 -0.927 L
1.141 0.371 L
1.763 2.427 L
0 1.2 L
-1.763 2.427 L
-1.141 0.371 L
cp
S
GR
GS
[1 0 0 1 103.83334 651.05786] CT
N
f-500281869
f
GR
GS
[1 0 0 1 103.83334 651.05786] CT
10.0 ML
N
-2.853 -0.927 M
-0.705 -0.927 L
0 -3 L
0.705 -0.927 L
2.853 -0.927 L
1.141 0.371 L
1.763 2.427 L
0 1.2 L
-1.763 2.427 L
-1.141 0.371 L
cp
S
GR
GS
[1 0 0 1 129.66667 646.98566] CT
N
f-500281869
f
GR
GS
[1 0 0 1 129.66667 646.98566] CT
10.0 ML
N
-2.853 -0.927 M
-0.705 -0.927 L
0 -3 L
0.705 -0.927 L
2.853 -0.927 L
1.141 0.371 L
1.763 2.427 L
0 1.2 L
-1.763 2.427 L
-1.141 0.371 L
cp
S
GR
GS
[1 0 0 1 155.5 642.63257] CT
N
f-500281869
f
GR
GS
[1 0 0 1 155.5 642.63257] CT
10.0 ML
N
-2.853 -0.927 M
-0.705 -0.927 L
0 -3 L
0.705 -0.927 L
2.853 -0.927 L
1.141 0.371 L
1.763 2.427 L
0 1.2 L
-1.763 2.427 L
-1.141 0.371 L
cp
S
GR
GS
[1 0 0 1 181.33333 638.06006] CT
N
f-500281869
f
GR
GS
[1 0 0 1 181.33333 638.06006] CT
10.0 ML
N
-2.853 -0.927 M
-0.705 -0.927 L
0 -3 L
0.705 -0.927 L
2.853 -0.927 L
1.141 0.371 L
1.763 2.427 L
0 1.2 L
-1.763 2.427 L
-1.141 0.371 L
cp
S
GR
GS
[1 0 0 1 207.16667 633.3089] CT
N
f-500281869
f
GR
GS
[1 0 0 1 207.16667 633.3089] CT
10.0 ML
N
-2.853 -0.927 M
-0.705 -0.927 L
0 -3 L
0.705 -0.927 L
2.853 -0.927 L
1.141 0.371 L
1.763 2.427 L
0 1.2 L
-1.763 2.427 L
-1.141 0.371 L
cp
S
GR
GS
[1 0 0 1 233 628.4071] CT
N
f-500281869
f
GR
GS
[1 0 0 1 233 628.4071] CT
10.0 ML
N
-2.853 -0.927 M
-0.705 -0.927 L
0 -3 L
0.705 -0.927 L
2.853 -0.927 L
1.141 0.371 L
1.763 2.427 L
0 1.2 L
-1.763 2.427 L
-1.141 0.371 L
cp
S
GR
GS
[1 0 0 1 258.83334 623.37506] CT
N
f-500281869
f
GR
GS
[1 0 0 1 258.83334 623.37506] CT
10.0 ML
N
-2.853 -0.927 M
-0.705 -0.927 L
0 -3 L
0.705 -0.927 L
2.853 -0.927 L
1.141 0.371 L
1.763 2.427 L
0 1.2 L
-1.763 2.427 L
-1.141 0.371 L
cp
S
GR
GS
[1 0 0 1 284.66666 618.22772] CT
N
f-500281869
f
GR
GS
[1 0 0 1 284.66666 618.22772] CT
10.0 ML
N
-2.853 -0.927 M
-0.705 -0.927 L
0 -3 L
0.705 -0.927 L
2.853 -0.927 L
1.141 0.371 L
1.763 2.427 L
0 1.2 L
-1.763 2.427 L
-1.141 0.371 L
cp
S
GR
GS
[1 0 0 1 310.5 612.97662] CT
N
f-500281869
f
GR
GS
[1 0 0 1 310.5 612.97662] CT
10.0 ML
N
-2.853 -0.927 M
-0.705 -0.927 L
0 -3 L
0.705 -0.927 L
2.853 -0.927 L
1.141 0.371 L
1.763 2.427 L
0 1.2 L
-1.763 2.427 L
-1.141 0.371 L
cp
S
GR
GS
[1 0 0 1 336.33334 607.63068] CT
N
f-500281869
f
GR
GS
[1 0 0 1 336.33334 607.63068] CT
10.0 ML
N
-2.853 -0.927 M
-0.705 -0.927 L
0 -3 L
0.705 -0.927 L
2.853 -0.927 L
1.141 0.371 L
1.763 2.427 L
0 1.2 L
-1.763 2.427 L
-1.141 0.371 L
cp
S
GR
GS
[1 0 0 1 362.16666 602.19714] CT
N
f-500281869
f
GR
GS
[1 0 0 1 362.16666 602.19714] CT
10.0 ML
N
-2.853 -0.927 M
-0.705 -0.927 L
0 -3 L
0.705 -0.927 L
2.853 -0.927 L
1.141 0.371 L
1.763 2.427 L
0 1.2 L
-1.763 2.427 L
-1.141 0.371 L
cp
S
GR
GS
[1 0 0 1 388 596.6817] CT
N
f-500281869
f
GR
GS
[1 0 0 1 388 596.6817] CT
10.0 ML
N
-2.853 -0.927 M
-0.705 -0.927 L
0 -3 L
0.705 -0.927 L
2.853 -0.927 L
1.141 0.371 L
1.763 2.427 L
0 1.2 L
-1.763 2.427 L
-1.141 0.371 L
cp
S
GR
GS
[1 0 0 1 413.83334 591.08923] CT
N
f-500281869
f
GR
GS
[1 0 0 1 413.83334 591.08923] CT
10.0 ML
N
-2.853 -0.927 M
-0.705 -0.927 L
0 -3 L
0.705 -0.927 L
2.853 -0.927 L
1.141 0.371 L
1.763 2.427 L
0 1.2 L
-1.763 2.427 L
-1.141 0.371 L
cp
S
GR
GS
[1 0 0 1 439.66666 585.42365] CT
N
f-500281869
f
GR
GS
[1 0 0 1 439.66666 585.42365] CT
10.0 ML
N
-2.853 -0.927 M
-0.705 -0.927 L
0 -3 L
0.705 -0.927 L
2.853 -0.927 L
1.141 0.371 L
1.763 2.427 L
0 1.2 L
-1.763 2.427 L
-1.141 0.371 L
cp
S
GR
GS
[1 0 0 1 465.5 579.68835] CT
N
f-500281869
f
GR
GS
[1 0 0 1 465.5 579.68835] CT
10.0 ML
N
-2.853 -0.927 M
-0.705 -0.927 L
0 -3 L
0.705 -0.927 L
2.853 -0.927 L
1.141 0.371 L
1.763 2.427 L
0 1.2 L
-1.763 2.427 L
-1.141 0.371 L
cp
S
GR
GS
[1 0 0 1 491.33334 573.88623] CT
N
f-500281869
f
GR
GS
[1 0 0 1 491.33334 573.88623] CT
10.0 ML
N
-2.853 -0.927 M
-0.705 -0.927 L
0 -3 L
0.705 -0.927 L
2.853 -0.927 L
1.141 0.371 L
1.763 2.427 L
0 1.2 L
-1.763 2.427 L
-1.141 0.371 L
cp
S
GR
GS
[1 0 0 1 517.16669 568.01978] CT
N
f-500281869
f
GR
GS
[1 0 0 1 517.16669 568.01978] CT
10.0 ML
N
-2.853 -0.927 M
-0.705 -0.927 L
0 -3 L
0.705 -0.927 L
2.853 -0.927 L
1.141 0.371 L
1.763 2.427 L
0 1.2 L
-1.763 2.427 L
-1.141 0.371 L
cp
S
GR
GS
[1 0 0 1 543 562.09119] CT
N
f-500281869
f
GR
GS
[1 0 0 1 543 562.09119] CT
10.0 ML
N
-2.853 -0.927 M
-0.705 -0.927 L
0 -3 L
0.705 -0.927 L
2.853 -0.927 L
1.141 0.371 L
1.763 2.427 L
0 1.2 L
-1.763 2.427 L
-1.141 0.371 L
cp
S
GR
GS
[1 0 0 1 78 648.61847] CT
0 0 1 RC
N
/f1485265658{-2.598 -1.5 M
-0.866 -1.5 L
0 -3 L
0.866 -1.5 L
2.598 -1.5 L
1.5 0 L
2.598 1.5 L
0.866 1.5 L
0 3 L
-0.866 1.5 L
-2.598 1.5 L
-1.5 0 L
cp}def
f1485265658
f
GR
GS
[1 0 0 1 78 648.61847] CT
0 0 1 RC
10.0 ML
N
-2.598 -1.5 M
-0.866 -1.5 L
0 -3 L
0.866 -1.5 L
2.598 -1.5 L
1.5 0 L
2.598 1.5 L
0.866 1.5 L
0 3 L
-0.866 1.5 L
-2.598 1.5 L
-1.5 0 L
cp
S
GR
GS
[1 0 0 1 103.83334 645.12708] CT
0 0 1 RC
N
f1485265658
f
GR
GS
[1 0 0 1 103.83334 645.12708] CT
0 0 1 RC
10.0 ML
N
-2.598 -1.5 M
-0.866 -1.5 L
0 -3 L
0.866 -1.5 L
2.598 -1.5 L
1.5 0 L
2.598 1.5 L
0.866 1.5 L
0 3 L
-0.866 1.5 L
-2.598 1.5 L
-1.5 0 L
cp
S
GR
GS
[1 0 0 1 129.66667 641.31073] CT
0 0 1 RC
N
f1485265658
f
GR
GS
[1 0 0 1 129.66667 641.31073] CT
0 0 1 RC
10.0 ML
N
-2.598 -1.5 M
-0.866 -1.5 L
0 -3 L
0.866 -1.5 L
2.598 -1.5 L
1.5 0 L
2.598 1.5 L
0.866 1.5 L
0 3 L
-0.866 1.5 L
-2.598 1.5 L
-1.5 0 L
cp
S
GR
GS
[1 0 0 1 155.5 637.24426] CT
0 0 1 RC
N
f1485265658
f
GR
GS
[1 0 0 1 155.5 637.24426] CT
0 0 1 RC
10.0 ML
N
-2.598 -1.5 M
-0.866 -1.5 L
0 -3 L
0.866 -1.5 L
2.598 -1.5 L
1.5 0 L
2.598 1.5 L
0.866 1.5 L
0 3 L
-0.866 1.5 L
-2.598 1.5 L
-1.5 0 L
cp
S
GR
GS
[1 0 0 1 181.33333 632.97693] CT
0 0 1 RC
N
f1485265658
f
GR
GS
[1 0 0 1 181.33333 632.97693] CT
0 0 1 RC
10.0 ML
N
-2.598 -1.5 M
-0.866 -1.5 L
0 -3 L
0.866 -1.5 L
2.598 -1.5 L
1.5 0 L
2.598 1.5 L
0.866 1.5 L
0 3 L
-0.866 1.5 L
-2.598 1.5 L
-1.5 0 L
cp
S
GR
GS
[1 0 0 1 207.16667 628.54266] CT
0 0 1 RC
N
f1485265658
f
GR
GS
[1 0 0 1 207.16667 628.54266] CT
0 0 1 RC
10.0 ML
N
-2.598 -1.5 M
-0.866 -1.5 L
0 -3 L
0.866 -1.5 L
2.598 -1.5 L
1.5 0 L
2.598 1.5 L
0.866 1.5 L
0 3 L
-0.866 1.5 L
-2.598 1.5 L
-1.5 0 L
cp
S
GR
GS
[1 0 0 1 233 623.96588] CT
0 0 1 RC
N
f1485265658
f
GR
GS
[1 0 0 1 233 623.96588] CT
0 0 1 RC
10.0 ML
N
-2.598 -1.5 M
-0.866 -1.5 L
0 -3 L
0.866 -1.5 L
2.598 -1.5 L
1.5 0 L
2.598 1.5 L
0.866 1.5 L
0 3 L
-0.866 1.5 L
-2.598 1.5 L
-1.5 0 L
cp
S
GR
GS
[1 0 0 1 258.83334 619.26453] CT
0 0 1 RC
N
f1485265658
f
GR
GS
[1 0 0 1 258.83334 619.26453] CT
0 0 1 RC
10.0 ML
N
-2.598 -1.5 M
-0.866 -1.5 L
0 -3 L
0.866 -1.5 L
2.598 -1.5 L
1.5 0 L
2.598 1.5 L
0.866 1.5 L
0 3 L
-0.866 1.5 L
-2.598 1.5 L
-1.5 0 L
cp
S
GR
GS
[1 0 0 1 284.66666 614.45215] CT
0 0 1 RC
N
f1485265658
f
GR
GS
[1 0 0 1 284.66666 614.45215] CT
0 0 1 RC
10.0 ML
N
-2.598 -1.5 M
-0.866 -1.5 L
0 -3 L
0.866 -1.5 L
2.598 -1.5 L
1.5 0 L
2.598 1.5 L
0.866 1.5 L
0 3 L
-0.866 1.5 L
-2.598 1.5 L
-1.5 0 L
cp
S
GR
GS
[1 0 0 1 310.5 609.53949] CT
0 0 1 RC
N
f1485265658
f
GR
GS
[1 0 0 1 310.5 609.53949] CT
0 0 1 RC
10.0 ML
N
-2.598 -1.5 M
-0.866 -1.5 L
0 -3 L
0.866 -1.5 L
2.598 -1.5 L
1.5 0 L
2.598 1.5 L
0.866 1.5 L
0 3 L
-0.866 1.5 L
-2.598 1.5 L
-1.5 0 L
cp
S
GR
GS
[1 0 0 1 336.33334 604.53491] CT
0 0 1 RC
N
f1485265658
f
GR
GS
[1 0 0 1 336.33334 604.53491] CT
0 0 1 RC
10.0 ML
N
-2.598 -1.5 M
-0.866 -1.5 L
0 -3 L
0.866 -1.5 L
2.598 -1.5 L
1.5 0 L
2.598 1.5 L
0.866 1.5 L
0 3 L
-0.866 1.5 L
-2.598 1.5 L
-1.5 0 L
cp
S
GR
GS
[1 0 0 1 362.16666 599.44513] CT
0 0 1 RC
N
f1485265658
f
GR
GS
[1 0 0 1 362.16666 599.44513] CT
0 0 1 RC
10.0 ML
N
-2.598 -1.5 M
-0.866 -1.5 L
0 -3 L
0.866 -1.5 L
2.598 -1.5 L
1.5 0 L
2.598 1.5 L
0.866 1.5 L
0 3 L
-0.866 1.5 L
-2.598 1.5 L
-1.5 0 L
cp
S
GR
GS
[1 0 0 1 388 594.27576] CT
0 0 1 RC
N
f1485265658
f
GR
GS
[1 0 0 1 388 594.27576] CT
0 0 1 RC
10.0 ML
N
-2.598 -1.5 M
-0.866 -1.5 L
0 -3 L
0.866 -1.5 L
2.598 -1.5 L
1.5 0 L
2.598 1.5 L
0.866 1.5 L
0 3 L
-0.866 1.5 L
-2.598 1.5 L
-1.5 0 L
cp
S
GR
GS
[1 0 0 1 413.83334 589.03131] CT
0 0 1 RC
N
f1485265658
f
GR
GS
[1 0 0 1 413.83334 589.03131] CT
0 0 1 RC
10.0 ML
N
-2.598 -1.5 M
-0.866 -1.5 L
0 -3 L
0.866 -1.5 L
2.598 -1.5 L
1.5 0 L
2.598 1.5 L
0.866 1.5 L
0 3 L
-0.866 1.5 L
-2.598 1.5 L
-1.5 0 L
cp
S
GR
GS
[1 0 0 1 439.66666 583.7157] CT
0 0 1 RC
N
f1485265658
f
GR
GS
[1 0 0 1 439.66666 583.7157] CT
0 0 1 RC
10.0 ML
N
-2.598 -1.5 M
-0.866 -1.5 L
0 -3 L
0.866 -1.5 L
2.598 -1.5 L
1.5 0 L
2.598 1.5 L
0.866 1.5 L
0 3 L
-0.866 1.5 L
-2.598 1.5 L
-1.5 0 L
cp
S
GR
GS
[1 0 0 1 465.5 578.33221] CT
0 0 1 RC
N
f1485265658
f
GR
GS
[1 0 0 1 465.5 578.33221] CT
0 0 1 RC
10.0 ML
N
-2.598 -1.5 M
-0.866 -1.5 L
0 -3 L
0.866 -1.5 L
2.598 -1.5 L
1.5 0 L
2.598 1.5 L
0.866 1.5 L
0 3 L
-0.866 1.5 L
-2.598 1.5 L
-1.5 0 L
cp
S
GR
GS
[1 0 0 1 491.33334 572.88367] CT
0 0 1 RC
N
f1485265658
f
GR
GS
[1 0 0 1 491.33334 572.88367] CT
0 0 1 RC
10.0 ML
N
-2.598 -1.5 M
-0.866 -1.5 L
0 -3 L
0.866 -1.5 L
2.598 -1.5 L
1.5 0 L
2.598 1.5 L
0.866 1.5 L
0 3 L
-0.866 1.5 L
-2.598 1.5 L
-1.5 0 L
cp
S
GR
GS
[1 0 0 1 517.16669 567.3725] CT
0 0 1 RC
N
f1485265658
f
GR
GS
[1 0 0 1 517.16669 567.3725] CT
0 0 1 RC
10.0 ML
N
-2.598 -1.5 M
-0.866 -1.5 L
0 -3 L
0.866 -1.5 L
2.598 -1.5 L
1.5 0 L
2.598 1.5 L
0.866 1.5 L
0 3 L
-0.866 1.5 L
-2.598 1.5 L
-1.5 0 L
cp
S
GR
GS
[1 0 0 1 543 561.80078] CT
0 0 1 RC
N
f1485265658
f
GR
GS
[1 0 0 1 543 561.80078] CT
0 0 1 RC
10.0 ML
N
-2.598 -1.5 M
-0.866 -1.5 L
0 -3 L
0.866 -1.5 L
2.598 -1.5 L
1.5 0 L
2.598 1.5 L
0.866 1.5 L
0 3 L
-0.866 1.5 L
-2.598 1.5 L
-1.5 0 L
cp
S
GR
GS
[1 0 0 1 78 642.60358] CT
1 0 0 RC
N
f-2087191549
f
GR
GS
[1 0 0 1 78 642.60358] CT
1 0 0 RC
10.0 ML
N
3 0 M
3 -1.657 1.657 -3 0 -3 C
-1.657 -3 -3 -1.657 -3 0 C
-3 1.657 -1.657 3 0 3 C
1.657 3 3 1.657 3 0 C
cp
S
GR
GS
[1 0 0 1 103.83334 639.23413] CT
1 0 0 RC
N
f-2087191549
f
GR
GS
[1 0 0 1 103.83334 639.23413] CT
1 0 0 RC
10.0 ML
N
3 0 M
3 -1.657 1.657 -3 0 -3 C
-1.657 -3 -3 -1.657 -3 0 C
-3 1.657 -1.657 3 0 3 C
1.657 3 3 1.657 3 0 C
cp
S
GR
GS
[1 0 0 1 129.66667 635.58173] CT
1 0 0 RC
N
f-2087191549
f
GR
GS
[1 0 0 1 129.66667 635.58173] CT
1 0 0 RC
10.0 ML
N
3 0 M
3 -1.657 1.657 -3 0 -3 C
-1.657 -3 -3 -1.657 -3 0 C
-3 1.657 -1.657 3 0 3 C
1.657 3 3 1.657 3 0 C
cp
S
GR
GS
[1 0 0 1 155.5 631.70453] CT
1 0 0 RC
N
f-2087191549
f
GR
GS
[1 0 0 1 155.5 631.70453] CT
1 0 0 RC
10.0 ML
N
3 0 M
3 -1.657 1.657 -3 0 -3 C
-1.657 -3 -3 -1.657 -3 0 C
-3 1.657 -1.657 3 0 3 C
1.657 3 3 1.657 3 0 C
cp
S
GR
GS
[1 0 0 1 181.33333 627.64246] CT
1 0 0 RC
N
f-2087191549
f
GR
GS
[1 0 0 1 181.33333 627.64246] CT
1 0 0 RC
10.0 ML
N
3 0 M
3 -1.657 1.657 -3 0 -3 C
-1.657 -3 -3 -1.657 -3 0 C
-3 1.657 -1.657 3 0 3 C
1.657 3 3 1.657 3 0 C
cp
S
GR
GS
[1 0 0 1 207.16667 623.42413] CT
1 0 0 RC
N
f-2087191549
f
GR
GS
[1 0 0 1 207.16667 623.42413] CT
1 0 0 RC
10.0 ML
N
3 0 M
3 -1.657 1.657 -3 0 -3 C
-1.657 -3 -3 -1.657 -3 0 C
-3 1.657 -1.657 3 0 3 C
1.657 3 3 1.657 3 0 C
cp
S
GR
GS
[1 0 0 1 233 619.07056] CT
1 0 0 RC
N
f-2087191549
f
GR
GS
[1 0 0 1 233 619.07056] CT
1 0 0 RC
10.0 ML
N
3 0 M
3 -1.657 1.657 -3 0 -3 C
-1.657 -3 -3 -1.657 -3 0 C
-3 1.657 -1.657 3 0 3 C
1.657 3 3 1.657 3 0 C
cp
S
GR
GS
[1 0 0 1 258.83334 614.59772] CT
1 0 0 RC
N
f-2087191549
f
GR
GS
[1 0 0 1 258.83334 614.59772] CT
1 0 0 RC
10.0 ML
N
3 0 M
3 -1.657 1.657 -3 0 -3 C
-1.657 -3 -3 -1.657 -3 0 C
-3 1.657 -1.657 3 0 3 C
1.657 3 3 1.657 3 0 C
cp
S
GR
GS
[1 0 0 1 284.66666 610.01794] CT
1 0 0 RC
N
f-2087191549
f
GR
GS
[1 0 0 1 284.66666 610.01794] CT
1 0 0 RC
10.0 ML
N
3 0 M
3 -1.657 1.657 -3 0 -3 C
-1.657 -3 -3 -1.657 -3 0 C
-3 1.657 -1.657 3 0 3 C
1.657 3 3 1.657 3 0 C
cp
S
GR
GS
[1 0 0 1 310.5 605.34082] CT
1 0 0 RC
N
f-2087191549
f
GR
GS
[1 0 0 1 310.5 605.34082] CT
1 0 0 RC
10.0 ML
N
3 0 M
3 -1.657 1.657 -3 0 -3 C
-1.657 -3 -3 -1.657 -3 0 C
-3 1.657 -1.657 3 0 3 C
1.657 3 3 1.657 3 0 C
cp
S
GR
GS
[1 0 0 1 336.33334 600.57428] CT
1 0 0 RC
N
f-2087191549
f
GR
GS
[1 0 0 1 336.33334 600.57428] CT
1 0 0 RC
10.0 ML
N
3 0 M
3 -1.657 1.657 -3 0 -3 C
-1.657 -3 -3 -1.657 -3 0 C
-3 1.657 -1.657 3 0 3 C
1.657 3 3 1.657 3 0 C
cp
S
GR
GS
[1 0 0 1 362.16666 595.72467] CT
1 0 0 RC
N
f-2087191549
f
GR
GS
[1 0 0 1 362.16666 595.72467] CT
1 0 0 RC
10.0 ML
N
3 0 M
3 -1.657 1.657 -3 0 -3 C
-1.657 -3 -3 -1.657 -3 0 C
-3 1.657 -1.657 3 0 3 C
1.657 3 3 1.657 3 0 C
cp
S
GR
GS
[1 0 0 1 388 590.79718] CT
1 0 0 RC
N
f-2087191549
f
GR
GS
[1 0 0 1 388 590.79718] CT
1 0 0 RC
10.0 ML
N
3 0 M
3 -1.657 1.657 -3 0 -3 C
-1.657 -3 -3 -1.657 -3 0 C
-3 1.657 -1.657 3 0 3 C
1.657 3 3 1.657 3 0 C
cp
S
GR
GS
[1 0 0 1 413.83334 585.79626] CT
1 0 0 RC
N
f-2087191549
f
GR
GS
[1 0 0 1 413.83334 585.79626] CT
1 0 0 RC
10.0 ML
N
3 0 M
3 -1.657 1.657 -3 0 -3 C
-1.657 -3 -3 -1.657 -3 0 C
-3 1.657 -1.657 3 0 3 C
1.657 3 3 1.657 3 0 C
cp
S
GR
GS
[1 0 0 1 439.66666 580.72559] CT
1 0 0 RC
N
f-2087191549
f
GR
GS
[1 0 0 1 439.66666 580.72559] CT
1 0 0 RC
10.0 ML
N
3 0 M
3 -1.657 1.657 -3 0 -3 C
-1.657 -3 -3 -1.657 -3 0 C
-3 1.657 -1.657 3 0 3 C
1.657 3 3 1.657 3 0 C
cp
S
GR
GS
[1 0 0 1 465.5 575.58838] CT
1 0 0 RC
N
f-2087191549
f
GR
GS
[1 0 0 1 465.5 575.58838] CT
1 0 0 RC
10.0 ML
N
3 0 M
3 -1.657 1.657 -3 0 -3 C
-1.657 -3 -3 -1.657 -3 0 C
-3 1.657 -1.657 3 0 3 C
1.657 3 3 1.657 3 0 C
cp
S
GR
GS
[1 0 0 1 491.33334 570.38727] CT
1 0 0 RC
N
f-2087191549
f
GR
GS
[1 0 0 1 491.33334 570.38727] CT
1 0 0 RC
10.0 ML
N
3 0 M
3 -1.657 1.657 -3 0 -3 C
-1.657 -3 -3 -1.657 -3 0 C
-3 1.657 -1.657 3 0 3 C
1.657 3 3 1.657 3 0 C
cp
S
GR
GS
[1 0 0 1 517.16669 565.12476] CT
1 0 0 RC
N
f-2087191549
f
GR
GS
[1 0 0 1 517.16669 565.12476] CT
1 0 0 RC
10.0 ML
N
3 0 M
3 -1.657 1.657 -3 0 -3 C
-1.657 -3 -3 -1.657 -3 0 C
-3 1.657 -1.657 3 0 3 C
1.657 3 3 1.657 3 0 C
cp
S
GR
GS
[1 0 0 1 543 559.8028] CT
1 0 0 RC
N
f-2087191549
f
GR
GS
[1 0 0 1 543 559.8028] CT
1 0 0 RC
10.0 ML
N
3 0 M
3 -1.657 1.657 -3 0 -3 C
-1.657 -3 -3 -1.657 -3 0 C
-3 1.657 -1.657 3 0 3 C
1.657 3 3 1.657 3 0 C
cp
S
GR
GS
1 GC
N
/f988966440{223 173 M
223 77 L
166 77 L
166 173 L
cp}def
f988966440
f
GR
GS
[1 0 0 1 203 84.53926] CT
/Helvetica 9 F
GS
[1 0 0 1 0 0] CT
0 3.5 moveto 
1 -1 scale
(n=0) t 
GR
GR
GS
[1 0 0 1 185 84.53927] CT
N
f-2087191549
f
GR
GS
[1 0 0 1 185 84.53927] CT
10.0 ML
N
3 0 M
3 -1.657 1.657 -3 0 -3 C
-1.657 -3 -3 -1.657 -3 0 C
-3 1.657 -1.657 3 0 3 C
1.657 3 3 1.657 3 0 C
cp
S
GR
GS
[1 0 0 1 203 96.09947] CT
/Helvetica 9 F
GS
[1 0 0 1 0 0] CT
0 3.5 moveto 
1 -1 scale
(n=1) t 
GR
GR
GS
[1 0 0 1 185 96.09948] CT
0 0 1 RC
N
f1363619694
f
GR
GS
[1 0 0 1 185 96.09948] CT
0 0 1 RC
10.0 ML
N
-2.121 -2.121 M
2.121 2.121 L
-2.121 2.121 M
2.121 -2.121 L
S
GR
GS
[1 0 0 1 203 107.65968] CT
/Helvetica 9 F
GS
[1 0 0 1 0 0] CT
0 3.5 moveto 
1 -1 scale
(n=2) t 
GR
GR
GS
[1 0 0 1 185 107.65968] CT
1 0 0 RC
N
f909745642
f
GR
GS
[1 0 0 1 185 107.65968] CT
1 0 0 RC
10.0 ML
N
0 -3 M
0 3 L
-3 0 M
3 0 L
S
GR
GS
[1 0 0 1 203 119.21989] CT
/Helvetica 9 F
GS
[1 0 0 1 0 0] CT
0 3.5 moveto 
1 -1 scale
(n=3) t 
GR
GR
GS
[1 0 0 1 185 119.21989] CT
1 0 1 RC
N
f1414333259
f
GR
GS
[1 0 0 1 185 119.21989] CT
1 0 1 RC
10.0 ML
N
0 3.999 M
-3.463 -2 L
3.463 -2 L
cp
S
GR
GS
[1 0 0 1 203 130.78011] CT
/Helvetica 9 F
GS
[1 0 0 1 0 0] CT
0 3.5 moveto 
1 -1 scale
(n=4) t 
GR
GR
GS
[1 0 0 1 185 130.78011] CT
0 1 0 RC
N
f701565780
f
GR
GS
[1 0 0 1 185 130.78011] CT
0 1 0 RC
10.0 ML
N
-2 -2 M
-2 2 L
2 2 L
2 -2 L
cp
S
GR
GS
[1 0 0 1 203 142.34032] CT
/Helvetica 9 F
GS
[1 0 0 1 0 0] CT
0 3.5 moveto 
1 -1 scale
(n=5) t 
GR
GR
GS
[1 0 0 1 185 142.34032] CT
N
f-500281869
f
GR
GS
[1 0 0 1 185 142.34032] CT
10.0 ML
N
-2.853 -0.927 M
-0.705 -0.927 L
0 -3 L
0.705 -0.927 L
2.853 -0.927 L
1.141 0.371 L
1.763 2.427 L
0 1.2 L
-1.763 2.427 L
-1.141 0.371 L
cp
S
GR
GS
[1 0 0 1 203 153.90053] CT
/Helvetica 9 F
GS
[1 0 0 1 0 0] CT
0 3.5 moveto 
1 -1 scale
(n=6) t 
GR
GR
GS
[1 0 0 1 185 153.90053] CT
0 0 1 RC
N
f1485265658
f
GR
GS
[1 0 0 1 185 153.90053] CT
0 0 1 RC
10.0 ML
N
-2.598 -1.5 M
-0.866 -1.5 L
0 -3 L
0.866 -1.5 L
2.598 -1.5 L
1.5 0 L
2.598 1.5 L
0.866 1.5 L
0 3 L
-0.866 1.5 L
-2.598 1.5 L
-1.5 0 L
cp
S
GR
GS
[1 0 0 1 203 165.46074] CT
/Helvetica 9 F
GS
[1 0 0 1 0 0] CT
0 3.5 moveto 
1 -1 scale
(n=7) t 
GR
GR
GS
[1 0 0 1 185 165.46074] CT
1 0 0 RC
N
f-2087191549
f
GR
GS
[1 0 0 1 185 165.46074] CT
1 0 0 RC
10.0 ML
N
3 0 M
3 -1.657 1.657 -3 0 -3 C
-1.657 -3 -3 -1.657 -3 0 C
-3 1.657 -1.657 3 0 3 C
1.657 3 3 1.657 3 0 C
cp
S
GR
GS
0.149 GC
10.0 ML
0.5 LW
N
166 173 M
166 77 L
223 77 L
223 173 L
cp
S
GR
%%Trailer
%%Pages: 1
%%EOF
