%!PS-Adobe-3.0 EPSF-3.0
%%Creator: (MATLAB, The Mathworks, Inc. Version 9.4.0.813654 \(R2018a\). Operating System: Linux)
%%Title: /data/geodynamo/natafh/Dynamo/Acoustics/elastic_shell/Figures/ZoRo2/ZoRo2-air-elastic_modes.eps
%%CreationDate: 2019-07-05T08:35:53
%%Pages: (atend)
%%BoundingBox: 0 0 523 637
%%LanguageLevel: 3
%%EndComments
%%BeginProlog
%%BeginResource: procset (Apache XML Graphics Std ProcSet) 1.2 0
%%Version: 1.2 0
%%Copyright: (Copyright 2001-2003,2010 The Apache Software Foundation. License terms: http://www.apache.org/licenses/LICENSE-2.0)
/bd{bind def}bind def
/ld{load def}bd
/GR/grestore ld
/GS/gsave ld
/RM/rmoveto ld
/C/curveto ld
/t/show ld
/L/lineto ld
/ML/setmiterlimit ld
/CT/concat ld
/f/fill ld
/N/newpath ld
/S/stroke ld
/CC/setcmykcolor ld
/A/ashow ld
/cp/closepath ld
/RC/setrgbcolor ld
/LJ/setlinejoin ld
/GC/setgray ld
/LW/setlinewidth ld
/M/moveto ld
/re {4 2 roll M
1 index 0 rlineto
0 exch rlineto
neg 0 rlineto
cp } bd
/_ctm matrix def
/_tm matrix def
/BT { _ctm currentmatrix pop matrix _tm copy pop 0 0 moveto } bd
/ET { _ctm setmatrix } bd
/iTm { _ctm setmatrix _tm concat } bd
/Tm { _tm astore pop iTm 0 0 moveto } bd
/ux 0.0 def
/uy 0.0 def
/F {
  /Tp exch def
  /Tf exch def
  Tf findfont Tp scalefont setfont
  /cf Tf def  /cs Tp def
} bd
/ULS {currentpoint /uy exch def /ux exch def} bd
/ULE {
  /Tcx currentpoint pop def
  gsave
  newpath
  cf findfont cs scalefont dup
  /FontMatrix get 0 get /Ts exch def /FontInfo get dup
  /UnderlinePosition get Ts mul /To exch def
  /UnderlineThickness get Ts mul /Tt exch def
  ux uy To add moveto  Tcx uy To add lineto
  Tt setlinewidth stroke
  grestore
} bd
/OLE {
  /Tcx currentpoint pop def
  gsave
  newpath
  cf findfont cs scalefont dup
  /FontMatrix get 0 get /Ts exch def /FontInfo get dup
  /UnderlinePosition get Ts mul /To exch def
  /UnderlineThickness get Ts mul /Tt exch def
  ux uy To add cs add moveto Tcx uy To add cs add lineto
  Tt setlinewidth stroke
  grestore
} bd
/SOE {
  /Tcx currentpoint pop def
  gsave
  newpath
  cf findfont cs scalefont dup
  /FontMatrix get 0 get /Ts exch def /FontInfo get dup
  /UnderlinePosition get Ts mul /To exch def
  /UnderlineThickness get Ts mul /Tt exch def
  ux uy To add cs 10 mul 26 idiv add moveto Tcx uy To add cs 10 mul 26 idiv add lineto
  Tt setlinewidth stroke
  grestore
} bd
/QT {
/Y22 exch store
/X22 exch store
/Y21 exch store
/X21 exch store
currentpoint
/Y21 load 2 mul add 3 div exch
/X21 load 2 mul add 3 div exch
/X21 load 2 mul /X22 load add 3 div
/Y21 load 2 mul /Y22 load add 3 div
/X22 load /Y22 load curveto
} bd
/SSPD {
dup length /d exch dict def
{
/v exch def
/k exch def
currentpagedevice k known {
/cpdv currentpagedevice k get def
v cpdv ne {
/upd false def
/nullv v type /nulltype eq def
/nullcpdv cpdv type /nulltype eq def
nullv nullcpdv or
{
/upd true def
} {
/sametype v type cpdv type eq def
sametype {
v type /arraytype eq {
/vlen v length def
/cpdvlen cpdv length def
vlen cpdvlen eq {
0 1 vlen 1 sub {
/i exch def
/obj v i get def
/cpdobj cpdv i get def
obj cpdobj ne {
/upd true def
exit
} if
} for
} {
/upd true def
} ifelse
} {
v type /dicttype eq {
v {
/dv exch def
/dk exch def
/cpddv cpdv dk get def
dv cpddv ne {
/upd true def
exit
} if
} forall
} {
/upd true def
} ifelse
} ifelse
} if
} ifelse
upd true eq {
d k v put
} if
} if
} if
} forall
d length 0 gt {
d setpagedevice
} if
} bd
/RE { % /NewFontName [NewEncodingArray] /FontName RE -
  findfont dup length dict begin
  {
    1 index /FID ne
    {def} {pop pop} ifelse
  } forall
  /Encoding exch def
  /FontName 1 index def
  currentdict definefont pop
  end
} bind def
%%EndResource
%%BeginResource: procset (Apache XML Graphics EPS ProcSet) 1.0 0
%%Version: 1.0 0
%%Copyright: (Copyright 2002-2003 The Apache Software Foundation. License terms: http://www.apache.org/licenses/LICENSE-2.0)
/BeginEPSF { %def
/b4_Inc_state save def         % Save state for cleanup
/dict_count countdictstack def % Count objects on dict stack
/op_count count 1 sub def      % Count objects on operand stack
userdict begin                 % Push userdict on dict stack
/showpage { } def              % Redefine showpage, { } = null proc
0 setgray 0 setlinecap         % Prepare graphics state
1 setlinewidth 0 setlinejoin
10 setmiterlimit [ ] 0 setdash newpath
/languagelevel where           % If level not equal to 1 then
{pop languagelevel             % set strokeadjust and
1 ne                           % overprint to their defaults.
{false setstrokeadjust false setoverprint
} if
} if
} bd
/EndEPSF { %def
count op_count sub {pop} repeat            % Clean up stacks
countdictstack dict_count sub {end} repeat
b4_Inc_state restore
} bd
%%EndResource
%FOPBeginFontDict
%%IncludeResource: font Courier-Oblique
%%IncludeResource: font Courier-BoldOblique
%%IncludeResource: font Courier-Bold
%%IncludeResource: font ZapfDingbats
%%IncludeResource: font Symbol
%%IncludeResource: font Helvetica
%%IncludeResource: font Helvetica-Oblique
%%IncludeResource: font Helvetica-Bold
%%IncludeResource: font Helvetica-BoldOblique
%%IncludeResource: font Times-Roman
%%IncludeResource: font Times-Italic
%%IncludeResource: font Times-Bold
%%IncludeResource: font Times-BoldItalic
%%IncludeResource: font Courier
%FOPEndFontDict
%%BeginResource: encoding WinAnsiEncoding
/WinAnsiEncoding [
/.notdef /.notdef /.notdef /.notdef /.notdef
/.notdef /.notdef /.notdef /.notdef /.notdef
/.notdef /.notdef /.notdef /.notdef /.notdef
/.notdef /.notdef /.notdef /.notdef /.notdef
/.notdef /.notdef /.notdef /.notdef /.notdef
/.notdef /.notdef /.notdef /.notdef /.notdef
/.notdef /.notdef /space /exclam /quotedbl
/numbersign /dollar /percent /ampersand /quotesingle
/parenleft /parenright /asterisk /plus /comma
/hyphen /period /slash /zero /one
/two /three /four /five /six
/seven /eight /nine /colon /semicolon
/less /equal /greater /question /at
/A /B /C /D /E
/F /G /H /I /J
/K /L /M /N /O
/P /Q /R /S /T
/U /V /W /X /Y
/Z /bracketleft /backslash /bracketright /asciicircum
/underscore /quoteleft /a /b /c
/d /e /f /g /h
/i /j /k /l /m
/n /o /p /q /r
/s /t /u /v /w
/x /y /z /braceleft /bar
/braceright /asciitilde /bullet /Euro /bullet
/quotesinglbase /florin /quotedblbase /ellipsis /dagger
/daggerdbl /circumflex /perthousand /Scaron /guilsinglleft
/OE /bullet /Zcaron /bullet /bullet
/quoteleft /quoteright /quotedblleft /quotedblright /bullet
/endash /emdash /asciitilde /trademark /scaron
/guilsinglright /oe /bullet /zcaron /Ydieresis
/space /exclamdown /cent /sterling /currency
/yen /brokenbar /section /dieresis /copyright
/ordfeminine /guillemotleft /logicalnot /sfthyphen /registered
/macron /degree /plusminus /twosuperior /threesuperior
/acute /mu /paragraph /middot /cedilla
/onesuperior /ordmasculine /guillemotright /onequarter /onehalf
/threequarters /questiondown /Agrave /Aacute /Acircumflex
/Atilde /Adieresis /Aring /AE /Ccedilla
/Egrave /Eacute /Ecircumflex /Edieresis /Igrave
/Iacute /Icircumflex /Idieresis /Eth /Ntilde
/Ograve /Oacute /Ocircumflex /Otilde /Odieresis
/multiply /Oslash /Ugrave /Uacute /Ucircumflex
/Udieresis /Yacute /Thorn /germandbls /agrave
/aacute /acircumflex /atilde /adieresis /aring
/ae /ccedilla /egrave /eacute /ecircumflex
/edieresis /igrave /iacute /icircumflex /idieresis
/eth /ntilde /ograve /oacute /ocircumflex
/otilde /odieresis /divide /oslash /ugrave
/uacute /ucircumflex /udieresis /yacute /thorn
/ydieresis
] def
%%EndResource
%FOPBeginFontReencode
/Courier-Oblique findfont
dup length dict begin
  {1 index /FID ne {def} {pop pop} ifelse} forall
  /Encoding WinAnsiEncoding def
  currentdict
end
/Courier-Oblique exch definefont pop
/Courier-BoldOblique findfont
dup length dict begin
  {1 index /FID ne {def} {pop pop} ifelse} forall
  /Encoding WinAnsiEncoding def
  currentdict
end
/Courier-BoldOblique exch definefont pop
/Courier-Bold findfont
dup length dict begin
  {1 index /FID ne {def} {pop pop} ifelse} forall
  /Encoding WinAnsiEncoding def
  currentdict
end
/Courier-Bold exch definefont pop
/Helvetica findfont
dup length dict begin
  {1 index /FID ne {def} {pop pop} ifelse} forall
  /Encoding WinAnsiEncoding def
  currentdict
end
/Helvetica exch definefont pop
/Helvetica-Oblique findfont
dup length dict begin
  {1 index /FID ne {def} {pop pop} ifelse} forall
  /Encoding WinAnsiEncoding def
  currentdict
end
/Helvetica-Oblique exch definefont pop
/Helvetica-Bold findfont
dup length dict begin
  {1 index /FID ne {def} {pop pop} ifelse} forall
  /Encoding WinAnsiEncoding def
  currentdict
end
/Helvetica-Bold exch definefont pop
/Helvetica-BoldOblique findfont
dup length dict begin
  {1 index /FID ne {def} {pop pop} ifelse} forall
  /Encoding WinAnsiEncoding def
  currentdict
end
/Helvetica-BoldOblique exch definefont pop
/Times-Roman findfont
dup length dict begin
  {1 index /FID ne {def} {pop pop} ifelse} forall
  /Encoding WinAnsiEncoding def
  currentdict
end
/Times-Roman exch definefont pop
/Times-Italic findfont
dup length dict begin
  {1 index /FID ne {def} {pop pop} ifelse} forall
  /Encoding WinAnsiEncoding def
  currentdict
end
/Times-Italic exch definefont pop
/Times-Bold findfont
dup length dict begin
  {1 index /FID ne {def} {pop pop} ifelse} forall
  /Encoding WinAnsiEncoding def
  currentdict
end
/Times-Bold exch definefont pop
/Times-BoldItalic findfont
dup length dict begin
  {1 index /FID ne {def} {pop pop} ifelse} forall
  /Encoding WinAnsiEncoding def
  currentdict
end
/Times-BoldItalic exch definefont pop
/Courier findfont
dup length dict begin
  {1 index /FID ne {def} {pop pop} ifelse} forall
  /Encoding WinAnsiEncoding def
  currentdict
end
/Courier exch definefont pop
%FOPEndFontReencode
%%EndProlog
%%Page: 1 1
%%PageBoundingBox: 0 0 523 637
%%BeginPageSetup
[1 0 0 -1 0 637] CT
%%EndPageSetup
GS
[0.75 0 0 0.75 0 0.25] CT
N
0 0 M
697 0 L
697 849 L
0 849 L
0 0 L
cp
clip
1 GC
N
0 0 697 849 re
f
GR
GS
[0.75 0 0 0.75 0 0.25] CT
1 GC
N
0 0 697 849 re
f
GR
GS
[0.75 0 0 0.75 0 0.25] CT
1 GC
N
95 756 M
631 756 L
631 64 L
95 64 L
cp
f
GR
GS
[0.75 0 0 0.75 0 0.25] CT
0.873 GC
1 LJ
0.667 LW
N
95 756 M
95 64 L
S
GR
GS
[0.75 0 0 0.75 0 0.25] CT
0.873 GC
1 LJ
0.667 LW
N
243.889 756 M
243.889 64 L
S
GR
GS
[0.75 0 0 0.75 0 0.25] CT
0.873 GC
1 LJ
0.667 LW
N
392.778 756 M
392.778 64 L
S
GR
GS
[0.75 0 0 0.75 0 0.25] CT
0.873 GC
1 LJ
0.667 LW
N
541.667 756 M
541.667 64 L
S
GR
GS
[0.75 0 0 0.75 0 0.25] CT
0.873 GC
1 LJ
0.667 LW
N
631 756 M
95 756 L
S
GR
GS
[0.75 0 0 0.75 0 0.25] CT
0.873 GC
1 LJ
0.667 LW
N
631 657.143 M
95 657.143 L
S
GR
GS
[0.75 0 0 0.75 0 0.25] CT
0.873 GC
1 LJ
0.667 LW
N
631 558.286 M
95 558.286 L
S
GR
GS
[0.75 0 0 0.75 0 0.25] CT
0.873 GC
1 LJ
0.667 LW
N
631 459.429 M
95 459.429 L
S
GR
GS
[0.75 0 0 0.75 0 0.25] CT
0.873 GC
1 LJ
0.667 LW
N
631 360.571 M
95 360.571 L
S
GR
GS
[0.75 0 0 0.75 0 0.25] CT
0.873 GC
1 LJ
0.667 LW
N
631 261.714 M
95 261.714 L
S
GR
GS
[0.75 0 0 0.75 0 0.25] CT
0.873 GC
1 LJ
0.667 LW
N
631 162.857 M
95 162.857 L
S
GR
GS
[0.75 0 0 0.75 0 0.25] CT
0.873 GC
1 LJ
0.667 LW
N
631 64 M
95 64 L
S
GR
GS
[0.75 0 0 0.75 0 0.25] CT
0.149 GC
2 setlinecap
1 LJ
0.667 LW
N
95 756 M
631 756 L
S
GR
GS
[0.75 0 0 0.75 0 0.25] CT
0.149 GC
2 setlinecap
1 LJ
0.667 LW
N
95 64 M
631 64 L
S
GR
GS
[0.75 0 0 0.75 0 0.25] CT
0.149 GC
2 setlinecap
1 LJ
0.667 LW
N
95 756 M
95 749.08 L
S
GR
GS
[0.75 0 0 0.75 0 0.25] CT
0.149 GC
2 setlinecap
1 LJ
0.667 LW
N
243.889 756 M
243.889 749.08 L
S
GR
GS
[0.75 0 0 0.75 0 0.25] CT
0.149 GC
2 setlinecap
1 LJ
0.667 LW
N
392.778 756 M
392.778 749.08 L
S
GR
GS
[0.75 0 0 0.75 0 0.25] CT
0.149 GC
2 setlinecap
1 LJ
0.667 LW
N
541.667 756 M
541.667 749.08 L
S
GR
GS
[0.75 0 0 0.75 0 0.25] CT
0.149 GC
2 setlinecap
1 LJ
0.667 LW
N
95 64 M
95 70.92 L
S
GR
GS
[0.75 0 0 0.75 0 0.25] CT
0.149 GC
2 setlinecap
1 LJ
0.667 LW
N
243.889 64 M
243.889 70.92 L
S
GR
GS
[0.75 0 0 0.75 0 0.25] CT
0.149 GC
2 setlinecap
1 LJ
0.667 LW
N
392.778 64 M
392.778 70.92 L
S
GR
GS
[0.75 0 0 0.75 0 0.25] CT
0.149 GC
2 setlinecap
1 LJ
0.667 LW
N
541.667 64 M
541.667 70.92 L
S
GR
GS
[0.75 0 0 0.75 71.25 572.05002] CT
0.149 GC
/Helvetica 18.667 F
GS
[1 0 0 1 0 0] CT
-6 18 moveto 
1 -1 scale
(0) t 
GR
GR
GS
[0.75 0 0 0.75 182.91666 572.05002] CT
0.149 GC
/Helvetica 18.667 F
GS
[1 0 0 1 0 0] CT
-6 18 moveto 
1 -1 scale
(5) t 
GR
GR
GS
[0.75 0 0 0.75 294.58333 572.05002] CT
0.149 GC
/Helvetica 18.667 F
GS
[1 0 0 1 0 0] CT
-12 18 moveto 
1 -1 scale
(10) t 
GR
GR
GS
[0.75 0 0 0.75 406.25002 572.05002] CT
0.149 GC
/Helvetica 18.667 F
GS
[1 0 0 1 0 0] CT
-12 18 moveto 
1 -1 scale
(15) t 
GR
GR
GS
[0.75 0 0 0.75 272.25018 590.3] CT
0.149 GC
/Helvetica 20.533 F
GS
[1 0 0 1 0 0] CT
-121.5 20 moveto 
1 -1 scale
(mode angular number l) t 
GR
GR
GS
[0.75 0 0 0.75 0 0.25] CT
0.149 GC
2 setlinecap
1 LJ
0.667 LW
N
95 756 M
95 64 L
S
GR
GS
[0.75 0 0 0.75 0 0.25] CT
0.149 GC
2 setlinecap
1 LJ
0.667 LW
N
631 756 M
631 64 L
S
GR
GS
[0.75 0 0 0.75 0 0.25] CT
0.149 GC
2 setlinecap
1 LJ
0.667 LW
N
95 756 M
101.92 756 L
S
GR
GS
[0.75 0 0 0.75 0 0.25] CT
0.149 GC
2 setlinecap
1 LJ
0.667 LW
N
95 657.143 M
101.92 657.143 L
S
GR
GS
[0.75 0 0 0.75 0 0.25] CT
0.149 GC
2 setlinecap
1 LJ
0.667 LW
N
95 558.286 M
101.92 558.286 L
S
GR
GS
[0.75 0 0 0.75 0 0.25] CT
0.149 GC
2 setlinecap
1 LJ
0.667 LW
N
95 459.429 M
101.92 459.429 L
S
GR
GS
[0.75 0 0 0.75 0 0.25] CT
0.149 GC
2 setlinecap
1 LJ
0.667 LW
N
95 360.571 M
101.92 360.571 L
S
GR
GS
[0.75 0 0 0.75 0 0.25] CT
0.149 GC
2 setlinecap
1 LJ
0.667 LW
N
95 261.714 M
101.92 261.714 L
S
GR
GS
[0.75 0 0 0.75 0 0.25] CT
0.149 GC
2 setlinecap
1 LJ
0.667 LW
N
95 162.857 M
101.92 162.857 L
S
GR
GS
[0.75 0 0 0.75 0 0.25] CT
0.149 GC
2 setlinecap
1 LJ
0.667 LW
N
95 64 M
101.92 64 L
S
GR
GS
[0.75 0 0 0.75 0 0.25] CT
0.149 GC
2 setlinecap
1 LJ
0.667 LW
N
631 756 M
624.08 756 L
S
GR
GS
[0.75 0 0 0.75 0 0.25] CT
0.149 GC
2 setlinecap
1 LJ
0.667 LW
N
631 657.143 M
624.08 657.143 L
S
GR
GS
[0.75 0 0 0.75 0 0.25] CT
0.149 GC
2 setlinecap
1 LJ
0.667 LW
N
631 558.286 M
624.08 558.286 L
S
GR
GS
[0.75 0 0 0.75 0 0.25] CT
0.149 GC
2 setlinecap
1 LJ
0.667 LW
N
631 459.429 M
624.08 459.429 L
S
GR
GS
[0.75 0 0 0.75 0 0.25] CT
0.149 GC
2 setlinecap
1 LJ
0.667 LW
N
631 360.571 M
624.08 360.571 L
S
GR
GS
[0.75 0 0 0.75 0 0.25] CT
0.149 GC
2 setlinecap
1 LJ
0.667 LW
N
631 261.714 M
624.08 261.714 L
S
GR
GS
[0.75 0 0 0.75 0 0.25] CT
0.149 GC
2 setlinecap
1 LJ
0.667 LW
N
631 162.857 M
624.08 162.857 L
S
GR
GS
[0.75 0 0 0.75 0 0.25] CT
0.149 GC
2 setlinecap
1 LJ
0.667 LW
N
631 64 M
624.08 64 L
S
GR
GS
[0.75 0 0 0.75 66.45 567.25] CT
0.149 GC
/Helvetica 18.667 F
GS
[1 0 0 1 0 0] CT
-12 6.5 moveto 
1 -1 scale
(0) t 
GR
GR
GS
[0.75 0 0 0.75 66.45 493.10716] CT
0.149 GC
/Helvetica 18.667 F
GS
[1 0 0 1 0 0] CT
-48 6.5 moveto 
1 -1 scale
(2000) t 
GR
GR
GS
[0.75 0 0 0.75 66.45 418.96428] CT
0.149 GC
/Helvetica 18.667 F
GS
[1 0 0 1 0 0] CT
-48 6.5 moveto 
1 -1 scale
(4000) t 
GR
GR
GS
[0.75 0 0 0.75 66.45 344.82142] CT
0.149 GC
/Helvetica 18.667 F
GS
[1 0 0 1 0 0] CT
-48 6.5 moveto 
1 -1 scale
(6000) t 
GR
GR
GS
[0.75 0 0 0.75 66.45 270.67858] CT
0.149 GC
/Helvetica 18.667 F
GS
[1 0 0 1 0 0] CT
-48 6.5 moveto 
1 -1 scale
(8000) t 
GR
GR
GS
[0.75 0 0 0.75 66.45 196.53572] CT
0.149 GC
/Helvetica 18.667 F
GS
[1 0 0 1 0 0] CT
-60 6.5 moveto 
1 -1 scale
(10000) t 
GR
GR
GS
[0.75 0 0 0.75 66.45 122.39286] CT
0.149 GC
/Helvetica 18.667 F
GS
[1 0 0 1 0 0] CT
-60 6.5 moveto 
1 -1 scale
(12000) t 
GR
GR
GS
[0.75 0 0 0.75 66.45 48.25] CT
0.149 GC
/Helvetica 18.667 F
GS
[1 0 0 1 0 0] CT
-60 6.5 moveto 
1 -1 scale
(14000) t 
GR
GR
GS
[0 -0.75 0.75 0 18.45 307.74975] CT
0.149 GC
/Helvetica 20.533 F
GS
[1 0 0 1 0 0] CT
-243 -5 moveto 
1 -1 scale
(mode frequency \(Hz\) \(csound = 343.2638 m/s\)) t 
GR
GR
GS
[0.75 0 0 0.75 32.25 23.5] CT
/Helvetica-Bold 16.427 F
GS
[1 0 0 1 0 0] CT
0 0 moveto 
1 -1 scale
(n) t 
GR
GR
GS
[0.75 0 0 0.75 41.25 16] CT
/Helvetica-Bold 20.533 F
GS
[1 0 0 1 0 0] CT
0 0 moveto 
1 -1 scale
(S) t 
GR
GR
GS
[0.75 0 0 0.75 52.5 23.5] CT
/Helvetica-Bold 16.427 F
GS
[1 0 0 1 0 0] CT
0 0 moveto 
1 -1 scale
(l) t 
GR
GR
GS
[0.75 0 0 0.75 57 16] CT
/Helvetica-Bold 20.533 F
GS
[1 0 0 1 0 0] CT
0 0 moveto 
1 -1 scale
( mode frequencies for elastic or rigid spherical shell) t 
GR
GR
GS
[0.75 0 0 0.75 198 41.5] CT
/Helvetica-Bold 20.533 F
GS
[1 0 0 1 0 0] CT
0 0 moveto 
1 -1 scale
(ZoRo2-air-elastic) t 
GR
GR
GS
[0.75 0 0 0.75 71.25 324.99632] CT
1 0 0 RC
N
4 0 M
4 -2.209 2.209 -4 0 -4 C
-2.209 -4 -4 -2.209 -4 0 C
-4 2.209 -2.209 4 0 4 C
2.209 4 4 2.209 4 0 C
cp
f
GR
GS
[0.75 0 0 0.75 71.25 324.99632] CT
1 0 0 RC
10.0 ML
N
4 0 M
4 -2.209 2.209 -4 0 -4 C
-2.209 -4 -4 -2.209 -4 0 C
-4 2.209 -2.209 4 0 4 C
2.209 4 4 2.209 4 0 C
cp
S
GR
GS
[0.75 0 0 0.75 93.58333 309.18184] CT
1 0 0 RC
N
/f351177404{4 0 M
4 -2.209 2.209 -4 0 -4 C
-2.209 -4 -4 -2.209 -4 0 C
-4 2.209 -2.209 4 0 4 C
2.209 4 4 2.209 4 0 C
cp}def
f351177404
f
GR
GS
[0.75 0 0 0.75 93.58333 309.18184] CT
1 0 0 RC
10.0 ML
N
4 0 M
4 -2.209 2.209 -4 0 -4 C
-2.209 -4 -4 -2.209 -4 0 C
-4 2.209 -2.209 4 0 4 C
2.209 4 4 2.209 4 0 C
cp
S
GR
GS
[0.75 0 0 0.75 115.91667 293.72749] CT
1 0 0 RC
N
f351177404
f
GR
GS
[0.75 0 0 0.75 115.91667 293.72749] CT
1 0 0 RC
10.0 ML
N
4 0 M
4 -2.209 2.209 -4 0 -4 C
-2.209 -4 -4 -2.209 -4 0 C
-4 2.209 -2.209 4 0 4 C
2.209 4 4 2.209 4 0 C
cp
S
GR
GS
[0.75 0 0 0.75 138.25 278.57054] CT
1 0 0 RC
N
f351177404
f
GR
GS
[0.75 0 0 0.75 138.25 278.57054] CT
1 0 0 RC
10.0 ML
N
4 0 M
4 -2.209 2.209 -4 0 -4 C
-2.209 -4 -4 -2.209 -4 0 C
-4 2.209 -2.209 4 0 4 C
2.209 4 4 2.209 4 0 C
cp
S
GR
GS
[0.75 0 0 0.75 160.58334 263.66708] CT
1 0 0 RC
N
f351177404
f
GR
GS
[0.75 0 0 0.75 160.58334 263.66708] CT
1 0 0 RC
10.0 ML
N
4 0 M
4 -2.209 2.209 -4 0 -4 C
-2.209 -4 -4 -2.209 -4 0 C
-4 2.209 -2.209 4 0 4 C
2.209 4 4 2.209 4 0 C
cp
S
GR
GS
[0.75 0 0 0.75 182.91666 248.98429] CT
1 0 0 RC
N
f351177404
f
GR
GS
[0.75 0 0 0.75 182.91666 248.98429] CT
1 0 0 RC
10.0 ML
N
4 0 M
4 -2.209 2.209 -4 0 -4 C
-2.209 -4 -4 -2.209 -4 0 C
-4 2.209 -2.209 4 0 4 C
2.209 4 4 2.209 4 0 C
cp
S
GR
GS
[0.75 0 0 0.75 205.24999 267.64578] CT
1 0 0 RC
N
f351177404
f
GR
GS
[0.75 0 0 0.75 205.24999 267.64578] CT
1 0 0 RC
10.0 ML
N
4 0 M
4 -2.209 2.209 -4 0 -4 C
-2.209 -4 -4 -2.209 -4 0 C
-4 2.209 -2.209 4 0 4 C
2.209 4 4 2.209 4 0 C
cp
S
GR
GS
[0.75 0 0 0.75 227.58334 220.18091] CT
1 0 0 RC
N
f351177404
f
GR
GS
[0.75 0 0 0.75 227.58334 220.18091] CT
1 0 0 RC
10.0 ML
N
4 0 M
4 -2.209 2.209 -4 0 -4 C
-2.209 -4 -4 -2.209 -4 0 C
-4 2.209 -2.209 4 0 4 C
2.209 4 4 2.209 4 0 C
cp
S
GR
GS
[0.75 0 0 0.75 249.91667 206.02122] CT
1 0 0 RC
N
f351177404
f
GR
GS
[0.75 0 0 0.75 249.91667 206.02122] CT
1 0 0 RC
10.0 ML
N
4 0 M
4 -2.209 2.209 -4 0 -4 C
-2.209 -4 -4 -2.209 -4 0 C
-4 2.209 -2.209 4 0 4 C
2.209 4 4 2.209 4 0 C
cp
S
GR
GS
[0.75 0 0 0.75 272.25 225.67545] CT
1 0 0 RC
N
f351177404
f
GR
GS
[0.75 0 0 0.75 272.25 225.67545] CT
1 0 0 RC
10.0 ML
N
4 0 M
4 -2.209 2.209 -4 0 -4 C
-2.209 -4 -4 -2.209 -4 0 C
-4 2.209 -2.209 4 0 4 C
2.209 4 4 2.209 4 0 C
cp
S
GR
GS
[0.75 0 0 0.75 294.58333 211.96442] CT
1 0 0 RC
N
f351177404
f
GR
GS
[0.75 0 0 0.75 294.58333 211.96442] CT
1 0 0 RC
10.0 ML
N
4 0 M
4 -2.209 2.209 -4 0 -4 C
-2.209 -4 -4 -2.209 -4 0 C
-4 2.209 -2.209 4 0 4 C
2.209 4 4 2.209 4 0 C
cp
S
GR
GS
[0.75 0 0 0.75 316.91666 198.37144] CT
1 0 0 RC
N
f351177404
f
GR
GS
[0.75 0 0 0.75 316.91666 198.37144] CT
1 0 0 RC
10.0 ML
N
4 0 M
4 -2.209 2.209 -4 0 -4 C
-2.209 -4 -4 -2.209 -4 0 C
-4 2.209 -2.209 4 0 4 C
2.209 4 4 2.209 4 0 C
cp
S
GR
GS
[0.75 0 0 0.75 339.25001 150.6688] CT
1 0 0 RC
N
f351177404
f
GR
GS
[0.75 0 0 0.75 339.25001 150.6688] CT
1 0 0 RC
10.0 ML
N
4 0 M
4 -2.209 2.209 -4 0 -4 C
-2.209 -4 -4 -2.209 -4 0 C
-4 2.209 -2.209 4 0 4 C
2.209 4 4 2.209 4 0 C
cp
S
GR
GS
[0.75 0 0 0.75 361.58334 137.10062] CT
1 0 0 RC
N
f351177404
f
GR
GS
[0.75 0 0 0.75 361.58334 137.10062] CT
1 0 0 RC
10.0 ML
N
4 0 M
4 -2.209 2.209 -4 0 -4 C
-2.209 -4 -4 -2.209 -4 0 C
-4 2.209 -2.209 4 0 4 C
2.209 4 4 2.209 4 0 C
cp
S
GR
GS
[0.75 0 0 0.75 383.91666 158.20599] CT
1 0 0 RC
N
f351177404
f
GR
GS
[0.75 0 0 0.75 383.91666 158.20599] CT
1 0 0 RC
10.0 ML
N
4 0 M
4 -2.209 2.209 -4 0 -4 C
-2.209 -4 -4 -2.209 -4 0 C
-4 2.209 -2.209 4 0 4 C
2.209 4 4 2.209 4 0 C
cp
S
GR
GS
[0.75 0 0 0.75 406.25002 144.99618] CT
1 0 0 RC
N
f351177404
f
GR
GS
[0.75 0 0 0.75 406.25002 144.99618] CT
1 0 0 RC
10.0 ML
N
4 0 M
4 -2.209 2.209 -4 0 -4 C
-2.209 -4 -4 -2.209 -4 0 C
-4 2.209 -2.209 4 0 4 C
2.209 4 4 2.209 4 0 C
cp
S
GR
GS
[0.75 0 0 0.75 428.58334 96.92163] CT
1 0 0 RC
N
f351177404
f
GR
GS
[0.75 0 0 0.75 428.58334 96.92163] CT
1 0 0 RC
10.0 ML
N
4 0 M
4 -2.209 2.209 -4 0 -4 C
-2.209 -4 -4 -2.209 -4 0 C
-4 2.209 -2.209 4 0 4 C
2.209 4 4 2.209 4 0 C
cp
S
GR
GS
[0.75 0 0 0.75 450.91667 83.68456] CT
1 0 0 RC
N
f351177404
f
GR
GS
[0.75 0 0 0.75 450.91667 83.68456] CT
1 0 0 RC
10.0 ML
N
4 0 M
4 -2.209 2.209 -4 0 -4 C
-2.209 -4 -4 -2.209 -4 0 C
-4 2.209 -2.209 4 0 4 C
2.209 4 4 2.209 4 0 C
cp
S
GR
GS
[0.75 0 0 0.75 473.25 70.51733] CT
1 0 0 RC
N
f351177404
f
GR
GS
[0.75 0 0 0.75 473.25 70.51733] CT
1 0 0 RC
10.0 ML
N
4 0 M
4 -2.209 2.209 -4 0 -4 C
-2.209 -4 -4 -2.209 -4 0 C
-4 2.209 -2.209 4 0 4 C
2.209 4 4 2.209 4 0 C
cp
S
GR
GS
[0.75 0 0 0.75 71.25 357.41116] CT
0 0 1 RC
N
/f1737057230{-3.464 -2 M
-1.155 -2 L
0 -4 L
1.155 -2 L
3.464 -2 L
2 0 L
3.464 2 L
1.155 2 L
0 4 L
-1.155 2 L
-3.464 2 L
-2 0 L
cp}def
f1737057230
f
GR
GS
[0.75 0 0 0.75 71.25 357.41116] CT
0 0 1 RC
10.0 ML
N
-3.464 -2 M
-1.155 -2 L
0 -4 L
1.155 -2 L
3.464 -2 L
2 0 L
3.464 2 L
1.155 2 L
0 4 L
-1.155 2 L
-3.464 2 L
-2 0 L
cp
S
GR
GS
[0.75 0 0 0.75 93.58333 341.66065] CT
0 0 1 RC
N
f1737057230
f
GR
GS
[0.75 0 0 0.75 93.58333 341.66065] CT
0 0 1 RC
10.0 ML
N
-3.464 -2 M
-1.155 -2 L
0 -4 L
1.155 -2 L
3.464 -2 L
2 0 L
3.464 2 L
1.155 2 L
0 4 L
-1.155 2 L
-3.464 2 L
-2 0 L
cp
S
GR
GS
[0.75 0 0 0.75 115.91667 326.29982] CT
0 0 1 RC
N
f1737057230
f
GR
GS
[0.75 0 0 0.75 115.91667 326.29982] CT
0 0 1 RC
10.0 ML
N
-3.464 -2 M
-1.155 -2 L
0 -4 L
1.155 -2 L
3.464 -2 L
2 0 L
3.464 2 L
1.155 2 L
0 4 L
-1.155 2 L
-3.464 2 L
-2 0 L
cp
S
GR
GS
[0.75 0 0 0.75 138.25 311.26324] CT
0 0 1 RC
N
f1737057230
f
GR
GS
[0.75 0 0 0.75 138.25 311.26324] CT
0 0 1 RC
10.0 ML
N
-3.464 -2 M
-1.155 -2 L
0 -4 L
1.155 -2 L
3.464 -2 L
2 0 L
3.464 2 L
1.155 2 L
0 4 L
-1.155 2 L
-3.464 2 L
-2 0 L
cp
S
GR
GS
[0.75 0 0 0.75 160.58334 296.49973] CT
0 0 1 RC
N
f1737057230
f
GR
GS
[0.75 0 0 0.75 160.58334 296.49973] CT
0 0 1 RC
10.0 ML
N
-3.464 -2 M
-1.155 -2 L
0 -4 L
1.155 -2 L
3.464 -2 L
2 0 L
3.464 2 L
1.155 2 L
0 4 L
-1.155 2 L
-3.464 2 L
-2 0 L
cp
S
GR
GS
[0.75 0 0 0.75 182.91666 281.97063] CT
0 0 1 RC
N
f1737057230
f
GR
GS
[0.75 0 0 0.75 182.91666 281.97063] CT
0 0 1 RC
10.0 ML
N
-3.464 -2 M
-1.155 -2 L
0 -4 L
1.155 -2 L
3.464 -2 L
2 0 L
3.464 2 L
1.155 2 L
0 4 L
-1.155 2 L
-3.464 2 L
-2 0 L
cp
S
GR
GS
[0.75 0 0 0.75 205.24999 301.00243] CT
0 0 1 RC
N
f1737057230
f
GR
GS
[0.75 0 0 0.75 205.24999 301.00243] CT
0 0 1 RC
10.0 ML
N
-3.464 -2 M
-1.155 -2 L
0 -4 L
1.155 -2 L
3.464 -2 L
2 0 L
3.464 2 L
1.155 2 L
0 4 L
-1.155 2 L
-3.464 2 L
-2 0 L
cp
S
GR
GS
[0.75 0 0 0.75 227.58334 253.50095] CT
0 0 1 RC
N
f1737057230
f
GR
GS
[0.75 0 0 0.75 227.58334 253.50095] CT
0 0 1 RC
10.0 ML
N
-3.464 -2 M
-1.155 -2 L
0 -4 L
1.155 -2 L
3.464 -2 L
2 0 L
3.464 2 L
1.155 2 L
0 4 L
-1.155 2 L
-3.464 2 L
-2 0 L
cp
S
GR
GS
[0.75 0 0 0.75 249.91667 239.51634] CT
0 0 1 RC
N
f1737057230
f
GR
GS
[0.75 0 0 0.75 249.91667 239.51634] CT
0 0 1 RC
10.0 ML
N
-3.464 -2 M
-1.155 -2 L
0 -4 L
1.155 -2 L
3.464 -2 L
2 0 L
3.464 2 L
1.155 2 L
0 4 L
-1.155 2 L
-3.464 2 L
-2 0 L
cp
S
GR
GS
[0.75 0 0 0.75 272.25 259.66071] CT
0 0 1 RC
N
f1737057230
f
GR
GS
[0.75 0 0 0.75 272.25 259.66071] CT
0 0 1 RC
10.0 ML
N
-3.464 -2 M
-1.155 -2 L
0 -4 L
1.155 -2 L
3.464 -2 L
2 0 L
3.464 2 L
1.155 2 L
0 4 L
-1.155 2 L
-3.464 2 L
-2 0 L
cp
S
GR
GS
[0.75 0 0 0.75 294.58333 246.16325] CT
0 0 1 RC
N
f1737057230
f
GR
GS
[0.75 0 0 0.75 294.58333 246.16325] CT
0 0 1 RC
10.0 ML
N
-3.464 -2 M
-1.155 -2 L
0 -4 L
1.155 -2 L
3.464 -2 L
2 0 L
3.464 2 L
1.155 2 L
0 4 L
-1.155 2 L
-3.464 2 L
-2 0 L
cp
S
GR
GS
[0.75 0 0 0.75 316.91666 232.78408] CT
0 0 1 RC
N
f1737057230
f
GR
GS
[0.75 0 0 0.75 316.91666 232.78408] CT
0 0 1 RC
10.0 ML
N
-3.464 -2 M
-1.155 -2 L
0 -4 L
1.155 -2 L
3.464 -2 L
2 0 L
3.464 2 L
1.155 2 L
0 4 L
-1.155 2 L
-3.464 2 L
-2 0 L
cp
S
GR
GS
[0.75 0 0 0.75 339.25001 184.88641] CT
0 0 1 RC
N
f1737057230
f
GR
GS
[0.75 0 0 0.75 339.25001 184.88641] CT
0 0 1 RC
10.0 ML
N
-3.464 -2 M
-1.155 -2 L
0 -4 L
1.155 -2 L
3.464 -2 L
2 0 L
3.464 2 L
1.155 2 L
0 4 L
-1.155 2 L
-3.464 2 L
-2 0 L
cp
S
GR
GS
[0.75 0 0 0.75 361.58334 171.50048] CT
0 0 1 RC
N
f1737057230
f
GR
GS
[0.75 0 0 0.75 361.58334 171.50048] CT
0 0 1 RC
10.0 ML
N
-3.464 -2 M
-1.155 -2 L
0 -4 L
1.155 -2 L
3.464 -2 L
2 0 L
3.464 2 L
1.155 2 L
0 4 L
-1.155 2 L
-3.464 2 L
-2 0 L
cp
S
GR
GS
[0.75 0 0 0.75 383.91666 193.25566] CT
0 0 1 RC
N
f1737057230
f
GR
GS
[0.75 0 0 0.75 383.91666 193.25566] CT
0 0 1 RC
10.0 ML
N
-3.464 -2 M
-1.155 -2 L
0 -4 L
1.155 -2 L
3.464 -2 L
2 0 L
3.464 2 L
1.155 2 L
0 4 L
-1.155 2 L
-3.464 2 L
-2 0 L
cp
S
GR
GS
[0.75 0 0 0.75 406.25002 180.25549] CT
0 0 1 RC
N
f1737057230
f
GR
GS
[0.75 0 0 0.75 406.25002 180.25549] CT
0 0 1 RC
10.0 ML
N
-3.464 -2 M
-1.155 -2 L
0 -4 L
1.155 -2 L
3.464 -2 L
2 0 L
3.464 2 L
1.155 2 L
0 4 L
-1.155 2 L
-3.464 2 L
-2 0 L
cp
S
GR
GS
[0.75 0 0 0.75 428.58334 131.86511] CT
0 0 1 RC
N
f1737057230
f
GR
GS
[0.75 0 0 0.75 428.58334 131.86511] CT
0 0 1 RC
10.0 ML
N
-3.464 -2 M
-1.155 -2 L
0 -4 L
1.155 -2 L
3.464 -2 L
2 0 L
3.464 2 L
1.155 2 L
0 4 L
-1.155 2 L
-3.464 2 L
-2 0 L
cp
S
GR
GS
[0.75 0 0 0.75 450.91667 118.80739] CT
0 0 1 RC
N
f1737057230
f
GR
GS
[0.75 0 0 0.75 450.91667 118.80739] CT
0 0 1 RC
10.0 ML
N
-3.464 -2 M
-1.155 -2 L
0 -4 L
1.155 -2 L
3.464 -2 L
2 0 L
3.464 2 L
1.155 2 L
0 4 L
-1.155 2 L
-3.464 2 L
-2 0 L
cp
S
GR
GS
[0.75 0 0 0.75 473.25 105.81835] CT
0 0 1 RC
N
f1737057230
f
GR
GS
[0.75 0 0 0.75 473.25 105.81835] CT
0 0 1 RC
10.0 ML
N
-3.464 -2 M
-1.155 -2 L
0 -4 L
1.155 -2 L
3.464 -2 L
2 0 L
3.464 2 L
1.155 2 L
0 4 L
-1.155 2 L
-3.464 2 L
-2 0 L
cp
S
GR
GS
[0.75 0 0 0.75 71.25 389.86182] CT
N
/f-1741330208{-3.804 -1.236 M
-0.94 -1.236 L
0 -4 L
0.94 -1.236 L
3.804 -1.236 L
1.522 0.494 L
2.351 3.236 L
0 1.6 L
-2.351 3.236 L
-1.522 0.494 L
cp}def
f-1741330208
f
GR
GS
[0.75 0 0 0.75 71.25 389.86182] CT
10.0 ML
N
-3.804 -1.236 M
-0.94 -1.236 L
0 -4 L
0.94 -1.236 L
3.804 -1.236 L
1.522 0.494 L
2.351 3.236 L
0 1.6 L
-2.351 3.236 L
-1.522 0.494 L
cp
S
GR
GS
[0.75 0 0 0.75 93.58333 374.18064] CT
N
f-1741330208
f
GR
GS
[0.75 0 0 0.75 93.58333 374.18064] CT
10.0 ML
N
-3.804 -1.236 M
-0.94 -1.236 L
0 -4 L
0.94 -1.236 L
3.804 -1.236 L
1.522 0.494 L
2.351 3.236 L
0 1.6 L
-2.351 3.236 L
-1.522 0.494 L
cp
S
GR
GS
[0.75 0 0 0.75 115.91667 358.93917] CT
N
f-1741330208
f
GR
GS
[0.75 0 0 0.75 115.91667 358.93917] CT
10.0 ML
N
-3.804 -1.236 M
-0.94 -1.236 L
0 -4 L
0.94 -1.236 L
3.804 -1.236 L
1.522 0.494 L
2.351 3.236 L
0 1.6 L
-2.351 3.236 L
-1.522 0.494 L
cp
S
GR
GS
[0.75 0 0 0.75 138.25 344.05528] CT
N
f-1741330208
f
GR
GS
[0.75 0 0 0.75 138.25 344.05528] CT
10.0 ML
N
-3.804 -1.236 M
-0.94 -1.236 L
0 -4 L
0.94 -1.236 L
3.804 -1.236 L
1.522 0.494 L
2.351 3.236 L
0 1.6 L
-2.351 3.236 L
-1.522 0.494 L
cp
S
GR
GS
[0.75 0 0 0.75 160.58334 329.46681] CT
N
f-1741330208
f
GR
GS
[0.75 0 0 0.75 160.58334 329.46681] CT
10.0 ML
N
-3.804 -1.236 M
-0.94 -1.236 L
0 -4 L
0.94 -1.236 L
3.804 -1.236 L
1.522 0.494 L
2.351 3.236 L
0 1.6 L
-2.351 3.236 L
-1.522 0.494 L
cp
S
GR
GS
[0.75 0 0 0.75 182.91666 315.12759] CT
N
f-1741330208
f
GR
GS
[0.75 0 0 0.75 182.91666 315.12759] CT
10.0 ML
N
-3.804 -1.236 M
-0.94 -1.236 L
0 -4 L
0.94 -1.236 L
3.804 -1.236 L
1.522 0.494 L
2.351 3.236 L
0 1.6 L
-2.351 3.236 L
-1.522 0.494 L
cp
S
GR
GS
[0.75 0 0 0.75 205.24999 334.66492] CT
N
f-1741330208
f
GR
GS
[0.75 0 0 0.75 205.24999 334.66492] CT
10.0 ML
N
-3.804 -1.236 M
-0.94 -1.236 L
0 -4 L
0.94 -1.236 L
3.804 -1.236 L
1.522 0.494 L
2.351 3.236 L
0 1.6 L
-2.351 3.236 L
-1.522 0.494 L
cp
S
GR
GS
[0.75 0 0 0.75 227.58334 287.06368] CT
N
f-1741330208
f
GR
GS
[0.75 0 0 0.75 227.58334 287.06368] CT
10.0 ML
N
-3.804 -1.236 M
-0.94 -1.236 L
0 -4 L
0.94 -1.236 L
3.804 -1.236 L
1.522 0.494 L
2.351 3.236 L
0 1.6 L
-2.351 3.236 L
-1.522 0.494 L
cp
S
GR
GS
[0.75 0 0 0.75 249.91667 273.28916] CT
N
f-1741330208
f
GR
GS
[0.75 0 0 0.75 249.91667 273.28916] CT
10.0 ML
N
-3.804 -1.236 M
-0.94 -1.236 L
0 -4 L
0.94 -1.236 L
3.804 -1.236 L
1.522 0.494 L
2.351 3.236 L
0 1.6 L
-2.351 3.236 L
-1.522 0.494 L
cp
S
GR
GS
[0.75 0 0 0.75 272.25 294.095] CT
N
f-1741330208
f
GR
GS
[0.75 0 0 0.75 272.25 294.095] CT
10.0 ML
N
-3.804 -1.236 M
-0.94 -1.236 L
0 -4 L
0.94 -1.236 L
3.804 -1.236 L
1.522 0.494 L
2.351 3.236 L
0 1.6 L
-2.351 3.236 L
-1.522 0.494 L
cp
S
GR
GS
[0.75 0 0 0.75 294.58333 280.85554] CT
N
f-1741330208
f
GR
GS
[0.75 0 0 0.75 294.58333 280.85554] CT
10.0 ML
N
-3.804 -1.236 M
-0.94 -1.236 L
0 -4 L
0.94 -1.236 L
3.804 -1.236 L
1.522 0.494 L
2.351 3.236 L
0 1.6 L
-2.351 3.236 L
-1.522 0.494 L
cp
S
GR
GS
[0.75 0 0 0.75 316.91666 267.73292] CT
N
f-1741330208
f
GR
GS
[0.75 0 0 0.75 316.91666 267.73292] CT
10.0 ML
N
-3.804 -1.236 M
-0.94 -1.236 L
0 -4 L
0.94 -1.236 L
3.804 -1.236 L
1.522 0.494 L
2.351 3.236 L
0 1.6 L
-2.351 3.236 L
-1.522 0.494 L
cp
S
GR
GS
[0.75 0 0 0.75 339.25001 219.51239] CT
N
f-1741330208
f
GR
GS
[0.75 0 0 0.75 339.25001 219.51239] CT
10.0 ML
N
-3.804 -1.236 M
-0.94 -1.236 L
0 -4 L
0.94 -1.236 L
3.804 -1.236 L
1.522 0.494 L
2.351 3.236 L
0 1.6 L
-2.351 3.236 L
-1.522 0.494 L
cp
S
GR
GS
[0.75 0 0 0.75 361.58334 206.33894] CT
N
f-1741330208
f
GR
GS
[0.75 0 0 0.75 361.58334 206.33894] CT
10.0 ML
N
-3.804 -1.236 M
-0.94 -1.236 L
0 -4 L
0.94 -1.236 L
3.804 -1.236 L
1.522 0.494 L
2.351 3.236 L
0 1.6 L
-2.351 3.236 L
-1.522 0.494 L
cp
S
GR
GS
[0.75 0 0 0.75 383.91666 228.96066] CT
N
f-1741330208
f
GR
GS
[0.75 0 0 0.75 383.91666 228.96066] CT
10.0 ML
N
-3.804 -1.236 M
-0.94 -1.236 L
0 -4 L
0.94 -1.236 L
3.804 -1.236 L
1.522 0.494 L
2.351 3.236 L
0 1.6 L
-2.351 3.236 L
-1.522 0.494 L
cp
S
GR
GS
[0.75 0 0 0.75 406.25002 216.20711] CT
N
f-1741330208
f
GR
GS
[0.75 0 0 0.75 406.25002 216.20711] CT
10.0 ML
N
-3.804 -1.236 M
-0.94 -1.236 L
0 -4 L
0.94 -1.236 L
3.804 -1.236 L
1.522 0.494 L
2.351 3.236 L
0 1.6 L
-2.351 3.236 L
-1.522 0.494 L
cp
S
GR
GS
[0.75 0 0 0.75 428.58334 167.33233] CT
N
f-1741330208
f
GR
GS
[0.75 0 0 0.75 428.58334 167.33233] CT
10.0 ML
N
-3.804 -1.236 M
-0.94 -1.236 L
0 -4 L
0.94 -1.236 L
3.804 -1.236 L
1.522 0.494 L
2.351 3.236 L
0 1.6 L
-2.351 3.236 L
-1.522 0.494 L
cp
S
GR
GS
[0.75 0 0 0.75 450.91667 154.48071] CT
N
f-1741330208
f
GR
GS
[0.75 0 0 0.75 450.91667 154.48071] CT
10.0 ML
N
-3.804 -1.236 M
-0.94 -1.236 L
0 -4 L
0.94 -1.236 L
3.804 -1.236 L
1.522 0.494 L
2.351 3.236 L
0 1.6 L
-2.351 3.236 L
-1.522 0.494 L
cp
S
GR
GS
[0.75 0 0 0.75 473.25 141.6957] CT
N
f-1741330208
f
GR
GS
[0.75 0 0 0.75 473.25 141.6957] CT
10.0 ML
N
-3.804 -1.236 M
-0.94 -1.236 L
0 -4 L
0.94 -1.236 L
3.804 -1.236 L
1.522 0.494 L
2.351 3.236 L
0 1.6 L
-2.351 3.236 L
-1.522 0.494 L
cp
S
GR
GS
[0.75 0 0 0.75 71.25 422.35567] CT
0 1 0 RC
N
/f227889816{-3 -3 M
-3 3 L
3 3 L
3 -3 L
cp}def
f227889816
f
GR
GS
[0.75 0 0 0.75 71.25 422.35567] CT
0 1 0 RC
10.0 ML
N
-3 -3 M
-3 3 L
3 3 L
3 -3 L
cp
S
GR
GS
[0.75 0 0 0.75 93.58333 406.76634] CT
0 1 0 RC
N
f227889816
f
GR
GS
[0.75 0 0 0.75 93.58333 406.76634] CT
0 1 0 RC
10.0 ML
N
-3 -3 M
-3 3 L
3 3 L
3 -3 L
cp
S
GR
GS
[0.75 0 0 0.75 115.91667 391.68399] CT
0 1 0 RC
N
f227889816
f
GR
GS
[0.75 0 0 0.75 115.91667 391.68399] CT
0 1 0 RC
10.0 ML
N
-3 -3 M
-3 3 L
3 3 L
3 -3 L
cp
S
GR
GS
[0.75 0 0 0.75 138.25 377.00031] CT
0 1 0 RC
N
f227889816
f
GR
GS
[0.75 0 0 0.75 138.25 377.00031] CT
0 1 0 RC
10.0 ML
N
-3 -3 M
-3 3 L
3 3 L
3 -3 L
cp
S
GR
GS
[0.75 0 0 0.75 160.58334 362.63774] CT
0 1 0 RC
N
f227889816
f
GR
GS
[0.75 0 0 0.75 160.58334 362.63774] CT
0 1 0 RC
10.0 ML
N
-3 -3 M
-3 3 L
3 3 L
3 -3 L
cp
S
GR
GS
[0.75 0 0 0.75 182.91666 348.53979] CT
0 1 0 RC
N
f227889816
f
GR
GS
[0.75 0 0 0.75 182.91666 348.53979] CT
0 1 0 RC
10.0 ML
N
-3 -3 M
-3 3 L
3 3 L
3 -3 L
cp
S
GR
GS
[0.75 0 0 0.75 205.24999 368.81265] CT
0 1 0 RC
N
f227889816
f
GR
GS
[0.75 0 0 0.75 205.24999 368.81265] CT
0 1 0 RC
10.0 ML
N
-3 -3 M
-3 3 L
3 3 L
3 -3 L
cp
S
GR
GS
[0.75 0 0 0.75 227.58334 320.98159] CT
0 1 0 RC
N
f227889816
f
GR
GS
[0.75 0 0 0.75 227.58334 320.98159] CT
0 1 0 RC
10.0 ML
N
-3 -3 M
-3 3 L
3 3 L
3 -3 L
cp
S
GR
GS
[0.75 0 0 0.75 249.91667 307.46495] CT
0 1 0 RC
N
f227889816
f
GR
GS
[0.75 0 0 0.75 249.91667 307.46495] CT
0 1 0 RC
10.0 ML
N
-3 -3 M
-3 3 L
3 3 L
3 -3 L
cp
S
GR
GS
[0.75 0 0 0.75 272.25 329.22003] CT
0 1 0 RC
N
f227889816
f
GR
GS
[0.75 0 0 0.75 272.25 329.22003] CT
0 1 0 RC
10.0 ML
N
-3 -3 M
-3 3 L
3 3 L
3 -3 L
cp
S
GR
GS
[0.75 0 0 0.75 294.58333 316.30082] CT
0 1 0 RC
N
f227889816
f
GR
GS
[0.75 0 0 0.75 294.58333 316.30082] CT
0 1 0 RC
10.0 ML
N
-3 -3 M
-3 3 L
3 3 L
3 -3 L
cp
S
GR
GS
[0.75 0 0 0.75 316.91666 303.49429] CT
0 1 0 RC
N
f227889816
f
GR
GS
[0.75 0 0 0.75 316.91666 303.49429] CT
0 1 0 RC
10.0 ML
N
-3 -3 M
-3 3 L
3 3 L
3 -3 L
cp
S
GR
GS
[0.75 0 0 0.75 339.25001 254.71581] CT
0 1 0 RC
N
f227889816
f
GR
GS
[0.75 0 0 0.75 339.25001 254.71581] CT
0 1 0 RC
10.0 ML
N
-3 -3 M
-3 3 L
3 3 L
3 -3 L
cp
S
GR
GS
[0.75 0 0 0.75 361.58334 241.79447] CT
0 1 0 RC
N
f227889816
f
GR
GS
[0.75 0 0 0.75 361.58334 241.79447] CT
0 1 0 RC
10.0 ML
N
-3 -3 M
-3 3 L
3 3 L
3 -3 L
cp
S
GR
GS
[0.75 0 0 0.75 383.91666 265.64215] CT
0 1 0 RC
N
f227889816
f
GR
GS
[0.75 0 0 0.75 383.91666 265.64215] CT
0 1 0 RC
10.0 ML
N
-3 -3 M
-3 3 L
3 3 L
3 -3 L
cp
S
GR
GS
[0.75 0 0 0.75 406.25002 253.18555] CT
0 1 0 RC
N
f227889816
f
GR
GS
[0.75 0 0 0.75 406.25002 253.18555] CT
0 1 0 RC
10.0 ML
N
-3 -3 M
-3 3 L
3 3 L
3 -3 L
cp
S
GR
GS
[0.75 0 0 0.75 428.58334 203.52758] CT
0 1 0 RC
N
f227889816
f
GR
GS
[0.75 0 0 0.75 428.58334 203.52758] CT
0 1 0 RC
10.0 ML
N
-3 -3 M
-3 3 L
3 3 L
3 -3 L
cp
S
GR
GS
[0.75 0 0 0.75 450.91667 190.91653] CT
0 1 0 RC
N
f227889816
f
GR
GS
[0.75 0 0 0.75 450.91667 190.91653] CT
0 1 0 RC
10.0 ML
N
-3 -3 M
-3 3 L
3 3 L
3 -3 L
cp
S
GR
GS
[0.75 0 0 0.75 473.25 178.36908] CT
0 1 0 RC
N
f227889816
f
GR
GS
[0.75 0 0 0.75 473.25 178.36908] CT
0 1 0 RC
10.0 ML
N
-3 -3 M
-3 3 L
3 3 L
3 -3 L
cp
S
GR
GS
[0.75 0 0 0.75 71.25 454.92752] CT
1 0 1 RC
N
/f1022997606{0 5.332 M
-4.618 -2.666 L
4.618 -2.666 L
cp}def
f1022997606
f
GR
GS
[0.75 0 0 0.75 71.25 454.92752] CT
1 0 1 RC
10.0 ML
N
0 5.332 M
-4.618 -2.666 L
4.618 -2.666 L
cp
S
GR
GS
[0.75 0 0 0.75 93.58333 439.4693] CT
1 0 1 RC
N
f1022997606
f
GR
GS
[0.75 0 0 0.75 93.58333 439.4693] CT
1 0 1 RC
10.0 ML
N
0 5.332 M
-4.618 -2.666 L
4.618 -2.666 L
cp
S
GR
GS
[0.75 0 0 0.75 115.91667 424.60915] CT
1 0 1 RC
N
f1022997606
f
GR
GS
[0.75 0 0 0.75 115.91667 424.60915] CT
1 0 1 RC
10.0 ML
N
0 5.332 M
-4.618 -2.666 L
4.618 -2.666 L
cp
S
GR
GS
[0.75 0 0 0.75 138.25 410.19829] CT
1 0 1 RC
N
f1022997606
f
GR
GS
[0.75 0 0 0.75 138.25 410.19829] CT
1 0 1 RC
10.0 ML
N
0 5.332 M
-4.618 -2.666 L
4.618 -2.666 L
cp
S
GR
GS
[0.75 0 0 0.75 160.58334 396.14055] CT
1 0 1 RC
N
f1022997606
f
GR
GS
[0.75 0 0 0.75 160.58334 396.14055] CT
1 0 1 RC
10.0 ML
N
0 5.332 M
-4.618 -2.666 L
4.618 -2.666 L
cp
S
GR
GS
[0.75 0 0 0.75 182.91666 382.36202] CT
1 0 1 RC
N
f1022997606
f
GR
GS
[0.75 0 0 0.75 182.91666 382.36202] CT
1 0 1 RC
10.0 ML
N
0 5.332 M
-4.618 -2.666 L
4.618 -2.666 L
cp
S
GR
GS
[0.75 0 0 0.75 205.24999 403.81088] CT
1 0 1 RC
N
f1022997606
f
GR
GS
[0.75 0 0 0.75 205.24999 403.81088] CT
1 0 1 RC
10.0 ML
N
0 5.332 M
-4.618 -2.666 L
4.618 -2.666 L
cp
S
GR
GS
[0.75 0 0 0.75 227.58334 355.4565] CT
1 0 1 RC
N
f1022997606
f
GR
GS
[0.75 0 0 0.75 227.58334 355.4565] CT
1 0 1 RC
10.0 ML
N
0 5.332 M
-4.618 -2.666 L
4.618 -2.666 L
cp
S
GR
GS
[0.75 0 0 0.75 249.91667 342.26614] CT
1 0 1 RC
N
f1022997606
f
GR
GS
[0.75 0 0 0.75 249.91667 342.26614] CT
1 0 1 RC
10.0 ML
N
0 5.332 M
-4.618 -2.666 L
4.618 -2.666 L
cp
S
GR
GS
[0.75 0 0 0.75 272.25 365.52287] CT
1 0 1 RC
N
f1022997606
f
GR
GS
[0.75 0 0 0.75 272.25 365.52287] CT
1 0 1 RC
10.0 ML
N
0 5.332 M
-4.618 -2.666 L
4.618 -2.666 L
cp
S
GR
GS
[0.75 0 0 0.75 294.58333 353.0183] CT
1 0 1 RC
N
f1022997606
f
GR
GS
[0.75 0 0 0.75 294.58333 353.0183] CT
1 0 1 RC
10.0 ML
N
0 5.332 M
-4.618 -2.666 L
4.618 -2.666 L
cp
S
GR
GS
[0.75 0 0 0.75 316.91666 340.61713] CT
1 0 1 RC
N
f1022997606
f
GR
GS
[0.75 0 0 0.75 316.91666 340.61713] CT
1 0 1 RC
10.0 ML
N
0 5.332 M
-4.618 -2.666 L
4.618 -2.666 L
cp
S
GR
GS
[0.75 0 0 0.75 339.25001 290.78869] CT
1 0 1 RC
N
f1022997606
f
GR
GS
[0.75 0 0 0.75 339.25001 290.78869] CT
1 0 1 RC
10.0 ML
N
0 5.332 M
-4.618 -2.666 L
4.618 -2.666 L
cp
S
GR
GS
[0.75 0 0 0.75 361.58334 278.17412] CT
1 0 1 RC
N
f1022997606
f
GR
GS
[0.75 0 0 0.75 361.58334 278.17412] CT
1 0 1 RC
10.0 ML
N
0 5.332 M
-4.618 -2.666 L
4.618 -2.666 L
cp
S
GR
GS
[0.75 0 0 0.75 383.91666 303.92765] CT
1 0 1 RC
N
f1022997606
f
GR
GS
[0.75 0 0 0.75 383.91666 303.92765] CT
1 0 1 RC
10.0 ML
N
0 5.332 M
-4.618 -2.666 L
4.618 -2.666 L
cp
S
GR
GS
[0.75 0 0 0.75 406.25002 291.84177] CT
1 0 1 RC
N
f1022997606
f
GR
GS
[0.75 0 0 0.75 406.25002 291.84177] CT
1 0 1 RC
10.0 ML
N
0 5.332 M
-4.618 -2.666 L
4.618 -2.666 L
cp
S
GR
GS
[0.75 0 0 0.75 428.58334 240.79817] CT
1 0 1 RC
N
f1022997606
f
GR
GS
[0.75 0 0 0.75 428.58334 240.79817] CT
1 0 1 RC
10.0 ML
N
0 5.332 M
-4.618 -2.666 L
4.618 -2.666 L
cp
S
GR
GS
[0.75 0 0 0.75 450.91667 228.47442] CT
1 0 1 RC
N
f1022997606
f
GR
GS
[0.75 0 0 0.75 450.91667 228.47442] CT
1 0 1 RC
10.0 ML
N
0 5.332 M
-4.618 -2.666 L
4.618 -2.666 L
cp
S
GR
GS
[0.75 0 0 0.75 473.25 216.2096] CT
1 0 1 RC
N
f1022997606
f
GR
GS
[0.75 0 0 0.75 473.25 216.2096] CT
1 0 1 RC
10.0 ML
N
0 5.332 M
-4.618 -2.666 L
4.618 -2.666 L
cp
S
GR
GS
[0.75 0 0 0.75 71.25 487.67268] CT
1 0 0 RC
N
/f860094634{0 -4 M
0 4 L
-4 0 M
4 0 L}def
f860094634
f
GR
GS
[0.75 0 0 0.75 71.25 487.67268] CT
1 0 0 RC
10.0 ML
N
0 -4 M
0 4 L
-4 0 M
4 0 L
S
GR
GS
[0.75 0 0 0.75 93.58333 472.41725] CT
1 0 0 RC
N
f860094634
f
GR
GS
[0.75 0 0 0.75 93.58333 472.41725] CT
1 0 0 RC
10.0 ML
N
0 -4 M
0 4 L
-4 0 M
4 0 L
S
GR
GS
[0.75 0 0 0.75 115.91667 456.53752] CT
1 0 0 RC
N
f860094634
f
GR
GS
[0.75 0 0 0.75 115.91667 456.53752] CT
1 0 0 RC
10.0 ML
N
0 -4 M
0 4 L
-4 0 M
4 0 L
S
GR
GS
[0.75 0 0 0.75 138.25 443.9682] CT
1 0 0 RC
N
f860094634
f
GR
GS
[0.75 0 0 0.75 138.25 443.9682] CT
1 0 0 RC
10.0 ML
N
0 -4 M
0 4 L
-4 0 M
4 0 L
S
GR
GS
[0.75 0 0 0.75 160.58334 427.65469] CT
1 0 0 RC
N
f860094634
f
GR
GS
[0.75 0 0 0.75 160.58334 427.65469] CT
1 0 0 RC
10.0 ML
N
0 -4 M
0 4 L
-4 0 M
4 0 L
S
GR
GS
[0.75 0 0 0.75 182.91666 423.82939] CT
1 0 0 RC
N
f860094634
f
GR
GS
[0.75 0 0 0.75 182.91666 423.82939] CT
1 0 0 RC
10.0 ML
N
0 -4 M
0 4 L
-4 0 M
4 0 L
S
GR
GS
[0.75 0 0 0.75 205.24999 421.47145] CT
1 0 0 RC
N
f860094634
f
GR
GS
[0.75 0 0 0.75 205.24999 421.47145] CT
1 0 0 RC
10.0 ML
N
0 -4 M
0 4 L
-4 0 M
4 0 L
S
GR
GS
[0.75 0 0 0.75 227.58334 390.90112] CT
1 0 0 RC
N
f860094634
f
GR
GS
[0.75 0 0 0.75 227.58334 390.90112] CT
1 0 0 RC
10.0 ML
N
0 -4 M
0 4 L
-4 0 M
4 0 L
S
GR
GS
[0.75 0 0 0.75 249.91667 378.14485] CT
1 0 0 RC
N
f860094634
f
GR
GS
[0.75 0 0 0.75 249.91667 378.14485] CT
1 0 0 RC
10.0 ML
N
0 -4 M
0 4 L
-4 0 M
4 0 L
S
GR
GS
[0.75 0 0 0.75 272.25 404.24457] CT
1 0 0 RC
N
f860094634
f
GR
GS
[0.75 0 0 0.75 272.25 404.24457] CT
1 0 0 RC
10.0 ML
N
0 -4 M
0 4 L
-4 0 M
4 0 L
S
GR
GS
[0.75 0 0 0.75 294.58333 392.33292] CT
1 0 0 RC
N
f860094634
f
GR
GS
[0.75 0 0 0.75 294.58333 392.33292] CT
1 0 0 RC
10.0 ML
N
0 -4 M
0 4 L
-4 0 M
4 0 L
S
GR
GS
[0.75 0 0 0.75 316.91666 380.49439] CT
1 0 0 RC
N
f860094634
f
GR
GS
[0.75 0 0 0.75 316.91666 380.49439] CT
1 0 0 RC
10.0 ML
N
0 -4 M
0 4 L
-4 0 M
4 0 L
S
GR
GS
[0.75 0 0 0.75 339.25001 328.3078] CT
1 0 0 RC
N
f860094634
f
GR
GS
[0.75 0 0 0.75 339.25001 328.3078] CT
1 0 0 RC
10.0 ML
N
0 -4 M
0 4 L
-4 0 M
4 0 L
S
GR
GS
[0.75 0 0 0.75 361.58334 316.08068] CT
1 0 0 RC
N
f860094634
f
GR
GS
[0.75 0 0 0.75 361.58334 316.08068] CT
1 0 0 RC
10.0 ML
N
0 -4 M
0 4 L
-4 0 M
4 0 L
S
GR
GS
[0.75 0 0 0.75 383.91666 345.38081] CT
1 0 0 RC
N
f860094634
f
GR
GS
[0.75 0 0 0.75 383.91666 345.38081] CT
1 0 0 RC
10.0 ML
N
0 -4 M
0 4 L
-4 0 M
4 0 L
S
GR
GS
[0.75 0 0 0.75 406.25002 333.78954] CT
1 0 0 RC
N
f860094634
f
GR
GS
[0.75 0 0 0.75 406.25002 333.78954] CT
1 0 0 RC
10.0 ML
N
0 -4 M
0 4 L
-4 0 M
4 0 L
S
GR
GS
[0.75 0 0 0.75 428.58334 279.81719] CT
1 0 0 RC
N
f860094634
f
GR
GS
[0.75 0 0 0.75 428.58334 279.81719] CT
1 0 0 RC
10.0 ML
N
0 -4 M
0 4 L
-4 0 M
4 0 L
S
GR
GS
[0.75 0 0 0.75 450.91667 267.84873] CT
1 0 0 RC
N
f860094634
f
GR
GS
[0.75 0 0 0.75 450.91667 267.84873] CT
1 0 0 RC
10.0 ML
N
0 -4 M
0 4 L
-4 0 M
4 0 L
S
GR
GS
[0.75 0 0 0.75 473.25 255.93195] CT
1 0 0 RC
N
f860094634
f
GR
GS
[0.75 0 0 0.75 473.25 255.93195] CT
1 0 0 RC
10.0 ML
N
0 -4 M
0 4 L
-4 0 M
4 0 L
S
GR
GS
[0.75 0 0 0.75 71.25 520.96364] CT
0 0 1 RC
N
/f1719669614{-2.828 -2.828 M
2.828 2.828 L
-2.828 2.828 M
2.828 -2.828 L}def
f1719669614
f
GR
GS
[0.75 0 0 0.75 71.25 520.96364] CT
0 0 1 RC
10.0 ML
N
-2.828 -2.828 M
2.828 2.828 L
-2.828 2.828 M
2.828 -2.828 L
S
GR
GS
[0.75 0 0 0.75 93.58333 506.05299] CT
0 0 1 RC
N
f1719669614
f
GR
GS
[0.75 0 0 0.75 93.58333 506.05299] CT
0 0 1 RC
10.0 ML
N
-2.828 -2.828 M
2.828 2.828 L
-2.828 2.828 M
2.828 -2.828 L
S
GR
GS
[0.75 0 0 0.75 115.91667 492.16385] CT
0 0 1 RC
N
f1719669614
f
GR
GS
[0.75 0 0 0.75 115.91667 492.16385] CT
0 0 1 RC
10.0 ML
N
-2.828 -2.828 M
2.828 2.828 L
-2.828 2.828 M
2.828 -2.828 L
S
GR
GS
[0.75 0 0 0.75 138.25 478.83652] CT
0 0 1 RC
N
f1719669614
f
GR
GS
[0.75 0 0 0.75 138.25 478.83652] CT
0 0 1 RC
10.0 ML
N
-2.828 -2.828 M
2.828 2.828 L
-2.828 2.828 M
2.828 -2.828 L
S
GR
GS
[0.75 0 0 0.75 160.58334 465.89407] CT
0 0 1 RC
N
f1719669614
f
GR
GS
[0.75 0 0 0.75 160.58334 465.89407] CT
0 0 1 RC
10.0 ML
N
-2.828 -2.828 M
2.828 2.828 L
-2.828 2.828 M
2.828 -2.828 L
S
GR
GS
[0.75 0 0 0.75 182.91666 453.23155] CT
0 0 1 RC
N
f1719669614
f
GR
GS
[0.75 0 0 0.75 182.91666 453.23155] CT
0 0 1 RC
10.0 ML
N
-2.828 -2.828 M
2.828 2.828 L
-2.828 2.828 M
2.828 -2.828 L
S
GR
GS
[0.75 0 0 0.75 205.24999 440.78802] CT
0 0 1 RC
N
f1719669614
f
GR
GS
[0.75 0 0 0.75 205.24999 440.78802] CT
0 0 1 RC
10.0 ML
N
-2.828 -2.828 M
2.828 2.828 L
-2.828 2.828 M
2.828 -2.828 L
S
GR
GS
[0.75 0 0 0.75 227.58334 428.54486] CT
0 0 1 RC
N
f1719669614
f
GR
GS
[0.75 0 0 0.75 227.58334 428.54486] CT
0 0 1 RC
10.0 ML
N
-2.828 -2.828 M
2.828 2.828 L
-2.828 2.828 M
2.828 -2.828 L
S
GR
GS
[0.75 0 0 0.75 249.91667 419.31392] CT
0 0 1 RC
N
f1719669614
f
GR
GS
[0.75 0 0 0.75 249.91667 419.31392] CT
0 0 1 RC
10.0 ML
N
-2.828 -2.828 M
2.828 2.828 L
-2.828 2.828 M
2.828 -2.828 L
S
GR
GS
[0.75 0 0 0.75 272.25 418.46518] CT
0 0 1 RC
N
f1719669614
f
GR
GS
[0.75 0 0 0.75 272.25 418.46518] CT
0 0 1 RC
10.0 ML
N
-2.828 -2.828 M
2.828 2.828 L
-2.828 2.828 M
2.828 -2.828 L
S
GR
GS
[0.75 0 0 0.75 294.58333 417.93811] CT
0 0 1 RC
N
f1719669614
f
GR
GS
[0.75 0 0 0.75 294.58333 417.93811] CT
0 0 1 RC
10.0 ML
N
-2.828 -2.828 M
2.828 2.828 L
-2.828 2.828 M
2.828 -2.828 L
S
GR
GS
[0.75 0 0 0.75 316.91666 417.50822] CT
0 0 1 RC
N
f1719669614
f
GR
GS
[0.75 0 0 0.75 316.91666 417.50822] CT
0 0 1 RC
10.0 ML
N
-2.828 -2.828 M
2.828 2.828 L
-2.828 2.828 M
2.828 -2.828 L
S
GR
GS
[0.75 0 0 0.75 339.25001 368.72721] CT
0 0 1 RC
N
f1719669614
f
GR
GS
[0.75 0 0 0.75 339.25001 368.72721] CT
0 0 1 RC
10.0 ML
N
-2.828 -2.828 M
2.828 2.828 L
-2.828 2.828 M
2.828 -2.828 L
S
GR
GS
[0.75 0 0 0.75 361.58334 357.02483] CT
0 0 1 RC
N
f1719669614
f
GR
GS
[0.75 0 0 0.75 361.58334 357.02483] CT
0 0 1 RC
10.0 ML
N
-2.828 -2.828 M
2.828 2.828 L
-2.828 2.828 M
2.828 -2.828 L
S
GR
GS
[0.75 0 0 0.75 383.91666 398.59897] CT
0 0 1 RC
N
f1719669614
f
GR
GS
[0.75 0 0 0.75 383.91666 398.59897] CT
0 0 1 RC
10.0 ML
N
-2.828 -2.828 M
2.828 2.828 L
-2.828 2.828 M
2.828 -2.828 L
S
GR
GS
[0.75 0 0 0.75 406.25002 387.84839] CT
0 0 1 RC
N
f1719669614
f
GR
GS
[0.75 0 0 0.75 406.25002 387.84839] CT
0 0 1 RC
10.0 ML
N
-2.828 -2.828 M
2.828 2.828 L
-2.828 2.828 M
2.828 -2.828 L
S
GR
GS
[0.75 0 0 0.75 428.58334 322.24612] CT
0 0 1 RC
N
f1719669614
f
GR
GS
[0.75 0 0 0.75 428.58334 322.24612] CT
0 0 1 RC
10.0 ML
N
-2.828 -2.828 M
2.828 2.828 L
-2.828 2.828 M
2.828 -2.828 L
S
GR
GS
[0.75 0 0 0.75 450.91667 310.74632] CT
0 0 1 RC
N
f1719669614
f
GR
GS
[0.75 0 0 0.75 450.91667 310.74632] CT
0 0 1 RC
10.0 ML
N
-2.828 -2.828 M
2.828 2.828 L
-2.828 2.828 M
2.828 -2.828 L
S
GR
GS
[0.75 0 0 0.75 473.25 299.28643] CT
0 0 1 RC
N
f1719669614
f
GR
GS
[0.75 0 0 0.75 473.25 299.28643] CT
0 0 1 RC
10.0 ML
N
-2.828 -2.828 M
2.828 2.828 L
-2.828 2.828 M
2.828 -2.828 L
S
GR
GS
[0.75 0 0 0.75 71.25 567.25] CT
N
f351177404
f
GR
GS
[0.75 0 0 0.75 71.25 567.25] CT
10.0 ML
N
4 0 M
4 -2.209 2.209 -4 0 -4 C
-2.209 -4 -4 -2.209 -4 0 C
-4 2.209 -2.209 4 0 4 C
2.209 4 4 2.209 4 0 C
cp
S
GR
GS
[0.75 0 0 0.75 93.58333 545.78198] CT
N
f351177404
f
GR
GS
[0.75 0 0 0.75 93.58333 545.78198] CT
10.0 ML
N
4 0 M
4 -2.209 2.209 -4 0 -4 C
-2.209 -4 -4 -2.209 -4 0 C
-4 2.209 -2.209 4 0 4 C
2.209 4 4 2.209 4 0 C
cp
S
GR
GS
[0.75 0 0 0.75 115.91667 532.82709] CT
N
f351177404
f
GR
GS
[0.75 0 0 0.75 115.91667 532.82709] CT
10.0 ML
N
4 0 M
4 -2.209 2.209 -4 0 -4 C
-2.209 -4 -4 -2.209 -4 0 C
-4 2.209 -2.209 4 0 4 C
2.209 4 4 2.209 4 0 C
cp
S
GR
GS
[0.75 0 0 0.75 138.25 520.75558] CT
N
f351177404
f
GR
GS
[0.75 0 0 0.75 138.25 520.75558] CT
10.0 ML
N
4 0 M
4 -2.209 2.209 -4 0 -4 C
-2.209 -4 -4 -2.209 -4 0 C
-4 2.209 -2.209 4 0 4 C
2.209 4 4 2.209 4 0 C
cp
S
GR
GS
[0.75 0 0 0.75 160.58334 509.09071] CT
N
f351177404
f
GR
GS
[0.75 0 0 0.75 160.58334 509.09071] CT
10.0 ML
N
4 0 M
4 -2.209 2.209 -4 0 -4 C
-2.209 -4 -4 -2.209 -4 0 C
-4 2.209 -2.209 4 0 4 C
2.209 4 4 2.209 4 0 C
cp
S
GR
GS
[0.75 0 0 0.75 182.91666 497.662] CT
N
f351177404
f
GR
GS
[0.75 0 0 0.75 182.91666 497.662] CT
10.0 ML
N
4 0 M
4 -2.209 2.209 -4 0 -4 C
-2.209 -4 -4 -2.209 -4 0 C
-4 2.209 -2.209 4 0 4 C
2.209 4 4 2.209 4 0 C
cp
S
GR
GS
[0.75 0 0 0.75 205.24999 486.39017] CT
N
f351177404
f
GR
GS
[0.75 0 0 0.75 205.24999 486.39017] CT
10.0 ML
N
4 0 M
4 -2.209 2.209 -4 0 -4 C
-2.209 -4 -4 -2.209 -4 0 C
-4 2.209 -2.209 4 0 4 C
2.209 4 4 2.209 4 0 C
cp
S
GR
GS
[0.75 0 0 0.75 227.58334 475.23167] CT
N
f351177404
f
GR
GS
[0.75 0 0 0.75 227.58334 475.23167] CT
10.0 ML
N
4 0 M
4 -2.209 2.209 -4 0 -4 C
-2.209 -4 -4 -2.209 -4 0 C
-4 2.209 -2.209 4 0 4 C
2.209 4 4 2.209 4 0 C
cp
S
GR
GS
[0.75 0 0 0.75 249.91667 464.16052] CT
N
f351177404
f
GR
GS
[0.75 0 0 0.75 249.91667 464.16052] CT
10.0 ML
N
4 0 M
4 -2.209 2.209 -4 0 -4 C
-2.209 -4 -4 -2.209 -4 0 C
-4 2.209 -2.209 4 0 4 C
2.209 4 4 2.209 4 0 C
cp
S
GR
GS
[0.75 0 0 0.75 272.25 453.16101] CT
N
f351177404
f
GR
GS
[0.75 0 0 0.75 272.25 453.16101] CT
10.0 ML
N
4 0 M
4 -2.209 2.209 -4 0 -4 C
-2.209 -4 -4 -2.209 -4 0 C
-4 2.209 -2.209 4 0 4 C
2.209 4 4 2.209 4 0 C
cp
S
GR
GS
[0.75 0 0 0.75 294.58333 442.22691] CT
N
f351177404
f
GR
GS
[0.75 0 0 0.75 294.58333 442.22691] CT
10.0 ML
N
4 0 M
4 -2.209 2.209 -4 0 -4 C
-2.209 -4 -4 -2.209 -4 0 C
-4 2.209 -2.209 4 0 4 C
2.209 4 4 2.209 4 0 C
cp
S
GR
GS
[0.75 0 0 0.75 316.91666 431.37444] CT
N
f351177404
f
GR
GS
[0.75 0 0 0.75 316.91666 431.37444] CT
10.0 ML
N
4 0 M
4 -2.209 2.209 -4 0 -4 C
-2.209 -4 -4 -2.209 -4 0 C
-4 2.209 -2.209 4 0 4 C
2.209 4 4 2.209 4 0 C
cp
S
GR
GS
[0.75 0 0 0.75 339.25001 420.9025] CT
N
f351177404
f
GR
GS
[0.75 0 0 0.75 339.25001 420.9025] CT
10.0 ML
N
4 0 M
4 -2.209 2.209 -4 0 -4 C
-2.209 -4 -4 -2.209 -4 0 C
-4 2.209 -2.209 4 0 4 C
2.209 4 4 2.209 4 0 C
cp
S
GR
GS
[0.75 0 0 0.75 361.58334 417.38934] CT
N
f351177404
f
GR
GS
[0.75 0 0 0.75 361.58334 417.38934] CT
10.0 ML
N
4 0 M
4 -2.209 2.209 -4 0 -4 C
-2.209 -4 -4 -2.209 -4 0 C
-4 2.209 -2.209 4 0 4 C
2.209 4 4 2.209 4 0 C
cp
S
GR
GS
[0.75 0 0 0.75 383.91666 417.07381] CT
N
f351177404
f
GR
GS
[0.75 0 0 0.75 383.91666 417.07381] CT
10.0 ML
N
4 0 M
4 -2.209 2.209 -4 0 -4 C
-2.209 -4 -4 -2.209 -4 0 C
-4 2.209 -2.209 4 0 4 C
2.209 4 4 2.209 4 0 C
cp
S
GR
GS
[0.75 0 0 0.75 406.25002 416.89258] CT
N
f351177404
f
GR
GS
[0.75 0 0 0.75 406.25002 416.89258] CT
10.0 ML
N
4 0 M
4 -2.209 2.209 -4 0 -4 C
-2.209 -4 -4 -2.209 -4 0 C
-4 2.209 -2.209 4 0 4 C
2.209 4 4 2.209 4 0 C
cp
S
GR
GS
[0.75 0 0 0.75 428.58334 377.09946] CT
N
f351177404
f
GR
GS
[0.75 0 0 0.75 428.58334 377.09946] CT
10.0 ML
N
4 0 M
4 -2.209 2.209 -4 0 -4 C
-2.209 -4 -4 -2.209 -4 0 C
-4 2.209 -2.209 4 0 4 C
2.209 4 4 2.209 4 0 C
cp
S
GR
GS
[0.75 0 0 0.75 450.91667 366.36286] CT
N
f351177404
f
GR
GS
[0.75 0 0 0.75 450.91667 366.36286] CT
10.0 ML
N
4 0 M
4 -2.209 2.209 -4 0 -4 C
-2.209 -4 -4 -2.209 -4 0 C
-4 2.209 -2.209 4 0 4 C
2.209 4 4 2.209 4 0 C
cp
S
GR
GS
[0.75 0 0 0.75 473.25 355.64053] CT
N
f351177404
f
GR
GS
[0.75 0 0 0.75 473.25 355.64053] CT
10.0 ML
N
4 0 M
4 -2.209 2.209 -4 0 -4 C
-2.209 -4 -4 -2.209 -4 0 C
-4 2.209 -2.209 4 0 4 C
2.209 4 4 2.209 4 0 C
cp
S
GR
GS
[0.75 0 0 0.75 0 0.25] CT
1 GC
N
/f-857993762{216 273 M
216 105 L
129 105 L
129 273 L
cp}def
f-857993762
f
GR
GS
[0.75 0 0 0.75 132 88.02687] CT
/Helvetica 16.8 F
GS
[1 0 0 1 0 0] CT
0 6 moveto 
1 -1 scale
(n=7) t 
GR
GR
GS
[0.75 0 0 0.75 114.75 88.02687] CT
1 0 0 RC
N
f351177404
f
GR
GS
[0.75 0 0 0.75 114.75 88.02687] CT
1 0 0 RC
10.0 ML
N
4 0 M
4 -2.209 2.209 -4 0 -4 C
-2.209 -4 -4 -2.209 -4 0 C
-4 2.209 -2.209 4 0 4 C
2.209 4 4 2.209 4 0 C
cp
S
GR
GS
[0.75 0 0 0.75 132 103.44776] CT
/Helvetica 16.8 F
GS
[1 0 0 1 0 0] CT
0 6 moveto 
1 -1 scale
(6) t 
GR
GR
GS
[0.75 0 0 0.75 114.75 103.44776] CT
0 0 1 RC
N
f1737057230
f
GR
GS
[0.75 0 0 0.75 114.75 103.44776] CT
0 0 1 RC
10.0 ML
N
-3.464 -2 M
-1.155 -2 L
0 -4 L
1.155 -2 L
3.464 -2 L
2 0 L
3.464 2 L
1.155 2 L
0 4 L
-1.155 2 L
-3.464 2 L
-2 0 L
cp
S
GR
GS
[0.75 0 0 0.75 132 118.86866] CT
/Helvetica 16.8 F
GS
[1 0 0 1 0 0] CT
0 6 moveto 
1 -1 scale
(5) t 
GR
GR
GS
[0.75 0 0 0.75 114.75 118.86865] CT
N
f-1741330208
f
GR
GS
[0.75 0 0 0.75 114.75 118.86865] CT
10.0 ML
N
-3.804 -1.236 M
-0.94 -1.236 L
0 -4 L
0.94 -1.236 L
3.804 -1.236 L
1.522 0.494 L
2.351 3.236 L
0 1.6 L
-2.351 3.236 L
-1.522 0.494 L
cp
S
GR
GS
[0.75 0 0 0.75 132 134.28955] CT
/Helvetica 16.8 F
GS
[1 0 0 1 0 0] CT
0 6 moveto 
1 -1 scale
(4) t 
GR
GR
GS
[0.75 0 0 0.75 114.75 134.28955] CT
0 1 0 RC
N
f227889816
f
GR
GS
[0.75 0 0 0.75 114.75 134.28955] CT
0 1 0 RC
10.0 ML
N
-3 -3 M
-3 3 L
3 3 L
3 -3 L
cp
S
GR
GS
[0.75 0 0 0.75 132 149.71045] CT
/Helvetica 16.8 F
GS
[1 0 0 1 0 0] CT
0 6 moveto 
1 -1 scale
(3) t 
GR
GR
GS
[0.75 0 0 0.75 114.75 149.71045] CT
1 0 1 RC
N
f1022997606
f
GR
GS
[0.75 0 0 0.75 114.75 149.71045] CT
1 0 1 RC
10.0 ML
N
0 5.332 M
-4.618 -2.666 L
4.618 -2.666 L
cp
S
GR
GS
[0.75 0 0 0.75 132 165.13135] CT
/Helvetica 16.8 F
GS
[1 0 0 1 0 0] CT
0 6 moveto 
1 -1 scale
(2) t 
GR
GR
GS
[0.75 0 0 0.75 114.75 165.13135] CT
1 0 0 RC
N
f860094634
f
GR
GS
[0.75 0 0 0.75 114.75 165.13135] CT
1 0 0 RC
10.0 ML
N
0 -4 M
0 4 L
-4 0 M
4 0 L
S
GR
GS
[0.75 0 0 0.75 132 180.55224] CT
/Helvetica 16.8 F
GS
[1 0 0 1 0 0] CT
0 6 moveto 
1 -1 scale
(1) t 
GR
GR
GS
[0.75 0 0 0.75 114.75 180.55224] CT
0 0 1 RC
N
f1719669614
f
GR
GS
[0.75 0 0 0.75 114.75 180.55224] CT
0 0 1 RC
10.0 ML
N
-2.828 -2.828 M
2.828 2.828 L
-2.828 2.828 M
2.828 -2.828 L
S
GR
GS
[0.75 0 0 0.75 132 195.97313] CT
/Helvetica 16.8 F
GS
[1 0 0 1 0 0] CT
0 6 moveto 
1 -1 scale
(0) t 
GR
GR
GS
[0.75 0 0 0.75 114.75 195.97313] CT
N
f351177404
f
GR
GS
[0.75 0 0 0.75 114.75 195.97313] CT
10.0 ML
N
4 0 M
4 -2.209 2.209 -4 0 -4 C
-2.209 -4 -4 -2.209 -4 0 C
-4 2.209 -2.209 4 0 4 C
2.209 4 4 2.209 4 0 C
cp
S
GR
GS
[0.75 0 0 0.75 0 0.25] CT
0.149 GC
10.0 ML
0.667 LW
N
129 273 M
129 105 L
216 105 L
216 273 L
cp
S
GR
%%Trailer
%%Pages: 1
%%EOF
