%!PS-Adobe-3.0 EPSF-3.0
%%Creator: (MATLAB, The Mathworks, Inc. Version 9.4.0.813654 \(R2018a\). Operating System: Linux)
%%Title: /data/geodynamo/natafh/Dynamo/Acoustics/elastic_shell/Figures/ZoRo2/ZoRo2-air-rigid_ellipticity_second_order_n2.eps
%%CreationDate: 2019-03-04T15:09:22
%%Pages: (atend)
%%BoundingBox: 0 0 450 600
%%LanguageLevel: 3
%%EndComments
%%BeginProlog
%%BeginResource: procset (Apache XML Graphics Std ProcSet) 1.2 0
%%Version: 1.2 0
%%Copyright: (Copyright 2001-2003,2010 The Apache Software Foundation. License terms: http://www.apache.org/licenses/LICENSE-2.0)
/bd{bind def}bind def
/ld{load def}bd
/GR/grestore ld
/GS/gsave ld
/RM/rmoveto ld
/C/curveto ld
/t/show ld
/L/lineto ld
/ML/setmiterlimit ld
/CT/concat ld
/f/fill ld
/N/newpath ld
/S/stroke ld
/CC/setcmykcolor ld
/A/ashow ld
/cp/closepath ld
/RC/setrgbcolor ld
/LJ/setlinejoin ld
/GC/setgray ld
/LW/setlinewidth ld
/M/moveto ld
/re {4 2 roll M
1 index 0 rlineto
0 exch rlineto
neg 0 rlineto
cp } bd
/_ctm matrix def
/_tm matrix def
/BT { _ctm currentmatrix pop matrix _tm copy pop 0 0 moveto } bd
/ET { _ctm setmatrix } bd
/iTm { _ctm setmatrix _tm concat } bd
/Tm { _tm astore pop iTm 0 0 moveto } bd
/ux 0.0 def
/uy 0.0 def
/F {
  /Tp exch def
  /Tf exch def
  Tf findfont Tp scalefont setfont
  /cf Tf def  /cs Tp def
} bd
/ULS {currentpoint /uy exch def /ux exch def} bd
/ULE {
  /Tcx currentpoint pop def
  gsave
  newpath
  cf findfont cs scalefont dup
  /FontMatrix get 0 get /Ts exch def /FontInfo get dup
  /UnderlinePosition get Ts mul /To exch def
  /UnderlineThickness get Ts mul /Tt exch def
  ux uy To add moveto  Tcx uy To add lineto
  Tt setlinewidth stroke
  grestore
} bd
/OLE {
  /Tcx currentpoint pop def
  gsave
  newpath
  cf findfont cs scalefont dup
  /FontMatrix get 0 get /Ts exch def /FontInfo get dup
  /UnderlinePosition get Ts mul /To exch def
  /UnderlineThickness get Ts mul /Tt exch def
  ux uy To add cs add moveto Tcx uy To add cs add lineto
  Tt setlinewidth stroke
  grestore
} bd
/SOE {
  /Tcx currentpoint pop def
  gsave
  newpath
  cf findfont cs scalefont dup
  /FontMatrix get 0 get /Ts exch def /FontInfo get dup
  /UnderlinePosition get Ts mul /To exch def
  /UnderlineThickness get Ts mul /Tt exch def
  ux uy To add cs 10 mul 26 idiv add moveto Tcx uy To add cs 10 mul 26 idiv add lineto
  Tt setlinewidth stroke
  grestore
} bd
/QT {
/Y22 exch store
/X22 exch store
/Y21 exch store
/X21 exch store
currentpoint
/Y21 load 2 mul add 3 div exch
/X21 load 2 mul add 3 div exch
/X21 load 2 mul /X22 load add 3 div
/Y21 load 2 mul /Y22 load add 3 div
/X22 load /Y22 load curveto
} bd
/SSPD {
dup length /d exch dict def
{
/v exch def
/k exch def
currentpagedevice k known {
/cpdv currentpagedevice k get def
v cpdv ne {
/upd false def
/nullv v type /nulltype eq def
/nullcpdv cpdv type /nulltype eq def
nullv nullcpdv or
{
/upd true def
} {
/sametype v type cpdv type eq def
sametype {
v type /arraytype eq {
/vlen v length def
/cpdvlen cpdv length def
vlen cpdvlen eq {
0 1 vlen 1 sub {
/i exch def
/obj v i get def
/cpdobj cpdv i get def
obj cpdobj ne {
/upd true def
exit
} if
} for
} {
/upd true def
} ifelse
} {
v type /dicttype eq {
v {
/dv exch def
/dk exch def
/cpddv cpdv dk get def
dv cpddv ne {
/upd true def
exit
} if
} forall
} {
/upd true def
} ifelse
} ifelse
} if
} ifelse
upd true eq {
d k v put
} if
} if
} if
} forall
d length 0 gt {
d setpagedevice
} if
} bd
/RE { % /NewFontName [NewEncodingArray] /FontName RE -
  findfont dup length dict begin
  {
    1 index /FID ne
    {def} {pop pop} ifelse
  } forall
  /Encoding exch def
  /FontName 1 index def
  currentdict definefont pop
  end
} bind def
%%EndResource
%%BeginResource: procset (Apache XML Graphics EPS ProcSet) 1.0 0
%%Version: 1.0 0
%%Copyright: (Copyright 2002-2003 The Apache Software Foundation. License terms: http://www.apache.org/licenses/LICENSE-2.0)
/BeginEPSF { %def
/b4_Inc_state save def         % Save state for cleanup
/dict_count countdictstack def % Count objects on dict stack
/op_count count 1 sub def      % Count objects on operand stack
userdict begin                 % Push userdict on dict stack
/showpage { } def              % Redefine showpage, { } = null proc
0 setgray 0 setlinecap         % Prepare graphics state
1 setlinewidth 0 setlinejoin
10 setmiterlimit [ ] 0 setdash newpath
/languagelevel where           % If level not equal to 1 then
{pop languagelevel             % set strokeadjust and
1 ne                           % overprint to their defaults.
{false setstrokeadjust false setoverprint
} if
} if
} bd
/EndEPSF { %def
count op_count sub {pop} repeat            % Clean up stacks
countdictstack dict_count sub {end} repeat
b4_Inc_state restore
} bd
%%EndResource
%FOPBeginFontDict
%%IncludeResource: font Courier-Oblique
%%IncludeResource: font Courier-BoldOblique
%%IncludeResource: font Courier-Bold
%%IncludeResource: font ZapfDingbats
%%IncludeResource: font Symbol
%%IncludeResource: font Helvetica
%%IncludeResource: font Helvetica-Oblique
%%IncludeResource: font Helvetica-Bold
%%IncludeResource: font Helvetica-BoldOblique
%%IncludeResource: font Times-Roman
%%IncludeResource: font Times-Italic
%%IncludeResource: font Times-Bold
%%IncludeResource: font Times-BoldItalic
%%IncludeResource: font Courier
%FOPEndFontDict
%%BeginResource: encoding WinAnsiEncoding
/WinAnsiEncoding [
/.notdef /.notdef /.notdef /.notdef /.notdef
/.notdef /.notdef /.notdef /.notdef /.notdef
/.notdef /.notdef /.notdef /.notdef /.notdef
/.notdef /.notdef /.notdef /.notdef /.notdef
/.notdef /.notdef /.notdef /.notdef /.notdef
/.notdef /.notdef /.notdef /.notdef /.notdef
/.notdef /.notdef /space /exclam /quotedbl
/numbersign /dollar /percent /ampersand /quotesingle
/parenleft /parenright /asterisk /plus /comma
/hyphen /period /slash /zero /one
/two /three /four /five /six
/seven /eight /nine /colon /semicolon
/less /equal /greater /question /at
/A /B /C /D /E
/F /G /H /I /J
/K /L /M /N /O
/P /Q /R /S /T
/U /V /W /X /Y
/Z /bracketleft /backslash /bracketright /asciicircum
/underscore /quoteleft /a /b /c
/d /e /f /g /h
/i /j /k /l /m
/n /o /p /q /r
/s /t /u /v /w
/x /y /z /braceleft /bar
/braceright /asciitilde /bullet /Euro /bullet
/quotesinglbase /florin /quotedblbase /ellipsis /dagger
/daggerdbl /circumflex /perthousand /Scaron /guilsinglleft
/OE /bullet /Zcaron /bullet /bullet
/quoteleft /quoteright /quotedblleft /quotedblright /bullet
/endash /emdash /asciitilde /trademark /scaron
/guilsinglright /oe /bullet /zcaron /Ydieresis
/space /exclamdown /cent /sterling /currency
/yen /brokenbar /section /dieresis /copyright
/ordfeminine /guillemotleft /logicalnot /sfthyphen /registered
/macron /degree /plusminus /twosuperior /threesuperior
/acute /mu /paragraph /middot /cedilla
/onesuperior /ordmasculine /guillemotright /onequarter /onehalf
/threequarters /questiondown /Agrave /Aacute /Acircumflex
/Atilde /Adieresis /Aring /AE /Ccedilla
/Egrave /Eacute /Ecircumflex /Edieresis /Igrave
/Iacute /Icircumflex /Idieresis /Eth /Ntilde
/Ograve /Oacute /Ocircumflex /Otilde /Odieresis
/multiply /Oslash /Ugrave /Uacute /Ucircumflex
/Udieresis /Yacute /Thorn /germandbls /agrave
/aacute /acircumflex /atilde /adieresis /aring
/ae /ccedilla /egrave /eacute /ecircumflex
/edieresis /igrave /iacute /icircumflex /idieresis
/eth /ntilde /ograve /oacute /ocircumflex
/otilde /odieresis /divide /oslash /ugrave
/uacute /ucircumflex /udieresis /yacute /thorn
/ydieresis
] def
%%EndResource
%FOPBeginFontReencode
/Courier-Oblique findfont
dup length dict begin
  {1 index /FID ne {def} {pop pop} ifelse} forall
  /Encoding WinAnsiEncoding def
  currentdict
end
/Courier-Oblique exch definefont pop
/Courier-BoldOblique findfont
dup length dict begin
  {1 index /FID ne {def} {pop pop} ifelse} forall
  /Encoding WinAnsiEncoding def
  currentdict
end
/Courier-BoldOblique exch definefont pop
/Courier-Bold findfont
dup length dict begin
  {1 index /FID ne {def} {pop pop} ifelse} forall
  /Encoding WinAnsiEncoding def
  currentdict
end
/Courier-Bold exch definefont pop
/Helvetica findfont
dup length dict begin
  {1 index /FID ne {def} {pop pop} ifelse} forall
  /Encoding WinAnsiEncoding def
  currentdict
end
/Helvetica exch definefont pop
/Helvetica-Oblique findfont
dup length dict begin
  {1 index /FID ne {def} {pop pop} ifelse} forall
  /Encoding WinAnsiEncoding def
  currentdict
end
/Helvetica-Oblique exch definefont pop
/Helvetica-Bold findfont
dup length dict begin
  {1 index /FID ne {def} {pop pop} ifelse} forall
  /Encoding WinAnsiEncoding def
  currentdict
end
/Helvetica-Bold exch definefont pop
/Helvetica-BoldOblique findfont
dup length dict begin
  {1 index /FID ne {def} {pop pop} ifelse} forall
  /Encoding WinAnsiEncoding def
  currentdict
end
/Helvetica-BoldOblique exch definefont pop
/Times-Roman findfont
dup length dict begin
  {1 index /FID ne {def} {pop pop} ifelse} forall
  /Encoding WinAnsiEncoding def
  currentdict
end
/Times-Roman exch definefont pop
/Times-Italic findfont
dup length dict begin
  {1 index /FID ne {def} {pop pop} ifelse} forall
  /Encoding WinAnsiEncoding def
  currentdict
end
/Times-Italic exch definefont pop
/Times-Bold findfont
dup length dict begin
  {1 index /FID ne {def} {pop pop} ifelse} forall
  /Encoding WinAnsiEncoding def
  currentdict
end
/Times-Bold exch definefont pop
/Times-BoldItalic findfont
dup length dict begin
  {1 index /FID ne {def} {pop pop} ifelse} forall
  /Encoding WinAnsiEncoding def
  currentdict
end
/Times-BoldItalic exch definefont pop
/Courier findfont
dup length dict begin
  {1 index /FID ne {def} {pop pop} ifelse} forall
  /Encoding WinAnsiEncoding def
  currentdict
end
/Courier exch definefont pop
%FOPEndFontReencode
%%EndProlog
%%Page: 1 1
%%PageBoundingBox: 0 0 450 600
%%BeginPageSetup
[1 0 0 -1 0 600] CT
%%EndPageSetup
GS
[0.75 0 0 0.75 0 0] CT
1 GC
N
0 0 600 800 re
f
GR
GS
[0.75 0 0 0.75 0 0] CT
1 GC
N
0 0 600 800 re
f
GR
GS
[0.75 0 0 0.75 0 0] CT
1 GC
N
78 712 M
543 712 L
543 74 L
78 74 L
cp
f
GR
GS
[0.75 0 0 0.75 0 0] CT
0.873 GC
1 LJ
0.667 LW
N
78 712 M
78 74 L
S
GR
GS
[0.75 0 0 0.75 0 0] CT
0.873 GC
1 LJ
0.667 LW
N
129.667 712 M
129.667 74 L
S
GR
GS
[0.75 0 0 0.75 0 0] CT
0.873 GC
1 LJ
0.667 LW
N
181.333 712 M
181.333 74 L
S
GR
GS
[0.75 0 0 0.75 0 0] CT
0.873 GC
1 LJ
0.667 LW
N
233 712 M
233 74 L
S
GR
GS
[0.75 0 0 0.75 0 0] CT
0.873 GC
1 LJ
0.667 LW
N
284.667 712 M
284.667 74 L
S
GR
GS
[0.75 0 0 0.75 0 0] CT
0.873 GC
1 LJ
0.667 LW
N
336.333 712 M
336.333 74 L
S
GR
GS
[0.75 0 0 0.75 0 0] CT
0.873 GC
1 LJ
0.667 LW
N
388 712 M
388 74 L
S
GR
GS
[0.75 0 0 0.75 0 0] CT
0.873 GC
1 LJ
0.667 LW
N
439.667 712 M
439.667 74 L
S
GR
GS
[0.75 0 0 0.75 0 0] CT
0.873 GC
1 LJ
0.667 LW
N
491.333 712 M
491.333 74 L
S
GR
GS
[0.75 0 0 0.75 0 0] CT
0.873 GC
1 LJ
0.667 LW
N
543 712 M
543 74 L
S
GR
GS
[0.75 0 0 0.75 0 0] CT
0.873 GC
1 LJ
0.667 LW
N
543 712 M
78 712 L
S
GR
GS
[0.75 0 0 0.75 0 0] CT
0.873 GC
1 LJ
0.667 LW
N
543 584.4 M
78 584.4 L
S
GR
GS
[0.75 0 0 0.75 0 0] CT
0.873 GC
1 LJ
0.667 LW
N
543 456.8 M
78 456.8 L
S
GR
GS
[0.75 0 0 0.75 0 0] CT
0.873 GC
1 LJ
0.667 LW
N
543 329.2 M
78 329.2 L
S
GR
GS
[0.75 0 0 0.75 0 0] CT
0.873 GC
1 LJ
0.667 LW
N
543 201.6 M
78 201.6 L
S
GR
GS
[0.75 0 0 0.75 0 0] CT
0.873 GC
1 LJ
0.667 LW
N
543 74 M
78 74 L
S
GR
GS
[0.75 0 0 0.75 0 0] CT
0.149 GC
2 setlinecap
1 LJ
0.667 LW
N
78 712 M
543 712 L
S
GR
GS
[0.75 0 0 0.75 0 0] CT
0.149 GC
2 setlinecap
1 LJ
0.667 LW
N
78 74 M
543 74 L
S
GR
GS
[0.75 0 0 0.75 0 0] CT
0.149 GC
2 setlinecap
1 LJ
0.667 LW
N
78 712 M
78 705.62 L
S
GR
GS
[0.75 0 0 0.75 0 0] CT
0.149 GC
2 setlinecap
1 LJ
0.667 LW
N
129.667 712 M
129.667 705.62 L
S
GR
GS
[0.75 0 0 0.75 0 0] CT
0.149 GC
2 setlinecap
1 LJ
0.667 LW
N
181.333 712 M
181.333 705.62 L
S
GR
GS
[0.75 0 0 0.75 0 0] CT
0.149 GC
2 setlinecap
1 LJ
0.667 LW
N
233 712 M
233 705.62 L
S
GR
GS
[0.75 0 0 0.75 0 0] CT
0.149 GC
2 setlinecap
1 LJ
0.667 LW
N
284.667 712 M
284.667 705.62 L
S
GR
GS
[0.75 0 0 0.75 0 0] CT
0.149 GC
2 setlinecap
1 LJ
0.667 LW
N
336.333 712 M
336.333 705.62 L
S
GR
GS
[0.75 0 0 0.75 0 0] CT
0.149 GC
2 setlinecap
1 LJ
0.667 LW
N
388 712 M
388 705.62 L
S
GR
GS
[0.75 0 0 0.75 0 0] CT
0.149 GC
2 setlinecap
1 LJ
0.667 LW
N
439.667 712 M
439.667 705.62 L
S
GR
GS
[0.75 0 0 0.75 0 0] CT
0.149 GC
2 setlinecap
1 LJ
0.667 LW
N
491.333 712 M
491.333 705.62 L
S
GR
GS
[0.75 0 0 0.75 0 0] CT
0.149 GC
2 setlinecap
1 LJ
0.667 LW
N
543 712 M
543 705.62 L
S
GR
GS
[0.75 0 0 0.75 0 0] CT
0.149 GC
2 setlinecap
1 LJ
0.667 LW
N
78 74 M
78 80.38 L
S
GR
GS
[0.75 0 0 0.75 0 0] CT
0.149 GC
2 setlinecap
1 LJ
0.667 LW
N
129.667 74 M
129.667 80.38 L
S
GR
GS
[0.75 0 0 0.75 0 0] CT
0.149 GC
2 setlinecap
1 LJ
0.667 LW
N
181.333 74 M
181.333 80.38 L
S
GR
GS
[0.75 0 0 0.75 0 0] CT
0.149 GC
2 setlinecap
1 LJ
0.667 LW
N
233 74 M
233 80.38 L
S
GR
GS
[0.75 0 0 0.75 0 0] CT
0.149 GC
2 setlinecap
1 LJ
0.667 LW
N
284.667 74 M
284.667 80.38 L
S
GR
GS
[0.75 0 0 0.75 0 0] CT
0.149 GC
2 setlinecap
1 LJ
0.667 LW
N
336.333 74 M
336.333 80.38 L
S
GR
GS
[0.75 0 0 0.75 0 0] CT
0.149 GC
2 setlinecap
1 LJ
0.667 LW
N
388 74 M
388 80.38 L
S
GR
GS
[0.75 0 0 0.75 0 0] CT
0.149 GC
2 setlinecap
1 LJ
0.667 LW
N
439.667 74 M
439.667 80.38 L
S
GR
GS
[0.75 0 0 0.75 0 0] CT
0.149 GC
2 setlinecap
1 LJ
0.667 LW
N
491.333 74 M
491.333 80.38 L
S
GR
GS
[0.75 0 0 0.75 0 0] CT
0.149 GC
2 setlinecap
1 LJ
0.667 LW
N
543 74 M
543 80.38 L
S
GR
GS
[0.75 0 0 0.75 58.5 537.99998] CT
0.149 GC
/Helvetica 13.333 F
GS
[1 0 0 1 0 0] CT
-4.5 13 moveto 
1 -1 scale
(0) t 
GR
GR
GS
[0.75 0 0 0.75 97.25 537.99998] CT
0.149 GC
/Helvetica 13.333 F
GS
[1 0 0 1 0 0] CT
-4.5 13 moveto 
1 -1 scale
(2) t 
GR
GR
GS
[0.75 0 0 0.75 136 537.99998] CT
0.149 GC
/Helvetica 13.333 F
GS
[1 0 0 1 0 0] CT
-4.5 13 moveto 
1 -1 scale
(4) t 
GR
GR
GS
[0.75 0 0 0.75 174.75 537.99998] CT
0.149 GC
/Helvetica 13.333 F
GS
[1 0 0 1 0 0] CT
-4.5 13 moveto 
1 -1 scale
(6) t 
GR
GR
GS
[0.75 0 0 0.75 213.49999 537.99998] CT
0.149 GC
/Helvetica 13.333 F
GS
[1 0 0 1 0 0] CT
-4.5 13 moveto 
1 -1 scale
(8) t 
GR
GR
GS
[0.75 0 0 0.75 252.25001 537.99998] CT
0.149 GC
/Helvetica 13.333 F
GS
[1 0 0 1 0 0] CT
-8.5 13 moveto 
1 -1 scale
(10) t 
GR
GR
GS
[0.75 0 0 0.75 291 537.99998] CT
0.149 GC
/Helvetica 13.333 F
GS
[1 0 0 1 0 0] CT
-8.5 13 moveto 
1 -1 scale
(12) t 
GR
GR
GS
[0.75 0 0 0.75 329.74999 537.99998] CT
0.149 GC
/Helvetica 13.333 F
GS
[1 0 0 1 0 0] CT
-8.5 13 moveto 
1 -1 scale
(14) t 
GR
GR
GS
[0.75 0 0 0.75 368.50001 537.99998] CT
0.149 GC
/Helvetica 13.333 F
GS
[1 0 0 1 0 0] CT
-8.5 13 moveto 
1 -1 scale
(16) t 
GR
GR
GS
[0.75 0 0 0.75 407.25 537.99998] CT
0.149 GC
/Helvetica 13.333 F
GS
[1 0 0 1 0 0] CT
-8.5 13 moveto 
1 -1 scale
(18) t 
GR
GR
GS
[0.75 0 0 0.75 232.87516 551.74997] CT
0.149 GC
/Helvetica 14.667 F
GS
[1 0 0 1 0 0] CT
-86.5 14 moveto 
1 -1 scale
(mode angular number l) t 
GR
GR
GS
[0.75 0 0 0.75 0 0] CT
0.149 GC
2 setlinecap
1 LJ
0.667 LW
N
78 712 M
78 74 L
S
GR
GS
[0.75 0 0 0.75 0 0] CT
0.149 GC
2 setlinecap
1 LJ
0.667 LW
N
543 712 M
543 74 L
S
GR
GS
[0.75 0 0 0.75 0 0] CT
0.149 GC
2 setlinecap
1 LJ
0.667 LW
N
78 712 M
84.38 712 L
S
GR
GS
[0.75 0 0 0.75 0 0] CT
0.149 GC
2 setlinecap
1 LJ
0.667 LW
N
78 584.4 M
84.38 584.4 L
S
GR
GS
[0.75 0 0 0.75 0 0] CT
0.149 GC
2 setlinecap
1 LJ
0.667 LW
N
78 456.8 M
84.38 456.8 L
S
GR
GS
[0.75 0 0 0.75 0 0] CT
0.149 GC
2 setlinecap
1 LJ
0.667 LW
N
78 329.2 M
84.38 329.2 L
S
GR
GS
[0.75 0 0 0.75 0 0] CT
0.149 GC
2 setlinecap
1 LJ
0.667 LW
N
78 201.6 M
84.38 201.6 L
S
GR
GS
[0.75 0 0 0.75 0 0] CT
0.149 GC
2 setlinecap
1 LJ
0.667 LW
N
78 74 M
84.38 74 L
S
GR
GS
[0.75 0 0 0.75 0 0] CT
0.149 GC
2 setlinecap
1 LJ
0.667 LW
N
543 712 M
536.62 712 L
S
GR
GS
[0.75 0 0 0.75 0 0] CT
0.149 GC
2 setlinecap
1 LJ
0.667 LW
N
543 584.4 M
536.62 584.4 L
S
GR
GS
[0.75 0 0 0.75 0 0] CT
0.149 GC
2 setlinecap
1 LJ
0.667 LW
N
543 456.8 M
536.62 456.8 L
S
GR
GS
[0.75 0 0 0.75 0 0] CT
0.149 GC
2 setlinecap
1 LJ
0.667 LW
N
543 329.2 M
536.62 329.2 L
S
GR
GS
[0.75 0 0 0.75 0 0] CT
0.149 GC
2 setlinecap
1 LJ
0.667 LW
N
543 201.6 M
536.62 201.6 L
S
GR
GS
[0.75 0 0 0.75 0 0] CT
0.149 GC
2 setlinecap
1 LJ
0.667 LW
N
543 74 M
536.62 74 L
S
GR
GS
[0.75 0 0 0.75 54.5 534] CT
0.149 GC
/Helvetica 13.333 F
GS
[1 0 0 1 0 0] CT
-14 4.5 moveto 
1 -1 scale
(-2) t 
GR
GR
GS
[0.75 0 0 0.75 54.5 438.30002] CT
0.149 GC
/Helvetica 13.333 F
GS
[1 0 0 1 0 0] CT
-26 4.5 moveto 
1 -1 scale
(-1.5) t 
GR
GR
GS
[0.75 0 0 0.75 54.5 342.59999] CT
0.149 GC
/Helvetica 13.333 F
GS
[1 0 0 1 0 0] CT
-14 4.5 moveto 
1 -1 scale
(-1) t 
GR
GR
GS
[0.75 0 0 0.75 54.5 246.90001] CT
0.149 GC
/Helvetica 13.333 F
GS
[1 0 0 1 0 0] CT
-26 4.5 moveto 
1 -1 scale
(-0.5) t 
GR
GR
GS
[0.75 0 0 0.75 54.5 151.2] CT
0.149 GC
/Helvetica 13.333 F
GS
[1 0 0 1 0 0] CT
-9 4.5 moveto 
1 -1 scale
(0) t 
GR
GR
GS
[0.75 0 0 0.75 54.5 55.5] CT
0.149 GC
/Helvetica 13.333 F
GS
[1 0 0 1 0 0] CT
-22 4.5 moveto 
1 -1 scale
(0.5) t 
GR
GR
GS
[0 -0.75 0.75 0 29.25 449.25] CT
0.149 GC
/Helvetica 14.667 F
GS
[1 0 0 1 0 0] CT
0 0 moveto 
1 -1 scale
(second order ellipticity coefficient x \(l+1\)/\(m+1\)/\(n+1\)) t 
GR
GR
GS
[0 -0.75 0.75 0 24 146.25] CT
0.149 GC
/Helvetica 11.733 F
GS
[1 0 0 1 0 0] CT
0 0 moveto 
1 -1 scale
(2) t 
GR
GR
GS
[0.75 0 0 0.75 34.5 19.5] CT
/Helvetica-Bold 11.733 F
GS
[1 0 0 1 0 0] CT
0 0 moveto 
1 -1 scale
(n) t 
GR
GR
GS
[0.75 0 0 0.75 41.25 14.25] CT
/Helvetica-Bold 14.667 F
GS
[1 0 0 1 0 0] CT
0 0 moveto 
1 -1 scale
(dk2) t 
GR
GR
GS
[0.75 0 0 0.75 64.5 19.5] CT
/Helvetica-Bold 11.733 F
GS
[1 0 0 1 0 0] CT
0 0 moveto 
1 -1 scale
(l) t 
GR
GR
GS
[0.75 0 0 0.75 64.5 9] CT
/Helvetica-Bold 11.733 F
GS
[1 0 0 1 0 0] CT
0 0 moveto 
1 -1 scale
(m) t 
GR
GR
GS
[0.75 0 0 0.75 74.25 14.25] CT
/Helvetica-Bold 14.667 F
GS
[1 0 0 1 0 0] CT
0 0 moveto 
1 -1 scale
( second order ellipticity coefficients x \(l+1\)/\(m+1\)/\(n+1\)) t 
GR
GR
GS
[0.75 0 0 0.75 424.5 9] CT
/Helvetica-Bold 11.733 F
GS
[1 0 0 1 0 0] CT
0 0 moveto 
1 -1 scale
(2) t 
GR
GR
GS
[0.75 0 0 0.75 100.5 32.25] CT
/Helvetica-Bold 14.667 F
GS
[1 0 0 1 0 0] CT
0 0 moveto 
1 -1 scale
(for modes ) t 
GR
GR
GS
[0.75 0 0 0.75 167.25 37.5] CT
/Helvetica-Bold 11.733 F
GS
[1 0 0 1 0 0] CT
0 0 moveto 
1 -1 scale
(n) t 
GR
GR
GS
[0.75 0 0 0.75 174 32.25] CT
/Helvetica-Bold 14.667 F
GS
[1 0 0 1 0 0] CT
0 0 moveto 
1 -1 scale
(S) t 
GR
GR
GS
[0.75 0 0 0.75 182.25 37.5] CT
/Helvetica-Bold 11.733 F
GS
[1 0 0 1 0 0] CT
0 0 moveto 
1 -1 scale
(l) t 
GR
GR
GS
[0.75 0 0 0.75 186 32.25] CT
/Helvetica-Bold 14.667 F
GS
[1 0 0 1 0 0] CT
0 0 moveto 
1 -1 scale
( in a sphere of fluid for n = 2) t 
GR
GR
GS
[0.75 0 0 0.75 89.25 50.25] CT
/Helvetica-Bold 14.667 F
GS
[1 0 0 1 0 0] CT
0 0 moveto 
1 -1 scale
(sphere type : ZoRo2-air-rigid     \(04-Mar-2019\)) t 
GR
GR
GS
[0.75 0 0 0.75 58.5 75.98907] CT
N
4 0 M
4 -2.209 2.209 -4 0 -4 C
-2.209 -4 -4 -2.209 -4 0 C
-4 2.209 -2.209 4 0 4 C
2.209 4 4 2.209 4 0 C
cp
f
GR
GS
[0.75 0 0 0.75 58.5 75.98907] CT
10.0 ML
N
4 0 M
4 -2.209 2.209 -4 0 -4 C
-2.209 -4 -4 -2.209 -4 0 C
-4 2.209 -2.209 4 0 4 C
2.209 4 4 2.209 4 0 C
cp
S
GR
GS
[0.75 0 0 0.75 77.875 59.72417] CT
N
/f351177404{4 0 M
4 -2.209 2.209 -4 0 -4 C
-2.209 -4 -4 -2.209 -4 0 C
-4 2.209 -2.209 4 0 4 C
2.209 4 4 2.209 4 0 C
cp}def
f351177404
f
GR
GS
[0.75 0 0 0.75 77.875 59.72417] CT
10.0 ML
N
4 0 M
4 -2.209 2.209 -4 0 -4 C
-2.209 -4 -4 -2.209 -4 0 C
-4 2.209 -2.209 4 0 4 C
2.209 4 4 2.209 4 0 C
cp
S
GR
GS
[0.75 0 0 0.75 97.25 479.17749] CT
N
f351177404
f
GR
GS
[0.75 0 0 0.75 97.25 479.17749] CT
10.0 ML
N
4 0 M
4 -2.209 2.209 -4 0 -4 C
-2.209 -4 -4 -2.209 -4 0 C
-4 2.209 -2.209 4 0 4 C
2.209 4 4 2.209 4 0 C
cp
S
GR
GS
[0.75 0 0 0.75 116.625 348.40819] CT
N
f351177404
f
GR
GS
[0.75 0 0 0.75 116.625 348.40819] CT
10.0 ML
N
4 0 M
4 -2.209 2.209 -4 0 -4 C
-2.209 -4 -4 -2.209 -4 0 C
-4 2.209 -2.209 4 0 4 C
2.209 4 4 2.209 4 0 C
cp
S
GR
GS
[0.75 0 0 0.75 136 327.16754] CT
N
f351177404
f
GR
GS
[0.75 0 0 0.75 136 327.16754] CT
10.0 ML
N
4 0 M
4 -2.209 2.209 -4 0 -4 C
-2.209 -4 -4 -2.209 -4 0 C
-4 2.209 -2.209 4 0 4 C
2.209 4 4 2.209 4 0 C
cp
S
GR
GS
[0.75 0 0 0.75 155.375 323.35064] CT
N
f351177404
f
GR
GS
[0.75 0 0 0.75 155.375 323.35064] CT
10.0 ML
N
4 0 M
4 -2.209 2.209 -4 0 -4 C
-2.209 -4 -4 -2.209 -4 0 C
-4 2.209 -2.209 4 0 4 C
2.209 4 4 2.209 4 0 C
cp
S
GR
GS
[0.75 0 0 0.75 174.75 325.77399] CT
N
f351177404
f
GR
GS
[0.75 0 0 0.75 174.75 325.77399] CT
10.0 ML
N
4 0 M
4 -2.209 2.209 -4 0 -4 C
-2.209 -4 -4 -2.209 -4 0 C
-4 2.209 -2.209 4 0 4 C
2.209 4 4 2.209 4 0 C
cp
S
GR
GS
[0.75 0 0 0.75 194.12501 331.17213] CT
N
f351177404
f
GR
GS
[0.75 0 0 0.75 194.12501 331.17213] CT
10.0 ML
N
4 0 M
4 -2.209 2.209 -4 0 -4 C
-2.209 -4 -4 -2.209 -4 0 C
-4 2.209 -2.209 4 0 4 C
2.209 4 4 2.209 4 0 C
cp
S
GR
GS
[0.75 0 0 0.75 213.49999 338.22379] CT
N
f351177404
f
GR
GS
[0.75 0 0 0.75 213.49999 338.22379] CT
10.0 ML
N
4 0 M
4 -2.209 2.209 -4 0 -4 C
-2.209 -4 -4 -2.209 -4 0 C
-4 2.209 -2.209 4 0 4 C
2.209 4 4 2.209 4 0 C
cp
S
GR
GS
[0.75 0 0 0.75 232.875 346.28851] CT
N
f351177404
f
GR
GS
[0.75 0 0 0.75 232.875 346.28851] CT
10.0 ML
N
4 0 M
4 -2.209 2.209 -4 0 -4 C
-2.209 -4 -4 -2.209 -4 0 C
-4 2.209 -2.209 4 0 4 C
2.209 4 4 2.209 4 0 C
cp
S
GR
GS
[0.75 0 0 0.75 252.25001 355.01717] CT
N
f351177404
f
GR
GS
[0.75 0 0 0.75 252.25001 355.01717] CT
10.0 ML
N
4 0 M
4 -2.209 2.209 -4 0 -4 C
-2.209 -4 -4 -2.209 -4 0 C
-4 2.209 -2.209 4 0 4 C
2.209 4 4 2.209 4 0 C
cp
S
GR
GS
[0.75 0 0 0.75 271.62499 364.20303] CT
N
f351177404
f
GR
GS
[0.75 0 0 0.75 271.62499 364.20303] CT
10.0 ML
N
4 0 M
4 -2.209 2.209 -4 0 -4 C
-2.209 -4 -4 -2.209 -4 0 C
-4 2.209 -2.209 4 0 4 C
2.209 4 4 2.209 4 0 C
cp
S
GR
GS
[0.75 0 0 0.75 291 373.71586] CT
N
f351177404
f
GR
GS
[0.75 0 0 0.75 291 373.71586] CT
10.0 ML
N
4 0 M
4 -2.209 2.209 -4 0 -4 C
-2.209 -4 -4 -2.209 -4 0 C
-4 2.209 -2.209 4 0 4 C
2.209 4 4 2.209 4 0 C
cp
S
GR
GS
[0.75 0 0 0.75 310.37501 383.46966] CT
N
f351177404
f
GR
GS
[0.75 0 0 0.75 310.37501 383.46966] CT
10.0 ML
N
4 0 M
4 -2.209 2.209 -4 0 -4 C
-2.209 -4 -4 -2.209 -4 0 C
-4 2.209 -2.209 4 0 4 C
2.209 4 4 2.209 4 0 C
cp
S
GR
GS
[0.75 0 0 0.75 329.74999 393.4053] CT
N
f351177404
f
GR
GS
[0.75 0 0 0.75 329.74999 393.4053] CT
10.0 ML
N
4 0 M
4 -2.209 2.209 -4 0 -4 C
-2.209 -4 -4 -2.209 -4 0 C
-4 2.209 -2.209 4 0 4 C
2.209 4 4 2.209 4 0 C
cp
S
GR
GS
[0.75 0 0 0.75 349.125 403.48096] CT
N
f351177404
f
GR
GS
[0.75 0 0 0.75 349.125 403.48096] CT
10.0 ML
N
4 0 M
4 -2.209 2.209 -4 0 -4 C
-2.209 -4 -4 -2.209 -4 0 C
-4 2.209 -2.209 4 0 4 C
2.209 4 4 2.209 4 0 C
cp
S
GR
GS
[0.75 0 0 0.75 368.50001 413.66615] CT
N
f351177404
f
GR
GS
[0.75 0 0 0.75 368.50001 413.66615] CT
10.0 ML
N
4 0 M
4 -2.209 2.209 -4 0 -4 C
-2.209 -4 -4 -2.209 -4 0 C
-4 2.209 -2.209 4 0 4 C
2.209 4 4 2.209 4 0 C
cp
S
GR
GS
[0.75 0 0 0.75 387.87502 423.93828] CT
N
f351177404
f
GR
GS
[0.75 0 0 0.75 387.87502 423.93828] CT
10.0 ML
N
4 0 M
4 -2.209 2.209 -4 0 -4 C
-2.209 -4 -4 -2.209 -4 0 C
-4 2.209 -2.209 4 0 4 C
2.209 4 4 2.209 4 0 C
cp
S
GR
GS
[0.75 0 0 0.75 407.25 434.28008] CT
N
f351177404
f
GR
GS
[0.75 0 0 0.75 407.25 434.28008] CT
10.0 ML
N
4 0 M
4 -2.209 2.209 -4 0 -4 C
-2.209 -4 -4 -2.209 -4 0 C
-4 2.209 -2.209 4 0 4 C
2.209 4 4 2.209 4 0 C
cp
S
GR
GS
[0.75 0 0 0.75 77.875 115.27283] CT
0 0 1 RC
N
/f1719669614{-2.828 -2.828 M
2.828 2.828 L
-2.828 2.828 M
2.828 -2.828 L}def
f1719669614
f
GR
GS
[0.75 0 0 0.75 77.875 115.27283] CT
0 0 1 RC
10.0 ML
N
-2.828 -2.828 M
2.828 2.828 L
-2.828 2.828 M
2.828 -2.828 L
S
GR
GS
[0.75 0 0 0.75 97.25 99.44951] CT
0 0 1 RC
N
f1719669614
f
GR
GS
[0.75 0 0 0.75 97.25 99.44951] CT
0 0 1 RC
10.0 ML
N
-2.828 -2.828 M
2.828 2.828 L
-2.828 2.828 M
2.828 -2.828 L
S
GR
GS
[0.75 0 0 0.75 116.625 198.26953] CT
0 0 1 RC
N
f1719669614
f
GR
GS
[0.75 0 0 0.75 116.625 198.26953] CT
0 0 1 RC
10.0 ML
N
-2.828 -2.828 M
2.828 2.828 L
-2.828 2.828 M
2.828 -2.828 L
S
GR
GS
[0.75 0 0 0.75 136 214.56347] CT
0 0 1 RC
N
f1719669614
f
GR
GS
[0.75 0 0 0.75 136 214.56347] CT
0 0 1 RC
10.0 ML
N
-2.828 -2.828 M
2.828 2.828 L
-2.828 2.828 M
2.828 -2.828 L
S
GR
GS
[0.75 0 0 0.75 155.375 222.34248] CT
0 0 1 RC
N
f1719669614
f
GR
GS
[0.75 0 0 0.75 155.375 222.34248] CT
0 0 1 RC
10.0 ML
N
-2.828 -2.828 M
2.828 2.828 L
-2.828 2.828 M
2.828 -2.828 L
S
GR
GS
[0.75 0 0 0.75 174.75 228.22467] CT
0 0 1 RC
N
f1719669614
f
GR
GS
[0.75 0 0 0.75 174.75 228.22467] CT
0 0 1 RC
10.0 ML
N
-2.828 -2.828 M
2.828 2.828 L
-2.828 2.828 M
2.828 -2.828 L
S
GR
GS
[0.75 0 0 0.75 194.12501 233.56924] CT
0 0 1 RC
N
f1719669614
f
GR
GS
[0.75 0 0 0.75 194.12501 233.56924] CT
0 0 1 RC
10.0 ML
N
-2.828 -2.828 M
2.828 2.828 L
-2.828 2.828 M
2.828 -2.828 L
S
GR
GS
[0.75 0 0 0.75 213.49999 238.75674] CT
0 0 1 RC
N
f1719669614
f
GR
GS
[0.75 0 0 0.75 213.49999 238.75674] CT
0 0 1 RC
10.0 ML
N
-2.828 -2.828 M
2.828 2.828 L
-2.828 2.828 M
2.828 -2.828 L
S
GR
GS
[0.75 0 0 0.75 232.875 243.9109] CT
0 0 1 RC
N
f1719669614
f
GR
GS
[0.75 0 0 0.75 232.875 243.9109] CT
0 0 1 RC
10.0 ML
N
-2.828 -2.828 M
2.828 2.828 L
-2.828 2.828 M
2.828 -2.828 L
S
GR
GS
[0.75 0 0 0.75 252.25001 249.07402] CT
0 0 1 RC
N
f1719669614
f
GR
GS
[0.75 0 0 0.75 252.25001 249.07402] CT
0 0 1 RC
10.0 ML
N
-2.828 -2.828 M
2.828 2.828 L
-2.828 2.828 M
2.828 -2.828 L
S
GR
GS
[0.75 0 0 0.75 271.62499 254.25952] CT
0 0 1 RC
N
f1719669614
f
GR
GS
[0.75 0 0 0.75 271.62499 254.25952] CT
0 0 1 RC
10.0 ML
N
-2.828 -2.828 M
2.828 2.828 L
-2.828 2.828 M
2.828 -2.828 L
S
GR
GS
[0.75 0 0 0.75 291 259.47002] CT
0 0 1 RC
N
f1719669614
f
GR
GS
[0.75 0 0 0.75 291 259.47002] CT
0 0 1 RC
10.0 ML
N
-2.828 -2.828 M
2.828 2.828 L
-2.828 2.828 M
2.828 -2.828 L
S
GR
GS
[0.75 0 0 0.75 310.37501 264.70418] CT
0 0 1 RC
N
f1719669614
f
GR
GS
[0.75 0 0 0.75 310.37501 264.70418] CT
0 0 1 RC
10.0 ML
N
-2.828 -2.828 M
2.828 2.828 L
-2.828 2.828 M
2.828 -2.828 L
S
GR
GS
[0.75 0 0 0.75 329.74999 269.95924] CT
0 0 1 RC
N
f1719669614
f
GR
GS
[0.75 0 0 0.75 329.74999 269.95924] CT
0 0 1 RC
10.0 ML
N
-2.828 -2.828 M
2.828 2.828 L
-2.828 2.828 M
2.828 -2.828 L
S
GR
GS
[0.75 0 0 0.75 349.125 275.23228] CT
0 0 1 RC
N
f1719669614
f
GR
GS
[0.75 0 0 0.75 349.125 275.23228] CT
0 0 1 RC
10.0 ML
N
-2.828 -2.828 M
2.828 2.828 L
-2.828 2.828 M
2.828 -2.828 L
S
GR
GS
[0.75 0 0 0.75 368.50001 280.52051] CT
0 0 1 RC
N
f1719669614
f
GR
GS
[0.75 0 0 0.75 368.50001 280.52051] CT
0 0 1 RC
10.0 ML
N
-2.828 -2.828 M
2.828 2.828 L
-2.828 2.828 M
2.828 -2.828 L
S
GR
GS
[0.75 0 0 0.75 387.87502 285.82146] CT
0 0 1 RC
N
f1719669614
f
GR
GS
[0.75 0 0 0.75 387.87502 285.82146] CT
0 0 1 RC
10.0 ML
N
-2.828 -2.828 M
2.828 2.828 L
-2.828 2.828 M
2.828 -2.828 L
S
GR
GS
[0.75 0 0 0.75 407.25 291.133] CT
0 0 1 RC
N
f1719669614
f
GR
GS
[0.75 0 0 0.75 407.25 291.133] CT
0 0 1 RC
10.0 ML
N
-2.828 -2.828 M
2.828 2.828 L
-2.828 2.828 M
2.828 -2.828 L
S
GR
GS
[0.75 0 0 0.75 97.25 127.48813] CT
1 0 0 RC
N
/f860094634{0 -4 M
0 4 L
-4 0 M
4 0 L}def
f860094634
f
GR
GS
[0.75 0 0 0.75 97.25 127.48813] CT
1 0 0 RC
10.0 ML
N
0 -4 M
0 4 L
-4 0 M
4 0 L
S
GR
GS
[0.75 0 0 0.75 116.625 115.95316] CT
1 0 0 RC
N
f860094634
f
GR
GS
[0.75 0 0 0.75 116.625 115.95316] CT
1 0 0 RC
10.0 ML
N
0 -4 M
0 4 L
-4 0 M
4 0 L
S
GR
GS
[0.75 0 0 0.75 136 153.06144] CT
1 0 0 RC
N
f860094634
f
GR
GS
[0.75 0 0 0.75 136 153.06144] CT
1 0 0 RC
10.0 ML
N
0 -4 M
0 4 L
-4 0 M
4 0 L
S
GR
GS
[0.75 0 0 0.75 155.375 172.00762] CT
1 0 0 RC
N
f860094634
f
GR
GS
[0.75 0 0 0.75 155.375 172.00762] CT
1 0 0 RC
10.0 ML
N
0 -4 M
0 4 L
-4 0 M
4 0 L
S
GR
GS
[0.75 0 0 0.75 174.75 183.51112] CT
1 0 0 RC
N
f860094634
f
GR
GS
[0.75 0 0 0.75 174.75 183.51112] CT
1 0 0 RC
10.0 ML
N
0 -4 M
0 4 L
-4 0 M
4 0 L
S
GR
GS
[0.75 0 0 0.75 194.12501 191.66331] CT
1 0 0 RC
N
f860094634
f
GR
GS
[0.75 0 0 0.75 194.12501 191.66331] CT
1 0 0 RC
10.0 ML
N
0 -4 M
0 4 L
-4 0 M
4 0 L
S
GR
GS
[0.75 0 0 0.75 213.49999 198.11732] CT
1 0 0 RC
N
f860094634
f
GR
GS
[0.75 0 0 0.75 213.49999 198.11732] CT
1 0 0 RC
10.0 ML
N
0 -4 M
0 4 L
-4 0 M
4 0 L
S
GR
GS
[0.75 0 0 0.75 232.875 203.62619] CT
1 0 0 RC
N
f860094634
f
GR
GS
[0.75 0 0 0.75 232.875 203.62619] CT
1 0 0 RC
10.0 ML
N
0 -4 M
0 4 L
-4 0 M
4 0 L
S
GR
GS
[0.75 0 0 0.75 252.25001 208.56915] CT
1 0 0 RC
N
f860094634
f
GR
GS
[0.75 0 0 0.75 252.25001 208.56915] CT
1 0 0 RC
10.0 ML
N
0 -4 M
0 4 L
-4 0 M
4 0 L
S
GR
GS
[0.75 0 0 0.75 271.62499 213.15292] CT
1 0 0 RC
N
f860094634
f
GR
GS
[0.75 0 0 0.75 271.62499 213.15292] CT
1 0 0 RC
10.0 ML
N
0 -4 M
0 4 L
-4 0 M
4 0 L
S
GR
GS
[0.75 0 0 0.75 291 217.49771] CT
1 0 0 RC
N
f860094634
f
GR
GS
[0.75 0 0 0.75 291 217.49771] CT
1 0 0 RC
10.0 ML
N
0 -4 M
0 4 L
-4 0 M
4 0 L
S
GR
GS
[0.75 0 0 0.75 310.37501 221.67707] CT
1 0 0 RC
N
f860094634
f
GR
GS
[0.75 0 0 0.75 310.37501 221.67707] CT
1 0 0 RC
10.0 ML
N
0 -4 M
0 4 L
-4 0 M
4 0 L
S
GR
GS
[0.75 0 0 0.75 329.74999 225.7381] CT
1 0 0 RC
N
f860094634
f
GR
GS
[0.75 0 0 0.75 329.74999 225.7381] CT
1 0 0 RC
10.0 ML
N
0 -4 M
0 4 L
-4 0 M
4 0 L
S
GR
GS
[0.75 0 0 0.75 349.125 229.71201] CT
1 0 0 RC
N
f860094634
f
GR
GS
[0.75 0 0 0.75 349.125 229.71201] CT
1 0 0 RC
10.0 ML
N
0 -4 M
0 4 L
-4 0 M
4 0 L
S
GR
GS
[0.75 0 0 0.75 368.50001 233.62017] CT
1 0 0 RC
N
f860094634
f
GR
GS
[0.75 0 0 0.75 368.50001 233.62017] CT
1 0 0 RC
10.0 ML
N
0 -4 M
0 4 L
-4 0 M
4 0 L
S
GR
GS
[0.75 0 0 0.75 387.87502 237.47756] CT
1 0 0 RC
N
f860094634
f
GR
GS
[0.75 0 0 0.75 387.87502 237.47756] CT
1 0 0 RC
10.0 ML
N
0 -4 M
0 4 L
-4 0 M
4 0 L
S
GR
GS
[0.75 0 0 0.75 407.25 241.29506] CT
1 0 0 RC
N
f860094634
f
GR
GS
[0.75 0 0 0.75 407.25 241.29506] CT
1 0 0 RC
10.0 ML
N
0 -4 M
0 4 L
-4 0 M
4 0 L
S
GR
GS
[0.75 0 0 0.75 116.625 132.58828] CT
1 0 1 RC
N
/f1022997606{0 5.332 M
-4.618 -2.666 L
4.618 -2.666 L
cp}def
f1022997606
f
GR
GS
[0.75 0 0 0.75 116.625 132.58828] CT
1 0 1 RC
10.0 ML
N
0 5.332 M
-4.618 -2.666 L
4.618 -2.666 L
cp
S
GR
GS
[0.75 0 0 0.75 136 124.26928] CT
1 0 1 RC
N
f1022997606
f
GR
GS
[0.75 0 0 0.75 136 124.26928] CT
1 0 1 RC
10.0 ML
N
0 5.332 M
-4.618 -2.666 L
4.618 -2.666 L
cp
S
GR
GS
[0.75 0 0 0.75 155.375 141.6424] CT
1 0 1 RC
N
f1022997606
f
GR
GS
[0.75 0 0 0.75 155.375 141.6424] CT
1 0 1 RC
10.0 ML
N
0 5.332 M
-4.618 -2.666 L
4.618 -2.666 L
cp
S
GR
GS
[0.75 0 0 0.75 174.75 155.35007] CT
1 0 1 RC
N
f1022997606
f
GR
GS
[0.75 0 0 0.75 174.75 155.35007] CT
1 0 1 RC
10.0 ML
N
0 5.332 M
-4.618 -2.666 L
4.618 -2.666 L
cp
S
GR
GS
[0.75 0 0 0.75 194.12501 165.44594] CT
1 0 1 RC
N
f1022997606
f
GR
GS
[0.75 0 0 0.75 194.12501 165.44594] CT
1 0 1 RC
10.0 ML
N
0 5.332 M
-4.618 -2.666 L
4.618 -2.666 L
cp
S
GR
GS
[0.75 0 0 0.75 213.49999 173.21191] CT
1 0 1 RC
N
f1022997606
f
GR
GS
[0.75 0 0 0.75 213.49999 173.21191] CT
1 0 1 RC
10.0 ML
N
0 5.332 M
-4.618 -2.666 L
4.618 -2.666 L
cp
S
GR
GS
[0.75 0 0 0.75 232.875 179.50745] CT
1 0 1 RC
N
f1022997606
f
GR
GS
[0.75 0 0 0.75 232.875 179.50745] CT
1 0 1 RC
10.0 ML
N
0 5.332 M
-4.618 -2.666 L
4.618 -2.666 L
cp
S
GR
GS
[0.75 0 0 0.75 252.25001 184.84893] CT
1 0 1 RC
N
f1022997606
f
GR
GS
[0.75 0 0 0.75 252.25001 184.84893] CT
1 0 1 RC
10.0 ML
N
0 5.332 M
-4.618 -2.666 L
4.618 -2.666 L
cp
S
GR
GS
[0.75 0 0 0.75 271.62499 189.54928] CT
1 0 1 RC
N
f1022997606
f
GR
GS
[0.75 0 0 0.75 271.62499 189.54928] CT
1 0 1 RC
10.0 ML
N
0 5.332 M
-4.618 -2.666 L
4.618 -2.666 L
cp
S
GR
GS
[0.75 0 0 0.75 291 193.80407] CT
1 0 1 RC
N
f1022997606
f
GR
GS
[0.75 0 0 0.75 291 193.80407] CT
1 0 1 RC
10.0 ML
N
0 5.332 M
-4.618 -2.666 L
4.618 -2.666 L
cp
S
GR
GS
[0.75 0 0 0.75 310.37501 197.73965] CT
1 0 1 RC
N
f1022997606
f
GR
GS
[0.75 0 0 0.75 310.37501 197.73965] CT
1 0 1 RC
10.0 ML
N
0 5.332 M
-4.618 -2.666 L
4.618 -2.666 L
cp
S
GR
GS
[0.75 0 0 0.75 329.74999 201.44041] CT
1 0 1 RC
N
f1022997606
f
GR
GS
[0.75 0 0 0.75 329.74999 201.44041] CT
1 0 1 RC
10.0 ML
N
0 5.332 M
-4.618 -2.666 L
4.618 -2.666 L
cp
S
GR
GS
[0.75 0 0 0.75 349.125 204.96432] CT
1 0 1 RC
N
f1022997606
f
GR
GS
[0.75 0 0 0.75 349.125 204.96432] CT
1 0 1 RC
10.0 ML
N
0 5.332 M
-4.618 -2.666 L
4.618 -2.666 L
cp
S
GR
GS
[0.75 0 0 0.75 368.50001 208.35226] CT
1 0 1 RC
N
f1022997606
f
GR
GS
[0.75 0 0 0.75 368.50001 208.35226] CT
1 0 1 RC
10.0 ML
N
0 5.332 M
-4.618 -2.666 L
4.618 -2.666 L
cp
S
GR
GS
[0.75 0 0 0.75 387.87502 211.63369] CT
1 0 1 RC
N
f1022997606
f
GR
GS
[0.75 0 0 0.75 387.87502 211.63369] CT
1 0 1 RC
10.0 ML
N
0 5.332 M
-4.618 -2.666 L
4.618 -2.666 L
cp
S
GR
GS
[0.75 0 0 0.75 407.25 214.83039] CT
1 0 1 RC
N
f1022997606
f
GR
GS
[0.75 0 0 0.75 407.25 214.83039] CT
1 0 1 RC
10.0 ML
N
0 5.332 M
-4.618 -2.666 L
4.618 -2.666 L
cp
S
GR
GS
[0.75 0 0 0.75 136 135.14021] CT
0 1 0 RC
N
/f227889816{-3 -3 M
-3 3 L
3 3 L
3 -3 L
cp}def
f227889816
f
GR
GS
[0.75 0 0 0.75 136 135.14021] CT
0 1 0 RC
10.0 ML
N
-3 -3 M
-3 3 L
3 3 L
3 -3 L
cp
S
GR
GS
[0.75 0 0 0.75 155.375 129.00009] CT
0 1 0 RC
N
f227889816
f
GR
GS
[0.75 0 0 0.75 155.375 129.00009] CT
0 1 0 RC
10.0 ML
N
-3 -3 M
-3 3 L
3 3 L
3 -3 L
cp
S
GR
GS
[0.75 0 0 0.75 174.75 138.2681] CT
0 1 0 RC
N
f227889816
f
GR
GS
[0.75 0 0 0.75 174.75 138.2681] CT
0 1 0 RC
10.0 ML
N
-3 -3 M
-3 3 L
3 3 L
3 -3 L
cp
S
GR
GS
[0.75 0 0 0.75 194.12501 147.85638] CT
0 1 0 RC
N
f227889816
f
GR
GS
[0.75 0 0 0.75 194.12501 147.85638] CT
0 1 0 RC
10.0 ML
N
-3 -3 M
-3 3 L
3 3 L
3 -3 L
cp
S
GR
GS
[0.75 0 0 0.75 213.49999 155.96958] CT
0 1 0 RC
N
f227889816
f
GR
GS
[0.75 0 0 0.75 213.49999 155.96958] CT
0 1 0 RC
10.0 ML
N
-3 -3 M
-3 3 L
3 3 L
3 -3 L
cp
S
GR
GS
[0.75 0 0 0.75 232.875 162.71203] CT
0 1 0 RC
N
f227889816
f
GR
GS
[0.75 0 0 0.75 232.875 162.71203] CT
0 1 0 RC
10.0 ML
N
-3 -3 M
-3 3 L
3 3 L
3 -3 L
cp
S
GR
GS
[0.75 0 0 0.75 252.25001 168.40934] CT
0 1 0 RC
N
f227889816
f
GR
GS
[0.75 0 0 0.75 252.25001 168.40934] CT
0 1 0 RC
10.0 ML
N
-3 -3 M
-3 3 L
3 3 L
3 -3 L
cp
S
GR
GS
[0.75 0 0 0.75 271.62499 173.33847] CT
0 1 0 RC
N
f227889816
f
GR
GS
[0.75 0 0 0.75 271.62499 173.33847] CT
0 1 0 RC
10.0 ML
N
-3 -3 M
-3 3 L
3 3 L
3 -3 L
cp
S
GR
GS
[0.75 0 0 0.75 291 177.70231] CT
0 1 0 RC
N
f227889816
f
GR
GS
[0.75 0 0 0.75 291 177.70231] CT
0 1 0 RC
10.0 ML
N
-3 -3 M
-3 3 L
3 3 L
3 -3 L
cp
S
GR
GS
[0.75 0 0 0.75 310.37501 181.64486] CT
0 1 0 RC
N
f227889816
f
GR
GS
[0.75 0 0 0.75 310.37501 181.64486] CT
0 1 0 RC
10.0 ML
N
-3 -3 M
-3 3 L
3 3 L
3 -3 L
cp
S
GR
GS
[0.75 0 0 0.75 329.74999 185.26838] CT
0 1 0 RC
N
f227889816
f
GR
GS
[0.75 0 0 0.75 329.74999 185.26838] CT
0 1 0 RC
10.0 ML
N
-3 -3 M
-3 3 L
3 3 L
3 -3 L
cp
S
GR
GS
[0.75 0 0 0.75 349.125 188.6463] CT
0 1 0 RC
N
f227889816
f
GR
GS
[0.75 0 0 0.75 349.125 188.6463] CT
0 1 0 RC
10.0 ML
N
-3 -3 M
-3 3 L
3 3 L
3 -3 L
cp
S
GR
GS
[0.75 0 0 0.75 368.50001 191.83215] CT
0 1 0 RC
N
f227889816
f
GR
GS
[0.75 0 0 0.75 368.50001 191.83215] CT
0 1 0 RC
10.0 ML
N
-3 -3 M
-3 3 L
3 3 L
3 -3 L
cp
S
GR
GS
[0.75 0 0 0.75 387.87502 194.86558] CT
0 1 0 RC
N
f227889816
f
GR
GS
[0.75 0 0 0.75 387.87502 194.86558] CT
0 1 0 RC
10.0 ML
N
-3 -3 M
-3 3 L
3 3 L
3 -3 L
cp
S
GR
GS
[0.75 0 0 0.75 407.25 197.77636] CT
0 1 0 RC
N
f227889816
f
GR
GS
[0.75 0 0 0.75 407.25 197.77636] CT
0 1 0 RC
10.0 ML
N
-3 -3 M
-3 3 L
3 3 L
3 -3 L
cp
S
GR
GS
[0.75 0 0 0.75 155.375 136.5768] CT
N
/f-1741330208{-3.804 -1.236 M
-0.94 -1.236 L
0 -4 L
0.94 -1.236 L
3.804 -1.236 L
1.522 0.494 L
2.351 3.236 L
0 1.6 L
-2.351 3.236 L
-1.522 0.494 L
cp}def
f-1741330208
f
GR
GS
[0.75 0 0 0.75 155.375 136.5768] CT
10.0 ML
N
-3.804 -1.236 M
-0.94 -1.236 L
0 -4 L
0.94 -1.236 L
3.804 -1.236 L
1.522 0.494 L
2.351 3.236 L
0 1.6 L
-2.351 3.236 L
-1.522 0.494 L
cp
S
GR
GS
[0.75 0 0 0.75 174.75 131.92675] CT
N
f-1741330208
f
GR
GS
[0.75 0 0 0.75 174.75 131.92675] CT
10.0 ML
N
-3.804 -1.236 M
-0.94 -1.236 L
0 -4 L
0.94 -1.236 L
3.804 -1.236 L
1.522 0.494 L
2.351 3.236 L
0 1.6 L
-2.351 3.236 L
-1.522 0.494 L
cp
S
GR
GS
[0.75 0 0 0.75 194.12501 137.32522] CT
N
f-1741330208
f
GR
GS
[0.75 0 0 0.75 194.12501 137.32522] CT
10.0 ML
N
-3.804 -1.236 M
-0.94 -1.236 L
0 -4 L
0.94 -1.236 L
3.804 -1.236 L
1.522 0.494 L
2.351 3.236 L
0 1.6 L
-2.351 3.236 L
-1.522 0.494 L
cp
S
GR
GS
[0.75 0 0 0.75 213.49999 144.15649] CT
N
f-1741330208
f
GR
GS
[0.75 0 0 0.75 213.49999 144.15649] CT
10.0 ML
N
-3.804 -1.236 M
-0.94 -1.236 L
0 -4 L
0.94 -1.236 L
3.804 -1.236 L
1.522 0.494 L
2.351 3.236 L
0 1.6 L
-2.351 3.236 L
-1.522 0.494 L
cp
S
GR
GS
[0.75 0 0 0.75 232.875 150.57805] CT
N
f-1741330208
f
GR
GS
[0.75 0 0 0.75 232.875 150.57805] CT
10.0 ML
N
-3.804 -1.236 M
-0.94 -1.236 L
0 -4 L
0.94 -1.236 L
3.804 -1.236 L
1.522 0.494 L
2.351 3.236 L
0 1.6 L
-2.351 3.236 L
-1.522 0.494 L
cp
S
GR
GS
[0.75 0 0 0.75 252.25001 156.27132] CT
N
f-1741330208
f
GR
GS
[0.75 0 0 0.75 252.25001 156.27132] CT
10.0 ML
N
-3.804 -1.236 M
-0.94 -1.236 L
0 -4 L
0.94 -1.236 L
3.804 -1.236 L
1.522 0.494 L
2.351 3.236 L
0 1.6 L
-2.351 3.236 L
-1.522 0.494 L
cp
S
GR
GS
[0.75 0 0 0.75 271.62499 161.281] CT
N
f-1741330208
f
GR
GS
[0.75 0 0 0.75 271.62499 161.281] CT
10.0 ML
N
-3.804 -1.236 M
-0.94 -1.236 L
0 -4 L
0.94 -1.236 L
3.804 -1.236 L
1.522 0.494 L
2.351 3.236 L
0 1.6 L
-2.351 3.236 L
-1.522 0.494 L
cp
S
GR
GS
[0.75 0 0 0.75 291 165.72367] CT
N
f-1741330208
f
GR
GS
[0.75 0 0 0.75 291 165.72367] CT
10.0 ML
N
-3.804 -1.236 M
-0.94 -1.236 L
0 -4 L
0.94 -1.236 L
3.804 -1.236 L
1.522 0.494 L
2.351 3.236 L
0 1.6 L
-2.351 3.236 L
-1.522 0.494 L
cp
S
GR
GS
[0.75 0 0 0.75 310.37501 169.71263] CT
N
f-1741330208
f
GR
GS
[0.75 0 0 0.75 310.37501 169.71263] CT
10.0 ML
N
-3.804 -1.236 M
-0.94 -1.236 L
0 -4 L
0.94 -1.236 L
3.804 -1.236 L
1.522 0.494 L
2.351 3.236 L
0 1.6 L
-2.351 3.236 L
-1.522 0.494 L
cp
S
GR
GS
[0.75 0 0 0.75 329.74999 173.34151] CT
N
f-1741330208
f
GR
GS
[0.75 0 0 0.75 329.74999 173.34151] CT
10.0 ML
N
-3.804 -1.236 M
-0.94 -1.236 L
0 -4 L
0.94 -1.236 L
3.804 -1.236 L
1.522 0.494 L
2.351 3.236 L
0 1.6 L
-2.351 3.236 L
-1.522 0.494 L
cp
S
GR
GS
[0.75 0 0 0.75 349.125 176.68386] CT
N
f-1741330208
f
GR
GS
[0.75 0 0 0.75 349.125 176.68386] CT
10.0 ML
N
-3.804 -1.236 M
-0.94 -1.236 L
0 -4 L
0.94 -1.236 L
3.804 -1.236 L
1.522 0.494 L
2.351 3.236 L
0 1.6 L
-2.351 3.236 L
-1.522 0.494 L
cp
S
GR
GS
[0.75 0 0 0.75 368.50001 179.79659] CT
N
f-1741330208
f
GR
GS
[0.75 0 0 0.75 368.50001 179.79659] CT
10.0 ML
N
-3.804 -1.236 M
-0.94 -1.236 L
0 -4 L
0.94 -1.236 L
3.804 -1.236 L
1.522 0.494 L
2.351 3.236 L
0 1.6 L
-2.351 3.236 L
-1.522 0.494 L
cp
S
GR
GS
[0.75 0 0 0.75 387.87502 182.72367] CT
N
f-1741330208
f
GR
GS
[0.75 0 0 0.75 387.87502 182.72367] CT
10.0 ML
N
-3.804 -1.236 M
-0.94 -1.236 L
0 -4 L
0.94 -1.236 L
3.804 -1.236 L
1.522 0.494 L
2.351 3.236 L
0 1.6 L
-2.351 3.236 L
-1.522 0.494 L
cp
S
GR
GS
[0.75 0 0 0.75 407.25 185.49923] CT
N
f-1741330208
f
GR
GS
[0.75 0 0 0.75 407.25 185.49923] CT
10.0 ML
N
-3.804 -1.236 M
-0.94 -1.236 L
0 -4 L
0.94 -1.236 L
3.804 -1.236 L
1.522 0.494 L
2.351 3.236 L
0 1.6 L
-2.351 3.236 L
-1.522 0.494 L
cp
S
GR
GS
[0.75 0 0 0.75 174.75 137.45469] CT
0 0 1 RC
N
/f1737057230{-3.464 -2 M
-1.155 -2 L
0 -4 L
1.155 -2 L
3.464 -2 L
2 0 L
3.464 2 L
1.155 2 L
0 4 L
-1.155 2 L
-3.464 2 L
-2 0 L
cp}def
f1737057230
f
GR
GS
[0.75 0 0 0.75 174.75 137.45469] CT
0 0 1 RC
10.0 ML
N
-3.464 -2 M
-1.155 -2 L
0 -4 L
1.155 -2 L
3.464 -2 L
2 0 L
3.464 2 L
1.155 2 L
0 4 L
-1.155 2 L
-3.464 2 L
-2 0 L
cp
S
GR
GS
[0.75 0 0 0.75 194.12501 133.85195] CT
0 0 1 RC
N
f1737057230
f
GR
GS
[0.75 0 0 0.75 194.12501 133.85195] CT
0 0 1 RC
10.0 ML
N
-3.464 -2 M
-1.155 -2 L
0 -4 L
1.155 -2 L
3.464 -2 L
2 0 L
3.464 2 L
1.155 2 L
0 4 L
-1.155 2 L
-3.464 2 L
-2 0 L
cp
S
GR
GS
[0.75 0 0 0.75 213.49999 137.20656] CT
0 0 1 RC
N
f1737057230
f
GR
GS
[0.75 0 0 0.75 213.49999 137.20656] CT
0 0 1 RC
10.0 ML
N
-3.464 -2 M
-1.155 -2 L
0 -4 L
1.155 -2 L
3.464 -2 L
2 0 L
3.464 2 L
1.155 2 L
0 4 L
-1.155 2 L
-3.464 2 L
-2 0 L
cp
S
GR
GS
[0.75 0 0 0.75 232.875 142.20956] CT
0 0 1 RC
N
f1737057230
f
GR
GS
[0.75 0 0 0.75 232.875 142.20956] CT
0 0 1 RC
10.0 ML
N
-3.464 -2 M
-1.155 -2 L
0 -4 L
1.155 -2 L
3.464 -2 L
2 0 L
3.464 2 L
1.155 2 L
0 4 L
-1.155 2 L
-3.464 2 L
-2 0 L
cp
S
GR
GS
[0.75 0 0 0.75 252.25001 147.32005] CT
0 0 1 RC
N
f1737057230
f
GR
GS
[0.75 0 0 0.75 252.25001 147.32005] CT
0 0 1 RC
10.0 ML
N
-3.464 -2 M
-1.155 -2 L
0 -4 L
1.155 -2 L
3.464 -2 L
2 0 L
3.464 2 L
1.155 2 L
0 4 L
-1.155 2 L
-3.464 2 L
-2 0 L
cp
S
GR
GS
[0.75 0 0 0.75 271.62499 152.10041] CT
0 0 1 RC
N
f1737057230
f
GR
GS
[0.75 0 0 0.75 271.62499 152.10041] CT
0 0 1 RC
10.0 ML
N
-3.464 -2 M
-1.155 -2 L
0 -4 L
1.155 -2 L
3.464 -2 L
2 0 L
3.464 2 L
1.155 2 L
0 4 L
-1.155 2 L
-3.464 2 L
-2 0 L
cp
S
GR
GS
[0.75 0 0 0.75 291 156.46163] CT
0 0 1 RC
N
f1737057230
f
GR
GS
[0.75 0 0 0.75 291 156.46163] CT
0 0 1 RC
10.0 ML
N
-3.464 -2 M
-1.155 -2 L
0 -4 L
1.155 -2 L
3.464 -2 L
2 0 L
3.464 2 L
1.155 2 L
0 4 L
-1.155 2 L
-3.464 2 L
-2 0 L
cp
S
GR
GS
[0.75 0 0 0.75 310.37501 160.42485] CT
0 0 1 RC
N
f1737057230
f
GR
GS
[0.75 0 0 0.75 310.37501 160.42485] CT
0 0 1 RC
10.0 ML
N
-3.464 -2 M
-1.155 -2 L
0 -4 L
1.155 -2 L
3.464 -2 L
2 0 L
3.464 2 L
1.155 2 L
0 4 L
-1.155 2 L
-3.464 2 L
-2 0 L
cp
S
GR
GS
[0.75 0 0 0.75 329.74999 164.04136] CT
0 0 1 RC
N
f1737057230
f
GR
GS
[0.75 0 0 0.75 329.74999 164.04136] CT
0 0 1 RC
10.0 ML
N
-3.464 -2 M
-1.155 -2 L
0 -4 L
1.155 -2 L
3.464 -2 L
2 0 L
3.464 2 L
1.155 2 L
0 4 L
-1.155 2 L
-3.464 2 L
-2 0 L
cp
S
GR
GS
[0.75 0 0 0.75 349.125 167.36541] CT
0 0 1 RC
N
f1737057230
f
GR
GS
[0.75 0 0 0.75 349.125 167.36541] CT
0 0 1 RC
10.0 ML
N
-3.464 -2 M
-1.155 -2 L
0 -4 L
1.155 -2 L
3.464 -2 L
2 0 L
3.464 2 L
1.155 2 L
0 4 L
-1.155 2 L
-3.464 2 L
-2 0 L
cp
S
GR
GS
[0.75 0 0 0.75 368.50001 170.44556] CT
0 0 1 RC
N
f1737057230
f
GR
GS
[0.75 0 0 0.75 368.50001 170.44556] CT
0 0 1 RC
10.0 ML
N
-3.464 -2 M
-1.155 -2 L
0 -4 L
1.155 -2 L
3.464 -2 L
2 0 L
3.464 2 L
1.155 2 L
0 4 L
-1.155 2 L
-3.464 2 L
-2 0 L
cp
S
GR
GS
[0.75 0 0 0.75 387.87502 173.32272] CT
0 0 1 RC
N
f1737057230
f
GR
GS
[0.75 0 0 0.75 387.87502 173.32272] CT
0 0 1 RC
10.0 ML
N
-3.464 -2 M
-1.155 -2 L
0 -4 L
1.155 -2 L
3.464 -2 L
2 0 L
3.464 2 L
1.155 2 L
0 4 L
-1.155 2 L
-3.464 2 L
-2 0 L
cp
S
GR
GS
[0.75 0 0 0.75 407.25 176.03058] CT
0 0 1 RC
N
f1737057230
f
GR
GS
[0.75 0 0 0.75 407.25 176.03058] CT
0 0 1 RC
10.0 ML
N
-3.464 -2 M
-1.155 -2 L
0 -4 L
1.155 -2 L
3.464 -2 L
2 0 L
3.464 2 L
1.155 2 L
0 4 L
-1.155 2 L
-3.464 2 L
-2 0 L
cp
S
GR
GS
[0.75 0 0 0.75 194.12501 138.02442] CT
1 0 0 RC
N
f351177404
f
GR
GS
[0.75 0 0 0.75 194.12501 138.02442] CT
1 0 0 RC
10.0 ML
N
4 0 M
4 -2.209 2.209 -4 0 -4 C
-2.209 -4 -4 -2.209 -4 0 C
-4 2.209 -2.209 4 0 4 C
2.209 4 4 2.209 4 0 C
cp
S
GR
GS
[0.75 0 0 0.75 213.49999 135.17913] CT
1 0 0 RC
N
f351177404
f
GR
GS
[0.75 0 0 0.75 213.49999 135.17913] CT
1 0 0 RC
10.0 ML
N
4 0 M
4 -2.209 2.209 -4 0 -4 C
-2.209 -4 -4 -2.209 -4 0 C
-4 2.209 -2.209 4 0 4 C
2.209 4 4 2.209 4 0 C
cp
S
GR
GS
[0.75 0 0 0.75 232.875 137.37282] CT
1 0 0 RC
N
f351177404
f
GR
GS
[0.75 0 0 0.75 232.875 137.37282] CT
1 0 0 RC
10.0 ML
N
4 0 M
4 -2.209 2.209 -4 0 -4 C
-2.209 -4 -4 -2.209 -4 0 C
-4 2.209 -2.209 4 0 4 C
2.209 4 4 2.209 4 0 C
cp
S
GR
GS
[0.75 0 0 0.75 252.25001 141.13981] CT
1 0 0 RC
N
f351177404
f
GR
GS
[0.75 0 0 0.75 252.25001 141.13981] CT
1 0 0 RC
10.0 ML
N
4 0 M
4 -2.209 2.209 -4 0 -4 C
-2.209 -4 -4 -2.209 -4 0 C
-4 2.209 -2.209 4 0 4 C
2.209 4 4 2.209 4 0 C
cp
S
GR
GS
[0.75 0 0 0.75 271.62499 145.25639] CT
1 0 0 RC
N
f351177404
f
GR
GS
[0.75 0 0 0.75 271.62499 145.25639] CT
1 0 0 RC
10.0 ML
N
4 0 M
4 -2.209 2.209 -4 0 -4 C
-2.209 -4 -4 -2.209 -4 0 C
-4 2.209 -2.209 4 0 4 C
2.209 4 4 2.209 4 0 C
cp
S
GR
GS
[0.75 0 0 0.75 291 149.28304] CT
1 0 0 RC
N
f351177404
f
GR
GS
[0.75 0 0 0.75 291 149.28304] CT
1 0 0 RC
10.0 ML
N
4 0 M
4 -2.209 2.209 -4 0 -4 C
-2.209 -4 -4 -2.209 -4 0 C
-4 2.209 -2.209 4 0 4 C
2.209 4 4 2.209 4 0 C
cp
S
GR
GS
[0.75 0 0 0.75 310.37501 153.07416] CT
1 0 0 RC
N
f351177404
f
GR
GS
[0.75 0 0 0.75 310.37501 153.07416] CT
1 0 0 RC
10.0 ML
N
4 0 M
4 -2.209 2.209 -4 0 -4 C
-2.209 -4 -4 -2.209 -4 0 C
-4 2.209 -2.209 4 0 4 C
2.209 4 4 2.209 4 0 C
cp
S
GR
GS
[0.75 0 0 0.75 329.74999 156.59783] CT
1 0 0 RC
N
f351177404
f
GR
GS
[0.75 0 0 0.75 329.74999 156.59783] CT
1 0 0 RC
10.0 ML
N
4 0 M
4 -2.209 2.209 -4 0 -4 C
-2.209 -4 -4 -2.209 -4 0 C
-4 2.209 -2.209 4 0 4 C
2.209 4 4 2.209 4 0 C
cp
S
GR
GS
[0.75 0 0 0.75 349.125 159.86536] CT
1 0 0 RC
N
f351177404
f
GR
GS
[0.75 0 0 0.75 349.125 159.86536] CT
1 0 0 RC
10.0 ML
N
4 0 M
4 -2.209 2.209 -4 0 -4 C
-2.209 -4 -4 -2.209 -4 0 C
-4 2.209 -2.209 4 0 4 C
2.209 4 4 2.209 4 0 C
cp
S
GR
GS
[0.75 0 0 0.75 368.50001 162.90273] CT
1 0 0 RC
N
f351177404
f
GR
GS
[0.75 0 0 0.75 368.50001 162.90273] CT
1 0 0 RC
10.0 ML
N
4 0 M
4 -2.209 2.209 -4 0 -4 C
-2.209 -4 -4 -2.209 -4 0 C
-4 2.209 -2.209 4 0 4 C
2.209 4 4 2.209 4 0 C
cp
S
GR
GS
[0.75 0 0 0.75 387.87502 165.73898] CT
1 0 0 RC
N
f351177404
f
GR
GS
[0.75 0 0 0.75 387.87502 165.73898] CT
1 0 0 RC
10.0 ML
N
4 0 M
4 -2.209 2.209 -4 0 -4 C
-2.209 -4 -4 -2.209 -4 0 C
-4 2.209 -2.209 4 0 4 C
2.209 4 4 2.209 4 0 C
cp
S
GR
GS
[0.75 0 0 0.75 407.25 168.4016] CT
1 0 0 RC
N
f351177404
f
GR
GS
[0.75 0 0 0.75 407.25 168.4016] CT
1 0 0 RC
10.0 ML
N
4 0 M
4 -2.209 2.209 -4 0 -4 C
-2.209 -4 -4 -2.209 -4 0 C
-4 2.209 -2.209 4 0 4 C
2.209 4 4 2.209 4 0 C
cp
S
GR
GS
[0.75 0 0 0.75 213.49999 138.41148] CT
1 0 1 RC
N
f1719669614
f
GR
GS
[0.75 0 0 0.75 213.49999 138.41148] CT
1 0 1 RC
10.0 ML
N
-2.828 -2.828 M
2.828 2.828 L
-2.828 2.828 M
2.828 -2.828 L
S
GR
GS
[0.75 0 0 0.75 232.875 136.12839] CT
1 0 1 RC
N
f1719669614
f
GR
GS
[0.75 0 0 0.75 232.875 136.12839] CT
1 0 1 RC
10.0 ML
N
-2.828 -2.828 M
2.828 2.828 L
-2.828 2.828 M
2.828 -2.828 L
S
GR
GS
[0.75 0 0 0.75 252.25001 137.62561] CT
1 0 1 RC
N
f1719669614
f
GR
GS
[0.75 0 0 0.75 252.25001 137.62561] CT
1 0 1 RC
10.0 ML
N
-2.828 -2.828 M
2.828 2.828 L
-2.828 2.828 M
2.828 -2.828 L
S
GR
GS
[0.75 0 0 0.75 271.62499 140.53579] CT
1 0 1 RC
N
f1719669614
f
GR
GS
[0.75 0 0 0.75 271.62499 140.53579] CT
1 0 1 RC
10.0 ML
N
-2.828 -2.828 M
2.828 2.828 L
-2.828 2.828 M
2.828 -2.828 L
S
GR
GS
[0.75 0 0 0.75 291 143.89847] CT
1 0 1 RC
N
f1719669614
f
GR
GS
[0.75 0 0 0.75 291 143.89847] CT
1 0 1 RC
10.0 ML
N
-2.828 -2.828 M
2.828 2.828 L
-2.828 2.828 M
2.828 -2.828 L
S
GR
GS
[0.75 0 0 0.75 310.37501 147.31353] CT
1 0 1 RC
N
f1719669614
f
GR
GS
[0.75 0 0 0.75 310.37501 147.31353] CT
1 0 1 RC
10.0 ML
N
-2.828 -2.828 M
2.828 2.828 L
-2.828 2.828 M
2.828 -2.828 L
S
GR
GS
[0.75 0 0 0.75 329.74999 150.61776] CT
1 0 1 RC
N
f1719669614
f
GR
GS
[0.75 0 0 0.75 329.74999 150.61776] CT
1 0 1 RC
10.0 ML
N
-2.828 -2.828 M
2.828 2.828 L
-2.828 2.828 M
2.828 -2.828 L
S
GR
GS
[0.75 0 0 0.75 349.125 153.75182] CT
1 0 1 RC
N
f1719669614
f
GR
GS
[0.75 0 0 0.75 349.125 153.75182] CT
1 0 1 RC
10.0 ML
N
-2.828 -2.828 M
2.828 2.828 L
-2.828 2.828 M
2.828 -2.828 L
S
GR
GS
[0.75 0 0 0.75 368.50001 156.70237] CT
1 0 1 RC
N
f1719669614
f
GR
GS
[0.75 0 0 0.75 368.50001 156.70237] CT
1 0 1 RC
10.0 ML
N
-2.828 -2.828 M
2.828 2.828 L
-2.828 2.828 M
2.828 -2.828 L
S
GR
GS
[0.75 0 0 0.75 387.87502 159.47612] CT
1 0 1 RC
N
f1719669614
f
GR
GS
[0.75 0 0 0.75 387.87502 159.47612] CT
1 0 1 RC
10.0 ML
N
-2.828 -2.828 M
2.828 2.828 L
-2.828 2.828 M
2.828 -2.828 L
S
GR
GS
[0.75 0 0 0.75 407.25 162.08763] CT
1 0 1 RC
N
f1719669614
f
GR
GS
[0.75 0 0 0.75 407.25 162.08763] CT
1 0 1 RC
10.0 ML
N
-2.828 -2.828 M
2.828 2.828 L
-2.828 2.828 M
2.828 -2.828 L
S
GR
GS
[0.75 0 0 0.75 232.875 138.68401] CT
0 1 0 RC
N
f860094634
f
GR
GS
[0.75 0 0 0.75 232.875 138.68401] CT
0 1 0 RC
10.0 ML
N
0 -4 M
0 4 L
-4 0 M
4 0 L
S
GR
GS
[0.75 0 0 0.75 252.25001 136.8278] CT
0 1 0 RC
N
f860094634
f
GR
GS
[0.75 0 0 0.75 252.25001 136.8278] CT
0 1 0 RC
10.0 ML
N
0 -4 M
0 4 L
-4 0 M
4 0 L
S
GR
GS
[0.75 0 0 0.75 271.62499 137.88906] CT
0 1 0 RC
N
f860094634
f
GR
GS
[0.75 0 0 0.75 271.62499 137.88906] CT
0 1 0 RC
10.0 ML
N
0 -4 M
0 4 L
-4 0 M
4 0 L
S
GR
GS
[0.75 0 0 0.75 291 140.19034] CT
0 1 0 RC
N
f860094634
f
GR
GS
[0.75 0 0 0.75 291 140.19034] CT
0 1 0 RC
10.0 ML
N
0 -4 M
0 4 L
-4 0 M
4 0 L
S
GR
GS
[0.75 0 0 0.75 310.37501 142.97611] CT
0 1 0 RC
N
f860094634
f
GR
GS
[0.75 0 0 0.75 310.37501 142.97611] CT
0 1 0 RC
10.0 ML
N
0 -4 M
0 4 L
-4 0 M
4 0 L
S
GR
GS
[0.75 0 0 0.75 329.74999 145.89656] CT
0 1 0 RC
N
f860094634
f
GR
GS
[0.75 0 0 0.75 329.74999 145.89656] CT
0 1 0 RC
10.0 ML
N
0 -4 M
0 4 L
-4 0 M
4 0 L
S
GR
GS
[0.75 0 0 0.75 349.125 148.78978] CT
0 1 0 RC
N
f860094634
f
GR
GS
[0.75 0 0 0.75 349.125 148.78978] CT
0 1 0 RC
10.0 ML
N
0 -4 M
0 4 L
-4 0 M
4 0 L
S
GR
GS
[0.75 0 0 0.75 368.50001 151.58398] CT
0 1 0 RC
N
f860094634
f
GR
GS
[0.75 0 0 0.75 368.50001 151.58398] CT
0 1 0 RC
10.0 ML
N
0 -4 M
0 4 L
-4 0 M
4 0 L
S
GR
GS
[0.75 0 0 0.75 387.87502 154.25148] CT
0 1 0 RC
N
f860094634
f
GR
GS
[0.75 0 0 0.75 387.87502 154.25148] CT
0 1 0 RC
10.0 ML
N
0 -4 M
0 4 L
-4 0 M
4 0 L
S
GR
GS
[0.75 0 0 0.75 407.25 156.78619] CT
0 1 0 RC
N
f860094634
f
GR
GS
[0.75 0 0 0.75 407.25 156.78619] CT
0 1 0 RC
10.0 ML
N
0 -4 M
0 4 L
-4 0 M
4 0 L
S
GR
GS
[0.75 0 0 0.75 252.25001 138.88148] CT
N
f1022997606
f
GR
GS
[0.75 0 0 0.75 252.25001 138.88148] CT
10.0 ML
N
0 5.332 M
-4.618 -2.666 L
4.618 -2.666 L
cp
S
GR
GS
[0.75 0 0 0.75 271.62499 137.35586] CT
N
f1022997606
f
GR
GS
[0.75 0 0 0.75 271.62499 137.35586] CT
10.0 ML
N
0 5.332 M
-4.618 -2.666 L
4.618 -2.666 L
cp
S
GR
GS
[0.75 0 0 0.75 291 138.13482] CT
N
f1022997606
f
GR
GS
[0.75 0 0 0.75 291 138.13482] CT
10.0 ML
N
0 5.332 M
-4.618 -2.666 L
4.618 -2.666 L
cp
S
GR
GS
[0.75 0 0 0.75 310.37501 139.9933] CT
N
f1022997606
f
GR
GS
[0.75 0 0 0.75 310.37501 139.9933] CT
10.0 ML
N
0 5.332 M
-4.618 -2.666 L
4.618 -2.666 L
cp
S
GR
GS
[0.75 0 0 0.75 329.74999 142.33241] CT
N
f1022997606
f
GR
GS
[0.75 0 0 0.75 329.74999 142.33241] CT
10.0 ML
N
0 5.332 M
-4.618 -2.666 L
4.618 -2.666 L
cp
S
GR
GS
[0.75 0 0 0.75 349.125 144.85165] CT
N
f1022997606
f
GR
GS
[0.75 0 0 0.75 349.125 144.85165] CT
10.0 ML
N
0 5.332 M
-4.618 -2.666 L
4.618 -2.666 L
cp
S
GR
GS
[0.75 0 0 0.75 368.50001 147.39903] CT
N
f1022997606
f
GR
GS
[0.75 0 0 0.75 368.50001 147.39903] CT
10.0 ML
N
0 5.332 M
-4.618 -2.666 L
4.618 -2.666 L
cp
S
GR
GS
[0.75 0 0 0.75 387.87502 149.89895] CT
N
f1022997606
f
GR
GS
[0.75 0 0 0.75 387.87502 149.89895] CT
10.0 ML
N
0 5.332 M
-4.618 -2.666 L
4.618 -2.666 L
cp
S
GR
GS
[0.75 0 0 0.75 407.25 152.31591] CT
N
f1022997606
f
GR
GS
[0.75 0 0 0.75 407.25 152.31591] CT
10.0 ML
N
0 5.332 M
-4.618 -2.666 L
4.618 -2.666 L
cp
S
GR
GS
[0.75 0 0 0.75 271.62499 139.02793] CT
0 0 1 RC
N
f227889816
f
GR
GS
[0.75 0 0 0.75 271.62499 139.02793] CT
0 0 1 RC
10.0 ML
N
-3 -3 M
-3 3 L
3 3 L
3 -3 L
cp
S
GR
GS
[0.75 0 0 0.75 291 137.76275] CT
0 0 1 RC
N
f227889816
f
GR
GS
[0.75 0 0 0.75 291 137.76275] CT
0 0 1 RC
10.0 ML
N
-3 -3 M
-3 3 L
3 3 L
3 -3 L
cp
S
GR
GS
[0.75 0 0 0.75 310.37501 138.35384] CT
0 0 1 RC
N
f227889816
f
GR
GS
[0.75 0 0 0.75 310.37501 138.35384] CT
0 0 1 RC
10.0 ML
N
-3 -3 M
-3 3 L
3 3 L
3 -3 L
cp
S
GR
GS
[0.75 0 0 0.75 329.74999 139.8835] CT
0 0 1 RC
N
f227889816
f
GR
GS
[0.75 0 0 0.75 329.74999 139.8835] CT
0 0 1 RC
10.0 ML
N
-3 -3 M
-3 3 L
3 3 L
3 -3 L
cp
S
GR
GS
[0.75 0 0 0.75 349.125 141.87245] CT
0 0 1 RC
N
f227889816
f
GR
GS
[0.75 0 0 0.75 349.125 141.87245] CT
0 0 1 RC
10.0 ML
N
-3 -3 M
-3 3 L
3 3 L
3 -3 L
cp
S
GR
GS
[0.75 0 0 0.75 368.50001 144.06432] CT
0 0 1 RC
N
f227889816
f
GR
GS
[0.75 0 0 0.75 368.50001 144.06432] CT
0 0 1 RC
10.0 ML
N
-3 -3 M
-3 3 L
3 3 L
3 -3 L
cp
S
GR
GS
[0.75 0 0 0.75 387.87502 146.32043] CT
0 0 1 RC
N
f227889816
f
GR
GS
[0.75 0 0 0.75 387.87502 146.32043] CT
0 0 1 RC
10.0 ML
N
-3 -3 M
-3 3 L
3 3 L
3 -3 L
cp
S
GR
GS
[0.75 0 0 0.75 407.25 148.56611] CT
0 0 1 RC
N
f227889816
f
GR
GS
[0.75 0 0 0.75 407.25 148.56611] CT
0 0 1 RC
10.0 ML
N
-3 -3 M
-3 3 L
3 3 L
3 -3 L
cp
S
GR
GS
[0.75 0 0 0.75 291 139.13864] CT
1 0 0 RC
N
f-1741330208
f
GR
GS
[0.75 0 0 0.75 291 139.13864] CT
1 0 0 RC
10.0 ML
N
-3.804 -1.236 M
-0.94 -1.236 L
0 -4 L
0.94 -1.236 L
3.804 -1.236 L
1.522 0.494 L
2.351 3.236 L
0 1.6 L
-2.351 3.236 L
-1.522 0.494 L
cp
S
GR
GS
[0.75 0 0 0.75 310.37501 138.08173] CT
1 0 0 RC
N
f-1741330208
f
GR
GS
[0.75 0 0 0.75 310.37501 138.08173] CT
1 0 0 RC
10.0 ML
N
-3.804 -1.236 M
-0.94 -1.236 L
0 -4 L
0.94 -1.236 L
3.804 -1.236 L
1.522 0.494 L
2.351 3.236 L
0 1.6 L
-2.351 3.236 L
-1.522 0.494 L
cp
S
GR
GS
[0.75 0 0 0.75 329.74999 138.54492] CT
1 0 0 RC
N
f-1741330208
f
GR
GS
[0.75 0 0 0.75 329.74999 138.54492] CT
1 0 0 RC
10.0 ML
N
-3.804 -1.236 M
-0.94 -1.236 L
0 -4 L
0.94 -1.236 L
3.804 -1.236 L
1.522 0.494 L
2.351 3.236 L
0 1.6 L
-2.351 3.236 L
-1.522 0.494 L
cp
S
GR
GS
[0.75 0 0 0.75 349.125 139.82578] CT
1 0 0 RC
N
f-1741330208
f
GR
GS
[0.75 0 0 0.75 349.125 139.82578] CT
1 0 0 RC
10.0 ML
N
-3.804 -1.236 M
-0.94 -1.236 L
0 -4 L
0.94 -1.236 L
3.804 -1.236 L
1.522 0.494 L
2.351 3.236 L
0 1.6 L
-2.351 3.236 L
-1.522 0.494 L
cp
S
GR
GS
[0.75 0 0 0.75 368.50001 141.53682] CT
1 0 0 RC
N
f-1741330208
f
GR
GS
[0.75 0 0 0.75 368.50001 141.53682] CT
1 0 0 RC
10.0 ML
N
-3.804 -1.236 M
-0.94 -1.236 L
0 -4 L
0.94 -1.236 L
3.804 -1.236 L
1.522 0.494 L
2.351 3.236 L
0 1.6 L
-2.351 3.236 L
-1.522 0.494 L
cp
S
GR
GS
[0.75 0 0 0.75 387.87502 143.45963] CT
1 0 0 RC
N
f-1741330208
f
GR
GS
[0.75 0 0 0.75 387.87502 143.45963] CT
1 0 0 RC
10.0 ML
N
-3.804 -1.236 M
-0.94 -1.236 L
0 -4 L
0.94 -1.236 L
3.804 -1.236 L
1.522 0.494 L
2.351 3.236 L
0 1.6 L
-2.351 3.236 L
-1.522 0.494 L
cp
S
GR
GS
[0.75 0 0 0.75 407.25 145.46962] CT
1 0 0 RC
N
f-1741330208
f
GR
GS
[0.75 0 0 0.75 407.25 145.46962] CT
1 0 0 RC
10.0 ML
N
-3.804 -1.236 M
-0.94 -1.236 L
0 -4 L
0.94 -1.236 L
3.804 -1.236 L
1.522 0.494 L
2.351 3.236 L
0 1.6 L
-2.351 3.236 L
-1.522 0.494 L
cp
S
GR
GS
[0.75 0 0 0.75 310.37501 139.22368] CT
1 0 1 RC
N
f1737057230
f
GR
GS
[0.75 0 0 0.75 310.37501 139.22368] CT
1 0 1 RC
10.0 ML
N
-3.464 -2 M
-1.155 -2 L
0 -4 L
1.155 -2 L
3.464 -2 L
2 0 L
3.464 2 L
1.155 2 L
0 4 L
-1.155 2 L
-3.464 2 L
-2 0 L
cp
S
GR
GS
[0.75 0 0 0.75 329.74999 138.33549] CT
1 0 1 RC
N
f1737057230
f
GR
GS
[0.75 0 0 0.75 329.74999 138.33549] CT
1 0 1 RC
10.0 ML
N
-3.464 -2 M
-1.155 -2 L
0 -4 L
1.155 -2 L
3.464 -2 L
2 0 L
3.464 2 L
1.155 2 L
0 4 L
-1.155 2 L
-3.464 2 L
-2 0 L
cp
S
GR
GS
[0.75 0 0 0.75 349.125 138.70999] CT
1 0 1 RC
N
f1737057230
f
GR
GS
[0.75 0 0 0.75 349.125 138.70999] CT
1 0 1 RC
10.0 ML
N
-3.464 -2 M
-1.155 -2 L
0 -4 L
1.155 -2 L
3.464 -2 L
2 0 L
3.464 2 L
1.155 2 L
0 4 L
-1.155 2 L
-3.464 2 L
-2 0 L
cp
S
GR
GS
[0.75 0 0 0.75 368.50001 139.79935] CT
1 0 1 RC
N
f1737057230
f
GR
GS
[0.75 0 0 0.75 368.50001 139.79935] CT
1 0 1 RC
10.0 ML
N
-3.464 -2 M
-1.155 -2 L
0 -4 L
1.155 -2 L
3.464 -2 L
2 0 L
3.464 2 L
1.155 2 L
0 4 L
-1.155 2 L
-3.464 2 L
-2 0 L
cp
S
GR
GS
[0.75 0 0 0.75 387.87502 141.28719] CT
1 0 1 RC
N
f1737057230
f
GR
GS
[0.75 0 0 0.75 387.87502 141.28719] CT
1 0 1 RC
10.0 ML
N
-3.464 -2 M
-1.155 -2 L
0 -4 L
1.155 -2 L
3.464 -2 L
2 0 L
3.464 2 L
1.155 2 L
0 4 L
-1.155 2 L
-3.464 2 L
-2 0 L
cp
S
GR
GS
[0.75 0 0 0.75 407.25 142.9872] CT
1 0 1 RC
N
f1737057230
f
GR
GS
[0.75 0 0 0.75 407.25 142.9872] CT
1 0 1 RC
10.0 ML
N
-3.464 -2 M
-1.155 -2 L
0 -4 L
1.155 -2 L
3.464 -2 L
2 0 L
3.464 2 L
1.155 2 L
0 4 L
-1.155 2 L
-3.464 2 L
-2 0 L
cp
S
GR
GS
[0.75 0 0 0.75 329.74999 139.28988] CT
0 1 0 RC
N
f351177404
f
GR
GS
[0.75 0 0 0.75 329.74999 139.28988] CT
0 1 0 RC
10.0 ML
N
4 0 M
4 -2.209 2.209 -4 0 -4 C
-2.209 -4 -4 -2.209 -4 0 C
-4 2.209 -2.209 4 0 4 C
2.209 4 4 2.209 4 0 C
cp
S
GR
GS
[0.75 0 0 0.75 349.125 138.53997] CT
0 1 0 RC
N
f351177404
f
GR
GS
[0.75 0 0 0.75 349.125 138.53997] CT
0 1 0 RC
10.0 ML
N
4 0 M
4 -2.209 2.209 -4 0 -4 C
-2.209 -4 -4 -2.209 -4 0 C
-4 2.209 -2.209 4 0 4 C
2.209 4 4 2.209 4 0 C
cp
S
GR
GS
[0.75 0 0 0.75 368.50001 138.85197] CT
0 1 0 RC
N
f351177404
f
GR
GS
[0.75 0 0 0.75 368.50001 138.85197] CT
0 1 0 RC
10.0 ML
N
4 0 M
4 -2.209 2.209 -4 0 -4 C
-2.209 -4 -4 -2.209 -4 0 C
-4 2.209 -2.209 4 0 4 C
2.209 4 4 2.209 4 0 C
cp
S
GR
GS
[0.75 0 0 0.75 387.87502 139.79166] CT
0 1 0 RC
N
f351177404
f
GR
GS
[0.75 0 0 0.75 387.87502 139.79166] CT
0 1 0 RC
10.0 ML
N
4 0 M
4 -2.209 2.209 -4 0 -4 C
-2.209 -4 -4 -2.209 -4 0 C
-4 2.209 -2.209 4 0 4 C
2.209 4 4 2.209 4 0 C
cp
S
GR
GS
[0.75 0 0 0.75 407.25 141.09826] CT
0 1 0 RC
N
f351177404
f
GR
GS
[0.75 0 0 0.75 407.25 141.09826] CT
0 1 0 RC
10.0 ML
N
4 0 M
4 -2.209 2.209 -4 0 -4 C
-2.209 -4 -4 -2.209 -4 0 C
-4 2.209 -2.209 4 0 4 C
2.209 4 4 2.209 4 0 C
cp
S
GR
GS
[0.75 0 0 0.75 349.125 139.34197] CT
N
f351177404
f
GR
GS
[0.75 0 0 0.75 349.125 139.34197] CT
10.0 ML
N
4 0 M
4 -2.209 2.209 -4 0 -4 C
-2.209 -4 -4 -2.209 -4 0 C
-4 2.209 -2.209 4 0 4 C
2.209 4 4 2.209 4 0 C
cp
S
GR
GS
[0.75 0 0 0.75 368.50001 138.70655] CT
N
f351177404
f
GR
GS
[0.75 0 0 0.75 368.50001 138.70655] CT
10.0 ML
N
4 0 M
4 -2.209 2.209 -4 0 -4 C
-2.209 -4 -4 -2.209 -4 0 C
-4 2.209 -2.209 4 0 4 C
2.209 4 4 2.209 4 0 C
cp
S
GR
GS
[0.75 0 0 0.75 387.87502 138.97393] CT
N
f351177404
f
GR
GS
[0.75 0 0 0.75 387.87502 138.97393] CT
10.0 ML
N
4 0 M
4 -2.209 2.209 -4 0 -4 C
-2.209 -4 -4 -2.209 -4 0 C
-4 2.209 -2.209 4 0 4 C
2.209 4 4 2.209 4 0 C
cp
S
GR
GS
[0.75 0 0 0.75 407.25 139.79502] CT
N
f351177404
f
GR
GS
[0.75 0 0 0.75 407.25 139.79502] CT
10.0 ML
N
4 0 M
4 -2.209 2.209 -4 0 -4 C
-2.209 -4 -4 -2.209 -4 0 C
-4 2.209 -2.209 4 0 4 C
2.209 4 4 2.209 4 0 C
cp
S
GR
GS
[0.75 0 0 0.75 368.50001 139.38335] CT
0 0 1 RC
N
f1719669614
f
GR
GS
[0.75 0 0 0.75 368.50001 139.38335] CT
0 0 1 RC
10.0 ML
N
-2.828 -2.828 M
2.828 2.828 L
-2.828 2.828 M
2.828 -2.828 L
S
GR
GS
[0.75 0 0 0.75 387.87502 138.84358] CT
0 0 1 RC
N
f1719669614
f
GR
GS
[0.75 0 0 0.75 387.87502 138.84358] CT
0 0 1 RC
10.0 ML
N
-2.828 -2.828 M
2.828 2.828 L
-2.828 2.828 M
2.828 -2.828 L
S
GR
GS
[0.75 0 0 0.75 407.25 139.07874] CT
0 0 1 RC
N
f1719669614
f
GR
GS
[0.75 0 0 0.75 407.25 139.07874] CT
0 0 1 RC
10.0 ML
N
-2.828 -2.828 M
2.828 2.828 L
-2.828 2.828 M
2.828 -2.828 L
S
GR
GS
[0.75 0 0 0.75 387.87502 139.41647] CT
1 0 0 RC
N
f860094634
f
GR
GS
[0.75 0 0 0.75 387.87502 139.41647] CT
1 0 0 RC
10.0 ML
N
0 -4 M
0 4 L
-4 0 M
4 0 L
S
GR
GS
[0.75 0 0 0.75 407.25 138.95725] CT
1 0 0 RC
N
f860094634
f
GR
GS
[0.75 0 0 0.75 407.25 138.95725] CT
1 0 0 RC
10.0 ML
N
0 -4 M
0 4 L
-4 0 M
4 0 L
S
GR
GS
[0.75 0 0 0.75 407.25 139.44315] CT
1 0 1 RC
N
f1022997606
f
GR
GS
[0.75 0 0 0.75 407.25 139.44315] CT
1 0 1 RC
10.0 ML
N
0 5.332 M
-4.618 -2.666 L
4.618 -2.666 L
cp
S
GR
GS
[0.75 0 0 0.75 0 0] CT
1 GC
N
/f-990271924{597 639 M
597 341 L
508 341 L
508 639 L
cp}def
f-990271924
f
GR
GS
[0.75 0 0 0.75 416.25 262.875] CT
/Helvetica 12 F
GS
[1 0 0 1 0 0] CT
0 4.5 moveto 
1 -1 scale
(m=0) t 
GR
GR
GS
[0.75 0 0 0.75 399 262.875] CT
N
f351177404
f
GR
GS
[0.75 0 0 0.75 399 262.875] CT
10.0 ML
N
4 0 M
4 -2.209 2.209 -4 0 -4 C
-2.209 -4 -4 -2.209 -4 0 C
-4 2.209 -2.209 4 0 4 C
2.209 4 4 2.209 4 0 C
cp
S
GR
GS
[0.75 0 0 0.75 416.25 274.5] CT
/Helvetica 12 F
GS
[1 0 0 1 0 0] CT
0 4.5 moveto 
1 -1 scale
(m=1) t 
GR
GR
GS
[0.75 0 0 0.75 399 274.5] CT
0 0 1 RC
N
f1719669614
f
GR
GS
[0.75 0 0 0.75 399 274.5] CT
0 0 1 RC
10.0 ML
N
-2.828 -2.828 M
2.828 2.828 L
-2.828 2.828 M
2.828 -2.828 L
S
GR
GS
[0.75 0 0 0.75 416.25 286.125] CT
/Helvetica 12 F
GS
[1 0 0 1 0 0] CT
0 4.5 moveto 
1 -1 scale
(m=2) t 
GR
GR
GS
[0.75 0 0 0.75 399 286.125] CT
1 0 0 RC
N
f860094634
f
GR
GS
[0.75 0 0 0.75 399 286.125] CT
1 0 0 RC
10.0 ML
N
0 -4 M
0 4 L
-4 0 M
4 0 L
S
GR
GS
[0.75 0 0 0.75 416.25 297.75] CT
/Helvetica 12 F
GS
[1 0 0 1 0 0] CT
0 4.5 moveto 
1 -1 scale
(m=3) t 
GR
GR
GS
[0.75 0 0 0.75 399 297.75] CT
1 0 1 RC
N
f1022997606
f
GR
GS
[0.75 0 0 0.75 399 297.75] CT
1 0 1 RC
10.0 ML
N
0 5.332 M
-4.618 -2.666 L
4.618 -2.666 L
cp
S
GR
GS
[0.75 0 0 0.75 416.25 309.375] CT
/Helvetica 12 F
GS
[1 0 0 1 0 0] CT
0 4.5 moveto 
1 -1 scale
(m=4) t 
GR
GR
GS
[0.75 0 0 0.75 399 309.375] CT
0 1 0 RC
N
f227889816
f
GR
GS
[0.75 0 0 0.75 399 309.375] CT
0 1 0 RC
10.0 ML
N
-3 -3 M
-3 3 L
3 3 L
3 -3 L
cp
S
GR
GS
[0.75 0 0 0.75 416.25 321] CT
/Helvetica 12 F
GS
[1 0 0 1 0 0] CT
0 4.5 moveto 
1 -1 scale
(m=5) t 
GR
GR
GS
[0.75 0 0 0.75 399 321] CT
N
f-1741330208
f
GR
GS
[0.75 0 0 0.75 399 321] CT
10.0 ML
N
-3.804 -1.236 M
-0.94 -1.236 L
0 -4 L
0.94 -1.236 L
3.804 -1.236 L
1.522 0.494 L
2.351 3.236 L
0 1.6 L
-2.351 3.236 L
-1.522 0.494 L
cp
S
GR
GS
[0.75 0 0 0.75 416.25 332.625] CT
/Helvetica 12 F
GS
[1 0 0 1 0 0] CT
0 4.5 moveto 
1 -1 scale
(m=6) t 
GR
GR
GS
[0.75 0 0 0.75 399 332.625] CT
0 0 1 RC
N
f1737057230
f
GR
GS
[0.75 0 0 0.75 399 332.625] CT
0 0 1 RC
10.0 ML
N
-3.464 -2 M
-1.155 -2 L
0 -4 L
1.155 -2 L
3.464 -2 L
2 0 L
3.464 2 L
1.155 2 L
0 4 L
-1.155 2 L
-3.464 2 L
-2 0 L
cp
S
GR
GS
[0.75 0 0 0.75 416.25 344.25] CT
/Helvetica 12 F
GS
[1 0 0 1 0 0] CT
0 4.5 moveto 
1 -1 scale
(m=7) t 
GR
GR
GS
[0.75 0 0 0.75 399 344.25] CT
1 0 0 RC
N
f351177404
f
GR
GS
[0.75 0 0 0.75 399 344.25] CT
1 0 0 RC
10.0 ML
N
4 0 M
4 -2.209 2.209 -4 0 -4 C
-2.209 -4 -4 -2.209 -4 0 C
-4 2.209 -2.209 4 0 4 C
2.209 4 4 2.209 4 0 C
cp
S
GR
GS
[0.75 0 0 0.75 416.25 355.875] CT
/Helvetica 12 F
GS
[1 0 0 1 0 0] CT
0 4.5 moveto 
1 -1 scale
(m=8) t 
GR
GR
GS
[0.75 0 0 0.75 399 355.875] CT
1 0 1 RC
N
f1719669614
f
GR
GS
[0.75 0 0 0.75 399 355.875] CT
1 0 1 RC
10.0 ML
N
-2.828 -2.828 M
2.828 2.828 L
-2.828 2.828 M
2.828 -2.828 L
S
GR
GS
[0.75 0 0 0.75 416.25 367.5] CT
/Helvetica 12 F
GS
[1 0 0 1 0 0] CT
0 4.5 moveto 
1 -1 scale
(m=9) t 
GR
GR
GS
[0.75 0 0 0.75 399 367.5] CT
0 1 0 RC
N
f860094634
f
GR
GS
[0.75 0 0 0.75 399 367.5] CT
0 1 0 RC
10.0 ML
N
0 -4 M
0 4 L
-4 0 M
4 0 L
S
GR
GS
[0.75 0 0 0.75 416.25 379.125] CT
/Helvetica 12 F
GS
[1 0 0 1 0 0] CT
0 4.5 moveto 
1 -1 scale
(m=10) t 
GR
GR
GS
[0.75 0 0 0.75 399 379.125] CT
N
f1022997606
f
GR
GS
[0.75 0 0 0.75 399 379.125] CT
10.0 ML
N
0 5.332 M
-4.618 -2.666 L
4.618 -2.666 L
cp
S
GR
GS
[0.75 0 0 0.75 416.25 390.75] CT
/Helvetica 12 F
GS
[1 0 0 1 0 0] CT
0 4.5 moveto 
1 -1 scale
(m=11) t 
GR
GR
GS
[0.75 0 0 0.75 399 390.75] CT
0 0 1 RC
N
f227889816
f
GR
GS
[0.75 0 0 0.75 399 390.75] CT
0 0 1 RC
10.0 ML
N
-3 -3 M
-3 3 L
3 3 L
3 -3 L
cp
S
GR
GS
[0.75 0 0 0.75 416.25 402.375] CT
/Helvetica 12 F
GS
[1 0 0 1 0 0] CT
0 4.5 moveto 
1 -1 scale
(m=12) t 
GR
GR
GS
[0.75 0 0 0.75 399 402.375] CT
1 0 0 RC
N
f-1741330208
f
GR
GS
[0.75 0 0 0.75 399 402.375] CT
1 0 0 RC
10.0 ML
N
-3.804 -1.236 M
-0.94 -1.236 L
0 -4 L
0.94 -1.236 L
3.804 -1.236 L
1.522 0.494 L
2.351 3.236 L
0 1.6 L
-2.351 3.236 L
-1.522 0.494 L
cp
S
GR
GS
[0.75 0 0 0.75 416.25 414] CT
/Helvetica 12 F
GS
[1 0 0 1 0 0] CT
0 4.5 moveto 
1 -1 scale
(m=13) t 
GR
GR
GS
[0.75 0 0 0.75 399 414] CT
1 0 1 RC
N
f1737057230
f
GR
GS
[0.75 0 0 0.75 399 414] CT
1 0 1 RC
10.0 ML
N
-3.464 -2 M
-1.155 -2 L
0 -4 L
1.155 -2 L
3.464 -2 L
2 0 L
3.464 2 L
1.155 2 L
0 4 L
-1.155 2 L
-3.464 2 L
-2 0 L
cp
S
GR
GS
[0.75 0 0 0.75 416.25 425.625] CT
/Helvetica 12 F
GS
[1 0 0 1 0 0] CT
0 4.5 moveto 
1 -1 scale
(m=14) t 
GR
GR
GS
[0.75 0 0 0.75 399 425.625] CT
0 1 0 RC
N
f351177404
f
GR
GS
[0.75 0 0 0.75 399 425.625] CT
0 1 0 RC
10.0 ML
N
4 0 M
4 -2.209 2.209 -4 0 -4 C
-2.209 -4 -4 -2.209 -4 0 C
-4 2.209 -2.209 4 0 4 C
2.209 4 4 2.209 4 0 C
cp
S
GR
GS
[0.75 0 0 0.75 416.25 437.25] CT
/Helvetica 12 F
GS
[1 0 0 1 0 0] CT
0 4.5 moveto 
1 -1 scale
(m=15) t 
GR
GR
GS
[0.75 0 0 0.75 399 437.25] CT
N
f351177404
f
GR
GS
[0.75 0 0 0.75 399 437.25] CT
10.0 ML
N
4 0 M
4 -2.209 2.209 -4 0 -4 C
-2.209 -4 -4 -2.209 -4 0 C
-4 2.209 -2.209 4 0 4 C
2.209 4 4 2.209 4 0 C
cp
S
GR
GS
[0.75 0 0 0.75 416.25 448.875] CT
/Helvetica 12 F
GS
[1 0 0 1 0 0] CT
0 4.5 moveto 
1 -1 scale
(m=16) t 
GR
GR
GS
[0.75 0 0 0.75 399 448.875] CT
0 0 1 RC
N
f1719669614
f
GR
GS
[0.75 0 0 0.75 399 448.875] CT
0 0 1 RC
10.0 ML
N
-2.828 -2.828 M
2.828 2.828 L
-2.828 2.828 M
2.828 -2.828 L
S
GR
GS
[0.75 0 0 0.75 416.25 460.5] CT
/Helvetica 12 F
GS
[1 0 0 1 0 0] CT
0 4.5 moveto 
1 -1 scale
(m=17) t 
GR
GR
GS
[0.75 0 0 0.75 399 460.5] CT
1 0 0 RC
N
f860094634
f
GR
GS
[0.75 0 0 0.75 399 460.5] CT
1 0 0 RC
10.0 ML
N
0 -4 M
0 4 L
-4 0 M
4 0 L
S
GR
GS
[0.75 0 0 0.75 416.25 472.125] CT
/Helvetica 12 F
GS
[1 0 0 1 0 0] CT
0 4.5 moveto 
1 -1 scale
(m=18) t 
GR
GR
GS
[0.75 0 0 0.75 399 472.125] CT
1 0 1 RC
N
f1022997606
f
GR
GS
[0.75 0 0 0.75 399 472.125] CT
1 0 1 RC
10.0 ML
N
0 5.332 M
-4.618 -2.666 L
4.618 -2.666 L
cp
S
GR
GS
[0.75 0 0 0.75 0 0] CT
0.149 GC
10.0 ML
0.667 LW
N
508 639 M
508 341 L
597 341 L
597 639 L
cp
S
GR
%%Trailer
%%Pages: 1
%%EOF
