%!PS-Adobe-3.0 EPSF-3.0
%%Creator: (MATLAB, The Mathworks, Inc. Version 9.4.0.813654 \(R2018a\). Operating System: Linux)
%%Title: /data/geodynamo/natafh/Dynamo/Acoustics/elastic_shell/Figures/ZoRo2/ZoRo2-helium-rigid_modes.eps
%%CreationDate: 2019-01-16T14:35:20
%%Pages: (atend)
%%BoundingBox: 0 0 450 600
%%LanguageLevel: 3
%%EndComments
%%BeginProlog
%%BeginResource: procset (Apache XML Graphics Std ProcSet) 1.2 0
%%Version: 1.2 0
%%Copyright: (Copyright 2001-2003,2010 The Apache Software Foundation. License terms: http://www.apache.org/licenses/LICENSE-2.0)
/bd{bind def}bind def
/ld{load def}bd
/GR/grestore ld
/GS/gsave ld
/RM/rmoveto ld
/C/curveto ld
/t/show ld
/L/lineto ld
/ML/setmiterlimit ld
/CT/concat ld
/f/fill ld
/N/newpath ld
/S/stroke ld
/CC/setcmykcolor ld
/A/ashow ld
/cp/closepath ld
/RC/setrgbcolor ld
/LJ/setlinejoin ld
/GC/setgray ld
/LW/setlinewidth ld
/M/moveto ld
/re {4 2 roll M
1 index 0 rlineto
0 exch rlineto
neg 0 rlineto
cp } bd
/_ctm matrix def
/_tm matrix def
/BT { _ctm currentmatrix pop matrix _tm copy pop 0 0 moveto } bd
/ET { _ctm setmatrix } bd
/iTm { _ctm setmatrix _tm concat } bd
/Tm { _tm astore pop iTm 0 0 moveto } bd
/ux 0.0 def
/uy 0.0 def
/F {
  /Tp exch def
  /Tf exch def
  Tf findfont Tp scalefont setfont
  /cf Tf def  /cs Tp def
} bd
/ULS {currentpoint /uy exch def /ux exch def} bd
/ULE {
  /Tcx currentpoint pop def
  gsave
  newpath
  cf findfont cs scalefont dup
  /FontMatrix get 0 get /Ts exch def /FontInfo get dup
  /UnderlinePosition get Ts mul /To exch def
  /UnderlineThickness get Ts mul /Tt exch def
  ux uy To add moveto  Tcx uy To add lineto
  Tt setlinewidth stroke
  grestore
} bd
/OLE {
  /Tcx currentpoint pop def
  gsave
  newpath
  cf findfont cs scalefont dup
  /FontMatrix get 0 get /Ts exch def /FontInfo get dup
  /UnderlinePosition get Ts mul /To exch def
  /UnderlineThickness get Ts mul /Tt exch def
  ux uy To add cs add moveto Tcx uy To add cs add lineto
  Tt setlinewidth stroke
  grestore
} bd
/SOE {
  /Tcx currentpoint pop def
  gsave
  newpath
  cf findfont cs scalefont dup
  /FontMatrix get 0 get /Ts exch def /FontInfo get dup
  /UnderlinePosition get Ts mul /To exch def
  /UnderlineThickness get Ts mul /Tt exch def
  ux uy To add cs 10 mul 26 idiv add moveto Tcx uy To add cs 10 mul 26 idiv add lineto
  Tt setlinewidth stroke
  grestore
} bd
/QT {
/Y22 exch store
/X22 exch store
/Y21 exch store
/X21 exch store
currentpoint
/Y21 load 2 mul add 3 div exch
/X21 load 2 mul add 3 div exch
/X21 load 2 mul /X22 load add 3 div
/Y21 load 2 mul /Y22 load add 3 div
/X22 load /Y22 load curveto
} bd
/SSPD {
dup length /d exch dict def
{
/v exch def
/k exch def
currentpagedevice k known {
/cpdv currentpagedevice k get def
v cpdv ne {
/upd false def
/nullv v type /nulltype eq def
/nullcpdv cpdv type /nulltype eq def
nullv nullcpdv or
{
/upd true def
} {
/sametype v type cpdv type eq def
sametype {
v type /arraytype eq {
/vlen v length def
/cpdvlen cpdv length def
vlen cpdvlen eq {
0 1 vlen 1 sub {
/i exch def
/obj v i get def
/cpdobj cpdv i get def
obj cpdobj ne {
/upd true def
exit
} if
} for
} {
/upd true def
} ifelse
} {
v type /dicttype eq {
v {
/dv exch def
/dk exch def
/cpddv cpdv dk get def
dv cpddv ne {
/upd true def
exit
} if
} forall
} {
/upd true def
} ifelse
} ifelse
} if
} ifelse
upd true eq {
d k v put
} if
} if
} if
} forall
d length 0 gt {
d setpagedevice
} if
} bd
/RE { % /NewFontName [NewEncodingArray] /FontName RE -
  findfont dup length dict begin
  {
    1 index /FID ne
    {def} {pop pop} ifelse
  } forall
  /Encoding exch def
  /FontName 1 index def
  currentdict definefont pop
  end
} bind def
%%EndResource
%%BeginResource: procset (Apache XML Graphics EPS ProcSet) 1.0 0
%%Version: 1.0 0
%%Copyright: (Copyright 2002-2003 The Apache Software Foundation. License terms: http://www.apache.org/licenses/LICENSE-2.0)
/BeginEPSF { %def
/b4_Inc_state save def         % Save state for cleanup
/dict_count countdictstack def % Count objects on dict stack
/op_count count 1 sub def      % Count objects on operand stack
userdict begin                 % Push userdict on dict stack
/showpage { } def              % Redefine showpage, { } = null proc
0 setgray 0 setlinecap         % Prepare graphics state
1 setlinewidth 0 setlinejoin
10 setmiterlimit [ ] 0 setdash newpath
/languagelevel where           % If level not equal to 1 then
{pop languagelevel             % set strokeadjust and
1 ne                           % overprint to their defaults.
{false setstrokeadjust false setoverprint
} if
} if
} bd
/EndEPSF { %def
count op_count sub {pop} repeat            % Clean up stacks
countdictstack dict_count sub {end} repeat
b4_Inc_state restore
} bd
%%EndResource
%FOPBeginFontDict
%%IncludeResource: font Courier-Oblique
%%IncludeResource: font Courier-BoldOblique
%%IncludeResource: font Courier-Bold
%%IncludeResource: font ZapfDingbats
%%IncludeResource: font Symbol
%%IncludeResource: font Helvetica
%%IncludeResource: font Helvetica-Oblique
%%IncludeResource: font Helvetica-Bold
%%IncludeResource: font Helvetica-BoldOblique
%%IncludeResource: font Times-Roman
%%IncludeResource: font Times-Italic
%%IncludeResource: font Times-Bold
%%IncludeResource: font Times-BoldItalic
%%IncludeResource: font Courier
%FOPEndFontDict
%%BeginResource: encoding WinAnsiEncoding
/WinAnsiEncoding [
/.notdef /.notdef /.notdef /.notdef /.notdef
/.notdef /.notdef /.notdef /.notdef /.notdef
/.notdef /.notdef /.notdef /.notdef /.notdef
/.notdef /.notdef /.notdef /.notdef /.notdef
/.notdef /.notdef /.notdef /.notdef /.notdef
/.notdef /.notdef /.notdef /.notdef /.notdef
/.notdef /.notdef /space /exclam /quotedbl
/numbersign /dollar /percent /ampersand /quotesingle
/parenleft /parenright /asterisk /plus /comma
/hyphen /period /slash /zero /one
/two /three /four /five /six
/seven /eight /nine /colon /semicolon
/less /equal /greater /question /at
/A /B /C /D /E
/F /G /H /I /J
/K /L /M /N /O
/P /Q /R /S /T
/U /V /W /X /Y
/Z /bracketleft /backslash /bracketright /asciicircum
/underscore /quoteleft /a /b /c
/d /e /f /g /h
/i /j /k /l /m
/n /o /p /q /r
/s /t /u /v /w
/x /y /z /braceleft /bar
/braceright /asciitilde /bullet /Euro /bullet
/quotesinglbase /florin /quotedblbase /ellipsis /dagger
/daggerdbl /circumflex /perthousand /Scaron /guilsinglleft
/OE /bullet /Zcaron /bullet /bullet
/quoteleft /quoteright /quotedblleft /quotedblright /bullet
/endash /emdash /asciitilde /trademark /scaron
/guilsinglright /oe /bullet /zcaron /Ydieresis
/space /exclamdown /cent /sterling /currency
/yen /brokenbar /section /dieresis /copyright
/ordfeminine /guillemotleft /logicalnot /sfthyphen /registered
/macron /degree /plusminus /twosuperior /threesuperior
/acute /mu /paragraph /middot /cedilla
/onesuperior /ordmasculine /guillemotright /onequarter /onehalf
/threequarters /questiondown /Agrave /Aacute /Acircumflex
/Atilde /Adieresis /Aring /AE /Ccedilla
/Egrave /Eacute /Ecircumflex /Edieresis /Igrave
/Iacute /Icircumflex /Idieresis /Eth /Ntilde
/Ograve /Oacute /Ocircumflex /Otilde /Odieresis
/multiply /Oslash /Ugrave /Uacute /Ucircumflex
/Udieresis /Yacute /Thorn /germandbls /agrave
/aacute /acircumflex /atilde /adieresis /aring
/ae /ccedilla /egrave /eacute /ecircumflex
/edieresis /igrave /iacute /icircumflex /idieresis
/eth /ntilde /ograve /oacute /ocircumflex
/otilde /odieresis /divide /oslash /ugrave
/uacute /ucircumflex /udieresis /yacute /thorn
/ydieresis
] def
%%EndResource
%FOPBeginFontReencode
/Courier-Oblique findfont
dup length dict begin
  {1 index /FID ne {def} {pop pop} ifelse} forall
  /Encoding WinAnsiEncoding def
  currentdict
end
/Courier-Oblique exch definefont pop
/Courier-BoldOblique findfont
dup length dict begin
  {1 index /FID ne {def} {pop pop} ifelse} forall
  /Encoding WinAnsiEncoding def
  currentdict
end
/Courier-BoldOblique exch definefont pop
/Courier-Bold findfont
dup length dict begin
  {1 index /FID ne {def} {pop pop} ifelse} forall
  /Encoding WinAnsiEncoding def
  currentdict
end
/Courier-Bold exch definefont pop
/Helvetica findfont
dup length dict begin
  {1 index /FID ne {def} {pop pop} ifelse} forall
  /Encoding WinAnsiEncoding def
  currentdict
end
/Helvetica exch definefont pop
/Helvetica-Oblique findfont
dup length dict begin
  {1 index /FID ne {def} {pop pop} ifelse} forall
  /Encoding WinAnsiEncoding def
  currentdict
end
/Helvetica-Oblique exch definefont pop
/Helvetica-Bold findfont
dup length dict begin
  {1 index /FID ne {def} {pop pop} ifelse} forall
  /Encoding WinAnsiEncoding def
  currentdict
end
/Helvetica-Bold exch definefont pop
/Helvetica-BoldOblique findfont
dup length dict begin
  {1 index /FID ne {def} {pop pop} ifelse} forall
  /Encoding WinAnsiEncoding def
  currentdict
end
/Helvetica-BoldOblique exch definefont pop
/Times-Roman findfont
dup length dict begin
  {1 index /FID ne {def} {pop pop} ifelse} forall
  /Encoding WinAnsiEncoding def
  currentdict
end
/Times-Roman exch definefont pop
/Times-Italic findfont
dup length dict begin
  {1 index /FID ne {def} {pop pop} ifelse} forall
  /Encoding WinAnsiEncoding def
  currentdict
end
/Times-Italic exch definefont pop
/Times-Bold findfont
dup length dict begin
  {1 index /FID ne {def} {pop pop} ifelse} forall
  /Encoding WinAnsiEncoding def
  currentdict
end
/Times-Bold exch definefont pop
/Times-BoldItalic findfont
dup length dict begin
  {1 index /FID ne {def} {pop pop} ifelse} forall
  /Encoding WinAnsiEncoding def
  currentdict
end
/Times-BoldItalic exch definefont pop
/Courier findfont
dup length dict begin
  {1 index /FID ne {def} {pop pop} ifelse} forall
  /Encoding WinAnsiEncoding def
  currentdict
end
/Courier exch definefont pop
%FOPEndFontReencode
%%EndProlog
%%Page: 1 1
%%PageBoundingBox: 0 0 450 600
%%BeginPageSetup
[1 0 0 -1 0 600] CT
%%EndPageSetup
GS
[0.75 0 0 0.75 0 0] CT
1 GC
N
0 0 600 800 re
f
GR
GS
[0.75 0 0 0.75 0 0] CT
1 GC
N
0 0 600 800 re
f
GR
GS
[0.75 0 0 0.75 0 0] CT
1 GC
N
78 712 M
543 712 L
543 60 L
78 60 L
cp
f
GR
GS
[0.75 0 0 0.75 0 0] CT
0.873 GC
1 LJ
0.667 LW
N
78 712 M
78 60 L
S
GR
GS
[0.75 0 0 0.75 0 0] CT
0.873 GC
1 LJ
0.667 LW
N
129.667 712 M
129.667 60 L
S
GR
GS
[0.75 0 0 0.75 0 0] CT
0.873 GC
1 LJ
0.667 LW
N
181.333 712 M
181.333 60 L
S
GR
GS
[0.75 0 0 0.75 0 0] CT
0.873 GC
1 LJ
0.667 LW
N
233 712 M
233 60 L
S
GR
GS
[0.75 0 0 0.75 0 0] CT
0.873 GC
1 LJ
0.667 LW
N
284.667 712 M
284.667 60 L
S
GR
GS
[0.75 0 0 0.75 0 0] CT
0.873 GC
1 LJ
0.667 LW
N
336.333 712 M
336.333 60 L
S
GR
GS
[0.75 0 0 0.75 0 0] CT
0.873 GC
1 LJ
0.667 LW
N
388 712 M
388 60 L
S
GR
GS
[0.75 0 0 0.75 0 0] CT
0.873 GC
1 LJ
0.667 LW
N
439.667 712 M
439.667 60 L
S
GR
GS
[0.75 0 0 0.75 0 0] CT
0.873 GC
1 LJ
0.667 LW
N
491.333 712 M
491.333 60 L
S
GR
GS
[0.75 0 0 0.75 0 0] CT
0.873 GC
1 LJ
0.667 LW
N
543 712 M
543 60 L
S
GR
GS
[0.75 0 0 0.75 0 0] CT
0.873 GC
1 LJ
0.667 LW
N
543 712 M
78 712 L
S
GR
GS
[0.75 0 0 0.75 0 0] CT
0.873 GC
1 LJ
0.667 LW
N
543 630.5 M
78 630.5 L
S
GR
GS
[0.75 0 0 0.75 0 0] CT
0.873 GC
1 LJ
0.667 LW
N
543 549 M
78 549 L
S
GR
GS
[0.75 0 0 0.75 0 0] CT
0.873 GC
1 LJ
0.667 LW
N
543 467.5 M
78 467.5 L
S
GR
GS
[0.75 0 0 0.75 0 0] CT
0.873 GC
1 LJ
0.667 LW
N
543 386 M
78 386 L
S
GR
GS
[0.75 0 0 0.75 0 0] CT
0.873 GC
1 LJ
0.667 LW
N
543 304.5 M
78 304.5 L
S
GR
GS
[0.75 0 0 0.75 0 0] CT
0.873 GC
1 LJ
0.667 LW
N
543 223 M
78 223 L
S
GR
GS
[0.75 0 0 0.75 0 0] CT
0.873 GC
1 LJ
0.667 LW
N
543 141.5 M
78 141.5 L
S
GR
GS
[0.75 0 0 0.75 0 0] CT
0.873 GC
1 LJ
0.667 LW
N
543 60 M
78 60 L
S
GR
GS
[0.75 0 0 0.75 0 0] CT
0.149 GC
2 setlinecap
1 LJ
0.667 LW
N
78 712 M
543 712 L
S
GR
GS
[0.75 0 0 0.75 0 0] CT
0.149 GC
2 setlinecap
1 LJ
0.667 LW
N
78 60 M
543 60 L
S
GR
GS
[0.75 0 0 0.75 0 0] CT
0.149 GC
2 setlinecap
1 LJ
0.667 LW
N
78 712 M
78 705.48 L
S
GR
GS
[0.75 0 0 0.75 0 0] CT
0.149 GC
2 setlinecap
1 LJ
0.667 LW
N
129.667 712 M
129.667 705.48 L
S
GR
GS
[0.75 0 0 0.75 0 0] CT
0.149 GC
2 setlinecap
1 LJ
0.667 LW
N
181.333 712 M
181.333 705.48 L
S
GR
GS
[0.75 0 0 0.75 0 0] CT
0.149 GC
2 setlinecap
1 LJ
0.667 LW
N
233 712 M
233 705.48 L
S
GR
GS
[0.75 0 0 0.75 0 0] CT
0.149 GC
2 setlinecap
1 LJ
0.667 LW
N
284.667 712 M
284.667 705.48 L
S
GR
GS
[0.75 0 0 0.75 0 0] CT
0.149 GC
2 setlinecap
1 LJ
0.667 LW
N
336.333 712 M
336.333 705.48 L
S
GR
GS
[0.75 0 0 0.75 0 0] CT
0.149 GC
2 setlinecap
1 LJ
0.667 LW
N
388 712 M
388 705.48 L
S
GR
GS
[0.75 0 0 0.75 0 0] CT
0.149 GC
2 setlinecap
1 LJ
0.667 LW
N
439.667 712 M
439.667 705.48 L
S
GR
GS
[0.75 0 0 0.75 0 0] CT
0.149 GC
2 setlinecap
1 LJ
0.667 LW
N
491.333 712 M
491.333 705.48 L
S
GR
GS
[0.75 0 0 0.75 0 0] CT
0.149 GC
2 setlinecap
1 LJ
0.667 LW
N
543 712 M
543 705.48 L
S
GR
GS
[0.75 0 0 0.75 0 0] CT
0.149 GC
2 setlinecap
1 LJ
0.667 LW
N
78 60 M
78 66.52 L
S
GR
GS
[0.75 0 0 0.75 0 0] CT
0.149 GC
2 setlinecap
1 LJ
0.667 LW
N
129.667 60 M
129.667 66.52 L
S
GR
GS
[0.75 0 0 0.75 0 0] CT
0.149 GC
2 setlinecap
1 LJ
0.667 LW
N
181.333 60 M
181.333 66.52 L
S
GR
GS
[0.75 0 0 0.75 0 0] CT
0.149 GC
2 setlinecap
1 LJ
0.667 LW
N
233 60 M
233 66.52 L
S
GR
GS
[0.75 0 0 0.75 0 0] CT
0.149 GC
2 setlinecap
1 LJ
0.667 LW
N
284.667 60 M
284.667 66.52 L
S
GR
GS
[0.75 0 0 0.75 0 0] CT
0.149 GC
2 setlinecap
1 LJ
0.667 LW
N
336.333 60 M
336.333 66.52 L
S
GR
GS
[0.75 0 0 0.75 0 0] CT
0.149 GC
2 setlinecap
1 LJ
0.667 LW
N
388 60 M
388 66.52 L
S
GR
GS
[0.75 0 0 0.75 0 0] CT
0.149 GC
2 setlinecap
1 LJ
0.667 LW
N
439.667 60 M
439.667 66.52 L
S
GR
GS
[0.75 0 0 0.75 0 0] CT
0.149 GC
2 setlinecap
1 LJ
0.667 LW
N
491.333 60 M
491.333 66.52 L
S
GR
GS
[0.75 0 0 0.75 0 0] CT
0.149 GC
2 setlinecap
1 LJ
0.667 LW
N
543 60 M
543 66.52 L
S
GR
GS
[0.75 0 0 0.75 58.5 537.99998] CT
0.149 GC
/Helvetica 13.333 F
GS
[1 0 0 1 0 0] CT
-4.5 13 moveto 
1 -1 scale
(0) t 
GR
GR
GS
[0.75 0 0 0.75 97.25 537.99998] CT
0.149 GC
/Helvetica 13.333 F
GS
[1 0 0 1 0 0] CT
-4.5 13 moveto 
1 -1 scale
(2) t 
GR
GR
GS
[0.75 0 0 0.75 136 537.99998] CT
0.149 GC
/Helvetica 13.333 F
GS
[1 0 0 1 0 0] CT
-4.5 13 moveto 
1 -1 scale
(4) t 
GR
GR
GS
[0.75 0 0 0.75 174.75 537.99998] CT
0.149 GC
/Helvetica 13.333 F
GS
[1 0 0 1 0 0] CT
-4.5 13 moveto 
1 -1 scale
(6) t 
GR
GR
GS
[0.75 0 0 0.75 213.49999 537.99998] CT
0.149 GC
/Helvetica 13.333 F
GS
[1 0 0 1 0 0] CT
-4.5 13 moveto 
1 -1 scale
(8) t 
GR
GR
GS
[0.75 0 0 0.75 252.25001 537.99998] CT
0.149 GC
/Helvetica 13.333 F
GS
[1 0 0 1 0 0] CT
-8.5 13 moveto 
1 -1 scale
(10) t 
GR
GR
GS
[0.75 0 0 0.75 291 537.99998] CT
0.149 GC
/Helvetica 13.333 F
GS
[1 0 0 1 0 0] CT
-8.5 13 moveto 
1 -1 scale
(12) t 
GR
GR
GS
[0.75 0 0 0.75 329.74999 537.99998] CT
0.149 GC
/Helvetica 13.333 F
GS
[1 0 0 1 0 0] CT
-8.5 13 moveto 
1 -1 scale
(14) t 
GR
GR
GS
[0.75 0 0 0.75 368.50001 537.99998] CT
0.149 GC
/Helvetica 13.333 F
GS
[1 0 0 1 0 0] CT
-8.5 13 moveto 
1 -1 scale
(16) t 
GR
GR
GS
[0.75 0 0 0.75 407.25 537.99998] CT
0.149 GC
/Helvetica 13.333 F
GS
[1 0 0 1 0 0] CT
-8.5 13 moveto 
1 -1 scale
(18) t 
GR
GR
GS
[0.75 0 0 0.75 232.87516 551.75002] CT
0.149 GC
/Helvetica 14.667 F
GS
[1 0 0 1 0 0] CT
-86.5 14 moveto 
1 -1 scale
(mode angular number l) t 
GR
GR
GS
[0.75 0 0 0.75 0 0] CT
0.149 GC
2 setlinecap
1 LJ
0.667 LW
N
78 712 M
78 60 L
S
GR
GS
[0.75 0 0 0.75 0 0] CT
0.149 GC
2 setlinecap
1 LJ
0.667 LW
N
543 712 M
543 60 L
S
GR
GS
[0.75 0 0 0.75 0 0] CT
0.149 GC
2 setlinecap
1 LJ
0.667 LW
N
78 712 M
84.52 712 L
S
GR
GS
[0.75 0 0 0.75 0 0] CT
0.149 GC
2 setlinecap
1 LJ
0.667 LW
N
78 630.5 M
84.52 630.5 L
S
GR
GS
[0.75 0 0 0.75 0 0] CT
0.149 GC
2 setlinecap
1 LJ
0.667 LW
N
78 549 M
84.52 549 L
S
GR
GS
[0.75 0 0 0.75 0 0] CT
0.149 GC
2 setlinecap
1 LJ
0.667 LW
N
78 467.5 M
84.52 467.5 L
S
GR
GS
[0.75 0 0 0.75 0 0] CT
0.149 GC
2 setlinecap
1 LJ
0.667 LW
N
78 386 M
84.52 386 L
S
GR
GS
[0.75 0 0 0.75 0 0] CT
0.149 GC
2 setlinecap
1 LJ
0.667 LW
N
78 304.5 M
84.52 304.5 L
S
GR
GS
[0.75 0 0 0.75 0 0] CT
0.149 GC
2 setlinecap
1 LJ
0.667 LW
N
78 223 M
84.52 223 L
S
GR
GS
[0.75 0 0 0.75 0 0] CT
0.149 GC
2 setlinecap
1 LJ
0.667 LW
N
78 141.5 M
84.52 141.5 L
S
GR
GS
[0.75 0 0 0.75 0 0] CT
0.149 GC
2 setlinecap
1 LJ
0.667 LW
N
78 60 M
84.52 60 L
S
GR
GS
[0.75 0 0 0.75 0 0] CT
0.149 GC
2 setlinecap
1 LJ
0.667 LW
N
543 712 M
536.48 712 L
S
GR
GS
[0.75 0 0 0.75 0 0] CT
0.149 GC
2 setlinecap
1 LJ
0.667 LW
N
543 630.5 M
536.48 630.5 L
S
GR
GS
[0.75 0 0 0.75 0 0] CT
0.149 GC
2 setlinecap
1 LJ
0.667 LW
N
543 549 M
536.48 549 L
S
GR
GS
[0.75 0 0 0.75 0 0] CT
0.149 GC
2 setlinecap
1 LJ
0.667 LW
N
543 467.5 M
536.48 467.5 L
S
GR
GS
[0.75 0 0 0.75 0 0] CT
0.149 GC
2 setlinecap
1 LJ
0.667 LW
N
543 386 M
536.48 386 L
S
GR
GS
[0.75 0 0 0.75 0 0] CT
0.149 GC
2 setlinecap
1 LJ
0.667 LW
N
543 304.5 M
536.48 304.5 L
S
GR
GS
[0.75 0 0 0.75 0 0] CT
0.149 GC
2 setlinecap
1 LJ
0.667 LW
N
543 223 M
536.48 223 L
S
GR
GS
[0.75 0 0 0.75 0 0] CT
0.149 GC
2 setlinecap
1 LJ
0.667 LW
N
543 141.5 M
536.48 141.5 L
S
GR
GS
[0.75 0 0 0.75 0 0] CT
0.149 GC
2 setlinecap
1 LJ
0.667 LW
N
543 60 M
536.48 60 L
S
GR
GS
[0.75 0 0 0.75 54.5 534] CT
0.149 GC
/Helvetica 13.333 F
GS
[1 0 0 1 0 0] CT
-9 4.5 moveto 
1 -1 scale
(0) t 
GR
GR
GS
[0.75 0 0 0.75 54.5 472.875] CT
0.149 GC
/Helvetica 13.333 F
GS
[1 0 0 1 0 0] CT
-22 4.5 moveto 
1 -1 scale
(0.5) t 
GR
GR
GS
[0.75 0 0 0.75 54.5 411.75] CT
0.149 GC
/Helvetica 13.333 F
GS
[1 0 0 1 0 0] CT
-9 4.5 moveto 
1 -1 scale
(1) t 
GR
GR
GS
[0.75 0 0 0.75 54.5 350.625] CT
0.149 GC
/Helvetica 13.333 F
GS
[1 0 0 1 0 0] CT
-22 4.5 moveto 
1 -1 scale
(1.5) t 
GR
GR
GS
[0.75 0 0 0.75 54.5 289.5] CT
0.149 GC
/Helvetica 13.333 F
GS
[1 0 0 1 0 0] CT
-9 4.5 moveto 
1 -1 scale
(2) t 
GR
GR
GS
[0.75 0 0 0.75 54.5 228.375] CT
0.149 GC
/Helvetica 13.333 F
GS
[1 0 0 1 0 0] CT
-22 4.5 moveto 
1 -1 scale
(2.5) t 
GR
GR
GS
[0.75 0 0 0.75 54.5 167.25] CT
0.149 GC
/Helvetica 13.333 F
GS
[1 0 0 1 0 0] CT
-9 4.5 moveto 
1 -1 scale
(3) t 
GR
GR
GS
[0.75 0 0 0.75 54.5 106.125] CT
0.149 GC
/Helvetica 13.333 F
GS
[1 0 0 1 0 0] CT
-22 4.5 moveto 
1 -1 scale
(3.5) t 
GR
GR
GS
[0.75 0 0 0.75 54.5 45] CT
0.149 GC
/Helvetica 13.333 F
GS
[1 0 0 1 0 0] CT
-9 4.5 moveto 
1 -1 scale
(4) t 
GR
GR
GS
[0 -0.75 0.75 0 35 289.49977] CT
0.149 GC
/Helvetica 14.667 F
GS
[1 0 0 1 0 0] CT
-178 -4 moveto 
1 -1 scale
(mode frequency \(Hz\) \(csound = 1007.3332 m/s\)) t 
GR
GR
GS
[0.75 0 0 0.75 58.5 42] CT
0.149 GC
N
1.906 -0.375 M
1.906 -0.469 1.969 -0.563 QT
4.672 -3.25 L
1.969 -5.953 L
1.906 -6.016 1.906 -6.125 QT
1.906 -6.219 1.984 -6.305 QT
2.063 -6.391 2.172 -6.391 QT
2.266 -6.391 2.375 -6.297 QT
5.063 -3.609 L
7.734 -6.297 L
7.844 -6.391 7.922 -6.391 QT
8.031 -6.391 8.109 -6.313 QT
8.188 -6.234 8.188 -6.125 QT
8.188 -6.016 8.125 -5.953 QT
5.422 -3.25 L
8.125 -0.563 L
8.188 -0.469 8.188 -0.375 QT
8.188 -0.266 8.109 -0.188 QT
8.031 -0.109 7.922 -0.109 QT
7.828 -0.109 7.734 -0.203 QT
5.063 -2.891 L
2.375 -0.203 L
2.266 -0.109 2.172 -0.109 QT
2.063 -0.109 1.984 -0.195 QT
1.906 -0.281 1.906 -0.375 QT
cp
f
GR
GS
[0.75 0 0 0.75 66.75 42] CT
0.149 GC
/Helvetica 13.333 F
GS
[1 0 0 1 0 0] CT
0 0 moveto 
1 -1 scale
(10) t 
GR
GR
GS
[0.75 0 0 0.75 79.5 37.5] CT
0.149 GC
/Helvetica 10.667 F
GS
[1 0 0 1 0 0] CT
0 0 moveto 
1 -1 scale
(4) t 
GR
GR
GS
[0.75 0 0 0.75 61.5 27] CT
/Helvetica-Bold 11.733 F
GS
[1 0 0 1 0 0] CT
0 0 moveto 
1 -1 scale
(n) t 
GR
GR
GS
[0.75 0 0 0.75 68.25 21.75] CT
/Helvetica-Bold 14.667 F
GS
[1 0 0 1 0 0] CT
0 0 moveto 
1 -1 scale
(S) t 
GR
GR
GS
[0.75 0 0 0.75 76.5 27] CT
/Helvetica-Bold 11.733 F
GS
[1 0 0 1 0 0] CT
0 0 moveto 
1 -1 scale
(l) t 
GR
GR
GS
[0.75 0 0 0.75 80.25 21.75] CT
/Helvetica-Bold 14.667 F
GS
[1 0 0 1 0 0] CT
0 0 moveto 
1 -1 scale
( mode frequencies for rigid ZoRo2 filled with helium) t 
GR
GR
GS
[0.75 0 0 0.75 58.5 299.47318] CT
1 0 0 RC
N
4 0 M
4 -2.209 2.209 -4 0 -4 C
-2.209 -4 -4 -2.209 -4 0 C
-4 2.209 -2.209 4 0 4 C
2.209 4 4 2.209 4 0 C
cp
f
GR
GS
[0.75 0 0 0.75 58.5 299.47318] CT
1 0 0 RC
10.0 ML
N
4 0 M
4 -2.209 2.209 -4 0 -4 C
-2.209 -4 -4 -2.209 -4 0 C
-4 2.209 -2.209 4 0 4 C
2.209 4 4 2.209 4 0 C
cp
S
GR
GS
[0.75 0 0 0.75 77.875 284.18301] CT
1 0 0 RC
N
/f351177404{4 0 M
4 -2.209 2.209 -4 0 -4 C
-2.209 -4 -4 -2.209 -4 0 C
-4 2.209 -2.209 4 0 4 C
2.209 4 4 2.209 4 0 C
cp}def
f351177404
f
GR
GS
[0.75 0 0 0.75 77.875 284.18301] CT
1 0 0 RC
10.0 ML
N
4 0 M
4 -2.209 2.209 -4 0 -4 C
-2.209 -4 -4 -2.209 -4 0 C
-4 2.209 -2.209 4 0 4 C
2.209 4 4 2.209 4 0 C
cp
S
GR
GS
[0.75 0 0 0.75 97.25 269.22794] CT
1 0 0 RC
N
f351177404
f
GR
GS
[0.75 0 0 0.75 97.25 269.22794] CT
1 0 0 RC
10.0 ML
N
4 0 M
4 -2.209 2.209 -4 0 -4 C
-2.209 -4 -4 -2.209 -4 0 C
-4 2.209 -2.209 4 0 4 C
2.209 4 4 2.209 4 0 C
cp
S
GR
GS
[0.75 0 0 0.75 116.625 254.55684] CT
1 0 0 RC
N
f351177404
f
GR
GS
[0.75 0 0 0.75 116.625 254.55684] CT
1 0 0 RC
10.0 ML
N
4 0 M
4 -2.209 2.209 -4 0 -4 C
-2.209 -4 -4 -2.209 -4 0 C
-4 2.209 -2.209 4 0 4 C
2.209 4 4 2.209 4 0 C
cp
S
GR
GS
[0.75 0 0 0.75 136 240.1303] CT
1 0 0 RC
N
f351177404
f
GR
GS
[0.75 0 0 0.75 136 240.1303] CT
1 0 0 RC
10.0 ML
N
4 0 M
4 -2.209 2.209 -4 0 -4 C
-2.209 -4 -4 -2.209 -4 0 C
-4 2.209 -2.209 4 0 4 C
2.209 4 4 2.209 4 0 C
cp
S
GR
GS
[0.75 0 0 0.75 155.375 225.91711] CT
1 0 0 RC
N
f351177404
f
GR
GS
[0.75 0 0 0.75 155.375 225.91711] CT
1 0 0 RC
10.0 ML
N
4 0 M
4 -2.209 2.209 -4 0 -4 C
-2.209 -4 -4 -2.209 -4 0 C
-4 2.209 -2.209 4 0 4 C
2.209 4 4 2.209 4 0 C
cp
S
GR
GS
[0.75 0 0 0.75 174.75 211.89214] CT
1 0 0 RC
N
f351177404
f
GR
GS
[0.75 0 0 0.75 174.75 211.89214] CT
1 0 0 RC
10.0 ML
N
4 0 M
4 -2.209 2.209 -4 0 -4 C
-2.209 -4 -4 -2.209 -4 0 C
-4 2.209 -2.209 4 0 4 C
2.209 4 4 2.209 4 0 C
cp
S
GR
GS
[0.75 0 0 0.75 194.12501 198.03479] CT
1 0 0 RC
N
f351177404
f
GR
GS
[0.75 0 0 0.75 194.12501 198.03479] CT
1 0 0 RC
10.0 ML
N
4 0 M
4 -2.209 2.209 -4 0 -4 C
-2.209 -4 -4 -2.209 -4 0 C
-4 2.209 -2.209 4 0 4 C
2.209 4 4 2.209 4 0 C
cp
S
GR
GS
[0.75 0 0 0.75 213.49999 184.32789] CT
1 0 0 RC
N
f351177404
f
GR
GS
[0.75 0 0 0.75 213.49999 184.32789] CT
1 0 0 RC
10.0 ML
N
4 0 M
4 -2.209 2.209 -4 0 -4 C
-2.209 -4 -4 -2.209 -4 0 C
-4 2.209 -2.209 4 0 4 C
2.209 4 4 2.209 4 0 C
cp
S
GR
GS
[0.75 0 0 0.75 232.875 170.757] CT
1 0 0 RC
N
f351177404
f
GR
GS
[0.75 0 0 0.75 232.875 170.757] CT
1 0 0 RC
10.0 ML
N
4 0 M
4 -2.209 2.209 -4 0 -4 C
-2.209 -4 -4 -2.209 -4 0 C
-4 2.209 -2.209 4 0 4 C
2.209 4 4 2.209 4 0 C
cp
S
GR
GS
[0.75 0 0 0.75 252.25001 157.30979] CT
1 0 0 RC
N
f351177404
f
GR
GS
[0.75 0 0 0.75 252.25001 157.30979] CT
1 0 0 RC
10.0 ML
N
4 0 M
4 -2.209 2.209 -4 0 -4 C
-2.209 -4 -4 -2.209 -4 0 C
-4 2.209 -2.209 4 0 4 C
2.209 4 4 2.209 4 0 C
cp
S
GR
GS
[0.75 0 0 0.75 271.62499 143.9757] CT
1 0 0 RC
N
f351177404
f
GR
GS
[0.75 0 0 0.75 271.62499 143.9757] CT
1 0 0 RC
10.0 ML
N
4 0 M
4 -2.209 2.209 -4 0 -4 C
-2.209 -4 -4 -2.209 -4 0 C
-4 2.209 -2.209 4 0 4 C
2.209 4 4 2.209 4 0 C
cp
S
GR
GS
[0.75 0 0 0.75 291 130.74553] CT
1 0 0 RC
N
f351177404
f
GR
GS
[0.75 0 0 0.75 291 130.74553] CT
1 0 0 RC
10.0 ML
N
4 0 M
4 -2.209 2.209 -4 0 -4 C
-2.209 -4 -4 -2.209 -4 0 C
-4 2.209 -2.209 4 0 4 C
2.209 4 4 2.209 4 0 C
cp
S
GR
GS
[0.75 0 0 0.75 310.37501 117.61125] CT
1 0 0 RC
N
f351177404
f
GR
GS
[0.75 0 0 0.75 310.37501 117.61125] CT
1 0 0 RC
10.0 ML
N
4 0 M
4 -2.209 2.209 -4 0 -4 C
-2.209 -4 -4 -2.209 -4 0 C
-4 2.209 -2.209 4 0 4 C
2.209 4 4 2.209 4 0 C
cp
S
GR
GS
[0.75 0 0 0.75 329.74999 104.56579] CT
1 0 0 RC
N
f351177404
f
GR
GS
[0.75 0 0 0.75 329.74999 104.56579] CT
1 0 0 RC
10.0 ML
N
4 0 M
4 -2.209 2.209 -4 0 -4 C
-2.209 -4 -4 -2.209 -4 0 C
-4 2.209 -2.209 4 0 4 C
2.209 4 4 2.209 4 0 C
cp
S
GR
GS
[0.75 0 0 0.75 349.125 91.60299] CT
1 0 0 RC
N
f351177404
f
GR
GS
[0.75 0 0 0.75 349.125 91.60299] CT
1 0 0 RC
10.0 ML
N
4 0 M
4 -2.209 2.209 -4 0 -4 C
-2.209 -4 -4 -2.209 -4 0 C
-4 2.209 -2.209 4 0 4 C
2.209 4 4 2.209 4 0 C
cp
S
GR
GS
[0.75 0 0 0.75 368.50001 78.71717] CT
1 0 0 RC
N
f351177404
f
GR
GS
[0.75 0 0 0.75 368.50001 78.71717] CT
1 0 0 RC
10.0 ML
N
4 0 M
4 -2.209 2.209 -4 0 -4 C
-2.209 -4 -4 -2.209 -4 0 C
-4 2.209 -2.209 4 0 4 C
2.209 4 4 2.209 4 0 C
cp
S
GR
GS
[0.75 0 0 0.75 387.87502 65.90341] CT
1 0 0 RC
N
f351177404
f
GR
GS
[0.75 0 0 0.75 387.87502 65.90341] CT
1 0 0 RC
10.0 ML
N
4 0 M
4 -2.209 2.209 -4 0 -4 C
-2.209 -4 -4 -2.209 -4 0 C
-4 2.209 -2.209 4 0 4 C
2.209 4 4 2.209 4 0 C
cp
S
GR
GS
[0.75 0 0 0.75 407.25 53.15727] CT
1 0 0 RC
N
f351177404
f
GR
GS
[0.75 0 0 0.75 407.25 53.15727] CT
1 0 0 RC
10.0 ML
N
4 0 M
4 -2.209 2.209 -4 0 -4 C
-2.209 -4 -4 -2.209 -4 0 C
-4 2.209 -2.209 4 0 4 C
2.209 4 4 2.209 4 0 C
cp
S
GR
GS
[0.75 0 0 0.75 58.5 330.86531] CT
0 0 1 RC
N
/f1737057230{-3.464 -2 M
-1.155 -2 L
0 -4 L
1.155 -2 L
3.464 -2 L
2 0 L
3.464 2 L
1.155 2 L
0 4 L
-1.155 2 L
-3.464 2 L
-2 0 L
cp}def
f1737057230
f
GR
GS
[0.75 0 0 0.75 58.5 330.86531] CT
0 0 1 RC
10.0 ML
N
-3.464 -2 M
-1.155 -2 L
0 -4 L
1.155 -2 L
3.464 -2 L
2 0 L
3.464 2 L
1.155 2 L
0 4 L
-1.155 2 L
-3.464 2 L
-2 0 L
cp
S
GR
GS
[0.75 0 0 0.75 77.875 315.62478] CT
0 0 1 RC
N
f1737057230
f
GR
GS
[0.75 0 0 0.75 77.875 315.62478] CT
0 0 1 RC
10.0 ML
N
-3.464 -2 M
-1.155 -2 L
0 -4 L
1.155 -2 L
3.464 -2 L
2 0 L
3.464 2 L
1.155 2 L
0 4 L
-1.155 2 L
-3.464 2 L
-2 0 L
cp
S
GR
GS
[0.75 0 0 0.75 97.25 300.75916] CT
0 0 1 RC
N
f1737057230
f
GR
GS
[0.75 0 0 0.75 97.25 300.75916] CT
0 0 1 RC
10.0 ML
N
-3.464 -2 M
-1.155 -2 L
0 -4 L
1.155 -2 L
3.464 -2 L
2 0 L
3.464 2 L
1.155 2 L
0 4 L
-1.155 2 L
-3.464 2 L
-2 0 L
cp
S
GR
GS
[0.75 0 0 0.75 116.625 286.20465] CT
0 0 1 RC
N
f1737057230
f
GR
GS
[0.75 0 0 0.75 116.625 286.20465] CT
0 0 1 RC
10.0 ML
N
-3.464 -2 M
-1.155 -2 L
0 -4 L
1.155 -2 L
3.464 -2 L
2 0 L
3.464 2 L
1.155 2 L
0 4 L
-1.155 2 L
-3.464 2 L
-2 0 L
cp
S
GR
GS
[0.75 0 0 0.75 136 271.91352] CT
0 0 1 RC
N
f1737057230
f
GR
GS
[0.75 0 0 0.75 136 271.91352] CT
0 0 1 RC
10.0 ML
N
-3.464 -2 M
-1.155 -2 L
0 -4 L
1.155 -2 L
3.464 -2 L
2 0 L
3.464 2 L
1.155 2 L
0 4 L
-1.155 2 L
-3.464 2 L
-2 0 L
cp
S
GR
GS
[0.75 0 0 0.75 155.375 257.84908] CT
0 0 1 RC
N
f1737057230
f
GR
GS
[0.75 0 0 0.75 155.375 257.84908] CT
0 0 1 RC
10.0 ML
N
-3.464 -2 M
-1.155 -2 L
0 -4 L
1.155 -2 L
3.464 -2 L
2 0 L
3.464 2 L
1.155 2 L
0 4 L
-1.155 2 L
-3.464 2 L
-2 0 L
cp
S
GR
GS
[0.75 0 0 0.75 174.75 243.98225] CT
0 0 1 RC
N
f1737057230
f
GR
GS
[0.75 0 0 0.75 174.75 243.98225] CT
0 0 1 RC
10.0 ML
N
-3.464 -2 M
-1.155 -2 L
0 -4 L
1.155 -2 L
3.464 -2 L
2 0 L
3.464 2 L
1.155 2 L
0 4 L
-1.155 2 L
-3.464 2 L
-2 0 L
cp
S
GR
GS
[0.75 0 0 0.75 194.12501 230.28967] CT
0 0 1 RC
N
f1737057230
f
GR
GS
[0.75 0 0 0.75 194.12501 230.28967] CT
0 0 1 RC
10.0 ML
N
-3.464 -2 M
-1.155 -2 L
0 -4 L
1.155 -2 L
3.464 -2 L
2 0 L
3.464 2 L
1.155 2 L
0 4 L
-1.155 2 L
-3.464 2 L
-2 0 L
cp
S
GR
GS
[0.75 0 0 0.75 213.49999 216.75217] CT
0 0 1 RC
N
f1737057230
f
GR
GS
[0.75 0 0 0.75 213.49999 216.75217] CT
0 0 1 RC
10.0 ML
N
-3.464 -2 M
-1.155 -2 L
0 -4 L
1.155 -2 L
3.464 -2 L
2 0 L
3.464 2 L
1.155 2 L
0 4 L
-1.155 2 L
-3.464 2 L
-2 0 L
cp
S
GR
GS
[0.75 0 0 0.75 232.875 203.35384] CT
0 0 1 RC
N
f1737057230
f
GR
GS
[0.75 0 0 0.75 232.875 203.35384] CT
0 0 1 RC
10.0 ML
N
-3.464 -2 M
-1.155 -2 L
0 -4 L
1.155 -2 L
3.464 -2 L
2 0 L
3.464 2 L
1.155 2 L
0 4 L
-1.155 2 L
-3.464 2 L
-2 0 L
cp
S
GR
GS
[0.75 0 0 0.75 252.25001 190.08121] CT
0 0 1 RC
N
f1737057230
f
GR
GS
[0.75 0 0 0.75 252.25001 190.08121] CT
0 0 1 RC
10.0 ML
N
-3.464 -2 M
-1.155 -2 L
0 -4 L
1.155 -2 L
3.464 -2 L
2 0 L
3.464 2 L
1.155 2 L
0 4 L
-1.155 2 L
-3.464 2 L
-2 0 L
cp
S
GR
GS
[0.75 0 0 0.75 271.62499 176.92291] CT
0 0 1 RC
N
f1737057230
f
GR
GS
[0.75 0 0 0.75 271.62499 176.92291] CT
0 0 1 RC
10.0 ML
N
-3.464 -2 M
-1.155 -2 L
0 -4 L
1.155 -2 L
3.464 -2 L
2 0 L
3.464 2 L
1.155 2 L
0 4 L
-1.155 2 L
-3.464 2 L
-2 0 L
cp
S
GR
GS
[0.75 0 0 0.75 291 163.86907] CT
0 0 1 RC
N
f1737057230
f
GR
GS
[0.75 0 0 0.75 291 163.86907] CT
0 0 1 RC
10.0 ML
N
-3.464 -2 M
-1.155 -2 L
0 -4 L
1.155 -2 L
3.464 -2 L
2 0 L
3.464 2 L
1.155 2 L
0 4 L
-1.155 2 L
-3.464 2 L
-2 0 L
cp
S
GR
GS
[0.75 0 0 0.75 310.37501 150.91117] CT
0 0 1 RC
N
f1737057230
f
GR
GS
[0.75 0 0 0.75 310.37501 150.91117] CT
0 0 1 RC
10.0 ML
N
-3.464 -2 M
-1.155 -2 L
0 -4 L
1.155 -2 L
3.464 -2 L
2 0 L
3.464 2 L
1.155 2 L
0 4 L
-1.155 2 L
-3.464 2 L
-2 0 L
cp
S
GR
GS
[0.75 0 0 0.75 329.74999 138.04183] CT
0 0 1 RC
N
f1737057230
f
GR
GS
[0.75 0 0 0.75 329.74999 138.04183] CT
0 0 1 RC
10.0 ML
N
-3.464 -2 M
-1.155 -2 L
0 -4 L
1.155 -2 L
3.464 -2 L
2 0 L
3.464 2 L
1.155 2 L
0 4 L
-1.155 2 L
-3.464 2 L
-2 0 L
cp
S
GR
GS
[0.75 0 0 0.75 349.125 125.25445] CT
0 0 1 RC
N
f1737057230
f
GR
GS
[0.75 0 0 0.75 349.125 125.25445] CT
0 0 1 RC
10.0 ML
N
-3.464 -2 M
-1.155 -2 L
0 -4 L
1.155 -2 L
3.464 -2 L
2 0 L
3.464 2 L
1.155 2 L
0 4 L
-1.155 2 L
-3.464 2 L
-2 0 L
cp
S
GR
GS
[0.75 0 0 0.75 368.50001 112.54327] CT
0 0 1 RC
N
f1737057230
f
GR
GS
[0.75 0 0 0.75 368.50001 112.54327] CT
0 0 1 RC
10.0 ML
N
-3.464 -2 M
-1.155 -2 L
0 -4 L
1.155 -2 L
3.464 -2 L
2 0 L
3.464 2 L
1.155 2 L
0 4 L
-1.155 2 L
-3.464 2 L
-2 0 L
cp
S
GR
GS
[0.75 0 0 0.75 387.87502 99.90314] CT
0 0 1 RC
N
f1737057230
f
GR
GS
[0.75 0 0 0.75 387.87502 99.90314] CT
0 0 1 RC
10.0 ML
N
-3.464 -2 M
-1.155 -2 L
0 -4 L
1.155 -2 L
3.464 -2 L
2 0 L
3.464 2 L
1.155 2 L
0 4 L
-1.155 2 L
-3.464 2 L
-2 0 L
cp
S
GR
GS
[0.75 0 0 0.75 407.25 87.32949] CT
0 0 1 RC
N
f1737057230
f
GR
GS
[0.75 0 0 0.75 407.25 87.32949] CT
0 0 1 RC
10.0 ML
N
-3.464 -2 M
-1.155 -2 L
0 -4 L
1.155 -2 L
3.464 -2 L
2 0 L
3.464 2 L
1.155 2 L
0 4 L
-1.155 2 L
-3.464 2 L
-2 0 L
cp
S
GR
GS
[0.75 0 0 0.75 58.5 362.28136] CT
N
/f-1741330208{-3.804 -1.236 M
-0.94 -1.236 L
0 -4 L
0.94 -1.236 L
3.804 -1.236 L
1.522 0.494 L
2.351 3.236 L
0 1.6 L
-2.351 3.236 L
-1.522 0.494 L
cp}def
f-1741330208
f
GR
GS
[0.75 0 0 0.75 58.5 362.28136] CT
10.0 ML
N
-3.804 -1.236 M
-0.94 -1.236 L
0 -4 L
0.94 -1.236 L
3.804 -1.236 L
1.522 0.494 L
2.351 3.236 L
0 1.6 L
-2.351 3.236 L
-1.522 0.494 L
cp
S
GR
GS
[0.75 0 0 0.75 77.875 347.10564] CT
N
f-1741330208
f
GR
GS
[0.75 0 0 0.75 77.875 347.10564] CT
10.0 ML
N
-3.804 -1.236 M
-0.94 -1.236 L
0 -4 L
0.94 -1.236 L
3.804 -1.236 L
1.522 0.494 L
2.351 3.236 L
0 1.6 L
-2.351 3.236 L
-1.522 0.494 L
cp
S
GR
GS
[0.75 0 0 0.75 97.25 332.35551] CT
N
f-1741330208
f
GR
GS
[0.75 0 0 0.75 97.25 332.35551] CT
10.0 ML
N
-3.804 -1.236 M
-0.94 -1.236 L
0 -4 L
0.94 -1.236 L
3.804 -1.236 L
1.522 0.494 L
2.351 3.236 L
0 1.6 L
-2.351 3.236 L
-1.522 0.494 L
cp
S
GR
GS
[0.75 0 0 0.75 116.625 317.94905] CT
N
f-1741330208
f
GR
GS
[0.75 0 0 0.75 116.625 317.94905] CT
10.0 ML
N
-3.804 -1.236 M
-0.94 -1.236 L
0 -4 L
0.94 -1.236 L
3.804 -1.236 L
1.522 0.494 L
2.351 3.236 L
0 1.6 L
-2.351 3.236 L
-1.522 0.494 L
cp
S
GR
GS
[0.75 0 0 0.75 136 303.82736] CT
N
f-1741330208
f
GR
GS
[0.75 0 0 0.75 136 303.82736] CT
10.0 ML
N
-3.804 -1.236 M
-0.94 -1.236 L
0 -4 L
0.94 -1.236 L
3.804 -1.236 L
1.522 0.494 L
2.351 3.236 L
0 1.6 L
-2.351 3.236 L
-1.522 0.494 L
cp
S
GR
GS
[0.75 0 0 0.75 155.375 289.94659] CT
N
f-1741330208
f
GR
GS
[0.75 0 0 0.75 155.375 289.94659] CT
10.0 ML
N
-3.804 -1.236 M
-0.94 -1.236 L
0 -4 L
0.94 -1.236 L
3.804 -1.236 L
1.522 0.494 L
2.351 3.236 L
0 1.6 L
-2.351 3.236 L
-1.522 0.494 L
cp
S
GR
GS
[0.75 0 0 0.75 174.75 276.27294] CT
N
f-1741330208
f
GR
GS
[0.75 0 0 0.75 174.75 276.27294] CT
10.0 ML
N
-3.804 -1.236 M
-0.94 -1.236 L
0 -4 L
0.94 -1.236 L
3.804 -1.236 L
1.522 0.494 L
2.351 3.236 L
0 1.6 L
-2.351 3.236 L
-1.522 0.494 L
cp
S
GR
GS
[0.75 0 0 0.75 194.12501 262.77974] CT
N
f-1741330208
f
GR
GS
[0.75 0 0 0.75 194.12501 262.77974] CT
10.0 ML
N
-3.804 -1.236 M
-0.94 -1.236 L
0 -4 L
0.94 -1.236 L
3.804 -1.236 L
1.522 0.494 L
2.351 3.236 L
0 1.6 L
-2.351 3.236 L
-1.522 0.494 L
cp
S
GR
GS
[0.75 0 0 0.75 213.49999 249.44554] CT
N
f-1741330208
f
GR
GS
[0.75 0 0 0.75 213.49999 249.44554] CT
10.0 ML
N
-3.804 -1.236 M
-0.94 -1.236 L
0 -4 L
0.94 -1.236 L
3.804 -1.236 L
1.522 0.494 L
2.351 3.236 L
0 1.6 L
-2.351 3.236 L
-1.522 0.494 L
cp
S
GR
GS
[0.75 0 0 0.75 232.875 236.25279] CT
N
f-1741330208
f
GR
GS
[0.75 0 0 0.75 232.875 236.25279] CT
10.0 ML
N
-3.804 -1.236 M
-0.94 -1.236 L
0 -4 L
0.94 -1.236 L
3.804 -1.236 L
1.522 0.494 L
2.351 3.236 L
0 1.6 L
-2.351 3.236 L
-1.522 0.494 L
cp
S
GR
GS
[0.75 0 0 0.75 252.25001 223.18684] CT
N
f-1741330208
f
GR
GS
[0.75 0 0 0.75 252.25001 223.18684] CT
10.0 ML
N
-3.804 -1.236 M
-0.94 -1.236 L
0 -4 L
0.94 -1.236 L
3.804 -1.236 L
1.522 0.494 L
2.351 3.236 L
0 1.6 L
-2.351 3.236 L
-1.522 0.494 L
cp
S
GR
GS
[0.75 0 0 0.75 271.62499 210.23545] CT
N
f-1741330208
f
GR
GS
[0.75 0 0 0.75 271.62499 210.23545] CT
10.0 ML
N
-3.804 -1.236 M
-0.94 -1.236 L
0 -4 L
0.94 -1.236 L
3.804 -1.236 L
1.522 0.494 L
2.351 3.236 L
0 1.6 L
-2.351 3.236 L
-1.522 0.494 L
cp
S
GR
GS
[0.75 0 0 0.75 291 197.38811] CT
N
f-1741330208
f
GR
GS
[0.75 0 0 0.75 291 197.38811] CT
10.0 ML
N
-3.804 -1.236 M
-0.94 -1.236 L
0 -4 L
0.94 -1.236 L
3.804 -1.236 L
1.522 0.494 L
2.351 3.236 L
0 1.6 L
-2.351 3.236 L
-1.522 0.494 L
cp
S
GR
GS
[0.75 0 0 0.75 310.37501 184.63586] CT
N
f-1741330208
f
GR
GS
[0.75 0 0 0.75 310.37501 184.63586] CT
10.0 ML
N
-3.804 -1.236 M
-0.94 -1.236 L
0 -4 L
0.94 -1.236 L
3.804 -1.236 L
1.522 0.494 L
2.351 3.236 L
0 1.6 L
-2.351 3.236 L
-1.522 0.494 L
cp
S
GR
GS
[0.75 0 0 0.75 329.74999 171.97091] CT
N
f-1741330208
f
GR
GS
[0.75 0 0 0.75 329.74999 171.97091] CT
10.0 ML
N
-3.804 -1.236 M
-0.94 -1.236 L
0 -4 L
0.94 -1.236 L
3.804 -1.236 L
1.522 0.494 L
2.351 3.236 L
0 1.6 L
-2.351 3.236 L
-1.522 0.494 L
cp
S
GR
GS
[0.75 0 0 0.75 349.125 159.38646] CT
N
f-1741330208
f
GR
GS
[0.75 0 0 0.75 349.125 159.38646] CT
10.0 ML
N
-3.804 -1.236 M
-0.94 -1.236 L
0 -4 L
0.94 -1.236 L
3.804 -1.236 L
1.522 0.494 L
2.351 3.236 L
0 1.6 L
-2.351 3.236 L
-1.522 0.494 L
cp
S
GR
GS
[0.75 0 0 0.75 368.50001 146.87654] CT
N
f-1741330208
f
GR
GS
[0.75 0 0 0.75 368.50001 146.87654] CT
10.0 ML
N
-3.804 -1.236 M
-0.94 -1.236 L
0 -4 L
0.94 -1.236 L
3.804 -1.236 L
1.522 0.494 L
2.351 3.236 L
0 1.6 L
-2.351 3.236 L
-1.522 0.494 L
cp
S
GR
GS
[0.75 0 0 0.75 387.87502 134.43585] CT
N
f-1741330208
f
GR
GS
[0.75 0 0 0.75 387.87502 134.43585] CT
10.0 ML
N
-3.804 -1.236 M
-0.94 -1.236 L
0 -4 L
0.94 -1.236 L
3.804 -1.236 L
1.522 0.494 L
2.351 3.236 L
0 1.6 L
-2.351 3.236 L
-1.522 0.494 L
cp
S
GR
GS
[0.75 0 0 0.75 407.25 122.05972] CT
N
f-1741330208
f
GR
GS
[0.75 0 0 0.75 407.25 122.05972] CT
10.0 ML
N
-3.804 -1.236 M
-0.94 -1.236 L
0 -4 L
0.94 -1.236 L
3.804 -1.236 L
1.522 0.494 L
2.351 3.236 L
0 1.6 L
-2.351 3.236 L
-1.522 0.494 L
cp
S
GR
GS
[0.75 0 0 0.75 58.5 393.73741] CT
0 1 0 RC
N
/f227889816{-3 -3 M
-3 3 L
3 3 L
3 -3 L
cp}def
f227889816
f
GR
GS
[0.75 0 0 0.75 58.5 393.73741] CT
0 1 0 RC
10.0 ML
N
-3 -3 M
-3 3 L
3 3 L
3 -3 L
cp
S
GR
GS
[0.75 0 0 0.75 77.875 378.64993] CT
0 1 0 RC
N
f227889816
f
GR
GS
[0.75 0 0 0.75 77.875 378.64993] CT
0 1 0 RC
10.0 ML
N
-3 -3 M
-3 3 L
3 3 L
3 -3 L
cp
S
GR
GS
[0.75 0 0 0.75 97.25 364.05482] CT
0 1 0 RC
N
f227889816
f
GR
GS
[0.75 0 0 0.75 97.25 364.05482] CT
0 1 0 RC
10.0 ML
N
-3 -3 M
-3 3 L
3 3 L
3 -3 L
cp
S
GR
GS
[0.75 0 0 0.75 116.625 349.84282] CT
0 1 0 RC
N
f227889816
f
GR
GS
[0.75 0 0 0.75 116.625 349.84282] CT
0 1 0 RC
10.0 ML
N
-3 -3 M
-3 3 L
3 3 L
3 -3 L
cp
S
GR
GS
[0.75 0 0 0.75 136 335.93967] CT
0 1 0 RC
N
f227889816
f
GR
GS
[0.75 0 0 0.75 136 335.93967] CT
0 1 0 RC
10.0 ML
N
-3 -3 M
-3 3 L
3 3 L
3 -3 L
cp
S
GR
GS
[0.75 0 0 0.75 155.375 322.29206] CT
0 1 0 RC
N
f227889816
f
GR
GS
[0.75 0 0 0.75 155.375 322.29206] CT
0 1 0 RC
10.0 ML
N
-3 -3 M
-3 3 L
3 3 L
3 -3 L
cp
S
GR
GS
[0.75 0 0 0.75 174.75 308.8604] CT
0 1 0 RC
N
f227889816
f
GR
GS
[0.75 0 0 0.75 174.75 308.8604] CT
0 1 0 RC
10.0 ML
N
-3 -3 M
-3 3 L
3 3 L
3 -3 L
cp
S
GR
GS
[0.75 0 0 0.75 194.12501 295.61419] CT
0 1 0 RC
N
f227889816
f
GR
GS
[0.75 0 0 0.75 194.12501 295.61419] CT
0 1 0 RC
10.0 ML
N
-3 -3 M
-3 3 L
3 3 L
3 -3 L
cp
S
GR
GS
[0.75 0 0 0.75 213.49999 282.52943] CT
0 1 0 RC
N
f227889816
f
GR
GS
[0.75 0 0 0.75 213.49999 282.52943] CT
0 1 0 RC
10.0 ML
N
-3 -3 M
-3 3 L
3 3 L
3 -3 L
cp
S
GR
GS
[0.75 0 0 0.75 232.875 269.5868] CT
0 1 0 RC
N
f227889816
f
GR
GS
[0.75 0 0 0.75 232.875 269.5868] CT
0 1 0 RC
10.0 ML
N
-3 -3 M
-3 3 L
3 3 L
3 -3 L
cp
S
GR
GS
[0.75 0 0 0.75 252.25001 256.77045] CT
0 1 0 RC
N
f227889816
f
GR
GS
[0.75 0 0 0.75 252.25001 256.77045] CT
0 1 0 RC
10.0 ML
N
-3 -3 M
-3 3 L
3 3 L
3 -3 L
cp
S
GR
GS
[0.75 0 0 0.75 271.62499 244.0673] CT
0 1 0 RC
N
f227889816
f
GR
GS
[0.75 0 0 0.75 271.62499 244.0673] CT
0 1 0 RC
10.0 ML
N
-3 -3 M
-3 3 L
3 3 L
3 -3 L
cp
S
GR
GS
[0.75 0 0 0.75 291 231.4663] CT
0 1 0 RC
N
f227889816
f
GR
GS
[0.75 0 0 0.75 291 231.4663] CT
0 1 0 RC
10.0 ML
N
-3 -3 M
-3 3 L
3 3 L
3 -3 L
cp
S
GR
GS
[0.75 0 0 0.75 310.37501 218.95807] CT
0 1 0 RC
N
f227889816
f
GR
GS
[0.75 0 0 0.75 310.37501 218.95807] CT
0 1 0 RC
10.0 ML
N
-3 -3 M
-3 3 L
3 3 L
3 -3 L
cp
S
GR
GS
[0.75 0 0 0.75 329.74999 206.53457] CT
0 1 0 RC
N
f227889816
f
GR
GS
[0.75 0 0 0.75 329.74999 206.53457] CT
0 1 0 RC
10.0 ML
N
-3 -3 M
-3 3 L
3 3 L
3 -3 L
cp
S
GR
GS
[0.75 0 0 0.75 349.125 194.1888] CT
0 1 0 RC
N
f227889816
f
GR
GS
[0.75 0 0 0.75 349.125 194.1888] CT
0 1 0 RC
10.0 ML
N
-3 -3 M
-3 3 L
3 3 L
3 -3 L
cp
S
GR
GS
[0.75 0 0 0.75 368.50001 181.91468] CT
0 1 0 RC
N
f227889816
f
GR
GS
[0.75 0 0 0.75 368.50001 181.91468] CT
0 1 0 RC
10.0 ML
N
-3 -3 M
-3 3 L
3 3 L
3 -3 L
cp
S
GR
GS
[0.75 0 0 0.75 387.87502 169.70686] CT
0 1 0 RC
N
f227889816
f
GR
GS
[0.75 0 0 0.75 387.87502 169.70686] CT
0 1 0 RC
10.0 ML
N
-3 -3 M
-3 3 L
3 3 L
3 -3 L
cp
S
GR
GS
[0.75 0 0 0.75 407.25 157.56064] CT
0 1 0 RC
N
f227889816
f
GR
GS
[0.75 0 0 0.75 407.25 157.56064] CT
0 1 0 RC
10.0 ML
N
-3 -3 M
-3 3 L
3 3 L
3 -3 L
cp
S
GR
GS
[0.75 0 0 0.75 58.5 425.26836] CT
1 0 1 RC
N
/f1022997606{0 5.332 M
-4.618 -2.666 L
4.618 -2.666 L
cp}def
f1022997606
f
GR
GS
[0.75 0 0 0.75 58.5 425.26836] CT
1 0 1 RC
10.0 ML
N
0 5.332 M
-4.618 -2.666 L
4.618 -2.666 L
cp
S
GR
GS
[0.75 0 0 0.75 77.875 410.30772] CT
1 0 1 RC
N
f1022997606
f
GR
GS
[0.75 0 0 0.75 77.875 410.30772] CT
1 0 1 RC
10.0 ML
N
0 5.332 M
-4.618 -2.666 L
4.618 -2.666 L
cp
S
GR
GS
[0.75 0 0 0.75 97.25 395.93198] CT
1 0 1 RC
N
f1022997606
f
GR
GS
[0.75 0 0 0.75 97.25 395.93198] CT
1 0 1 RC
10.0 ML
N
0 5.332 M
-4.618 -2.666 L
4.618 -2.666 L
cp
S
GR
GS
[0.75 0 0 0.75 116.625 381.98765] CT
1 0 1 RC
N
f1022997606
f
GR
GS
[0.75 0 0 0.75 116.625 381.98765] CT
1 0 1 RC
10.0 ML
N
0 5.332 M
-4.618 -2.666 L
4.618 -2.666 L
cp
S
GR
GS
[0.75 0 0 0.75 136 368.37808] CT
1 0 1 RC
N
f1022997606
f
GR
GS
[0.75 0 0 0.75 136 368.37808] CT
1 0 1 RC
10.0 ML
N
0 5.332 M
-4.618 -2.666 L
4.618 -2.666 L
cp
S
GR
GS
[0.75 0 0 0.75 155.375 355.03773] CT
1 0 1 RC
N
f1022997606
f
GR
GS
[0.75 0 0 0.75 155.375 355.03773] CT
1 0 1 RC
10.0 ML
N
0 5.332 M
-4.618 -2.666 L
4.618 -2.666 L
cp
S
GR
GS
[0.75 0 0 0.75 174.75 341.91978] CT
1 0 1 RC
N
f1022997606
f
GR
GS
[0.75 0 0 0.75 174.75 341.91978] CT
1 0 1 RC
10.0 ML
N
0 5.332 M
-4.618 -2.666 L
4.618 -2.666 L
cp
S
GR
GS
[0.75 0 0 0.75 194.12501 328.9894] CT
1 0 1 RC
N
f1022997606
f
GR
GS
[0.75 0 0 0.75 194.12501 328.9894] CT
1 0 1 RC
10.0 ML
N
0 5.332 M
-4.618 -2.666 L
4.618 -2.666 L
cp
S
GR
GS
[0.75 0 0 0.75 213.49999 316.21992] CT
1 0 1 RC
N
f1022997606
f
GR
GS
[0.75 0 0 0.75 213.49999 316.21992] CT
1 0 1 RC
10.0 ML
N
0 5.332 M
-4.618 -2.666 L
4.618 -2.666 L
cp
S
GR
GS
[0.75 0 0 0.75 232.875 303.59031] CT
1 0 1 RC
N
f1022997606
f
GR
GS
[0.75 0 0 0.75 232.875 303.59031] CT
1 0 1 RC
10.0 ML
N
0 5.332 M
-4.618 -2.666 L
4.618 -2.666 L
cp
S
GR
GS
[0.75 0 0 0.75 252.25001 291.0837] CT
1 0 1 RC
N
f1022997606
f
GR
GS
[0.75 0 0 0.75 252.25001 291.0837] CT
1 0 1 RC
10.0 ML
N
0 5.332 M
-4.618 -2.666 L
4.618 -2.666 L
cp
S
GR
GS
[0.75 0 0 0.75 271.62499 278.68634] CT
1 0 1 RC
N
f1022997606
f
GR
GS
[0.75 0 0 0.75 271.62499 278.68634] CT
1 0 1 RC
10.0 ML
N
0 5.332 M
-4.618 -2.666 L
4.618 -2.666 L
cp
S
GR
GS
[0.75 0 0 0.75 291 266.38673] CT
1 0 1 RC
N
f1022997606
f
GR
GS
[0.75 0 0 0.75 291 266.38673] CT
1 0 1 RC
10.0 ML
N
0 5.332 M
-4.618 -2.666 L
4.618 -2.666 L
cp
S
GR
GS
[0.75 0 0 0.75 310.37501 254.17532] CT
1 0 1 RC
N
f1022997606
f
GR
GS
[0.75 0 0 0.75 310.37501 254.17532] CT
1 0 1 RC
10.0 ML
N
0 5.332 M
-4.618 -2.666 L
4.618 -2.666 L
cp
S
GR
GS
[0.75 0 0 0.75 329.74999 242.04391] CT
1 0 1 RC
N
f1022997606
f
GR
GS
[0.75 0 0 0.75 329.74999 242.04391] CT
1 0 1 RC
10.0 ML
N
0 5.332 M
-4.618 -2.666 L
4.618 -2.666 L
cp
S
GR
GS
[0.75 0 0 0.75 349.125 229.98553] CT
1 0 1 RC
N
f1022997606
f
GR
GS
[0.75 0 0 0.75 349.125 229.98553] CT
1 0 1 RC
10.0 ML
N
0 5.332 M
-4.618 -2.666 L
4.618 -2.666 L
cp
S
GR
GS
[0.75 0 0 0.75 368.50001 217.99411] CT
1 0 1 RC
N
f1022997606
f
GR
GS
[0.75 0 0 0.75 368.50001 217.99411] CT
1 0 1 RC
10.0 ML
N
0 5.332 M
-4.618 -2.666 L
4.618 -2.666 L
cp
S
GR
GS
[0.75 0 0 0.75 387.87502 206.06438] CT
1 0 1 RC
N
f1022997606
f
GR
GS
[0.75 0 0 0.75 387.87502 206.06438] CT
1 0 1 RC
10.0 ML
N
0 5.332 M
-4.618 -2.666 L
4.618 -2.666 L
cp
S
GR
GS
[0.75 0 0 0.75 407.25 194.1917] CT
1 0 1 RC
N
f1022997606
f
GR
GS
[0.75 0 0 0.75 407.25 194.1917] CT
1 0 1 RC
10.0 ML
N
0 5.332 M
-4.618 -2.666 L
4.618 -2.666 L
cp
S
GR
GS
[0.75 0 0 0.75 58.5 456.9668] CT
1 0 0 RC
N
/f860094634{0 -4 M
0 4 L
-4 0 M
4 0 L}def
f860094634
f
GR
GS
[0.75 0 0 0.75 58.5 456.9668] CT
1 0 0 RC
10.0 ML
N
0 -4 M
0 4 L
-4 0 M
4 0 L
S
GR
GS
[0.75 0 0 0.75 77.875 442.20296] CT
1 0 0 RC
N
f860094634
f
GR
GS
[0.75 0 0 0.75 77.875 442.20296] CT
1 0 0 RC
10.0 ML
N
0 -4 M
0 4 L
-4 0 M
4 0 L
S
GR
GS
[0.75 0 0 0.75 97.25 428.1628] CT
1 0 0 RC
N
f860094634
f
GR
GS
[0.75 0 0 0.75 97.25 428.1628] CT
1 0 0 RC
10.0 ML
N
0 -4 M
0 4 L
-4 0 M
4 0 L
S
GR
GS
[0.75 0 0 0.75 116.625 414.61263] CT
1 0 0 RC
N
f860094634
f
GR
GS
[0.75 0 0 0.75 116.625 414.61263] CT
1 0 0 RC
10.0 ML
N
0 -4 M
0 4 L
-4 0 M
4 0 L
S
GR
GS
[0.75 0 0 0.75 136 401.4218] CT
1 0 0 RC
N
f860094634
f
GR
GS
[0.75 0 0 0.75 136 401.4218] CT
1 0 0 RC
10.0 ML
N
0 -4 M
0 4 L
-4 0 M
4 0 L
S
GR
GS
[0.75 0 0 0.75 155.375 388.5087] CT
1 0 0 RC
N
f860094634
f
GR
GS
[0.75 0 0 0.75 155.375 388.5087] CT
1 0 0 RC
10.0 ML
N
0 -4 M
0 4 L
-4 0 M
4 0 L
S
GR
GS
[0.75 0 0 0.75 174.75 375.81814] CT
1 0 0 RC
N
f860094634
f
GR
GS
[0.75 0 0 0.75 174.75 375.81814] CT
1 0 0 RC
10.0 ML
N
0 -4 M
0 4 L
-4 0 M
4 0 L
S
GR
GS
[0.75 0 0 0.75 194.12501 363.31091] CT
1 0 0 RC
N
f860094634
f
GR
GS
[0.75 0 0 0.75 194.12501 363.31091] CT
1 0 0 RC
10.0 ML
N
0 -4 M
0 4 L
-4 0 M
4 0 L
S
GR
GS
[0.75 0 0 0.75 213.49999 350.95795] CT
1 0 0 RC
N
f860094634
f
GR
GS
[0.75 0 0 0.75 213.49999 350.95795] CT
1 0 0 RC
10.0 ML
N
0 -4 M
0 4 L
-4 0 M
4 0 L
S
GR
GS
[0.75 0 0 0.75 232.875 338.73704] CT
1 0 0 RC
N
f860094634
f
GR
GS
[0.75 0 0 0.75 232.875 338.73704] CT
1 0 0 RC
10.0 ML
N
0 -4 M
0 4 L
-4 0 M
4 0 L
S
GR
GS
[0.75 0 0 0.75 252.25001 326.63072] CT
1 0 0 RC
N
f860094634
f
GR
GS
[0.75 0 0 0.75 252.25001 326.63072] CT
1 0 0 RC
10.0 ML
N
0 -4 M
0 4 L
-4 0 M
4 0 L
S
GR
GS
[0.75 0 0 0.75 271.62499 314.62502] CT
1 0 0 RC
N
f860094634
f
GR
GS
[0.75 0 0 0.75 271.62499 314.62502] CT
1 0 0 RC
10.0 ML
N
0 -4 M
0 4 L
-4 0 M
4 0 L
S
GR
GS
[0.75 0 0 0.75 291 302.70854] CT
1 0 0 RC
N
f860094634
f
GR
GS
[0.75 0 0 0.75 291 302.70854] CT
1 0 0 RC
10.0 ML
N
0 -4 M
0 4 L
-4 0 M
4 0 L
S
GR
GS
[0.75 0 0 0.75 310.37501 290.87183] CT
1 0 0 RC
N
f860094634
f
GR
GS
[0.75 0 0 0.75 310.37501 290.87183] CT
1 0 0 RC
10.0 ML
N
0 -4 M
0 4 L
-4 0 M
4 0 L
S
GR
GS
[0.75 0 0 0.75 329.74999 279.10696] CT
1 0 0 RC
N
f860094634
f
GR
GS
[0.75 0 0 0.75 329.74999 279.10696] CT
1 0 0 RC
10.0 ML
N
0 -4 M
0 4 L
-4 0 M
4 0 L
S
GR
GS
[0.75 0 0 0.75 349.125 267.40723] CT
1 0 0 RC
N
f860094634
f
GR
GS
[0.75 0 0 0.75 349.125 267.40723] CT
1 0 0 RC
10.0 ML
N
0 -4 M
0 4 L
-4 0 M
4 0 L
S
GR
GS
[0.75 0 0 0.75 368.50001 255.76687] CT
1 0 0 RC
N
f860094634
f
GR
GS
[0.75 0 0 0.75 368.50001 255.76687] CT
1 0 0 RC
10.0 ML
N
0 -4 M
0 4 L
-4 0 M
4 0 L
S
GR
GS
[0.75 0 0 0.75 387.87502 244.18094] CT
1 0 0 RC
N
f860094634
f
GR
GS
[0.75 0 0 0.75 387.87502 244.18094] CT
1 0 0 RC
10.0 ML
N
0 -4 M
0 4 L
-4 0 M
4 0 L
S
GR
GS
[0.75 0 0 0.75 407.25 232.64507] CT
1 0 0 RC
N
f860094634
f
GR
GS
[0.75 0 0 0.75 407.25 232.64507] CT
1 0 0 RC
10.0 ML
N
0 -4 M
0 4 L
-4 0 M
4 0 L
S
GR
GS
[0.75 0 0 0.75 58.5 489.19345] CT
0 0 1 RC
N
/f1719669614{-2.828 -2.828 M
2.828 2.828 L
-2.828 2.828 M
2.828 -2.828 L}def
f1719669614
f
GR
GS
[0.75 0 0 0.75 58.5 489.19345] CT
0 0 1 RC
10.0 ML
N
-2.828 -2.828 M
2.828 2.828 L
-2.828 2.828 M
2.828 -2.828 L
S
GR
GS
[0.75 0 0 0.75 77.875 474.76492] CT
0 0 1 RC
N
f1719669614
f
GR
GS
[0.75 0 0 0.75 77.875 474.76492] CT
0 0 1 RC
10.0 ML
N
-2.828 -2.828 M
2.828 2.828 L
-2.828 2.828 M
2.828 -2.828 L
S
GR
GS
[0.75 0 0 0.75 97.25 461.30763] CT
0 0 1 RC
N
f1719669614
f
GR
GS
[0.75 0 0 0.75 97.25 461.30763] CT
0 0 1 RC
10.0 ML
N
-2.828 -2.828 M
2.828 2.828 L
-2.828 2.828 M
2.828 -2.828 L
S
GR
GS
[0.75 0 0 0.75 116.625 448.40616] CT
0 0 1 RC
N
f1719669614
f
GR
GS
[0.75 0 0 0.75 116.625 448.40616] CT
0 0 1 RC
10.0 ML
N
-2.828 -2.828 M
2.828 2.828 L
-2.828 2.828 M
2.828 -2.828 L
S
GR
GS
[0.75 0 0 0.75 136 435.87492] CT
0 0 1 RC
N
f1719669614
f
GR
GS
[0.75 0 0 0.75 136 435.87492] CT
0 0 1 RC
10.0 ML
N
-2.828 -2.828 M
2.828 2.828 L
-2.828 2.828 M
2.828 -2.828 L
S
GR
GS
[0.75 0 0 0.75 155.375 423.61221] CT
0 0 1 RC
N
f1719669614
f
GR
GS
[0.75 0 0 0.75 155.375 423.61221] CT
0 0 1 RC
10.0 ML
N
-2.828 -2.828 M
2.828 2.828 L
-2.828 2.828 M
2.828 -2.828 L
S
GR
GS
[0.75 0 0 0.75 174.75 411.55527] CT
0 0 1 RC
N
f1719669614
f
GR
GS
[0.75 0 0 0.75 174.75 411.55527] CT
0 0 1 RC
10.0 ML
N
-2.828 -2.828 M
2.828 2.828 L
-2.828 2.828 M
2.828 -2.828 L
S
GR
GS
[0.75 0 0 0.75 194.12501 399.66216] CT
0 0 1 RC
N
f1719669614
f
GR
GS
[0.75 0 0 0.75 194.12501 399.66216] CT
0 0 1 RC
10.0 ML
N
-2.828 -2.828 M
2.828 2.828 L
-2.828 2.828 M
2.828 -2.828 L
S
GR
GS
[0.75 0 0 0.75 213.49999 387.90331] CT
0 0 1 RC
N
f1719669614
f
GR
GS
[0.75 0 0 0.75 213.49999 387.90331] CT
0 0 1 RC
10.0 ML
N
-2.828 -2.828 M
2.828 2.828 L
-2.828 2.828 M
2.828 -2.828 L
S
GR
GS
[0.75 0 0 0.75 232.875 376.25695] CT
0 0 1 RC
N
f1719669614
f
GR
GS
[0.75 0 0 0.75 232.875 376.25695] CT
0 0 1 RC
10.0 ML
N
-2.828 -2.828 M
2.828 2.828 L
-2.828 2.828 M
2.828 -2.828 L
S
GR
GS
[0.75 0 0 0.75 252.25001 364.7065] CT
0 0 1 RC
N
f1719669614
f
GR
GS
[0.75 0 0 0.75 252.25001 364.7065] CT
0 0 1 RC
10.0 ML
N
-2.828 -2.828 M
2.828 2.828 L
-2.828 2.828 M
2.828 -2.828 L
S
GR
GS
[0.75 0 0 0.75 271.62499 353.23899] CT
0 0 1 RC
N
f1719669614
f
GR
GS
[0.75 0 0 0.75 271.62499 353.23899] CT
0 0 1 RC
10.0 ML
N
-2.828 -2.828 M
2.828 2.828 L
-2.828 2.828 M
2.828 -2.828 L
S
GR
GS
[0.75 0 0 0.75 291 341.84415] CT
0 0 1 RC
N
f1719669614
f
GR
GS
[0.75 0 0 0.75 291 341.84415] CT
0 0 1 RC
10.0 ML
N
-2.828 -2.828 M
2.828 2.828 L
-2.828 2.828 M
2.828 -2.828 L
S
GR
GS
[0.75 0 0 0.75 310.37501 330.51354] CT
0 0 1 RC
N
f1719669614
f
GR
GS
[0.75 0 0 0.75 310.37501 330.51354] CT
0 0 1 RC
10.0 ML
N
-2.828 -2.828 M
2.828 2.828 L
-2.828 2.828 M
2.828 -2.828 L
S
GR
GS
[0.75 0 0 0.75 329.74999 319.24022] CT
0 0 1 RC
N
f1719669614
f
GR
GS
[0.75 0 0 0.75 329.74999 319.24022] CT
0 0 1 RC
10.0 ML
N
-2.828 -2.828 M
2.828 2.828 L
-2.828 2.828 M
2.828 -2.828 L
S
GR
GS
[0.75 0 0 0.75 349.125 308.01846] CT
0 0 1 RC
N
f1719669614
f
GR
GS
[0.75 0 0 0.75 349.125 308.01846] CT
0 0 1 RC
10.0 ML
N
-2.828 -2.828 M
2.828 2.828 L
-2.828 2.828 M
2.828 -2.828 L
S
GR
GS
[0.75 0 0 0.75 368.50001 296.84328] CT
0 0 1 RC
N
f1719669614
f
GR
GS
[0.75 0 0 0.75 368.50001 296.84328] CT
0 0 1 RC
10.0 ML
N
-2.828 -2.828 M
2.828 2.828 L
-2.828 2.828 M
2.828 -2.828 L
S
GR
GS
[0.75 0 0 0.75 387.87502 285.71054] CT
0 0 1 RC
N
f1719669614
f
GR
GS
[0.75 0 0 0.75 387.87502 285.71054] CT
0 0 1 RC
10.0 ML
N
-2.828 -2.828 M
2.828 2.828 L
-2.828 2.828 M
2.828 -2.828 L
S
GR
GS
[0.75 0 0 0.75 407.25 274.61662] CT
0 0 1 RC
N
f1719669614
f
GR
GS
[0.75 0 0 0.75 407.25 274.61662] CT
0 0 1 RC
10.0 ML
N
-2.828 -2.828 M
2.828 2.828 L
-2.828 2.828 M
2.828 -2.828 L
S
GR
GS
[0.75 0 0 0.75 58.5 534] CT
N
f351177404
f
GR
GS
[0.75 0 0 0.75 58.5 534] CT
10.0 ML
N
4 0 M
4 -2.209 2.209 -4 0 -4 C
-2.209 -4 -4 -2.209 -4 0 C
-4 2.209 -2.209 4 0 4 C
2.209 4 4 2.209 4 0 C
cp
S
GR
GS
[0.75 0 0 0.75 77.875 513.24335] CT
N
f351177404
f
GR
GS
[0.75 0 0 0.75 77.875 513.24335] CT
10.0 ML
N
4 0 M
4 -2.209 2.209 -4 0 -4 C
-2.209 -4 -4 -2.209 -4 0 C
-4 2.209 -2.209 4 0 4 C
2.209 4 4 2.209 4 0 C
cp
S
GR
GS
[0.75 0 0 0.75 97.25 500.67393] CT
N
f351177404
f
GR
GS
[0.75 0 0 0.75 97.25 500.67393] CT
10.0 ML
N
4 0 M
4 -2.209 2.209 -4 0 -4 C
-2.209 -4 -4 -2.209 -4 0 C
-4 2.209 -2.209 4 0 4 C
2.209 4 4 2.209 4 0 C
cp
S
GR
GS
[0.75 0 0 0.75 116.625 488.98714] CT
N
f351177404
f
GR
GS
[0.75 0 0 0.75 116.625 488.98714] CT
10.0 ML
N
4 0 M
4 -2.209 2.209 -4 0 -4 C
-2.209 -4 -4 -2.209 -4 0 C
-4 2.209 -2.209 4 0 4 C
2.209 4 4 2.209 4 0 C
cp
S
GR
GS
[0.75 0 0 0.75 136 477.69328] CT
N
f351177404
f
GR
GS
[0.75 0 0 0.75 136 477.69328] CT
10.0 ML
N
4 0 M
4 -2.209 2.209 -4 0 -4 C
-2.209 -4 -4 -2.209 -4 0 C
-4 2.209 -2.209 4 0 4 C
2.209 4 4 2.209 4 0 C
cp
S
GR
GS
[0.75 0 0 0.75 155.375 466.62726] CT
N
f351177404
f
GR
GS
[0.75 0 0 0.75 155.375 466.62726] CT
10.0 ML
N
4 0 M
4 -2.209 2.209 -4 0 -4 C
-2.209 -4 -4 -2.209 -4 0 C
-4 2.209 -2.209 4 0 4 C
2.209 4 4 2.209 4 0 C
cp
S
GR
GS
[0.75 0 0 0.75 174.75 455.71211] CT
N
f351177404
f
GR
GS
[0.75 0 0 0.75 174.75 455.71211] CT
10.0 ML
N
4 0 M
4 -2.209 2.209 -4 0 -4 C
-2.209 -4 -4 -2.209 -4 0 C
-4 2.209 -2.209 4 0 4 C
2.209 4 4 2.209 4 0 C
cp
S
GR
GS
[0.75 0 0 0.75 194.12501 444.90527] CT
N
f351177404
f
GR
GS
[0.75 0 0 0.75 194.12501 444.90527] CT
10.0 ML
N
4 0 M
4 -2.209 2.209 -4 0 -4 C
-2.209 -4 -4 -2.209 -4 0 C
-4 2.209 -2.209 4 0 4 C
2.209 4 4 2.209 4 0 C
cp
S
GR
GS
[0.75 0 0 0.75 213.49999 434.18047] CT
N
f351177404
f
GR
GS
[0.75 0 0 0.75 213.49999 434.18047] CT
10.0 ML
N
4 0 M
4 -2.209 2.209 -4 0 -4 C
-2.209 -4 -4 -2.209 -4 0 C
-4 2.209 -2.209 4 0 4 C
2.209 4 4 2.209 4 0 C
cp
S
GR
GS
[0.75 0 0 0.75 232.875 423.52034] CT
N
f351177404
f
GR
GS
[0.75 0 0 0.75 232.875 423.52034] CT
10.0 ML
N
4 0 M
4 -2.209 2.209 -4 0 -4 C
-2.209 -4 -4 -2.209 -4 0 C
-4 2.209 -2.209 4 0 4 C
2.209 4 4 2.209 4 0 C
cp
S
GR
GS
[0.75 0 0 0.75 252.25001 412.91272] CT
N
f351177404
f
GR
GS
[0.75 0 0 0.75 252.25001 412.91272] CT
10.0 ML
N
4 0 M
4 -2.209 2.209 -4 0 -4 C
-2.209 -4 -4 -2.209 -4 0 C
-4 2.209 -2.209 4 0 4 C
2.209 4 4 2.209 4 0 C
cp
S
GR
GS
[0.75 0 0 0.75 271.62499 402.34863] CT
N
f351177404
f
GR
GS
[0.75 0 0 0.75 271.62499 402.34863] CT
10.0 ML
N
4 0 M
4 -2.209 2.209 -4 0 -4 C
-2.209 -4 -4 -2.209 -4 0 C
-4 2.209 -2.209 4 0 4 C
2.209 4 4 2.209 4 0 C
cp
S
GR
GS
[0.75 0 0 0.75 291 391.8214] CT
N
f351177404
f
GR
GS
[0.75 0 0 0.75 291 391.8214] CT
10.0 ML
N
4 0 M
4 -2.209 2.209 -4 0 -4 C
-2.209 -4 -4 -2.209 -4 0 C
-4 2.209 -2.209 4 0 4 C
2.209 4 4 2.209 4 0 C
cp
S
GR
GS
[0.75 0 0 0.75 310.37501 381.32581] CT
N
f351177404
f
GR
GS
[0.75 0 0 0.75 310.37501 381.32581] CT
10.0 ML
N
4 0 M
4 -2.209 2.209 -4 0 -4 C
-2.209 -4 -4 -2.209 -4 0 C
-4 2.209 -2.209 4 0 4 C
2.209 4 4 2.209 4 0 C
cp
S
GR
GS
[0.75 0 0 0.75 329.74999 370.85774] CT
N
f351177404
f
GR
GS
[0.75 0 0 0.75 329.74999 370.85774] CT
10.0 ML
N
4 0 M
4 -2.209 2.209 -4 0 -4 C
-2.209 -4 -4 -2.209 -4 0 C
-4 2.209 -2.209 4 0 4 C
2.209 4 4 2.209 4 0 C
cp
S
GR
GS
[0.75 0 0 0.75 349.125 360.41386] CT
N
f351177404
f
GR
GS
[0.75 0 0 0.75 349.125 360.41386] CT
10.0 ML
N
4 0 M
4 -2.209 2.209 -4 0 -4 C
-2.209 -4 -4 -2.209 -4 0 C
-4 2.209 -2.209 4 0 4 C
2.209 4 4 2.209 4 0 C
cp
S
GR
GS
[0.75 0 0 0.75 368.50001 349.99148] CT
N
f351177404
f
GR
GS
[0.75 0 0 0.75 368.50001 349.99148] CT
10.0 ML
N
4 0 M
4 -2.209 2.209 -4 0 -4 C
-2.209 -4 -4 -2.209 -4 0 C
-4 2.209 -2.209 4 0 4 C
2.209 4 4 2.209 4 0 C
cp
S
GR
GS
[0.75 0 0 0.75 387.87502 339.58825] CT
N
f351177404
f
GR
GS
[0.75 0 0 0.75 387.87502 339.58825] CT
10.0 ML
N
4 0 M
4 -2.209 2.209 -4 0 -4 C
-2.209 -4 -4 -2.209 -4 0 C
-4 2.209 -2.209 4 0 4 C
2.209 4 4 2.209 4 0 C
cp
S
GR
GS
[0.75 0 0 0.75 407.25 329.20232] CT
N
f351177404
f
GR
GS
[0.75 0 0 0.75 407.25 329.20232] CT
10.0 ML
N
4 0 M
4 -2.209 2.209 -4 0 -4 C
-2.209 -4 -4 -2.209 -4 0 C
-4 2.209 -2.209 4 0 4 C
2.209 4 4 2.209 4 0 C
cp
S
GR
GS
[0.75 0 0 0.75 0 0] CT
1 GC
N
/f1883300026{172 219 M
172 92 L
95 92 L
95 219 L
cp}def
f1883300026
f
GR
GS
[0.75 0 0 0.75 106.5 76.09706] CT
/Helvetica 12 F
GS
[1 0 0 1 0 0] CT
0 4.5 moveto 
1 -1 scale
(n=7) t 
GR
GR
GS
[0.75 0 0 0.75 89.25 76.09706] CT
1 0 0 RC
N
f351177404
f
GR
GS
[0.75 0 0 0.75 89.25 76.09706] CT
1 0 0 RC
10.0 ML
N
4 0 M
4 -2.209 2.209 -4 0 -4 C
-2.209 -4 -4 -2.209 -4 0 C
-4 2.209 -2.209 4 0 4 C
2.209 4 4 2.209 4 0 C
cp
S
GR
GS
[0.75 0 0 0.75 106.5 87.67647] CT
/Helvetica 12 F
GS
[1 0 0 1 0 0] CT
0 4.5 moveto 
1 -1 scale
(6) t 
GR
GR
GS
[0.75 0 0 0.75 89.25 87.67647] CT
0 0 1 RC
N
f1737057230
f
GR
GS
[0.75 0 0 0.75 89.25 87.67647] CT
0 0 1 RC
10.0 ML
N
-3.464 -2 M
-1.155 -2 L
0 -4 L
1.155 -2 L
3.464 -2 L
2 0 L
3.464 2 L
1.155 2 L
0 4 L
-1.155 2 L
-3.464 2 L
-2 0 L
cp
S
GR
GS
[0.75 0 0 0.75 106.5 99.25588] CT
/Helvetica 12 F
GS
[1 0 0 1 0 0] CT
0 4.5 moveto 
1 -1 scale
(5) t 
GR
GR
GS
[0.75 0 0 0.75 89.25 99.25588] CT
N
f-1741330208
f
GR
GS
[0.75 0 0 0.75 89.25 99.25588] CT
10.0 ML
N
-3.804 -1.236 M
-0.94 -1.236 L
0 -4 L
0.94 -1.236 L
3.804 -1.236 L
1.522 0.494 L
2.351 3.236 L
0 1.6 L
-2.351 3.236 L
-1.522 0.494 L
cp
S
GR
GS
[0.75 0 0 0.75 106.5 110.8353] CT
/Helvetica 12 F
GS
[1 0 0 1 0 0] CT
0 4.5 moveto 
1 -1 scale
(4) t 
GR
GR
GS
[0.75 0 0 0.75 89.25 110.8353] CT
0 1 0 RC
N
f227889816
f
GR
GS
[0.75 0 0 0.75 89.25 110.8353] CT
0 1 0 RC
10.0 ML
N
-3 -3 M
-3 3 L
3 3 L
3 -3 L
cp
S
GR
GS
[0.75 0 0 0.75 106.5 122.4147] CT
/Helvetica 12 F
GS
[1 0 0 1 0 0] CT
0 4.5 moveto 
1 -1 scale
(3) t 
GR
GR
GS
[0.75 0 0 0.75 89.25 122.4147] CT
1 0 1 RC
N
f1022997606
f
GR
GS
[0.75 0 0 0.75 89.25 122.4147] CT
1 0 1 RC
10.0 ML
N
0 5.332 M
-4.618 -2.666 L
4.618 -2.666 L
cp
S
GR
GS
[0.75 0 0 0.75 106.5 133.99412] CT
/Helvetica 12 F
GS
[1 0 0 1 0 0] CT
0 4.5 moveto 
1 -1 scale
(2) t 
GR
GR
GS
[0.75 0 0 0.75 89.25 133.99412] CT
1 0 0 RC
N
f860094634
f
GR
GS
[0.75 0 0 0.75 89.25 133.99412] CT
1 0 0 RC
10.0 ML
N
0 -4 M
0 4 L
-4 0 M
4 0 L
S
GR
GS
[0.75 0 0 0.75 106.5 145.57353] CT
/Helvetica 12 F
GS
[1 0 0 1 0 0] CT
0 4.5 moveto 
1 -1 scale
(1) t 
GR
GR
GS
[0.75 0 0 0.75 89.25 145.57353] CT
0 0 1 RC
N
f1719669614
f
GR
GS
[0.75 0 0 0.75 89.25 145.57353] CT
0 0 1 RC
10.0 ML
N
-2.828 -2.828 M
2.828 2.828 L
-2.828 2.828 M
2.828 -2.828 L
S
GR
GS
[0.75 0 0 0.75 106.5 157.15295] CT
/Helvetica 12 F
GS
[1 0 0 1 0 0] CT
0 4.5 moveto 
1 -1 scale
(0) t 
GR
GR
GS
[0.75 0 0 0.75 89.25 157.15295] CT
N
f351177404
f
GR
GS
[0.75 0 0 0.75 89.25 157.15295] CT
10.0 ML
N
4 0 M
4 -2.209 2.209 -4 0 -4 C
-2.209 -4 -4 -2.209 -4 0 C
-4 2.209 -2.209 4 0 4 C
2.209 4 4 2.209 4 0 C
cp
S
GR
GS
[0.75 0 0 0.75 0 0] CT
0.149 GC
10.0 ML
0.667 LW
N
95 219 M
95 92 L
172 92 L
172 219 L
cp
S
GR
%%Trailer
%%Pages: 1
%%EOF
