%!PS-Adobe-3.0 EPSF-3.0
%%Creator: (MATLAB, The Mathworks, Inc. Version 9.6.0.1335978 \(R2019a\) Update 8. Operating System: Mac OS X)
%%Title: /Users/natafhenri-claude/Documents/Recherche/Acoustics/compute_modes/Figures/ZoRo2/ZoRo2-N2-rigid_Ledoux.eps
%%CreationDate: 2021-08-11T14:49:39
%%Pages: (atend)
%%BoundingBox: 0 0 600 800
%%LanguageLevel: 3
%%EndComments
%%BeginProlog
%%BeginResource: procset (Apache XML Graphics Std ProcSet) 1.2 0
%%Version: 1.2 0
%%Copyright: (Copyright 2001-2003,2010 The Apache Software Foundation. License terms: http://www.apache.org/licenses/LICENSE-2.0)
/bd{bind def}bind def
/ld{load def}bd
/GR/grestore ld
/GS/gsave ld
/RM/rmoveto ld
/C/curveto ld
/t/show ld
/L/lineto ld
/ML/setmiterlimit ld
/CT/concat ld
/f/fill ld
/N/newpath ld
/S/stroke ld
/CC/setcmykcolor ld
/A/ashow ld
/cp/closepath ld
/RC/setrgbcolor ld
/LJ/setlinejoin ld
/GC/setgray ld
/LW/setlinewidth ld
/M/moveto ld
/re {4 2 roll M
1 index 0 rlineto
0 exch rlineto
neg 0 rlineto
cp } bd
/_ctm matrix def
/_tm matrix def
/BT { _ctm currentmatrix pop matrix _tm copy pop 0 0 moveto } bd
/ET { _ctm setmatrix } bd
/iTm { _ctm setmatrix _tm concat } bd
/Tm { _tm astore pop iTm 0 0 moveto } bd
/ux 0.0 def
/uy 0.0 def
/F {
  /Tp exch def
  /Tf exch def
  Tf findfont Tp scalefont setfont
  /cf Tf def  /cs Tp def
} bd
/ULS {currentpoint /uy exch def /ux exch def} bd
/ULE {
  /Tcx currentpoint pop def
  gsave
  newpath
  cf findfont cs scalefont dup
  /FontMatrix get 0 get /Ts exch def /FontInfo get dup
  /UnderlinePosition get Ts mul /To exch def
  /UnderlineThickness get Ts mul /Tt exch def
  ux uy To add moveto  Tcx uy To add lineto
  Tt setlinewidth stroke
  grestore
} bd
/OLE {
  /Tcx currentpoint pop def
  gsave
  newpath
  cf findfont cs scalefont dup
  /FontMatrix get 0 get /Ts exch def /FontInfo get dup
  /UnderlinePosition get Ts mul /To exch def
  /UnderlineThickness get Ts mul /Tt exch def
  ux uy To add cs add moveto Tcx uy To add cs add lineto
  Tt setlinewidth stroke
  grestore
} bd
/SOE {
  /Tcx currentpoint pop def
  gsave
  newpath
  cf findfont cs scalefont dup
  /FontMatrix get 0 get /Ts exch def /FontInfo get dup
  /UnderlinePosition get Ts mul /To exch def
  /UnderlineThickness get Ts mul /Tt exch def
  ux uy To add cs 10 mul 26 idiv add moveto Tcx uy To add cs 10 mul 26 idiv add lineto
  Tt setlinewidth stroke
  grestore
} bd
/QT {
/Y22 exch store
/X22 exch store
/Y21 exch store
/X21 exch store
currentpoint
/Y21 load 2 mul add 3 div exch
/X21 load 2 mul add 3 div exch
/X21 load 2 mul /X22 load add 3 div
/Y21 load 2 mul /Y22 load add 3 div
/X22 load /Y22 load curveto
} bd
/SSPD {
dup length /d exch dict def
{
/v exch def
/k exch def
currentpagedevice k known {
/cpdv currentpagedevice k get def
v cpdv ne {
/upd false def
/nullv v type /nulltype eq def
/nullcpdv cpdv type /nulltype eq def
nullv nullcpdv or
{
/upd true def
} {
/sametype v type cpdv type eq def
sametype {
v type /arraytype eq {
/vlen v length def
/cpdvlen cpdv length def
vlen cpdvlen eq {
0 1 vlen 1 sub {
/i exch def
/obj v i get def
/cpdobj cpdv i get def
obj cpdobj ne {
/upd true def
exit
} if
} for
} {
/upd true def
} ifelse
} {
v type /dicttype eq {
v {
/dv exch def
/dk exch def
/cpddv cpdv dk get def
dv cpddv ne {
/upd true def
exit
} if
} forall
} {
/upd true def
} ifelse
} ifelse
} if
} ifelse
upd true eq {
d k v put
} if
} if
} if
} forall
d length 0 gt {
d setpagedevice
} if
} bd
/RE { % /NewFontName [NewEncodingArray] /FontName RE -
  findfont dup length dict begin
  {
    1 index /FID ne
    {def} {pop pop} ifelse
  } forall
  /Encoding exch def
  /FontName 1 index def
  currentdict definefont pop
  end
} bind def
%%EndResource
%%BeginResource: procset (Apache XML Graphics EPS ProcSet) 1.0 0
%%Version: 1.0 0
%%Copyright: (Copyright 2002-2003 The Apache Software Foundation. License terms: http://www.apache.org/licenses/LICENSE-2.0)
/BeginEPSF { %def
/b4_Inc_state save def         % Save state for cleanup
/dict_count countdictstack def % Count objects on dict stack
/op_count count 1 sub def      % Count objects on operand stack
userdict begin                 % Push userdict on dict stack
/showpage { } def              % Redefine showpage, { } = null proc
0 setgray 0 setlinecap         % Prepare graphics state
1 setlinewidth 0 setlinejoin
10 setmiterlimit [ ] 0 setdash newpath
/languagelevel where           % If level not equal to 1 then
{pop languagelevel             % set strokeadjust and
1 ne                           % overprint to their defaults.
{false setstrokeadjust false setoverprint
} if
} if
} bd
/EndEPSF { %def
count op_count sub {pop} repeat            % Clean up stacks
countdictstack dict_count sub {end} repeat
b4_Inc_state restore
} bd
%%EndResource
%FOPBeginFontDict
%%IncludeResource: font Courier-Oblique
%%IncludeResource: font Courier-BoldOblique
%%IncludeResource: font Courier-Bold
%%IncludeResource: font ZapfDingbats
%%IncludeResource: font Symbol
%%IncludeResource: font Helvetica
%%IncludeResource: font Helvetica-Oblique
%%IncludeResource: font Helvetica-Bold
%%IncludeResource: font Helvetica-BoldOblique
%%IncludeResource: font Times-Roman
%%IncludeResource: font Times-Italic
%%IncludeResource: font Times-Bold
%%IncludeResource: font Times-BoldItalic
%%IncludeResource: font Courier
%FOPEndFontDict
%%BeginResource: encoding WinAnsiEncoding
/WinAnsiEncoding [
/.notdef /.notdef /.notdef /.notdef /.notdef
/.notdef /.notdef /.notdef /.notdef /.notdef
/.notdef /.notdef /.notdef /.notdef /.notdef
/.notdef /.notdef /.notdef /.notdef /.notdef
/.notdef /.notdef /.notdef /.notdef /.notdef
/.notdef /.notdef /.notdef /.notdef /.notdef
/.notdef /.notdef /space /exclam /quotedbl
/numbersign /dollar /percent /ampersand /quotesingle
/parenleft /parenright /asterisk /plus /comma
/hyphen /period /slash /zero /one
/two /three /four /five /six
/seven /eight /nine /colon /semicolon
/less /equal /greater /question /at
/A /B /C /D /E
/F /G /H /I /J
/K /L /M /N /O
/P /Q /R /S /T
/U /V /W /X /Y
/Z /bracketleft /backslash /bracketright /asciicircum
/underscore /quoteleft /a /b /c
/d /e /f /g /h
/i /j /k /l /m
/n /o /p /q /r
/s /t /u /v /w
/x /y /z /braceleft /bar
/braceright /asciitilde /bullet /Euro /bullet
/quotesinglbase /florin /quotedblbase /ellipsis /dagger
/daggerdbl /circumflex /perthousand /Scaron /guilsinglleft
/OE /bullet /Zcaron /bullet /bullet
/quoteleft /quoteright /quotedblleft /quotedblright /bullet
/endash /emdash /asciitilde /trademark /scaron
/guilsinglright /oe /bullet /zcaron /Ydieresis
/space /exclamdown /cent /sterling /currency
/yen /brokenbar /section /dieresis /copyright
/ordfeminine /guillemotleft /logicalnot /sfthyphen /registered
/macron /degree /plusminus /twosuperior /threesuperior
/acute /mu /paragraph /middot /cedilla
/onesuperior /ordmasculine /guillemotright /onequarter /onehalf
/threequarters /questiondown /Agrave /Aacute /Acircumflex
/Atilde /Adieresis /Aring /AE /Ccedilla
/Egrave /Eacute /Ecircumflex /Edieresis /Igrave
/Iacute /Icircumflex /Idieresis /Eth /Ntilde
/Ograve /Oacute /Ocircumflex /Otilde /Odieresis
/multiply /Oslash /Ugrave /Uacute /Ucircumflex
/Udieresis /Yacute /Thorn /germandbls /agrave
/aacute /acircumflex /atilde /adieresis /aring
/ae /ccedilla /egrave /eacute /ecircumflex
/edieresis /igrave /iacute /icircumflex /idieresis
/eth /ntilde /ograve /oacute /ocircumflex
/otilde /odieresis /divide /oslash /ugrave
/uacute /ucircumflex /udieresis /yacute /thorn
/ydieresis
] def
%%EndResource
%FOPBeginFontReencode
/Courier-Oblique findfont
dup length dict begin
  {1 index /FID ne {def} {pop pop} ifelse} forall
  /Encoding WinAnsiEncoding def
  currentdict
end
/Courier-Oblique exch definefont pop
/Courier-BoldOblique findfont
dup length dict begin
  {1 index /FID ne {def} {pop pop} ifelse} forall
  /Encoding WinAnsiEncoding def
  currentdict
end
/Courier-BoldOblique exch definefont pop
/Courier-Bold findfont
dup length dict begin
  {1 index /FID ne {def} {pop pop} ifelse} forall
  /Encoding WinAnsiEncoding def
  currentdict
end
/Courier-Bold exch definefont pop
/Helvetica findfont
dup length dict begin
  {1 index /FID ne {def} {pop pop} ifelse} forall
  /Encoding WinAnsiEncoding def
  currentdict
end
/Helvetica exch definefont pop
/Helvetica-Oblique findfont
dup length dict begin
  {1 index /FID ne {def} {pop pop} ifelse} forall
  /Encoding WinAnsiEncoding def
  currentdict
end
/Helvetica-Oblique exch definefont pop
/Helvetica-Bold findfont
dup length dict begin
  {1 index /FID ne {def} {pop pop} ifelse} forall
  /Encoding WinAnsiEncoding def
  currentdict
end
/Helvetica-Bold exch definefont pop
/Helvetica-BoldOblique findfont
dup length dict begin
  {1 index /FID ne {def} {pop pop} ifelse} forall
  /Encoding WinAnsiEncoding def
  currentdict
end
/Helvetica-BoldOblique exch definefont pop
/Times-Roman findfont
dup length dict begin
  {1 index /FID ne {def} {pop pop} ifelse} forall
  /Encoding WinAnsiEncoding def
  currentdict
end
/Times-Roman exch definefont pop
/Times-Italic findfont
dup length dict begin
  {1 index /FID ne {def} {pop pop} ifelse} forall
  /Encoding WinAnsiEncoding def
  currentdict
end
/Times-Italic exch definefont pop
/Times-Bold findfont
dup length dict begin
  {1 index /FID ne {def} {pop pop} ifelse} forall
  /Encoding WinAnsiEncoding def
  currentdict
end
/Times-Bold exch definefont pop
/Times-BoldItalic findfont
dup length dict begin
  {1 index /FID ne {def} {pop pop} ifelse} forall
  /Encoding WinAnsiEncoding def
  currentdict
end
/Times-BoldItalic exch definefont pop
/Courier findfont
dup length dict begin
  {1 index /FID ne {def} {pop pop} ifelse} forall
  /Encoding WinAnsiEncoding def
  currentdict
end
/Courier exch definefont pop
%FOPEndFontReencode
%%EndProlog
%%Page: 1 1
%%PageBoundingBox: 0 0 600 800
%%BeginPageSetup
[1 0 0 -1 0 800] CT
%%EndPageSetup
GS
1 GC
N
0 0 600 800 re
f
GR
GS
1 GC
N
0 0 600 800 re
f
GR
GS
1 GC
N
78 712 M
543 712 L
543 60 L
78 60 L
cp
f
GR
GS
0.873 GC
1 LJ
0.5 LW
N
78 712 M
78 60 L
S
GR
GS
0.873 GC
1 LJ
0.5 LW
N
207.167 712 M
207.167 60 L
S
GR
GS
0.873 GC
1 LJ
0.5 LW
N
336.333 712 M
336.333 60 L
S
GR
GS
0.873 GC
1 LJ
0.5 LW
N
465.5 712 M
465.5 60 L
S
GR
GS
0.873 GC
1 LJ
0.5 LW
N
543 712 M
78 712 L
S
GR
GS
0.873 GC
1 LJ
0.5 LW
N
543 639.556 M
78 639.556 L
S
GR
GS
0.873 GC
1 LJ
0.5 LW
N
543 567.111 M
78 567.111 L
S
GR
GS
0.873 GC
1 LJ
0.5 LW
N
543 494.667 M
78 494.667 L
S
GR
GS
0.873 GC
1 LJ
0.5 LW
N
543 422.222 M
78 422.222 L
S
GR
GS
0.873 GC
1 LJ
0.5 LW
N
543 349.778 M
78 349.778 L
S
GR
GS
0.873 GC
1 LJ
0.5 LW
N
543 277.333 M
78 277.333 L
S
GR
GS
0.873 GC
1 LJ
0.5 LW
N
543 204.889 M
78 204.889 L
S
GR
GS
0.873 GC
1 LJ
0.5 LW
N
543 132.444 M
78 132.444 L
S
GR
GS
0.873 GC
1 LJ
0.5 LW
N
543 60 M
78 60 L
S
GR
GS
0.149 GC
2 setlinecap
1 LJ
0.5 LW
N
78 712 M
543 712 L
S
GR
GS
0.149 GC
2 setlinecap
1 LJ
0.5 LW
N
78 60 M
543 60 L
S
GR
GS
0.149 GC
2 setlinecap
1 LJ
0.5 LW
N
78 712 M
78 705.48 L
S
GR
GS
0.149 GC
2 setlinecap
1 LJ
0.5 LW
N
207.167 712 M
207.167 705.48 L
S
GR
GS
0.149 GC
2 setlinecap
1 LJ
0.5 LW
N
336.333 712 M
336.333 705.48 L
S
GR
GS
0.149 GC
2 setlinecap
1 LJ
0.5 LW
N
465.5 712 M
465.5 705.48 L
S
GR
GS
0.149 GC
2 setlinecap
1 LJ
0.5 LW
N
78 60 M
78 66.52 L
S
GR
GS
0.149 GC
2 setlinecap
1 LJ
0.5 LW
N
207.167 60 M
207.167 66.52 L
S
GR
GS
0.149 GC
2 setlinecap
1 LJ
0.5 LW
N
336.333 60 M
336.333 66.52 L
S
GR
GS
0.149 GC
2 setlinecap
1 LJ
0.5 LW
N
465.5 60 M
465.5 66.52 L
S
GR
GS
[1 0 0 1 78 718] CT
0.149 GC
/Times-Roman 20 F
GS
[1 0 0 1 0 0] CT
-5 18 moveto 
1 -1 scale
(0) t 
GR
GR
GS
[1 0 0 1 207.16667 718] CT
0.149 GC
/Times-Roman 20 F
GS
[1 0 0 1 0 0] CT
-5 18 moveto 
1 -1 scale
(5) t 
GR
GR
GS
[1 0 0 1 336.33334 718] CT
0.149 GC
/Times-Roman 20 F
GS
[1 0 0 1 0 0] CT
-10 18 moveto 
1 -1 scale
(10) t 
GR
GR
GS
[1 0 0 1 465.5 718] CT
0.149 GC
/Times-Roman 20 F
GS
[1 0 0 1 0 0] CT
-10 18 moveto 
1 -1 scale
(15) t 
GR
GR
GS
[1 0 0 1 310.50021 742] CT
0.149 GC
N
-111.85 18.48 M
-111.85 17.699 L
-111.1 17.699 -110.615 17.581 QT
-110.131 17.464 -110.131 17.011 QT
-110.131 10.996 L
-110.131 10.417 -110.31 10.152 QT
-110.49 9.886 -110.818 9.824 QT
-111.146 9.761 -111.85 9.761 QT
-111.85 8.996 L
-108.662 8.761 L
-108.662 10.902 L
-108.225 9.964 -107.357 9.363 QT
-106.49 8.761 -105.475 8.761 QT
-102.928 8.761 -102.49 10.824 QT
-102.053 9.902 -101.201 9.331 QT
-100.35 8.761 -99.35 8.761 QT
-98.35 8.761 -97.67 9.081 QT
-96.99 9.402 -96.646 10.066 QT
-96.303 10.73 -96.303 11.73 QT
-96.303 17.011 L
-96.303 17.464 -95.81 17.581 QT
-95.318 17.699 -94.584 17.699 QT
-94.584 18.48 L
-99.615 18.48 L
-99.615 17.699 L
-98.865 17.699 -98.381 17.581 QT
-97.896 17.464 -97.896 17.011 QT
-97.896 11.792 L
-97.896 10.683 -98.209 10.003 QT
-98.521 9.324 -99.49 9.324 QT
-100.756 9.324 -101.584 10.347 QT
-102.412 11.371 -102.412 12.667 QT
-102.412 17.011 L
-102.412 17.464 -101.928 17.581 QT
-101.443 17.699 -100.693 17.699 QT
-100.693 18.48 L
-105.725 18.48 L
-105.725 17.699 L
-104.975 17.699 -104.49 17.581 QT
-104.006 17.464 -104.006 17.011 QT
-104.006 11.792 L
-104.006 10.714 -104.318 10.019 QT
-104.631 9.324 -105.6 9.324 QT
-106.881 9.324 -107.701 10.347 QT
-108.521 11.371 -108.521 12.667 QT
-108.521 17.011 L
-108.521 17.464 -108.037 17.581 QT
-107.553 17.699 -106.818 17.699 QT
-106.818 18.48 L
-111.85 18.48 L
cp
f
GR
GS
[1 0 0 1 310.50021 742] CT
0.149 GC
N
-88.672 18.73 M
-90.001 18.73 -91.126 18.058 QT
-92.251 17.386 -92.907 16.253 QT
-93.563 15.121 -93.563 13.792 QT
-93.563 12.792 -93.204 11.855 QT
-92.844 10.917 -92.172 10.183 QT
-91.501 9.449 -90.61 9.035 QT
-89.719 8.621 -88.672 8.621 QT
-87.313 8.621 -86.204 9.331 QT
-85.094 10.042 -84.454 11.246 QT
-83.813 12.449 -83.813 13.792 QT
-83.813 15.121 -84.461 16.253 QT
-85.11 17.386 -86.235 18.058 QT
-87.36 18.73 -88.672 18.73 QT
cp
-88.672 18.089 M
-86.907 18.089 -86.321 16.808 QT
-85.735 15.527 -85.735 13.542 QT
-85.735 12.449 -85.852 11.722 QT
-85.969 10.996 -86.36 10.402 QT
-86.61 10.042 -86.993 9.769 QT
-87.376 9.496 -87.797 9.347 QT
-88.219 9.199 -88.672 9.199 QT
-89.36 9.199 -89.977 9.511 QT
-90.594 9.824 -91.001 10.402 QT
-91.407 11.027 -91.524 11.769 QT
-91.641 12.511 -91.641 13.542 QT
-91.641 14.777 -91.422 15.761 QT
-91.204 16.746 -90.555 17.417 QT
-89.907 18.089 -88.672 18.089 QT
cp
f
GR
GS
[1 0 0 1 310.50021 742] CT
0.149 GC
N
-77.186 18.73 M
-78.483 18.73 -79.561 18.027 QT
-80.639 17.324 -81.233 16.175 QT
-81.827 15.027 -81.827 13.73 QT
-81.827 12.402 -81.178 11.253 QT
-80.53 10.105 -79.413 9.433 QT
-78.296 8.761 -76.952 8.761 QT
-76.155 8.761 -75.428 9.097 QT
-74.702 9.433 -74.186 10.042 QT
-74.186 5.464 L
-74.186 4.871 -74.358 4.605 QT
-74.53 4.339 -74.858 4.285 QT
-75.186 4.23 -75.889 4.23 QT
-75.889 3.449 L
-72.639 3.214 L
-72.639 16.48 L
-72.639 17.058 -72.46 17.324 QT
-72.28 17.589 -71.952 17.644 QT
-71.624 17.699 -70.921 17.699 QT
-70.921 18.48 L
-74.249 18.73 L
-74.249 17.339 L
-74.811 17.996 -75.6 18.363 QT
-76.389 18.73 -77.186 18.73 QT
cp
-79.436 16.574 M
-79.061 17.292 -78.428 17.722 QT
-77.796 18.152 -77.061 18.152 QT
-76.155 18.152 -75.389 17.621 QT
-74.624 17.089 -74.249 16.261 QT
-74.249 10.98 L
-74.499 10.496 -74.897 10.113 QT
-75.296 9.73 -75.78 9.527 QT
-76.264 9.324 -76.811 9.324 QT
-77.967 9.324 -78.663 9.972 QT
-79.358 10.621 -79.639 11.636 QT
-79.921 12.652 -79.921 13.746 QT
-79.921 14.636 -79.827 15.292 QT
-79.733 15.949 -79.436 16.574 QT
cp
f
GR
GS
[1 0 0 1 310.50021 742] CT
0.149 GC
N
-64.855 18.73 M
-66.198 18.73 -67.323 18.027 QT
-68.448 17.324 -69.089 16.144 QT
-69.73 14.964 -69.73 13.652 QT
-69.73 12.371 -69.144 11.206 QT
-68.558 10.042 -67.511 9.331 QT
-66.464 8.621 -65.167 8.621 QT
-64.167 8.621 -63.417 8.956 QT
-62.667 9.292 -62.183 9.894 QT
-61.698 10.496 -61.456 11.316 QT
-61.214 12.136 -61.214 13.105 QT
-61.214 13.402 -61.433 13.402 QT
-67.808 13.402 L
-67.808 13.636 L
-67.808 15.464 -67.073 16.777 QT
-66.339 18.089 -64.667 18.089 QT
-63.995 18.089 -63.417 17.785 QT
-62.839 17.48 -62.417 16.941 QT
-61.995 16.402 -61.839 15.792 QT
-61.823 15.714 -61.761 15.66 QT
-61.698 15.605 -61.62 15.605 QT
-61.433 15.605 L
-61.214 15.605 -61.214 15.886 QT
-61.526 17.121 -62.558 17.925 QT
-63.589 18.73 -64.855 18.73 QT
cp
-67.776 12.855 M
-62.761 12.855 L
-62.761 12.027 -62.995 11.175 QT
-63.23 10.324 -63.769 9.761 QT
-64.308 9.199 -65.167 9.199 QT
-66.417 9.199 -67.097 10.363 QT
-67.776 11.527 -67.776 12.855 QT
cp
f
GR
GS
[1 0 0 1 310.50021 742] CT
0.149 GC
N
-52.353 16.324 M
-52.353 15.011 -51.322 14.191 QT
-50.29 13.371 -48.845 13.027 QT
-47.4 12.683 -46.087 12.683 QT
-46.087 11.792 L
-46.087 11.152 -46.368 10.558 QT
-46.65 9.964 -47.181 9.581 QT
-47.712 9.199 -48.337 9.199 QT
-49.806 9.199 -50.556 9.855 QT
-50.15 9.855 -49.876 10.167 QT
-49.603 10.48 -49.603 10.902 QT
-49.603 11.339 -49.908 11.652 QT
-50.212 11.964 -50.65 11.964 QT
-51.087 11.964 -51.4 11.652 QT
-51.712 11.339 -51.712 10.902 QT
-51.712 9.746 -50.658 9.183 QT
-49.603 8.621 -48.337 8.621 QT
-47.447 8.621 -46.548 9.003 QT
-45.65 9.386 -45.072 10.089 QT
-44.493 10.792 -44.493 11.746 QT
-44.493 16.699 L
-44.493 17.121 -44.314 17.48 QT
-44.134 17.839 -43.743 17.839 QT
-43.384 17.839 -43.204 17.48 QT
-43.025 17.121 -43.025 16.699 QT
-43.025 15.292 L
-42.384 15.292 L
-42.384 16.699 L
-42.384 17.183 -42.642 17.636 QT
-42.9 18.089 -43.329 18.347 QT
-43.759 18.605 -44.275 18.605 QT
-44.915 18.605 -45.384 18.105 QT
-45.853 17.605 -45.9 16.917 QT
-46.306 17.746 -47.103 18.238 QT
-47.9 18.73 -48.806 18.73 QT
-49.634 18.73 -50.447 18.48 QT
-51.259 18.23 -51.806 17.699 QT
-52.353 17.167 -52.353 16.324 QT
cp
-50.556 16.324 M
-50.556 17.089 -49.993 17.621 QT
-49.431 18.152 -48.65 18.152 QT
-47.947 18.152 -47.361 17.792 QT
-46.775 17.433 -46.431 16.824 QT
-46.087 16.214 -46.087 15.542 QT
-46.087 13.246 L
-47.087 13.246 -48.134 13.574 QT
-49.181 13.902 -49.868 14.597 QT
-50.556 15.292 -50.556 16.324 QT
cp
f
GR
GS
[1 0 0 1 310.50021 742] CT
0.149 GC
N
-41.572 18.48 M
-41.572 17.699 L
-40.822 17.699 -40.337 17.581 QT
-39.853 17.464 -39.853 17.011 QT
-39.853 10.996 L
-39.853 10.417 -40.033 10.152 QT
-40.212 9.886 -40.54 9.824 QT
-40.868 9.761 -41.572 9.761 QT
-41.572 8.996 L
-38.384 8.761 L
-38.384 10.902 L
-37.947 9.964 -37.079 9.363 QT
-36.212 8.761 -35.197 8.761 QT
-33.665 8.761 -32.9 9.488 QT
-32.134 10.214 -32.134 11.73 QT
-32.134 17.011 L
-32.134 17.464 -31.65 17.581 QT
-31.165 17.699 -30.415 17.699 QT
-30.415 18.48 L
-35.447 18.48 L
-35.447 17.699 L
-34.697 17.699 -34.212 17.581 QT
-33.728 17.464 -33.728 17.011 QT
-33.728 11.792 L
-33.728 10.714 -34.04 10.019 QT
-34.353 9.324 -35.322 9.324 QT
-36.603 9.324 -37.423 10.347 QT
-38.243 11.371 -38.243 12.667 QT
-38.243 17.011 L
-38.243 17.464 -37.759 17.581 QT
-37.275 17.699 -36.54 17.699 QT
-36.54 18.48 L
-41.572 18.48 L
cp
f
GR
GS
[1 0 0 1 310.50021 742] CT
0.149 GC
N
-29.396 20.199 M
-29.396 19.417 -28.826 18.831 QT
-28.256 18.246 -27.474 17.996 QT
-27.912 17.667 -28.138 17.16 QT
-28.365 16.652 -28.365 16.089 QT
-28.365 15.058 -27.724 14.261 QT
-28.724 13.277 -28.724 11.996 QT
-28.724 11.308 -28.427 10.706 QT
-28.131 10.105 -27.607 9.66 QT
-27.084 9.214 -26.435 8.988 QT
-25.787 8.761 -25.115 8.761 QT
-23.802 8.761 -22.771 9.527 QT
-22.318 9.042 -21.701 8.777 QT
-21.084 8.511 -20.412 8.511 QT
-19.943 8.511 -19.638 8.847 QT
-19.334 9.183 -19.334 9.667 QT
-19.334 9.933 -19.537 10.136 QT
-19.74 10.339 -20.021 10.339 QT
-20.287 10.339 -20.498 10.136 QT
-20.709 9.933 -20.709 9.667 QT
-20.709 9.246 -20.427 9.089 QT
-21.568 9.089 -22.396 9.871 QT
-21.99 10.277 -21.748 10.847 QT
-21.506 11.417 -21.506 11.996 QT
-21.506 12.933 -22.021 13.675 QT
-22.537 14.417 -23.381 14.831 QT
-24.224 15.246 -25.115 15.246 QT
-26.318 15.246 -27.318 14.589 QT
-27.631 15.027 -27.631 15.558 QT
-27.631 16.136 -27.248 16.574 QT
-26.865 17.011 -26.287 17.011 QT
-24.49 17.011 L
-23.177 17.011 -22.123 17.246 QT
-21.068 17.48 -20.357 18.191 QT
-19.646 18.902 -19.646 20.199 QT
-19.646 21.167 -20.459 21.808 QT
-21.271 22.449 -22.404 22.73 QT
-23.537 23.011 -24.506 23.011 QT
-25.49 23.011 -26.623 22.73 QT
-27.756 22.449 -28.576 21.808 QT
-29.396 21.167 -29.396 20.199 QT
cp
-28.162 20.199 M
-28.162 20.933 -27.56 21.433 QT
-26.959 21.933 -26.107 22.175 QT
-25.256 22.417 -24.506 22.417 QT
-23.771 22.417 -22.92 22.175 QT
-22.068 21.933 -21.474 21.433 QT
-20.881 20.933 -20.881 20.199 QT
-20.881 19.042 -21.927 18.706 QT
-22.974 18.371 -24.49 18.371 QT
-26.287 18.371 L
-26.787 18.371 -27.217 18.613 QT
-27.646 18.855 -27.904 19.292 QT
-28.162 19.73 -28.162 20.199 QT
cp
-25.115 14.652 M
-23.256 14.652 -23.256 11.996 QT
-23.256 10.839 -23.646 10.097 QT
-24.037 9.355 -25.115 9.355 QT
-26.193 9.355 -26.592 10.097 QT
-26.99 10.839 -26.99 11.996 QT
-26.99 12.714 -26.842 13.308 QT
-26.693 13.902 -26.279 14.277 QT
-25.865 14.652 -25.115 14.652 QT
cp
f
GR
GS
[1 0 0 1 310.50021 742] CT
0.149 GC
N
-16.631 15.855 M
-16.631 10.996 L
-16.631 10.417 -16.81 10.152 QT
-16.99 9.886 -17.318 9.824 QT
-17.646 9.761 -18.349 9.761 QT
-18.349 8.996 L
-15.021 8.761 L
-15.021 15.855 L
-15.021 16.714 -14.896 17.191 QT
-14.771 17.667 -14.373 17.91 QT
-13.974 18.152 -13.084 18.152 QT
-11.912 18.152 -11.209 17.16 QT
-10.506 16.167 -10.506 14.917 QT
-10.506 10.996 L
-10.506 10.417 -10.693 10.152 QT
-10.881 9.886 -11.201 9.824 QT
-11.521 9.761 -12.224 9.761 QT
-12.224 8.996 L
-8.912 8.761 L
-8.912 16.48 L
-8.912 17.058 -8.732 17.324 QT
-8.552 17.589 -8.216 17.644 QT
-7.881 17.699 -7.193 17.699 QT
-7.193 18.48 L
-10.443 18.73 L
-10.443 16.871 L
-10.849 17.699 -11.584 18.214 QT
-12.318 18.73 -13.193 18.73 QT
-14.771 18.73 -15.701 18.058 QT
-16.631 17.386 -16.631 15.855 QT
cp
f
GR
GS
[1 0 0 1 310.50021 742] CT
0.149 GC
N
-6.111 18.48 M
-6.111 17.699 L
-5.361 17.699 -4.877 17.581 QT
-4.393 17.464 -4.393 17.011 QT
-4.393 5.464 L
-4.393 4.871 -4.565 4.605 QT
-4.736 4.339 -5.072 4.285 QT
-5.408 4.23 -6.111 4.23 QT
-6.111 3.449 L
-2.846 3.214 L
-2.846 17.011 L
-2.846 17.464 -2.361 17.581 QT
-1.877 17.699 -1.127 17.699 QT
-1.127 18.48 L
-6.111 18.48 L
cp
f
GR
GS
[1 0 0 1 310.50021 742] CT
0.149 GC
N
0.203 16.324 M
0.203 15.011 1.234 14.191 QT
2.265 13.371 3.711 13.027 QT
5.156 12.683 6.468 12.683 QT
6.468 11.792 L
6.468 11.152 6.187 10.558 QT
5.906 9.964 5.375 9.581 QT
4.843 9.199 4.218 9.199 QT
2.75 9.199 2 9.855 QT
2.406 9.855 2.679 10.167 QT
2.953 10.48 2.953 10.902 QT
2.953 11.339 2.648 11.652 QT
2.343 11.964 1.906 11.964 QT
1.468 11.964 1.156 11.652 QT
0.843 11.339 0.843 10.902 QT
0.843 9.746 1.898 9.183 QT
2.953 8.621 4.218 8.621 QT
5.109 8.621 6.008 9.003 QT
6.906 9.386 7.484 10.089 QT
8.062 10.792 8.062 11.746 QT
8.062 16.699 L
8.062 17.121 8.242 17.48 QT
8.422 17.839 8.812 17.839 QT
9.172 17.839 9.351 17.48 QT
9.531 17.121 9.531 16.699 QT
9.531 15.292 L
10.172 15.292 L
10.172 16.699 L
10.172 17.183 9.914 17.636 QT
9.656 18.089 9.226 18.347 QT
8.797 18.605 8.281 18.605 QT
7.64 18.605 7.172 18.105 QT
6.703 17.605 6.656 16.917 QT
6.25 17.746 5.453 18.238 QT
4.656 18.73 3.75 18.73 QT
2.922 18.73 2.109 18.48 QT
1.297 18.23 0.75 17.699 QT
0.203 17.167 0.203 16.324 QT
cp
2 16.324 M
2 17.089 2.562 17.621 QT
3.125 18.152 3.906 18.152 QT
4.609 18.152 5.195 17.792 QT
5.781 17.433 6.125 16.824 QT
6.468 16.214 6.468 15.542 QT
6.468 13.246 L
5.468 13.246 4.422 13.574 QT
3.375 13.902 2.687 14.597 QT
2 15.292 2 16.324 QT
cp
f
GR
GS
[1 0 0 1 310.50021 742] CT
0.149 GC
N
10.89 18.48 M
10.89 17.699 L
11.656 17.699 12.133 17.581 QT
12.609 17.464 12.609 17.011 QT
12.609 10.996 L
12.609 10.417 12.437 10.152 QT
12.265 9.886 11.929 9.824 QT
11.594 9.761 10.89 9.761 QT
10.89 8.996 L
14.047 8.761 L
14.047 10.902 L
14.406 9.949 15.054 9.355 QT
15.703 8.761 16.64 8.761 QT
17.297 8.761 17.812 9.144 QT
18.328 9.527 18.328 10.167 QT
18.328 10.558 18.047 10.855 QT
17.765 11.152 17.344 11.152 QT
16.937 11.152 16.648 10.863 QT
16.359 10.574 16.359 10.167 QT
16.359 9.574 16.781 9.324 QT
16.64 9.324 L
15.75 9.324 15.187 9.972 QT
14.625 10.621 14.39 11.574 QT
14.156 12.527 14.156 13.402 QT
14.156 17.011 L
14.156 17.699 16.297 17.699 QT
16.297 18.48 L
10.89 18.48 L
cp
f
GR
GS
[1 0 0 1 310.50021 742] CT
0.149 GC
N
26.934 18.48 M
26.934 17.699 L
27.684 17.699 28.169 17.581 QT
28.653 17.464 28.653 17.011 QT
28.653 10.996 L
28.653 10.417 28.473 10.152 QT
28.294 9.886 27.965 9.824 QT
27.637 9.761 26.934 9.761 QT
26.934 8.996 L
30.122 8.761 L
30.122 10.902 L
30.559 9.964 31.426 9.363 QT
32.294 8.761 33.309 8.761 QT
34.84 8.761 35.606 9.488 QT
36.372 10.214 36.372 11.73 QT
36.372 17.011 L
36.372 17.464 36.856 17.581 QT
37.34 17.699 38.09 17.699 QT
38.09 18.48 L
33.059 18.48 L
33.059 17.699 L
33.809 17.699 34.294 17.581 QT
34.778 17.464 34.778 17.011 QT
34.778 11.792 L
34.778 10.714 34.465 10.019 QT
34.153 9.324 33.184 9.324 QT
31.903 9.324 31.083 10.347 QT
30.262 11.371 30.262 12.667 QT
30.262 17.011 L
30.262 17.464 30.747 17.581 QT
31.231 17.699 31.965 17.699 QT
31.965 18.48 L
26.934 18.48 L
cp
f
GR
GS
[1 0 0 1 310.50021 742] CT
0.149 GC
N
40.264 15.855 M
40.264 10.996 L
40.264 10.417 40.084 10.152 QT
39.905 9.886 39.577 9.824 QT
39.248 9.761 38.545 9.761 QT
38.545 8.996 L
41.873 8.761 L
41.873 15.855 L
41.873 16.714 41.998 17.191 QT
42.123 17.667 42.522 17.91 QT
42.92 18.152 43.811 18.152 QT
44.983 18.152 45.686 17.16 QT
46.389 16.167 46.389 14.917 QT
46.389 10.996 L
46.389 10.417 46.202 10.152 QT
46.014 9.886 45.694 9.824 QT
45.373 9.761 44.67 9.761 QT
44.67 8.996 L
47.983 8.761 L
47.983 16.48 L
47.983 17.058 48.162 17.324 QT
48.342 17.589 48.678 17.644 QT
49.014 17.699 49.702 17.699 QT
49.702 18.48 L
46.452 18.73 L
46.452 16.871 L
46.045 17.699 45.311 18.214 QT
44.577 18.73 43.702 18.73 QT
42.123 18.73 41.194 18.058 QT
40.264 17.386 40.264 15.855 QT
cp
f
GR
GS
[1 0 0 1 310.50021 742] CT
0.149 GC
N
50.768 18.48 M
50.768 17.699 L
51.518 17.699 52.002 17.581 QT
52.486 17.464 52.486 17.011 QT
52.486 10.996 L
52.486 10.417 52.307 10.152 QT
52.127 9.886 51.799 9.824 QT
51.471 9.761 50.768 9.761 QT
50.768 8.996 L
53.955 8.761 L
53.955 10.902 L
54.393 9.964 55.26 9.363 QT
56.127 8.761 57.143 8.761 QT
59.689 8.761 60.127 10.824 QT
60.564 9.902 61.416 9.331 QT
62.268 8.761 63.268 8.761 QT
64.268 8.761 64.947 9.081 QT
65.627 9.402 65.971 10.066 QT
66.314 10.73 66.314 11.73 QT
66.314 17.011 L
66.314 17.464 66.807 17.581 QT
67.299 17.699 68.033 17.699 QT
68.033 18.48 L
63.002 18.48 L
63.002 17.699 L
63.752 17.699 64.236 17.581 QT
64.721 17.464 64.721 17.011 QT
64.721 11.792 L
64.721 10.683 64.408 10.003 QT
64.096 9.324 63.127 9.324 QT
61.861 9.324 61.033 10.347 QT
60.205 11.371 60.205 12.667 QT
60.205 17.011 L
60.205 17.464 60.689 17.581 QT
61.174 17.699 61.924 17.699 QT
61.924 18.48 L
56.893 18.48 L
56.893 17.699 L
57.643 17.699 58.127 17.581 QT
58.611 17.464 58.611 17.011 QT
58.611 11.792 L
58.611 10.714 58.299 10.019 QT
57.986 9.324 57.018 9.324 QT
55.736 9.324 54.916 10.347 QT
54.096 11.371 54.096 12.667 QT
54.096 17.011 L
54.096 17.464 54.58 17.581 QT
55.064 17.699 55.799 17.699 QT
55.799 18.48 L
50.768 18.48 L
cp
f
GR
GS
[1 0 0 1 310.50021 742] CT
0.149 GC
N
70.115 18.48 M
70.115 5.464 L
70.115 4.871 69.943 4.605 QT
69.771 4.339 69.435 4.285 QT
69.099 4.23 68.396 4.23 QT
68.396 3.449 L
71.662 3.214 L
71.662 10.105 L
72.021 9.699 72.513 9.386 QT
73.005 9.074 73.56 8.917 QT
74.115 8.761 74.693 8.761 QT
75.693 8.761 76.537 9.16 QT
77.38 9.558 77.998 10.253 QT
78.615 10.949 78.966 11.855 QT
79.318 12.761 79.318 13.73 QT
79.318 15.058 78.669 16.206 QT
78.021 17.355 76.896 18.042 QT
75.771 18.73 74.427 18.73 QT
73.599 18.73 72.81 18.3 QT
72.021 17.871 71.505 17.152 QT
70.755 18.48 L
70.115 18.48 L
cp
71.724 16.324 M
72.084 17.121 72.771 17.636 QT
73.459 18.152 74.302 18.152 QT
75.443 18.152 76.146 17.496 QT
76.849 16.839 77.13 15.839 QT
77.412 14.839 77.412 13.73 QT
77.412 11.871 76.927 10.902 QT
76.709 10.48 76.334 10.113 QT
75.959 9.746 75.505 9.535 QT
75.052 9.324 74.552 9.324 QT
73.662 9.324 72.912 9.792 QT
72.162 10.261 71.724 11.042 QT
71.724 16.324 L
cp
f
GR
GS
[1 0 0 1 310.50021 742] CT
0.149 GC
N
86.151 18.73 M
84.808 18.73 83.683 18.027 QT
82.558 17.324 81.917 16.144 QT
81.276 14.964 81.276 13.652 QT
81.276 12.371 81.862 11.206 QT
82.448 10.042 83.495 9.331 QT
84.542 8.621 85.839 8.621 QT
86.839 8.621 87.589 8.956 QT
88.339 9.292 88.823 9.894 QT
89.308 10.496 89.55 11.316 QT
89.792 12.136 89.792 13.105 QT
89.792 13.402 89.573 13.402 QT
83.198 13.402 L
83.198 13.636 L
83.198 15.464 83.933 16.777 QT
84.667 18.089 86.339 18.089 QT
87.011 18.089 87.589 17.785 QT
88.167 17.48 88.589 16.941 QT
89.011 16.402 89.167 15.792 QT
89.183 15.714 89.245 15.66 QT
89.308 15.605 89.386 15.605 QT
89.573 15.605 L
89.792 15.605 89.792 15.886 QT
89.479 17.121 88.448 17.925 QT
87.417 18.73 86.151 18.73 QT
cp
83.229 12.855 M
88.245 12.855 L
88.245 12.027 88.011 11.175 QT
87.776 10.324 87.237 9.761 QT
86.698 9.199 85.839 9.199 QT
84.589 9.199 83.909 10.363 QT
83.229 11.527 83.229 12.855 QT
cp
f
GR
GS
[1 0 0 1 310.50021 742] CT
0.149 GC
N
91.007 18.48 M
91.007 17.699 L
91.773 17.699 92.249 17.581 QT
92.726 17.464 92.726 17.011 QT
92.726 10.996 L
92.726 10.417 92.554 10.152 QT
92.382 9.886 92.046 9.824 QT
91.71 9.761 91.007 9.761 QT
91.007 8.996 L
94.163 8.761 L
94.163 10.902 L
94.523 9.949 95.171 9.355 QT
95.82 8.761 96.757 8.761 QT
97.413 8.761 97.929 9.144 QT
98.445 9.527 98.445 10.167 QT
98.445 10.558 98.163 10.855 QT
97.882 11.152 97.46 11.152 QT
97.054 11.152 96.765 10.863 QT
96.476 10.574 96.476 10.167 QT
96.476 9.574 96.898 9.324 QT
96.757 9.324 L
95.867 9.324 95.304 9.972 QT
94.742 10.621 94.507 11.574 QT
94.273 12.527 94.273 13.402 QT
94.273 17.011 L
94.273 17.699 96.413 17.699 QT
96.413 18.48 L
91.007 18.48 L
cp
f
GR
GS
[1 0 0 1 310.50021 742] CT
0.149 GC
N
107.067 18.48 M
107.067 17.699 L
107.817 17.699 108.301 17.581 QT
108.785 17.464 108.785 17.011 QT
108.785 5.464 L
108.785 4.871 108.613 4.605 QT
108.442 4.339 108.106 4.285 QT
107.77 4.23 107.067 4.23 QT
107.067 3.449 L
110.332 3.214 L
110.332 17.011 L
110.332 17.464 110.817 17.581 QT
111.301 17.699 112.051 17.699 QT
112.051 18.48 L
107.067 18.48 L
cp
f
GR
GS
0.149 GC
2 setlinecap
1 LJ
0.5 LW
N
78 712 M
78 60 L
S
GR
GS
0.149 GC
2 setlinecap
1 LJ
0.5 LW
N
543 712 M
543 60 L
S
GR
GS
0.149 GC
2 setlinecap
1 LJ
0.5 LW
N
78 712 M
84.52 712 L
S
GR
GS
0.149 GC
2 setlinecap
1 LJ
0.5 LW
N
78 639.556 M
84.52 639.556 L
S
GR
GS
0.149 GC
2 setlinecap
1 LJ
0.5 LW
N
78 567.111 M
84.52 567.111 L
S
GR
GS
0.149 GC
2 setlinecap
1 LJ
0.5 LW
N
78 494.667 M
84.52 494.667 L
S
GR
GS
0.149 GC
2 setlinecap
1 LJ
0.5 LW
N
78 422.222 M
84.52 422.222 L
S
GR
GS
0.149 GC
2 setlinecap
1 LJ
0.5 LW
N
78 349.778 M
84.52 349.778 L
S
GR
GS
0.149 GC
2 setlinecap
1 LJ
0.5 LW
N
78 277.333 M
84.52 277.333 L
S
GR
GS
0.149 GC
2 setlinecap
1 LJ
0.5 LW
N
78 204.889 M
84.52 204.889 L
S
GR
GS
0.149 GC
2 setlinecap
1 LJ
0.5 LW
N
78 132.444 M
84.52 132.444 L
S
GR
GS
0.149 GC
2 setlinecap
1 LJ
0.5 LW
N
78 60 M
84.52 60 L
S
GR
GS
0.149 GC
2 setlinecap
1 LJ
0.5 LW
N
543 712 M
536.48 712 L
S
GR
GS
0.149 GC
2 setlinecap
1 LJ
0.5 LW
N
543 639.556 M
536.48 639.556 L
S
GR
GS
0.149 GC
2 setlinecap
1 LJ
0.5 LW
N
543 567.111 M
536.48 567.111 L
S
GR
GS
0.149 GC
2 setlinecap
1 LJ
0.5 LW
N
543 494.667 M
536.48 494.667 L
S
GR
GS
0.149 GC
2 setlinecap
1 LJ
0.5 LW
N
543 422.222 M
536.48 422.222 L
S
GR
GS
0.149 GC
2 setlinecap
1 LJ
0.5 LW
N
543 349.778 M
536.48 349.778 L
S
GR
GS
0.149 GC
2 setlinecap
1 LJ
0.5 LW
N
543 277.333 M
536.48 277.333 L
S
GR
GS
0.149 GC
2 setlinecap
1 LJ
0.5 LW
N
543 204.889 M
536.48 204.889 L
S
GR
GS
0.149 GC
2 setlinecap
1 LJ
0.5 LW
N
543 132.444 M
536.48 132.444 L
S
GR
GS
0.149 GC
2 setlinecap
1 LJ
0.5 LW
N
543 60 M
536.48 60 L
S
GR
GS
[1 0 0 1 72 712] CT
0.149 GC
/Times-Roman 20 F
GS
[1 0 0 1 0 0] CT
-10 6.5 moveto 
1 -1 scale
(0) t 
GR
GR
GS
[1 0 0 1 72 639.55554] CT
0.149 GC
/Times-Roman 20 F
GS
[1 0 0 1 0 0] CT
-25 6.5 moveto 
1 -1 scale
(0.2) t 
GR
GR
GS
[1 0 0 1 72 567.11108] CT
0.149 GC
/Times-Roman 20 F
GS
[1 0 0 1 0 0] CT
-25 6.5 moveto 
1 -1 scale
(0.4) t 
GR
GR
GS
[1 0 0 1 72 494.66666] CT
0.149 GC
/Times-Roman 20 F
GS
[1 0 0 1 0 0] CT
-25 6.5 moveto 
1 -1 scale
(0.6) t 
GR
GR
GS
[1 0 0 1 72 422.22223] CT
0.149 GC
/Times-Roman 20 F
GS
[1 0 0 1 0 0] CT
-25 6.5 moveto 
1 -1 scale
(0.8) t 
GR
GR
GS
[1 0 0 1 72 349.77777] CT
0.149 GC
/Times-Roman 20 F
GS
[1 0 0 1 0 0] CT
-10 6.5 moveto 
1 -1 scale
(1) t 
GR
GR
GS
[1 0 0 1 72 277.33331] CT
0.149 GC
/Times-Roman 20 F
GS
[1 0 0 1 0 0] CT
-25 6.5 moveto 
1 -1 scale
(1.2) t 
GR
GR
GS
[1 0 0 1 72 204.8889] CT
0.149 GC
/Times-Roman 20 F
GS
[1 0 0 1 0 0] CT
-25 6.5 moveto 
1 -1 scale
(1.4) t 
GR
GR
GS
[1 0 0 1 72 132.44444] CT
0.149 GC
/Times-Roman 20 F
GS
[1 0 0 1 0 0] CT
-25 6.5 moveto 
1 -1 scale
(1.6) t 
GR
GR
GS
[1 0 0 1 72 60.00002] CT
0.149 GC
/Times-Roman 20 F
GS
[1 0 0 1 0 0] CT
-25 6.5 moveto 
1 -1 scale
(1.8) t 
GR
GR
GS
[0 -1 1 0 44 385.99969] CT
0.149 GC
N
-118.603 -2.467 M
-119.837 -3.436 -120.72 -4.686 QT
-121.603 -5.936 -122.165 -7.35 QT
-122.728 -8.764 -123.009 -10.311 QT
-123.29 -11.858 -123.29 -13.42 QT
-123.29 -14.998 -123.009 -16.545 QT
-122.728 -18.092 -122.157 -19.522 QT
-121.587 -20.951 -120.696 -22.194 QT
-119.806 -23.436 -118.603 -24.373 QT
-118.603 -24.42 -118.509 -24.42 QT
-118.29 -24.42 L
-118.228 -24.42 -118.173 -24.358 QT
-118.118 -24.295 -118.118 -24.233 QT
-118.118 -24.123 -118.165 -24.092 QT
-119.243 -23.029 -119.954 -21.826 QT
-120.665 -20.623 -121.103 -19.264 QT
-121.54 -17.904 -121.736 -16.451 QT
-121.931 -14.998 -121.931 -13.42 QT
-121.931 -6.42 -118.196 -2.795 QT
-118.118 -2.733 -118.118 -2.608 QT
-118.118 -2.561 -118.181 -2.49 QT
-118.243 -2.42 -118.29 -2.42 QT
-118.509 -2.42 L
-118.603 -2.42 -118.603 -2.467 QT
cp
f
GR
GS
[0 -1 1 0 44 385.99969] CT
0.149 GC
N
-116.203 -7.92 M
-116.203 -8.701 L
-115.453 -8.701 -114.969 -8.819 QT
-114.485 -8.936 -114.485 -9.389 QT
-114.485 -20.936 L
-114.485 -21.529 -114.656 -21.795 QT
-114.828 -22.061 -115.164 -22.115 QT
-115.5 -22.17 -116.203 -22.17 QT
-116.203 -22.951 L
-112.938 -23.186 L
-112.938 -9.389 L
-112.938 -8.936 -112.453 -8.819 QT
-111.969 -8.701 -111.219 -8.701 QT
-111.219 -7.92 L
-116.203 -7.92 L
cp
f
GR
GS
[0 -1 1 0 44 385.99969] CT
0.149 GC
N
-109.108 -12.983 M
-109.295 -12.983 -109.413 -13.123 QT
-109.53 -13.264 -109.53 -13.42 QT
-109.53 -13.576 -109.413 -13.717 QT
-109.295 -13.858 -109.108 -13.858 QT
-102.639 -13.858 L
-102.639 -20.342 L
-102.639 -20.514 -102.514 -20.631 QT
-102.389 -20.748 -102.202 -20.748 QT
-102.045 -20.748 -101.905 -20.631 QT
-101.764 -20.514 -101.764 -20.342 QT
-101.764 -13.858 L
-95.295 -13.858 L
-95.139 -13.858 -95.022 -13.717 QT
-94.905 -13.576 -94.905 -13.42 QT
-94.905 -13.264 -95.022 -13.123 QT
-95.139 -12.983 -95.295 -12.983 QT
-101.764 -12.983 L
-101.764 -6.498 L
-101.764 -6.326 -101.905 -6.209 QT
-102.045 -6.092 -102.202 -6.092 QT
-102.389 -6.092 -102.514 -6.209 QT
-102.639 -6.326 -102.639 -6.498 QT
-102.639 -12.983 L
-109.108 -12.983 L
cp
f
GR
GS
[0 -1 1 0 44 385.99969] CT
0.149 GC
N
-91.606 -7.92 M
-91.606 -8.701 L
-88.856 -8.701 -88.856 -9.389 QT
-88.856 -20.936 L
-89.997 -20.389 -91.747 -20.389 QT
-91.747 -21.17 L
-89.044 -21.17 -87.669 -22.576 QT
-87.356 -22.576 L
-87.278 -22.576 -87.208 -22.514 QT
-87.137 -22.451 -87.137 -22.373 QT
-87.137 -9.389 L
-87.137 -8.701 -84.387 -8.701 QT
-84.387 -7.92 L
-91.606 -7.92 L
cp
f
GR
GS
[0 -1 1 0 44 385.99969] CT
0.149 GC
N
-81.231 -2.42 M
-81.419 -2.42 -81.419 -2.608 QT
-81.419 -2.717 -81.372 -2.748 QT
-77.622 -6.42 -77.622 -13.42 QT
-77.622 -20.42 -81.325 -24.045 QT
-81.419 -24.092 -81.419 -24.233 QT
-81.419 -24.295 -81.356 -24.358 QT
-81.294 -24.42 -81.231 -24.42 QT
-81.012 -24.42 L
-80.95 -24.42 -80.919 -24.373 QT
-79.34 -23.139 -78.286 -21.35 QT
-77.231 -19.561 -76.739 -17.545 QT
-76.247 -15.529 -76.247 -13.42 QT
-76.247 -11.858 -76.512 -10.35 QT
-76.778 -8.842 -77.348 -7.373 QT
-77.919 -5.904 -78.801 -4.67 QT
-79.684 -3.436 -80.919 -2.467 QT
-80.95 -2.42 -81.012 -2.42 QT
-81.231 -2.42 L
cp
f
GR
GS
[0 -1 1 0 44 385.99969] CT
0.149 GC
N
-66.498 -7.92 M
-66.498 -8.701 L
-65.655 -8.701 -64.912 -9.022 QT
-64.17 -9.342 -63.655 -9.998 QT
-61.655 -12.545 L
-64.264 -15.92 L
-64.655 -16.404 -65.108 -16.522 QT
-65.561 -16.639 -66.389 -16.639 QT
-66.389 -17.404 L
-61.811 -17.404 L
-61.811 -16.639 L
-62.108 -16.639 -62.358 -16.506 QT
-62.608 -16.373 -62.608 -16.123 QT
-62.608 -16.045 -62.545 -15.92 QT
-60.78 -13.639 L
-59.452 -15.326 L
-59.186 -15.654 -59.186 -15.983 QT
-59.186 -16.248 -59.366 -16.444 QT
-59.545 -16.639 -59.842 -16.639 QT
-59.842 -17.404 L
-55.78 -17.404 L
-55.78 -16.639 L
-56.639 -16.639 -57.381 -16.311 QT
-58.123 -15.983 -58.639 -15.326 QT
-60.389 -13.108 L
-57.561 -9.389 L
-57.155 -8.904 -56.702 -8.803 QT
-56.248 -8.701 -55.405 -8.701 QT
-55.405 -7.92 L
-59.983 -7.92 L
-59.983 -8.701 L
-59.717 -8.701 -59.467 -8.826 QT
-59.217 -8.951 -59.217 -9.201 QT
-59.217 -9.295 -59.28 -9.389 QT
-61.264 -12.014 L
-62.842 -9.998 L
-63.092 -9.717 -63.092 -9.342 QT
-63.092 -9.076 -62.905 -8.889 QT
-62.717 -8.701 -62.483 -8.701 QT
-62.483 -7.92 L
-66.498 -7.92 L
cp
f
GR
GS
[0 -1 1 0 44 385.99969] CT
0.149 GC
N
-47.148 -7.92 M
-47.148 -8.701 L
-44.882 -8.701 -44.882 -9.389 QT
-44.882 -21.483 L
-44.882 -22.17 -47.148 -22.17 QT
-47.148 -22.951 L
-40.007 -22.951 L
-40.007 -22.17 L
-42.82 -22.17 -42.82 -21.483 QT
-42.82 -9.389 L
-42.82 -8.92 -42.554 -8.811 QT
-42.288 -8.701 -41.71 -8.701 QT
-40.007 -8.701 L
-38.366 -8.701 -37.476 -9.303 QT
-36.585 -9.904 -36.21 -10.936 QT
-35.835 -11.967 -35.648 -13.686 QT
-35.007 -13.686 L
-35.632 -7.92 L
-47.148 -7.92 L
cp
f
GR
GS
[0 -1 1 0 44 385.99969] CT
0.149 GC
N
-28.585 -7.67 M
-29.929 -7.67 -31.054 -8.373 QT
-32.179 -9.076 -32.819 -10.256 QT
-33.46 -11.436 -33.46 -12.748 QT
-33.46 -14.029 -32.874 -15.194 QT
-32.288 -16.358 -31.241 -17.069 QT
-30.194 -17.779 -28.898 -17.779 QT
-27.898 -17.779 -27.148 -17.444 QT
-26.398 -17.108 -25.913 -16.506 QT
-25.429 -15.904 -25.187 -15.084 QT
-24.944 -14.264 -24.944 -13.295 QT
-24.944 -12.998 -25.163 -12.998 QT
-31.538 -12.998 L
-31.538 -12.764 L
-31.538 -10.936 -30.804 -9.623 QT
-30.069 -8.311 -28.398 -8.311 QT
-27.726 -8.311 -27.148 -8.615 QT
-26.569 -8.92 -26.148 -9.459 QT
-25.726 -9.998 -25.569 -10.608 QT
-25.554 -10.686 -25.491 -10.74 QT
-25.429 -10.795 -25.351 -10.795 QT
-25.163 -10.795 L
-24.944 -10.795 -24.944 -10.514 QT
-25.257 -9.279 -26.288 -8.475 QT
-27.319 -7.67 -28.585 -7.67 QT
cp
-31.507 -13.545 M
-26.491 -13.545 L
-26.491 -14.373 -26.726 -15.225 QT
-26.96 -16.076 -27.499 -16.639 QT
-28.038 -17.201 -28.898 -17.201 QT
-30.148 -17.201 -30.827 -16.037 QT
-31.507 -14.873 -31.507 -13.545 QT
cp
f
GR
GS
[0 -1 1 0 44 385.99969] CT
0.149 GC
N
-18.917 -7.67 M
-20.214 -7.67 -21.292 -8.373 QT
-22.37 -9.076 -22.964 -10.225 QT
-23.557 -11.373 -23.557 -12.67 QT
-23.557 -13.998 -22.909 -15.147 QT
-22.26 -16.295 -21.143 -16.967 QT
-20.026 -17.639 -18.682 -17.639 QT
-17.885 -17.639 -17.159 -17.303 QT
-16.432 -16.967 -15.917 -16.358 QT
-15.917 -20.936 L
-15.917 -21.529 -16.089 -21.795 QT
-16.26 -22.061 -16.589 -22.115 QT
-16.917 -22.17 -17.62 -22.17 QT
-17.62 -22.951 L
-14.37 -23.186 L
-14.37 -9.92 L
-14.37 -9.342 -14.19 -9.076 QT
-14.01 -8.811 -13.682 -8.756 QT
-13.354 -8.701 -12.651 -8.701 QT
-12.651 -7.92 L
-15.979 -7.67 L
-15.979 -9.061 L
-16.542 -8.404 -17.331 -8.037 QT
-18.12 -7.67 -18.917 -7.67 QT
cp
-21.167 -9.826 M
-20.792 -9.108 -20.159 -8.678 QT
-19.526 -8.248 -18.792 -8.248 QT
-17.885 -8.248 -17.12 -8.779 QT
-16.354 -9.311 -15.979 -10.139 QT
-15.979 -15.42 L
-16.229 -15.904 -16.628 -16.287 QT
-17.026 -16.67 -17.51 -16.873 QT
-17.995 -17.076 -18.542 -17.076 QT
-19.698 -17.076 -20.393 -16.428 QT
-21.089 -15.779 -21.37 -14.764 QT
-21.651 -13.748 -21.651 -12.654 QT
-21.651 -11.764 -21.557 -11.108 QT
-21.464 -10.451 -21.167 -9.826 QT
cp
f
GR
GS
[0 -1 1 0 44 385.99969] CT
0.149 GC
N
-6.569 -7.67 M
-7.898 -7.67 -9.023 -8.342 QT
-10.148 -9.014 -10.804 -10.147 QT
-11.46 -11.279 -11.46 -12.608 QT
-11.46 -13.608 -11.101 -14.545 QT
-10.741 -15.483 -10.069 -16.217 QT
-9.398 -16.951 -8.507 -17.365 QT
-7.616 -17.779 -6.569 -17.779 QT
-5.21 -17.779 -4.101 -17.069 QT
-2.991 -16.358 -2.351 -15.154 QT
-1.71 -13.951 -1.71 -12.608 QT
-1.71 -11.279 -2.359 -10.147 QT
-3.007 -9.014 -4.132 -8.342 QT
-5.257 -7.67 -6.569 -7.67 QT
cp
-6.569 -8.311 M
-4.804 -8.311 -4.218 -9.592 QT
-3.632 -10.873 -3.632 -12.858 QT
-3.632 -13.951 -3.749 -14.678 QT
-3.866 -15.404 -4.257 -15.998 QT
-4.507 -16.358 -4.89 -16.631 QT
-5.273 -16.904 -5.694 -17.053 QT
-6.116 -17.201 -6.569 -17.201 QT
-7.257 -17.201 -7.874 -16.889 QT
-8.491 -16.576 -8.898 -15.998 QT
-9.304 -15.373 -9.421 -14.631 QT
-9.538 -13.889 -9.538 -12.858 QT
-9.538 -11.623 -9.319 -10.639 QT
-9.101 -9.654 -8.452 -8.983 QT
-7.804 -8.311 -6.569 -8.311 QT
cp
f
GR
GS
[0 -1 1 0 44 385.99969] CT
0.149 GC
N
1.306 -10.545 M
1.306 -15.404 L
1.306 -15.983 1.126 -16.248 QT
0.946 -16.514 0.618 -16.576 QT
0.29 -16.639 -0.413 -16.639 QT
-0.413 -17.404 L
2.915 -17.639 L
2.915 -10.545 L
2.915 -9.686 3.04 -9.209 QT
3.165 -8.733 3.563 -8.49 QT
3.962 -8.248 4.852 -8.248 QT
6.024 -8.248 6.727 -9.24 QT
7.431 -10.233 7.431 -11.483 QT
7.431 -15.404 L
7.431 -15.983 7.243 -16.248 QT
7.056 -16.514 6.735 -16.576 QT
6.415 -16.639 5.712 -16.639 QT
5.712 -17.404 L
9.024 -17.639 L
9.024 -9.92 L
9.024 -9.342 9.204 -9.076 QT
9.384 -8.811 9.72 -8.756 QT
10.056 -8.701 10.743 -8.701 QT
10.743 -7.92 L
7.493 -7.67 L
7.493 -9.529 L
7.087 -8.701 6.352 -8.186 QT
5.618 -7.67 4.743 -7.67 QT
3.165 -7.67 2.235 -8.342 QT
1.306 -9.014 1.306 -10.545 QT
cp
f
GR
GS
[0 -1 1 0 44 385.99969] CT
0.149 GC
N
11.418 -7.92 M
11.418 -8.701 L
12.262 -8.701 13.004 -9.022 QT
13.747 -9.342 14.262 -9.998 QT
16.262 -12.545 L
13.653 -15.92 L
13.262 -16.404 12.809 -16.522 QT
12.356 -16.639 11.528 -16.639 QT
11.528 -17.404 L
16.106 -17.404 L
16.106 -16.639 L
15.809 -16.639 15.559 -16.506 QT
15.309 -16.373 15.309 -16.123 QT
15.309 -16.045 15.372 -15.92 QT
17.137 -13.639 L
18.465 -15.326 L
18.731 -15.654 18.731 -15.983 QT
18.731 -16.248 18.551 -16.444 QT
18.372 -16.639 18.075 -16.639 QT
18.075 -17.404 L
22.137 -17.404 L
22.137 -16.639 L
21.278 -16.639 20.536 -16.311 QT
19.793 -15.983 19.278 -15.326 QT
17.528 -13.108 L
20.356 -9.389 L
20.762 -8.904 21.215 -8.803 QT
21.668 -8.701 22.512 -8.701 QT
22.512 -7.92 L
17.934 -7.92 L
17.934 -8.701 L
18.2 -8.701 18.45 -8.826 QT
18.7 -8.951 18.7 -9.201 QT
18.7 -9.295 18.637 -9.389 QT
16.653 -12.014 L
15.075 -9.998 L
14.825 -9.717 14.825 -9.342 QT
14.825 -9.076 15.012 -8.889 QT
15.2 -8.701 15.434 -8.701 QT
15.434 -7.92 L
11.418 -7.92 L
cp
f
GR
GS
[0 -1 1 0 44 385.99969] CT
0.149 GC
N
35.582 -7.67 M
34.238 -7.67 33.16 -8.365 QT
32.082 -9.061 31.457 -10.217 QT
30.832 -11.373 30.832 -12.67 QT
30.832 -13.967 31.449 -15.162 QT
32.066 -16.358 33.152 -17.069 QT
34.238 -17.779 35.582 -17.779 QT
36.863 -17.779 37.925 -17.279 QT
38.988 -16.779 38.988 -15.623 QT
38.988 -15.186 38.675 -14.873 QT
38.363 -14.561 37.925 -14.561 QT
37.488 -14.561 37.183 -14.873 QT
36.879 -15.186 36.879 -15.623 QT
36.879 -16.014 37.121 -16.295 QT
37.363 -16.576 37.738 -16.654 QT
36.972 -17.139 35.597 -17.139 QT
34.55 -17.139 33.902 -16.444 QT
33.254 -15.748 32.996 -14.717 QT
32.738 -13.686 32.738 -12.67 QT
32.738 -11.608 33.058 -10.615 QT
33.379 -9.623 34.082 -8.967 QT
34.785 -8.311 35.847 -8.311 QT
36.894 -8.311 37.621 -8.951 QT
38.347 -9.592 38.613 -10.623 QT
38.613 -10.764 38.785 -10.764 QT
39.05 -10.764 L
39.129 -10.764 39.175 -10.701 QT
39.222 -10.639 39.222 -10.561 QT
39.222 -10.498 L
38.894 -9.201 37.91 -8.436 QT
36.925 -7.67 35.582 -7.67 QT
cp
f
GR
GS
[0 -1 1 0 44 385.99969] CT
0.149 GC
N
45.375 -7.67 M
44.047 -7.67 42.922 -8.342 QT
41.797 -9.014 41.141 -10.147 QT
40.484 -11.279 40.484 -12.608 QT
40.484 -13.608 40.844 -14.545 QT
41.203 -15.483 41.875 -16.217 QT
42.547 -16.951 43.438 -17.365 QT
44.328 -17.779 45.375 -17.779 QT
46.734 -17.779 47.844 -17.069 QT
48.953 -16.358 49.594 -15.154 QT
50.234 -13.951 50.234 -12.608 QT
50.234 -11.279 49.586 -10.147 QT
48.938 -9.014 47.813 -8.342 QT
46.688 -7.67 45.375 -7.67 QT
cp
45.375 -8.311 M
47.141 -8.311 47.727 -9.592 QT
48.313 -10.873 48.313 -12.858 QT
48.313 -13.951 48.195 -14.678 QT
48.078 -15.404 47.688 -15.998 QT
47.438 -16.358 47.055 -16.631 QT
46.672 -16.904 46.25 -17.053 QT
45.828 -17.201 45.375 -17.201 QT
44.688 -17.201 44.07 -16.889 QT
43.453 -16.576 43.047 -15.998 QT
42.641 -15.373 42.524 -14.631 QT
42.406 -13.889 42.406 -12.858 QT
42.406 -11.623 42.625 -10.639 QT
42.844 -9.654 43.492 -8.983 QT
44.141 -8.311 45.375 -8.311 QT
cp
f
GR
GS
[0 -1 1 0 44 385.99969] CT
0.149 GC
N
56.971 -7.67 M
55.627 -7.67 54.502 -8.373 QT
53.377 -9.076 52.736 -10.256 QT
52.096 -11.436 52.096 -12.748 QT
52.096 -14.029 52.682 -15.194 QT
53.268 -16.358 54.314 -17.069 QT
55.361 -17.779 56.658 -17.779 QT
57.658 -17.779 58.408 -17.444 QT
59.158 -17.108 59.643 -16.506 QT
60.127 -15.904 60.369 -15.084 QT
60.611 -14.264 60.611 -13.295 QT
60.611 -12.998 60.393 -12.998 QT
54.018 -12.998 L
54.018 -12.764 L
54.018 -10.936 54.752 -9.623 QT
55.486 -8.311 57.158 -8.311 QT
57.83 -8.311 58.408 -8.615 QT
58.986 -8.92 59.408 -9.459 QT
59.83 -9.998 59.986 -10.608 QT
60.002 -10.686 60.064 -10.74 QT
60.127 -10.795 60.205 -10.795 QT
60.393 -10.795 L
60.611 -10.795 60.611 -10.514 QT
60.299 -9.279 59.268 -8.475 QT
58.236 -7.67 56.971 -7.67 QT
cp
54.049 -13.545 M
59.064 -13.545 L
59.064 -14.373 58.83 -15.225 QT
58.596 -16.076 58.057 -16.639 QT
57.518 -17.201 56.658 -17.201 QT
55.408 -17.201 54.728 -16.037 QT
54.049 -14.873 54.049 -13.545 QT
cp
f
GR
GS
[0 -1 1 0 44 385.99969] CT
0.149 GC
N
61.827 -7.92 M
61.827 -8.701 L
62.592 -8.701 63.069 -8.819 QT
63.545 -8.936 63.545 -9.389 QT
63.545 -16.639 L
61.858 -16.639 L
61.858 -17.404 L
63.545 -17.404 L
63.545 -20.045 L
63.545 -20.858 64.014 -21.514 QT
64.483 -22.17 65.209 -22.584 QT
65.936 -22.998 66.787 -23.217 QT
67.639 -23.436 68.42 -23.436 QT
69.155 -23.436 69.819 -23.115 QT
70.483 -22.795 70.795 -22.217 QT
72.248 -23.436 74.545 -23.436 QT
75.202 -23.436 75.827 -23.162 QT
76.452 -22.889 76.858 -22.365 QT
77.264 -21.842 77.264 -21.17 QT
77.264 -20.733 76.952 -20.42 QT
76.639 -20.108 76.202 -20.108 QT
75.748 -20.108 75.444 -20.412 QT
75.139 -20.717 75.139 -21.17 QT
75.139 -21.592 75.428 -21.904 QT
75.717 -22.217 76.139 -22.217 QT
75.452 -22.858 74.373 -22.858 QT
73.592 -22.858 72.827 -22.498 QT
72.061 -22.139 71.592 -21.475 QT
71.123 -20.811 71.123 -19.998 QT
71.123 -17.404 L
74.03 -17.404 L
77.28 -17.686 L
77.28 -9.389 L
77.28 -8.936 77.764 -8.819 QT
78.248 -8.701 78.998 -8.701 QT
78.998 -7.92 L
74.03 -7.92 L
74.03 -8.701 L
74.78 -8.701 75.264 -8.819 QT
75.748 -8.936 75.748 -9.389 QT
75.748 -15.436 L
75.748 -16.061 75.6 -16.311 QT
75.452 -16.561 74.889 -16.639 QT
71.186 -16.639 L
71.186 -9.389 L
71.186 -8.936 71.67 -8.819 QT
72.155 -8.701 72.905 -8.701 QT
72.905 -7.92 L
67.936 -7.92 L
67.936 -8.701 L
68.67 -8.701 69.155 -8.819 QT
69.639 -8.936 69.639 -9.389 QT
69.639 -16.639 L
65.092 -16.639 L
65.092 -9.389 L
65.092 -8.936 65.577 -8.819 QT
66.061 -8.701 66.811 -8.701 QT
66.811 -7.92 L
61.827 -7.92 L
cp
65.03 -17.404 M
69.639 -17.404 L
69.639 -20.045 L
69.639 -20.17 L
69.327 -20.295 69.155 -20.569 QT
68.983 -20.842 68.983 -21.17 QT
68.983 -21.592 69.272 -21.904 QT
69.561 -22.217 69.983 -22.217 QT
69.295 -22.858 68.233 -22.858 QT
67.436 -22.858 66.686 -22.49 QT
65.936 -22.123 65.483 -21.459 QT
65.03 -20.795 65.03 -19.998 QT
65.03 -17.404 L
cp
f
GR
GS
[0 -1 1 0 44 385.99969] CT
0.149 GC
N
85.082 -7.67 M
83.738 -7.67 82.66 -8.365 QT
81.582 -9.061 80.957 -10.217 QT
80.332 -11.373 80.332 -12.67 QT
80.332 -13.967 80.949 -15.162 QT
81.566 -16.358 82.652 -17.069 QT
83.738 -17.779 85.082 -17.779 QT
86.363 -17.779 87.426 -17.279 QT
88.488 -16.779 88.488 -15.623 QT
88.488 -15.186 88.176 -14.873 QT
87.863 -14.561 87.426 -14.561 QT
86.988 -14.561 86.683 -14.873 QT
86.379 -15.186 86.379 -15.623 QT
86.379 -16.014 86.621 -16.295 QT
86.863 -16.576 87.238 -16.654 QT
86.472 -17.139 85.097 -17.139 QT
84.051 -17.139 83.402 -16.444 QT
82.754 -15.748 82.496 -14.717 QT
82.238 -13.686 82.238 -12.67 QT
82.238 -11.608 82.558 -10.615 QT
82.879 -9.623 83.582 -8.967 QT
84.285 -8.311 85.347 -8.311 QT
86.394 -8.311 87.121 -8.951 QT
87.847 -9.592 88.113 -10.623 QT
88.113 -10.764 88.285 -10.764 QT
88.551 -10.764 L
88.629 -10.764 88.676 -10.701 QT
88.722 -10.639 88.722 -10.561 QT
88.722 -10.498 L
88.394 -9.201 87.41 -8.436 QT
86.426 -7.67 85.082 -7.67 QT
cp
f
GR
GS
[0 -1 1 0 44 385.99969] CT
0.149 GC
N
90.047 -7.92 M
90.047 -8.701 L
90.797 -8.701 91.281 -8.819 QT
91.766 -8.936 91.766 -9.389 QT
91.766 -15.404 L
91.766 -16.248 91.438 -16.444 QT
91.11 -16.639 90.156 -16.639 QT
90.156 -17.404 L
93.313 -17.639 L
93.313 -9.389 L
93.313 -8.936 93.735 -8.819 QT
94.156 -8.701 94.86 -8.701 QT
94.86 -7.92 L
90.047 -7.92 L
cp
90.985 -21.42 M
90.985 -21.904 91.352 -22.272 QT
91.719 -22.639 92.188 -22.639 QT
92.5 -22.639 92.789 -22.475 QT
93.078 -22.311 93.242 -22.022 QT
93.406 -21.733 93.406 -21.42 QT
93.406 -20.951 93.039 -20.584 QT
92.672 -20.217 92.188 -20.217 QT
91.719 -20.217 91.352 -20.584 QT
90.985 -20.951 90.985 -21.42 QT
cp
f
GR
GS
[0 -1 1 0 44 385.99969] CT
0.149 GC
N
100.971 -7.67 M
99.627 -7.67 98.502 -8.373 QT
97.377 -9.076 96.736 -10.256 QT
96.096 -11.436 96.096 -12.748 QT
96.096 -14.029 96.682 -15.194 QT
97.268 -16.358 98.314 -17.069 QT
99.361 -17.779 100.658 -17.779 QT
101.658 -17.779 102.408 -17.444 QT
103.158 -17.108 103.643 -16.506 QT
104.127 -15.904 104.369 -15.084 QT
104.611 -14.264 104.611 -13.295 QT
104.611 -12.998 104.393 -12.998 QT
98.018 -12.998 L
98.018 -12.764 L
98.018 -10.936 98.752 -9.623 QT
99.486 -8.311 101.158 -8.311 QT
101.83 -8.311 102.408 -8.615 QT
102.986 -8.92 103.408 -9.459 QT
103.83 -9.998 103.986 -10.608 QT
104.002 -10.686 104.064 -10.74 QT
104.127 -10.795 104.205 -10.795 QT
104.393 -10.795 L
104.611 -10.795 104.611 -10.514 QT
104.299 -9.279 103.268 -8.475 QT
102.236 -7.67 100.971 -7.67 QT
cp
98.049 -13.545 M
103.064 -13.545 L
103.064 -14.373 102.83 -15.225 QT
102.596 -16.076 102.057 -16.639 QT
101.518 -17.201 100.658 -17.201 QT
99.408 -17.201 98.729 -16.037 QT
98.049 -14.873 98.049 -13.545 QT
cp
f
GR
GS
[0 -1 1 0 44 385.99969] CT
0.149 GC
N
105.92 -7.92 M
105.92 -8.701 L
106.67 -8.701 107.155 -8.819 QT
107.639 -8.936 107.639 -9.389 QT
107.639 -15.404 L
107.639 -15.983 107.459 -16.248 QT
107.28 -16.514 106.952 -16.576 QT
106.623 -16.639 105.92 -16.639 QT
105.92 -17.404 L
109.108 -17.639 L
109.108 -15.498 L
109.545 -16.436 110.413 -17.037 QT
111.28 -17.639 112.295 -17.639 QT
113.827 -17.639 114.592 -16.912 QT
115.358 -16.186 115.358 -14.67 QT
115.358 -9.389 L
115.358 -8.936 115.842 -8.819 QT
116.327 -8.701 117.077 -8.701 QT
117.077 -7.92 L
112.045 -7.92 L
112.045 -8.701 L
112.795 -8.701 113.28 -8.819 QT
113.764 -8.936 113.764 -9.389 QT
113.764 -14.608 L
113.764 -15.686 113.452 -16.381 QT
113.139 -17.076 112.17 -17.076 QT
110.889 -17.076 110.069 -16.053 QT
109.248 -15.029 109.248 -13.733 QT
109.248 -9.389 L
109.248 -8.936 109.733 -8.819 QT
110.217 -8.701 110.952 -8.701 QT
110.952 -7.92 L
105.92 -7.92 L
cp
f
GR
GS
[0 -1 1 0 44 385.99969] CT
0.149 GC
N
119.125 -10.561 M
119.125 -16.639 L
117.297 -16.639 L
117.297 -17.201 L
118.735 -17.201 119.414 -18.545 QT
120.094 -19.889 120.094 -21.451 QT
120.719 -21.451 L
120.719 -17.404 L
123.828 -17.404 L
123.828 -16.639 L
120.719 -16.639 L
120.719 -10.608 L
120.719 -9.686 121.024 -8.998 QT
121.328 -8.311 122.125 -8.311 QT
122.875 -8.311 123.211 -9.037 QT
123.547 -9.764 123.547 -10.608 QT
123.547 -11.904 L
124.188 -11.904 L
124.188 -10.561 L
124.188 -9.873 123.93 -9.201 QT
123.672 -8.529 123.18 -8.1 QT
122.688 -7.67 121.985 -7.67 QT
120.656 -7.67 119.891 -8.459 QT
119.125 -9.248 119.125 -10.561 QT
cp
f
GR
GS
[1 0 0 1 310.50031 54.50002] CT
/Times-Bold 22 F
GS
[1 0 0 1 0 0] CT
-236.5 -57 moveto 
1 -1 scale
(C_{nl} Ledoux coefficients x \(l+1\) for modes _nS_l) t 
GR
GR
GS
[1 0 0 1 310.50031 54.50002] CT
/Times-Bold 22 F
GS
[1 0 0 1 0 0] CT
-312 -31 moveto 
1 -1 scale
(in a spherical shell of fluid enclosed between inner and outer shells) t 
GR
GR
GS
[1 0 0 1 310.50031 54.50002] CT
/Times-Bold 22 F
GS
[1 0 0 1 0 0] CT
-225 -5 moveto 
1 -1 scale
(sphere type : ZoRo2-N2-rigid       \(11-Aug-2021\)) t 
GR
GR
GS
[1 0 0 1 78 710.69037] CT
1 0 0 RC
N
3 0 M
3 -1.657 1.657 -3 0 -3 C
-1.657 -3 -3 -1.657 -3 0 C
-3 1.657 -1.657 3 0 3 C
1.657 3 3 1.657 3 0 C
cp
f
GR
GS
[1 0 0 1 78 710.69037] CT
1 0 0 RC
10.0 ML
N
3 0 M
3 -1.657 1.657 -3 0 -3 C
-1.657 -3 -3 -1.657 -3 0 C
-3 1.657 -1.657 3 0 3 C
1.657 3 3 1.657 3 0 C
cp
S
GR
GS
[1 0 0 1 103.83334 709.68414] CT
1 0 0 RC
N
/f-2087191549{3 0 M
3 -1.657 1.657 -3 0 -3 C
-1.657 -3 -3 -1.657 -3 0 C
-3 1.657 -1.657 3 0 3 C
1.657 3 3 1.657 3 0 C
cp}def
f-2087191549
f
GR
GS
[1 0 0 1 103.83334 709.68414] CT
1 0 0 RC
10.0 ML
N
3 0 M
3 -1.657 1.657 -3 0 -3 C
-1.657 -3 -3 -1.657 -3 0 C
-3 1.657 -1.657 3 0 3 C
1.657 3 3 1.657 3 0 C
cp
S
GR
GS
[1 0 0 1 129.66667 708.89099] CT
1 0 0 RC
N
f-2087191549
f
GR
GS
[1 0 0 1 129.66667 708.89099] CT
1 0 0 RC
10.0 ML
N
3 0 M
3 -1.657 1.657 -3 0 -3 C
-1.657 -3 -3 -1.657 -3 0 C
-3 1.657 -1.657 3 0 3 C
1.657 3 3 1.657 3 0 C
cp
S
GR
GS
[1 0 0 1 155.5 708.25287] CT
1 0 0 RC
N
f-2087191549
f
GR
GS
[1 0 0 1 155.5 708.25287] CT
1 0 0 RC
10.0 ML
N
3 0 M
3 -1.657 1.657 -3 0 -3 C
-1.657 -3 -3 -1.657 -3 0 C
-3 1.657 -1.657 3 0 3 C
1.657 3 3 1.657 3 0 C
cp
S
GR
GS
[1 0 0 1 181.33333 707.73114] CT
1 0 0 RC
N
f-2087191549
f
GR
GS
[1 0 0 1 181.33333 707.73114] CT
1 0 0 RC
10.0 ML
N
3 0 M
3 -1.657 1.657 -3 0 -3 C
-1.657 -3 -3 -1.657 -3 0 C
-3 1.657 -1.657 3 0 3 C
1.657 3 3 1.657 3 0 C
cp
S
GR
GS
[1 0 0 1 207.16667 707.29871] CT
1 0 0 RC
N
f-2087191549
f
GR
GS
[1 0 0 1 207.16667 707.29871] CT
1 0 0 RC
10.0 ML
N
3 0 M
3 -1.657 1.657 -3 0 -3 C
-1.657 -3 -3 -1.657 -3 0 C
-3 1.657 -1.657 3 0 3 C
1.657 3 3 1.657 3 0 C
cp
S
GR
GS
[1 0 0 1 233 706.93622] CT
1 0 0 RC
N
f-2087191549
f
GR
GS
[1 0 0 1 233 706.93622] CT
1 0 0 RC
10.0 ML
N
3 0 M
3 -1.657 1.657 -3 0 -3 C
-1.657 -3 -3 -1.657 -3 0 C
-3 1.657 -1.657 3 0 3 C
1.657 3 3 1.657 3 0 C
cp
S
GR
GS
[1 0 0 1 258.83334 706.62958] CT
1 0 0 RC
N
f-2087191549
f
GR
GS
[1 0 0 1 258.83334 706.62958] CT
1 0 0 RC
10.0 ML
N
3 0 M
3 -1.657 1.657 -3 0 -3 C
-1.657 -3 -3 -1.657 -3 0 C
-3 1.657 -1.657 3 0 3 C
1.657 3 3 1.657 3 0 C
cp
S
GR
GS
[1 0 0 1 284.66666 706.36804] CT
1 0 0 RC
N
f-2087191549
f
GR
GS
[1 0 0 1 284.66666 706.36804] CT
1 0 0 RC
10.0 ML
N
3 0 M
3 -1.657 1.657 -3 0 -3 C
-1.657 -3 -3 -1.657 -3 0 C
-3 1.657 -1.657 3 0 3 C
1.657 3 3 1.657 3 0 C
cp
S
GR
GS
[1 0 0 1 310.5 706.14343] CT
1 0 0 RC
N
f-2087191549
f
GR
GS
[1 0 0 1 310.5 706.14343] CT
1 0 0 RC
10.0 ML
N
3 0 M
3 -1.657 1.657 -3 0 -3 C
-1.657 -3 -3 -1.657 -3 0 C
-3 1.657 -1.657 3 0 3 C
1.657 3 3 1.657 3 0 C
cp
S
GR
GS
[1 0 0 1 336.33334 705.9494] CT
1 0 0 RC
N
f-2087191549
f
GR
GS
[1 0 0 1 336.33334 705.9494] CT
1 0 0 RC
10.0 ML
N
3 0 M
3 -1.657 1.657 -3 0 -3 C
-1.657 -3 -3 -1.657 -3 0 C
-3 1.657 -1.657 3 0 3 C
1.657 3 3 1.657 3 0 C
cp
S
GR
GS
[1 0 0 1 362.16666 705.78101] CT
1 0 0 RC
N
f-2087191549
f
GR
GS
[1 0 0 1 362.16666 705.78101] CT
1 0 0 RC
10.0 ML
N
3 0 M
3 -1.657 1.657 -3 0 -3 C
-1.657 -3 -3 -1.657 -3 0 C
-3 1.657 -1.657 3 0 3 C
1.657 3 3 1.657 3 0 C
cp
S
GR
GS
[1 0 0 1 388 705.63409] CT
1 0 0 RC
N
f-2087191549
f
GR
GS
[1 0 0 1 388 705.63409] CT
1 0 0 RC
10.0 ML
N
3 0 M
3 -1.657 1.657 -3 0 -3 C
-1.657 -3 -3 -1.657 -3 0 C
-3 1.657 -1.657 3 0 3 C
1.657 3 3 1.657 3 0 C
cp
S
GR
GS
[1 0 0 1 413.83334 705.50555] CT
1 0 0 RC
N
f-2087191549
f
GR
GS
[1 0 0 1 413.83334 705.50555] CT
1 0 0 RC
10.0 ML
N
3 0 M
3 -1.657 1.657 -3 0 -3 C
-1.657 -3 -3 -1.657 -3 0 C
-3 1.657 -1.657 3 0 3 C
1.657 3 3 1.657 3 0 C
cp
S
GR
GS
[1 0 0 1 439.66666 705.3927] CT
1 0 0 RC
N
f-2087191549
f
GR
GS
[1 0 0 1 439.66666 705.3927] CT
1 0 0 RC
10.0 ML
N
3 0 M
3 -1.657 1.657 -3 0 -3 C
-1.657 -3 -3 -1.657 -3 0 C
-3 1.657 -1.657 3 0 3 C
1.657 3 3 1.657 3 0 C
cp
S
GR
GS
[1 0 0 1 465.5 705.2934] CT
1 0 0 RC
N
f-2087191549
f
GR
GS
[1 0 0 1 465.5 705.2934] CT
1 0 0 RC
10.0 ML
N
3 0 M
3 -1.657 1.657 -3 0 -3 C
-1.657 -3 -3 -1.657 -3 0 C
-3 1.657 -1.657 3 0 3 C
1.657 3 3 1.657 3 0 C
cp
S
GR
GS
[1 0 0 1 491.33334 705.20575] CT
1 0 0 RC
N
f-2087191549
f
GR
GS
[1 0 0 1 491.33334 705.20575] CT
1 0 0 RC
10.0 ML
N
3 0 M
3 -1.657 1.657 -3 0 -3 C
-1.657 -3 -3 -1.657 -3 0 C
-3 1.657 -1.657 3 0 3 C
1.657 3 3 1.657 3 0 C
cp
S
GR
GS
[1 0 0 1 517.16669 705.1283] CT
1 0 0 RC
N
f-2087191549
f
GR
GS
[1 0 0 1 517.16669 705.1283] CT
1 0 0 RC
10.0 ML
N
3 0 M
3 -1.657 1.657 -3 0 -3 C
-1.657 -3 -3 -1.657 -3 0 C
-3 1.657 -1.657 3 0 3 C
1.657 3 3 1.657 3 0 C
cp
S
GR
GS
[1 0 0 1 543 705.05975] CT
1 0 0 RC
N
f-2087191549
f
GR
GS
[1 0 0 1 543 705.05975] CT
1 0 0 RC
10.0 ML
N
3 0 M
3 -1.657 1.657 -3 0 -3 C
-1.657 -3 -3 -1.657 -3 0 C
-3 1.657 -1.657 3 0 3 C
1.657 3 3 1.657 3 0 C
cp
S
GR
GS
[1 0 0 1 78 710.25433] CT
0 0 1 RC
N
/f1485265658{-2.598 -1.5 M
-0.866 -1.5 L
0 -3 L
0.866 -1.5 L
2.598 -1.5 L
1.5 0 L
2.598 1.5 L
0.866 1.5 L
0 3 L
-0.866 1.5 L
-2.598 1.5 L
-1.5 0 L
cp}def
f1485265658
f
GR
GS
[1 0 0 1 78 710.25433] CT
0 0 1 RC
10.0 ML
N
-2.598 -1.5 M
-0.866 -1.5 L
0 -3 L
0.866 -1.5 L
2.598 -1.5 L
1.5 0 L
2.598 1.5 L
0.866 1.5 L
0 3 L
-0.866 1.5 L
-2.598 1.5 L
-1.5 0 L
cp
S
GR
GS
[1 0 0 1 103.83334 708.96631] CT
0 0 1 RC
N
f1485265658
f
GR
GS
[1 0 0 1 103.83334 708.96631] CT
0 0 1 RC
10.0 ML
N
-2.598 -1.5 M
-0.866 -1.5 L
0 -3 L
0.866 -1.5 L
2.598 -1.5 L
1.5 0 L
2.598 1.5 L
0.866 1.5 L
0 3 L
-0.866 1.5 L
-2.598 1.5 L
-1.5 0 L
cp
S
GR
GS
[1 0 0 1 129.66667 707.98358] CT
0 0 1 RC
N
f1485265658
f
GR
GS
[1 0 0 1 129.66667 707.98358] CT
0 0 1 RC
10.0 ML
N
-2.598 -1.5 M
-0.866 -1.5 L
0 -3 L
0.866 -1.5 L
2.598 -1.5 L
1.5 0 L
2.598 1.5 L
0.866 1.5 L
0 3 L
-0.866 1.5 L
-2.598 1.5 L
-1.5 0 L
cp
S
GR
GS
[1 0 0 1 155.5 707.21448] CT
0 0 1 RC
N
f1485265658
f
GR
GS
[1 0 0 1 155.5 707.21448] CT
0 0 1 RC
10.0 ML
N
-2.598 -1.5 M
-0.866 -1.5 L
0 -3 L
0.866 -1.5 L
2.598 -1.5 L
1.5 0 L
2.598 1.5 L
0.866 1.5 L
0 3 L
-0.866 1.5 L
-2.598 1.5 L
-1.5 0 L
cp
S
GR
GS
[1 0 0 1 181.33333 706.60022] CT
0 0 1 RC
N
f1485265658
f
GR
GS
[1 0 0 1 181.33333 706.60022] CT
0 0 1 RC
10.0 ML
N
-2.598 -1.5 M
-0.866 -1.5 L
0 -3 L
0.866 -1.5 L
2.598 -1.5 L
1.5 0 L
2.598 1.5 L
0.866 1.5 L
0 3 L
-0.866 1.5 L
-2.598 1.5 L
-1.5 0 L
cp
S
GR
GS
[1 0 0 1 207.16667 706.10175] CT
0 0 1 RC
N
f1485265658
f
GR
GS
[1 0 0 1 207.16667 706.10175] CT
0 0 1 RC
10.0 ML
N
-2.598 -1.5 M
-0.866 -1.5 L
0 -3 L
0.866 -1.5 L
2.598 -1.5 L
1.5 0 L
2.598 1.5 L
0.866 1.5 L
0 3 L
-0.866 1.5 L
-2.598 1.5 L
-1.5 0 L
cp
S
GR
GS
[1 0 0 1 233 705.69183] CT
0 0 1 RC
N
f1485265658
f
GR
GS
[1 0 0 1 233 705.69183] CT
0 0 1 RC
10.0 ML
N
-2.598 -1.5 M
-0.866 -1.5 L
0 -3 L
0.866 -1.5 L
2.598 -1.5 L
1.5 0 L
2.598 1.5 L
0.866 1.5 L
0 3 L
-0.866 1.5 L
-2.598 1.5 L
-1.5 0 L
cp
S
GR
GS
[1 0 0 1 258.83334 705.35114] CT
0 0 1 RC
N
f1485265658
f
GR
GS
[1 0 0 1 258.83334 705.35114] CT
0 0 1 RC
10.0 ML
N
-2.598 -1.5 M
-0.866 -1.5 L
0 -3 L
0.866 -1.5 L
2.598 -1.5 L
1.5 0 L
2.598 1.5 L
0.866 1.5 L
0 3 L
-0.866 1.5 L
-2.598 1.5 L
-1.5 0 L
cp
S
GR
GS
[1 0 0 1 284.66666 705.06531] CT
0 0 1 RC
N
f1485265658
f
GR
GS
[1 0 0 1 284.66666 705.06531] CT
0 0 1 RC
10.0 ML
N
-2.598 -1.5 M
-0.866 -1.5 L
0 -3 L
0.866 -1.5 L
2.598 -1.5 L
1.5 0 L
2.598 1.5 L
0.866 1.5 L
0 3 L
-0.866 1.5 L
-2.598 1.5 L
-1.5 0 L
cp
S
GR
GS
[1 0 0 1 310.5 704.82373] CT
0 0 1 RC
N
f1485265658
f
GR
GS
[1 0 0 1 310.5 704.82373] CT
0 0 1 RC
10.0 ML
N
-2.598 -1.5 M
-0.866 -1.5 L
0 -3 L
0.866 -1.5 L
2.598 -1.5 L
1.5 0 L
2.598 1.5 L
0.866 1.5 L
0 3 L
-0.866 1.5 L
-2.598 1.5 L
-1.5 0 L
cp
S
GR
GS
[1 0 0 1 336.33334 704.61829] CT
0 0 1 RC
N
f1485265658
f
GR
GS
[1 0 0 1 336.33334 704.61829] CT
0 0 1 RC
10.0 ML
N
-2.598 -1.5 M
-0.866 -1.5 L
0 -3 L
0.866 -1.5 L
2.598 -1.5 L
1.5 0 L
2.598 1.5 L
0.866 1.5 L
0 3 L
-0.866 1.5 L
-2.598 1.5 L
-1.5 0 L
cp
S
GR
GS
[1 0 0 1 362.16666 704.44263] CT
0 0 1 RC
N
f1485265658
f
GR
GS
[1 0 0 1 362.16666 704.44263] CT
0 0 1 RC
10.0 ML
N
-2.598 -1.5 M
-0.866 -1.5 L
0 -3 L
0.866 -1.5 L
2.598 -1.5 L
1.5 0 L
2.598 1.5 L
0.866 1.5 L
0 3 L
-0.866 1.5 L
-2.598 1.5 L
-1.5 0 L
cp
S
GR
GS
[1 0 0 1 388 704.29175] CT
0 0 1 RC
N
f1485265658
f
GR
GS
[1 0 0 1 388 704.29175] CT
0 0 1 RC
10.0 ML
N
-2.598 -1.5 M
-0.866 -1.5 L
0 -3 L
0.866 -1.5 L
2.598 -1.5 L
1.5 0 L
2.598 1.5 L
0.866 1.5 L
0 3 L
-0.866 1.5 L
-2.598 1.5 L
-1.5 0 L
cp
S
GR
GS
[1 0 0 1 413.83334 704.16174] CT
0 0 1 RC
N
f1485265658
f
GR
GS
[1 0 0 1 413.83334 704.16174] CT
0 0 1 RC
10.0 ML
N
-2.598 -1.5 M
-0.866 -1.5 L
0 -3 L
0.866 -1.5 L
2.598 -1.5 L
1.5 0 L
2.598 1.5 L
0.866 1.5 L
0 3 L
-0.866 1.5 L
-2.598 1.5 L
-1.5 0 L
cp
S
GR
GS
[1 0 0 1 439.66666 704.04938] CT
0 0 1 RC
N
f1485265658
f
GR
GS
[1 0 0 1 439.66666 704.04938] CT
0 0 1 RC
10.0 ML
N
-2.598 -1.5 M
-0.866 -1.5 L
0 -3 L
0.866 -1.5 L
2.598 -1.5 L
1.5 0 L
2.598 1.5 L
0.866 1.5 L
0 3 L
-0.866 1.5 L
-2.598 1.5 L
-1.5 0 L
cp
S
GR
GS
[1 0 0 1 465.5 703.95203] CT
0 0 1 RC
N
f1485265658
f
GR
GS
[1 0 0 1 465.5 703.95203] CT
0 0 1 RC
10.0 ML
N
-2.598 -1.5 M
-0.866 -1.5 L
0 -3 L
0.866 -1.5 L
2.598 -1.5 L
1.5 0 L
2.598 1.5 L
0.866 1.5 L
0 3 L
-0.866 1.5 L
-2.598 1.5 L
-1.5 0 L
cp
S
GR
GS
[1 0 0 1 491.33334 703.86761] CT
0 0 1 RC
N
f1485265658
f
GR
GS
[1 0 0 1 491.33334 703.86761] CT
0 0 1 RC
10.0 ML
N
-2.598 -1.5 M
-0.866 -1.5 L
0 -3 L
0.866 -1.5 L
2.598 -1.5 L
1.5 0 L
2.598 1.5 L
0.866 1.5 L
0 3 L
-0.866 1.5 L
-2.598 1.5 L
-1.5 0 L
cp
S
GR
GS
[1 0 0 1 517.16669 703.79431] CT
0 0 1 RC
N
f1485265658
f
GR
GS
[1 0 0 1 517.16669 703.79431] CT
0 0 1 RC
10.0 ML
N
-2.598 -1.5 M
-0.866 -1.5 L
0 -3 L
0.866 -1.5 L
2.598 -1.5 L
1.5 0 L
2.598 1.5 L
0.866 1.5 L
0 3 L
-0.866 1.5 L
-2.598 1.5 L
-1.5 0 L
cp
S
GR
GS
[1 0 0 1 543 703.73071] CT
0 0 1 RC
N
f1485265658
f
GR
GS
[1 0 0 1 543 703.73071] CT
0 0 1 RC
10.0 ML
N
-2.598 -1.5 M
-0.866 -1.5 L
0 -3 L
0.866 -1.5 L
2.598 -1.5 L
1.5 0 L
2.598 1.5 L
0.866 1.5 L
0 3 L
-0.866 1.5 L
-2.598 1.5 L
-1.5 0 L
cp
S
GR
GS
[1 0 0 1 78 709.55713] CT
N
/f-500281869{-2.853 -0.927 M
-0.705 -0.927 L
0 -3 L
0.705 -0.927 L
2.853 -0.927 L
1.141 0.371 L
1.763 2.427 L
0 1.2 L
-1.763 2.427 L
-1.141 0.371 L
cp}def
f-500281869
f
GR
GS
[1 0 0 1 78 709.55713] CT
10.0 ML
N
-2.853 -0.927 M
-0.705 -0.927 L
0 -3 L
0.705 -0.927 L
2.853 -0.927 L
1.141 0.371 L
1.763 2.427 L
0 1.2 L
-1.763 2.427 L
-1.141 0.371 L
cp
S
GR
GS
[1 0 0 1 103.83334 707.85187] CT
N
f-500281869
f
GR
GS
[1 0 0 1 103.83334 707.85187] CT
10.0 ML
N
-2.853 -0.927 M
-0.705 -0.927 L
0 -3 L
0.705 -0.927 L
2.853 -0.927 L
1.141 0.371 L
1.763 2.427 L
0 1.2 L
-1.763 2.427 L
-1.141 0.371 L
cp
S
GR
GS
[1 0 0 1 129.66667 706.60608] CT
N
f-500281869
f
GR
GS
[1 0 0 1 129.66667 706.60608] CT
10.0 ML
N
-2.853 -0.927 M
-0.705 -0.927 L
0 -3 L
0.705 -0.927 L
2.853 -0.927 L
1.141 0.371 L
1.763 2.427 L
0 1.2 L
-1.763 2.427 L
-1.141 0.371 L
cp
S
GR
GS
[1 0 0 1 155.5 705.66528] CT
N
f-500281869
f
GR
GS
[1 0 0 1 155.5 705.66528] CT
10.0 ML
N
-2.853 -0.927 M
-0.705 -0.927 L
0 -3 L
0.705 -0.927 L
2.853 -0.927 L
1.141 0.371 L
1.763 2.427 L
0 1.2 L
-1.763 2.427 L
-1.141 0.371 L
cp
S
GR
GS
[1 0 0 1 181.33333 704.93658] CT
N
f-500281869
f
GR
GS
[1 0 0 1 181.33333 704.93658] CT
10.0 ML
N
-2.853 -0.927 M
-0.705 -0.927 L
0 -3 L
0.705 -0.927 L
2.853 -0.927 L
1.141 0.371 L
1.763 2.427 L
0 1.2 L
-1.763 2.427 L
-1.141 0.371 L
cp
S
GR
GS
[1 0 0 1 207.16667 704.36108] CT
N
f-500281869
f
GR
GS
[1 0 0 1 207.16667 704.36108] CT
10.0 ML
N
-2.853 -0.927 M
-0.705 -0.927 L
0 -3 L
0.705 -0.927 L
2.853 -0.927 L
1.141 0.371 L
1.763 2.427 L
0 1.2 L
-1.763 2.427 L
-1.141 0.371 L
cp
S
GR
GS
[1 0 0 1 233 703.89941] CT
N
f-500281869
f
GR
GS
[1 0 0 1 233 703.89941] CT
10.0 ML
N
-2.853 -0.927 M
-0.705 -0.927 L
0 -3 L
0.705 -0.927 L
2.853 -0.927 L
1.141 0.371 L
1.763 2.427 L
0 1.2 L
-1.763 2.427 L
-1.141 0.371 L
cp
S
GR
GS
[1 0 0 1 258.83334 703.52448] CT
N
f-500281869
f
GR
GS
[1 0 0 1 258.83334 703.52448] CT
10.0 ML
N
-2.853 -0.927 M
-0.705 -0.927 L
0 -3 L
0.705 -0.927 L
2.853 -0.927 L
1.141 0.371 L
1.763 2.427 L
0 1.2 L
-1.763 2.427 L
-1.141 0.371 L
cp
S
GR
GS
[1 0 0 1 284.66666 703.21686] CT
N
f-500281869
f
GR
GS
[1 0 0 1 284.66666 703.21686] CT
10.0 ML
N
-2.853 -0.927 M
-0.705 -0.927 L
0 -3 L
0.705 -0.927 L
2.853 -0.927 L
1.141 0.371 L
1.763 2.427 L
0 1.2 L
-1.763 2.427 L
-1.141 0.371 L
cp
S
GR
GS
[1 0 0 1 310.5 702.9624] CT
N
f-500281869
f
GR
GS
[1 0 0 1 310.5 702.9624] CT
10.0 ML
N
-2.853 -0.927 M
-0.705 -0.927 L
0 -3 L
0.705 -0.927 L
2.853 -0.927 L
1.141 0.371 L
1.763 2.427 L
0 1.2 L
-1.763 2.427 L
-1.141 0.371 L
cp
S
GR
GS
[1 0 0 1 336.33334 702.75061] CT
N
f-500281869
f
GR
GS
[1 0 0 1 336.33334 702.75061] CT
10.0 ML
N
-2.853 -0.927 M
-0.705 -0.927 L
0 -3 L
0.705 -0.927 L
2.853 -0.927 L
1.141 0.371 L
1.763 2.427 L
0 1.2 L
-1.763 2.427 L
-1.141 0.371 L
cp
S
GR
GS
[1 0 0 1 362.16666 702.57336] CT
N
f-500281869
f
GR
GS
[1 0 0 1 362.16666 702.57336] CT
10.0 ML
N
-2.853 -0.927 M
-0.705 -0.927 L
0 -3 L
0.705 -0.927 L
2.853 -0.927 L
1.141 0.371 L
1.763 2.427 L
0 1.2 L
-1.763 2.427 L
-1.141 0.371 L
cp
S
GR
GS
[1 0 0 1 388 702.42456] CT
N
f-500281869
f
GR
GS
[1 0 0 1 388 702.42456] CT
10.0 ML
N
-2.853 -0.927 M
-0.705 -0.927 L
0 -3 L
0.705 -0.927 L
2.853 -0.927 L
1.141 0.371 L
1.763 2.427 L
0 1.2 L
-1.763 2.427 L
-1.141 0.371 L
cp
S
GR
GS
[1 0 0 1 413.83334 702.29932] CT
N
f-500281869
f
GR
GS
[1 0 0 1 413.83334 702.29932] CT
10.0 ML
N
-2.853 -0.927 M
-0.705 -0.927 L
0 -3 L
0.705 -0.927 L
2.853 -0.927 L
1.141 0.371 L
1.763 2.427 L
0 1.2 L
-1.763 2.427 L
-1.141 0.371 L
cp
S
GR
GS
[1 0 0 1 439.66666 702.19366] CT
N
f-500281869
f
GR
GS
[1 0 0 1 439.66666 702.19366] CT
10.0 ML
N
-2.853 -0.927 M
-0.705 -0.927 L
0 -3 L
0.705 -0.927 L
2.853 -0.927 L
1.141 0.371 L
1.763 2.427 L
0 1.2 L
-1.763 2.427 L
-1.141 0.371 L
cp
S
GR
GS
[1 0 0 1 465.5 702.10455] CT
N
f-500281869
f
GR
GS
[1 0 0 1 465.5 702.10455] CT
10.0 ML
N
-2.853 -0.927 M
-0.705 -0.927 L
0 -3 L
0.705 -0.927 L
2.853 -0.927 L
1.141 0.371 L
1.763 2.427 L
0 1.2 L
-1.763 2.427 L
-1.141 0.371 L
cp
S
GR
GS
[1 0 0 1 491.33334 702.02942] CT
N
f-500281869
f
GR
GS
[1 0 0 1 491.33334 702.02942] CT
10.0 ML
N
-2.853 -0.927 M
-0.705 -0.927 L
0 -3 L
0.705 -0.927 L
2.853 -0.927 L
1.141 0.371 L
1.763 2.427 L
0 1.2 L
-1.763 2.427 L
-1.141 0.371 L
cp
S
GR
GS
[1 0 0 1 517.16669 701.96631] CT
N
f-500281869
f
GR
GS
[1 0 0 1 517.16669 701.96631] CT
10.0 ML
N
-2.853 -0.927 M
-0.705 -0.927 L
0 -3 L
0.705 -0.927 L
2.853 -0.927 L
1.141 0.371 L
1.763 2.427 L
0 1.2 L
-1.763 2.427 L
-1.141 0.371 L
cp
S
GR
GS
[1 0 0 1 543 701.91339] CT
N
f-500281869
f
GR
GS
[1 0 0 1 543 701.91339] CT
10.0 ML
N
-2.853 -0.927 M
-0.705 -0.927 L
0 -3 L
0.705 -0.927 L
2.853 -0.927 L
1.141 0.371 L
1.763 2.427 L
0 1.2 L
-1.763 2.427 L
-1.141 0.371 L
cp
S
GR
GS
[1 0 0 1 78 708.33856] CT
0 1 0 RC
N
/f701565780{-2 -2 M
-2 2 L
2 2 L
2 -2 L
cp}def
f701565780
f
GR
GS
[1 0 0 1 78 708.33856] CT
0 1 0 RC
10.0 ML
N
-2 -2 M
-2 2 L
2 2 L
2 -2 L
cp
S
GR
GS
[1 0 0 1 103.83334 705.98083] CT
0 1 0 RC
N
f701565780
f
GR
GS
[1 0 0 1 103.83334 705.98083] CT
0 1 0 RC
10.0 ML
N
-2 -2 M
-2 2 L
2 2 L
2 -2 L
cp
S
GR
GS
[1 0 0 1 129.66667 704.3598] CT
0 1 0 RC
N
f701565780
f
GR
GS
[1 0 0 1 129.66667 704.3598] CT
0 1 0 RC
10.0 ML
N
-2 -2 M
-2 2 L
2 2 L
2 -2 L
cp
S
GR
GS
[1 0 0 1 155.5 703.19409] CT
0 1 0 RC
N
f701565780
f
GR
GS
[1 0 0 1 155.5 703.19409] CT
0 1 0 RC
10.0 ML
N
-2 -2 M
-2 2 L
2 2 L
2 -2 L
cp
S
GR
GS
[1 0 0 1 181.33333 702.32825] CT
0 1 0 RC
N
f701565780
f
GR
GS
[1 0 0 1 181.33333 702.32825] CT
0 1 0 RC
10.0 ML
N
-2 -2 M
-2 2 L
2 2 L
2 -2 L
cp
S
GR
GS
[1 0 0 1 207.16667 701.66943] CT
0 1 0 RC
N
f701565780
f
GR
GS
[1 0 0 1 207.16667 701.66943] CT
0 1 0 RC
10.0 ML
N
-2 -2 M
-2 2 L
2 2 L
2 -2 L
cp
S
GR
GS
[1 0 0 1 233 701.15894] CT
0 1 0 RC
N
f701565780
f
GR
GS
[1 0 0 1 233 701.15894] CT
0 1 0 RC
10.0 ML
N
-2 -2 M
-2 2 L
2 2 L
2 -2 L
cp
S
GR
GS
[1 0 0 1 258.83334 700.75781] CT
0 1 0 RC
N
f701565780
f
GR
GS
[1 0 0 1 258.83334 700.75781] CT
0 1 0 RC
10.0 ML
N
-2 -2 M
-2 2 L
2 2 L
2 -2 L
cp
S
GR
GS
[1 0 0 1 284.66666 700.43933] CT
0 1 0 RC
N
f701565780
f
GR
GS
[1 0 0 1 284.66666 700.43933] CT
0 1 0 RC
10.0 ML
N
-2 -2 M
-2 2 L
2 2 L
2 -2 L
cp
S
GR
GS
[1 0 0 1 310.5 700.18451] CT
0 1 0 RC
N
f701565780
f
GR
GS
[1 0 0 1 310.5 700.18451] CT
0 1 0 RC
10.0 ML
N
-2 -2 M
-2 2 L
2 2 L
2 -2 L
cp
S
GR
GS
[1 0 0 1 336.33334 699.97955] CT
0 1 0 RC
N
f701565780
f
GR
GS
[1 0 0 1 336.33334 699.97955] CT
0 1 0 RC
10.0 ML
N
-2 -2 M
-2 2 L
2 2 L
2 -2 L
cp
S
GR
GS
[1 0 0 1 362.16666 699.81427] CT
0 1 0 RC
N
f701565780
f
GR
GS
[1 0 0 1 362.16666 699.81427] CT
0 1 0 RC
10.0 ML
N
-2 -2 M
-2 2 L
2 2 L
2 -2 L
cp
S
GR
GS
[1 0 0 1 388 699.68091] CT
0 1 0 RC
N
f701565780
f
GR
GS
[1 0 0 1 388 699.68091] CT
0 1 0 RC
10.0 ML
N
-2 -2 M
-2 2 L
2 2 L
2 -2 L
cp
S
GR
GS
[1 0 0 1 413.83334 699.57343] CT
0 1 0 RC
N
f701565780
f
GR
GS
[1 0 0 1 413.83334 699.57343] CT
0 1 0 RC
10.0 ML
N
-2 -2 M
-2 2 L
2 2 L
2 -2 L
cp
S
GR
GS
[1 0 0 1 439.66666 699.4873] CT
0 1 0 RC
N
f701565780
f
GR
GS
[1 0 0 1 439.66666 699.4873] CT
0 1 0 RC
10.0 ML
N
-2 -2 M
-2 2 L
2 2 L
2 -2 L
cp
S
GR
GS
[1 0 0 1 465.5 699.41876] CT
0 1 0 RC
N
f701565780
f
GR
GS
[1 0 0 1 465.5 699.41876] CT
0 1 0 RC
10.0 ML
N
-2 -2 M
-2 2 L
2 2 L
2 -2 L
cp
S
GR
GS
[1 0 0 1 491.33334 699.36487] CT
0 1 0 RC
N
f701565780
f
GR
GS
[1 0 0 1 491.33334 699.36487] CT
0 1 0 RC
10.0 ML
N
-2 -2 M
-2 2 L
2 2 L
2 -2 L
cp
S
GR
GS
[1 0 0 1 517.16669 699.32336] CT
0 1 0 RC
N
f701565780
f
GR
GS
[1 0 0 1 517.16669 699.32336] CT
0 1 0 RC
10.0 ML
N
-2 -2 M
-2 2 L
2 2 L
2 -2 L
cp
S
GR
GS
[1 0 0 1 543 699.29218] CT
0 1 0 RC
N
f701565780
f
GR
GS
[1 0 0 1 543 699.29218] CT
0 1 0 RC
10.0 ML
N
-2 -2 M
-2 2 L
2 2 L
2 -2 L
cp
S
GR
GS
[1 0 0 1 78 705.9071] CT
1 0 1 RC
N
/f1414333259{0 3.999 M
-3.463 -2 L
3.463 -2 L
cp}def
f1414333259
f
GR
GS
[1 0 0 1 78 705.9071] CT
1 0 1 RC
10.0 ML
N
0 3.999 M
-3.463 -2 L
3.463 -2 L
cp
S
GR
GS
[1 0 0 1 103.83334 702.45972] CT
1 0 1 RC
N
f1414333259
f
GR
GS
[1 0 0 1 103.83334 702.45972] CT
1 0 1 RC
10.0 ML
N
0 3.999 M
-3.463 -2 L
3.463 -2 L
cp
S
GR
GS
[1 0 0 1 129.66667 700.29749] CT
1 0 1 RC
N
f1414333259
f
GR
GS
[1 0 0 1 129.66667 700.29749] CT
1 0 1 RC
10.0 ML
N
0 3.999 M
-3.463 -2 L
3.463 -2 L
cp
S
GR
GS
[1 0 0 1 155.5 698.85193] CT
1 0 1 RC
N
f1414333259
f
GR
GS
[1 0 0 1 155.5 698.85193] CT
1 0 1 RC
10.0 ML
N
0 3.999 M
-3.463 -2 L
3.463 -2 L
cp
S
GR
GS
[1 0 0 1 181.33333 697.84351] CT
1 0 1 RC
N
f1414333259
f
GR
GS
[1 0 0 1 181.33333 697.84351] CT
1 0 1 RC
10.0 ML
N
0 3.999 M
-3.463 -2 L
3.463 -2 L
cp
S
GR
GS
[1 0 0 1 207.16667 697.11932] CT
1 0 1 RC
N
f1414333259
f
GR
GS
[1 0 0 1 207.16667 697.11932] CT
1 0 1 RC
10.0 ML
N
0 3.999 M
-3.463 -2 L
3.463 -2 L
cp
S
GR
GS
[1 0 0 1 233 696.58875] CT
1 0 1 RC
N
f1414333259
f
GR
GS
[1 0 0 1 233 696.58875] CT
1 0 1 RC
10.0 ML
N
0 3.999 M
-3.463 -2 L
3.463 -2 L
cp
S
GR
GS
[1 0 0 1 258.83334 696.19495] CT
1 0 1 RC
N
f1414333259
f
GR
GS
[1 0 0 1 258.83334 696.19495] CT
1 0 1 RC
10.0 ML
N
0 3.999 M
-3.463 -2 L
3.463 -2 L
cp
S
GR
GS
[1 0 0 1 284.66666 695.9007] CT
1 0 1 RC
N
f1414333259
f
GR
GS
[1 0 0 1 284.66666 695.9007] CT
1 0 1 RC
10.0 ML
N
0 3.999 M
-3.463 -2 L
3.463 -2 L
cp
S
GR
GS
[1 0 0 1 310.5 695.68048] CT
1 0 1 RC
N
f1414333259
f
GR
GS
[1 0 0 1 310.5 695.68048] CT
1 0 1 RC
10.0 ML
N
0 3.999 M
-3.463 -2 L
3.463 -2 L
cp
S
GR
GS
[1 0 0 1 336.33334 695.51654] CT
1 0 1 RC
N
f1414333259
f
GR
GS
[1 0 0 1 336.33334 695.51654] CT
1 0 1 RC
10.0 ML
N
0 3.999 M
-3.463 -2 L
3.463 -2 L
cp
S
GR
GS
[1 0 0 1 362.16666 695.396] CT
1 0 1 RC
N
f1414333259
f
GR
GS
[1 0 0 1 362.16666 695.396] CT
1 0 1 RC
10.0 ML
N
0 3.999 M
-3.463 -2 L
3.463 -2 L
cp
S
GR
GS
[1 0 0 1 388 695.30927] CT
1 0 1 RC
N
f1414333259
f
GR
GS
[1 0 0 1 388 695.30927] CT
1 0 1 RC
10.0 ML
N
0 3.999 M
-3.463 -2 L
3.463 -2 L
cp
S
GR
GS
[1 0 0 1 413.83334 695.24939] CT
1 0 1 RC
N
f1414333259
f
GR
GS
[1 0 0 1 413.83334 695.24939] CT
1 0 1 RC
10.0 ML
N
0 3.999 M
-3.463 -2 L
3.463 -2 L
cp
S
GR
GS
[1 0 0 1 439.66666 695.21088] CT
1 0 1 RC
N
f1414333259
f
GR
GS
[1 0 0 1 439.66666 695.21088] CT
1 0 1 RC
10.0 ML
N
0 3.999 M
-3.463 -2 L
3.463 -2 L
cp
S
GR
GS
[1 0 0 1 465.5 695.18958] CT
1 0 1 RC
N
f1414333259
f
GR
GS
[1 0 0 1 465.5 695.18958] CT
1 0 1 RC
10.0 ML
N
0 3.999 M
-3.463 -2 L
3.463 -2 L
cp
S
GR
GS
[1 0 0 1 491.33334 695.18219] CT
1 0 1 RC
N
f1414333259
f
GR
GS
[1 0 0 1 491.33334 695.18219] CT
1 0 1 RC
10.0 ML
N
0 3.999 M
-3.463 -2 L
3.463 -2 L
cp
S
GR
GS
[1 0 0 1 517.16669 695.1861] CT
1 0 1 RC
N
f1414333259
f
GR
GS
[1 0 0 1 517.16669 695.1861] CT
1 0 1 RC
10.0 ML
N
0 3.999 M
-3.463 -2 L
3.463 -2 L
cp
S
GR
GS
[1 0 0 1 543 695.19934] CT
1 0 1 RC
N
f1414333259
f
GR
GS
[1 0 0 1 543 695.19934] CT
1 0 1 RC
10.0 ML
N
0 3.999 M
-3.463 -2 L
3.463 -2 L
cp
S
GR
GS
[1 0 0 1 78 699.86108] CT
1 0 0 RC
N
/f909745642{0 -3 M
0 3 L
-3 0 M
3 0 L}def
f909745642
f
GR
GS
[1 0 0 1 78 699.86108] CT
1 0 0 RC
10.0 ML
N
0 -3 M
0 3 L
-3 0 M
3 0 L
S
GR
GS
[1 0 0 1 103.83334 694.49023] CT
1 0 0 RC
N
f909745642
f
GR
GS
[1 0 0 1 103.83334 694.49023] CT
1 0 0 RC
10.0 ML
N
0 -3 M
0 3 L
-3 0 M
3 0 L
S
GR
GS
[1 0 0 1 129.66667 691.62256] CT
1 0 0 RC
N
f909745642
f
GR
GS
[1 0 0 1 129.66667 691.62256] CT
1 0 0 RC
10.0 ML
N
0 -3 M
0 3 L
-3 0 M
3 0 L
S
GR
GS
[1 0 0 1 155.5 689.93787] CT
1 0 0 RC
N
f909745642
f
GR
GS
[1 0 0 1 155.5 689.93787] CT
1 0 0 RC
10.0 ML
N
0 -3 M
0 3 L
-3 0 M
3 0 L
S
GR
GS
[1 0 0 1 181.33333 688.89496] CT
1 0 0 RC
N
f909745642
f
GR
GS
[1 0 0 1 181.33333 688.89496] CT
1 0 0 RC
10.0 ML
N
0 -3 M
0 3 L
-3 0 M
3 0 L
S
GR
GS
[1 0 0 1 207.16667 688.23267] CT
1 0 0 RC
N
f909745642
f
GR
GS
[1 0 0 1 207.16667 688.23267] CT
1 0 0 RC
10.0 ML
N
0 -3 M
0 3 L
-3 0 M
3 0 L
S
GR
GS
[1 0 0 1 233 687.81061] CT
1 0 0 RC
N
f909745642
f
GR
GS
[1 0 0 1 233 687.81061] CT
1 0 0 RC
10.0 ML
N
0 -3 M
0 3 L
-3 0 M
3 0 L
S
GR
GS
[1 0 0 1 258.83334 687.54712] CT
1 0 0 RC
N
f909745642
f
GR
GS
[1 0 0 1 258.83334 687.54712] CT
1 0 0 RC
10.0 ML
N
0 -3 M
0 3 L
-3 0 M
3 0 L
S
GR
GS
[1 0 0 1 284.66666 687.39197] CT
1 0 0 RC
N
f909745642
f
GR
GS
[1 0 0 1 284.66666 687.39197] CT
1 0 0 RC
10.0 ML
N
0 -3 M
0 3 L
-3 0 M
3 0 L
S
GR
GS
[1 0 0 1 310.5 687.31287] CT
1 0 0 RC
N
f909745642
f
GR
GS
[1 0 0 1 310.5 687.31287] CT
1 0 0 RC
10.0 ML
N
0 -3 M
0 3 L
-3 0 M
3 0 L
S
GR
GS
[1 0 0 1 336.33334 687.28815] CT
1 0 0 RC
N
f909745642
f
GR
GS
[1 0 0 1 336.33334 687.28815] CT
1 0 0 RC
10.0 ML
N
0 -3 M
0 3 L
-3 0 M
3 0 L
S
GR
GS
[1 0 0 1 362.16666 687.30292] CT
1 0 0 RC
N
f909745642
f
GR
GS
[1 0 0 1 362.16666 687.30292] CT
1 0 0 RC
10.0 ML
N
0 -3 M
0 3 L
-3 0 M
3 0 L
S
GR
GS
[1 0 0 1 388 687.34662] CT
1 0 0 RC
N
f909745642
f
GR
GS
[1 0 0 1 388 687.34662] CT
1 0 0 RC
10.0 ML
N
0 -3 M
0 3 L
-3 0 M
3 0 L
S
GR
GS
[1 0 0 1 413.83334 687.4118] CT
1 0 0 RC
N
f909745642
f
GR
GS
[1 0 0 1 413.83334 687.4118] CT
1 0 0 RC
10.0 ML
N
0 -3 M
0 3 L
-3 0 M
3 0 L
S
GR
GS
[1 0 0 1 439.66666 687.49292] CT
1 0 0 RC
N
f909745642
f
GR
GS
[1 0 0 1 439.66666 687.49292] CT
1 0 0 RC
10.0 ML
N
0 -3 M
0 3 L
-3 0 M
3 0 L
S
GR
GS
[1 0 0 1 465.5 687.58582] CT
1 0 0 RC
N
f909745642
f
GR
GS
[1 0 0 1 465.5 687.58582] CT
1 0 0 RC
10.0 ML
N
0 -3 M
0 3 L
-3 0 M
3 0 L
S
GR
GS
[1 0 0 1 491.33334 687.68744] CT
1 0 0 RC
N
f909745642
f
GR
GS
[1 0 0 1 491.33334 687.68744] CT
1 0 0 RC
10.0 ML
N
0 -3 M
0 3 L
-3 0 M
3 0 L
S
GR
GS
[1 0 0 1 517.16669 687.79541] CT
1 0 0 RC
N
f909745642
f
GR
GS
[1 0 0 1 517.16669 687.79541] CT
1 0 0 RC
10.0 ML
N
0 -3 M
0 3 L
-3 0 M
3 0 L
S
GR
GS
[1 0 0 1 543 687.9079] CT
1 0 0 RC
N
f909745642
f
GR
GS
[1 0 0 1 543 687.9079] CT
1 0 0 RC
10.0 ML
N
0 -3 M
0 3 L
-3 0 M
3 0 L
S
GR
GS
[1 0 0 1 78 676.11993] CT
0 0 1 RC
N
/f1363619694{-2.121 -2.121 M
2.121 2.121 L
-2.121 2.121 M
2.121 -2.121 L}def
f1363619694
f
GR
GS
[1 0 0 1 78 676.11993] CT
0 0 1 RC
10.0 ML
N
-2.121 -2.121 M
2.121 2.121 L
-2.121 2.121 M
2.121 -2.121 L
S
GR
GS
[1 0 0 1 103.83334 668.47412] CT
0 0 1 RC
N
f1363619694
f
GR
GS
[1 0 0 1 103.83334 668.47412] CT
0 0 1 RC
10.0 ML
N
-2.121 -2.121 M
2.121 2.121 L
-2.121 2.121 M
2.121 -2.121 L
S
GR
GS
[1 0 0 1 129.66667 665.89923] CT
0 0 1 RC
N
f1363619694
f
GR
GS
[1 0 0 1 129.66667 665.89923] CT
0 0 1 RC
10.0 ML
N
-2.121 -2.121 M
2.121 2.121 L
-2.121 2.121 M
2.121 -2.121 L
S
GR
GS
[1 0 0 1 155.5 665.01984] CT
0 0 1 RC
N
f1363619694
f
GR
GS
[1 0 0 1 155.5 665.01984] CT
0 0 1 RC
10.0 ML
N
-2.121 -2.121 M
2.121 2.121 L
-2.121 2.121 M
2.121 -2.121 L
S
GR
GS
[1 0 0 1 181.33333 664.85675] CT
0 0 1 RC
N
f1363619694
f
GR
GS
[1 0 0 1 181.33333 664.85675] CT
0 0 1 RC
10.0 ML
N
-2.121 -2.121 M
2.121 2.121 L
-2.121 2.121 M
2.121 -2.121 L
S
GR
GS
[1 0 0 1 207.16667 665.03412] CT
0 0 1 RC
N
f1363619694
f
GR
GS
[1 0 0 1 207.16667 665.03412] CT
0 0 1 RC
10.0 ML
N
-2.121 -2.121 M
2.121 2.121 L
-2.121 2.121 M
2.121 -2.121 L
S
GR
GS
[1 0 0 1 233 665.38281] CT
0 0 1 RC
N
f1363619694
f
GR
GS
[1 0 0 1 233 665.38281] CT
0 0 1 RC
10.0 ML
N
-2.121 -2.121 M
2.121 2.121 L
-2.121 2.121 M
2.121 -2.121 L
S
GR
GS
[1 0 0 1 258.83334 665.81866] CT
0 0 1 RC
N
f1363619694
f
GR
GS
[1 0 0 1 258.83334 665.81866] CT
0 0 1 RC
10.0 ML
N
-2.121 -2.121 M
2.121 2.121 L
-2.121 2.121 M
2.121 -2.121 L
S
GR
GS
[1 0 0 1 284.66666 666.29675] CT
0 0 1 RC
N
f1363619694
f
GR
GS
[1 0 0 1 284.66666 666.29675] CT
0 0 1 RC
10.0 ML
N
-2.121 -2.121 M
2.121 2.121 L
-2.121 2.121 M
2.121 -2.121 L
S
GR
GS
[1 0 0 1 310.5 666.79218] CT
0 0 1 RC
N
f1363619694
f
GR
GS
[1 0 0 1 310.5 666.79218] CT
0 0 1 RC
10.0 ML
N
-2.121 -2.121 M
2.121 2.121 L
-2.121 2.121 M
2.121 -2.121 L
S
GR
GS
[1 0 0 1 336.33334 667.29053] CT
0 0 1 RC
N
f1363619694
f
GR
GS
[1 0 0 1 336.33334 667.29053] CT
0 0 1 RC
10.0 ML
N
-2.121 -2.121 M
2.121 2.121 L
-2.121 2.121 M
2.121 -2.121 L
S
GR
GS
[1 0 0 1 362.16666 667.78357] CT
0 0 1 RC
N
f1363619694
f
GR
GS
[1 0 0 1 362.16666 667.78357] CT
0 0 1 RC
10.0 ML
N
-2.121 -2.121 M
2.121 2.121 L
-2.121 2.121 M
2.121 -2.121 L
S
GR
GS
[1 0 0 1 388 668.26642] CT
0 0 1 RC
N
f1363619694
f
GR
GS
[1 0 0 1 388 668.26642] CT
0 0 1 RC
10.0 ML
N
-2.121 -2.121 M
2.121 2.121 L
-2.121 2.121 M
2.121 -2.121 L
S
GR
GS
[1 0 0 1 413.83334 668.73639] CT
0 0 1 RC
N
f1363619694
f
GR
GS
[1 0 0 1 413.83334 668.73639] CT
0 0 1 RC
10.0 ML
N
-2.121 -2.121 M
2.121 2.121 L
-2.121 2.121 M
2.121 -2.121 L
S
GR
GS
[1 0 0 1 439.66666 669.19214] CT
0 0 1 RC
N
f1363619694
f
GR
GS
[1 0 0 1 439.66666 669.19214] CT
0 0 1 RC
10.0 ML
N
-2.121 -2.121 M
2.121 2.121 L
-2.121 2.121 M
2.121 -2.121 L
S
GR
GS
[1 0 0 1 465.5 669.63306] CT
0 0 1 RC
N
f1363619694
f
GR
GS
[1 0 0 1 465.5 669.63306] CT
0 0 1 RC
10.0 ML
N
-2.121 -2.121 M
2.121 2.121 L
-2.121 2.121 M
2.121 -2.121 L
S
GR
GS
[1 0 0 1 491.33334 670.05902] CT
0 0 1 RC
N
f1363619694
f
GR
GS
[1 0 0 1 491.33334 670.05902] CT
0 0 1 RC
10.0 ML
N
-2.121 -2.121 M
2.121 2.121 L
-2.121 2.121 M
2.121 -2.121 L
S
GR
GS
[1 0 0 1 517.16669 670.47028] CT
0 0 1 RC
N
f1363619694
f
GR
GS
[1 0 0 1 517.16669 670.47028] CT
0 0 1 RC
10.0 ML
N
-2.121 -2.121 M
2.121 2.121 L
-2.121 2.121 M
2.121 -2.121 L
S
GR
GS
[1 0 0 1 543 670.86719] CT
0 0 1 RC
N
f1363619694
f
GR
GS
[1 0 0 1 543 670.86719] CT
0 0 1 RC
10.0 ML
N
-2.121 -2.121 M
2.121 2.121 L
-2.121 2.121 M
2.121 -2.121 L
S
GR
GS
[1 0 0 1 103.83334 90.94787] CT
N
f-2087191549
f
GR
GS
[1 0 0 1 103.83334 90.94787] CT
10.0 ML
N
3 0 M
3 -1.657 1.657 -3 0 -3 C
-1.657 -3 -3 -1.657 -3 0 C
-3 1.657 -1.657 3 0 3 C
1.657 3 3 1.657 3 0 C
cp
S
GR
GS
[1 0 0 1 129.66667 291.59268] CT
N
f-2087191549
f
GR
GS
[1 0 0 1 129.66667 291.59268] CT
10.0 ML
N
3 0 M
3 -1.657 1.657 -3 0 -3 C
-1.657 -3 -3 -1.657 -3 0 C
-3 1.657 -1.657 3 0 3 C
1.657 3 3 1.657 3 0 C
cp
S
GR
GS
[1 0 0 1 155.5 366.08325] CT
N
f-2087191549
f
GR
GS
[1 0 0 1 155.5 366.08325] CT
10.0 ML
N
3 0 M
3 -1.657 1.657 -3 0 -3 C
-1.657 -3 -3 -1.657 -3 0 C
-3 1.657 -1.657 3 0 3 C
1.657 3 3 1.657 3 0 C
cp
S
GR
GS
[1 0 0 1 181.33333 407.2341] CT
N
f-2087191549
f
GR
GS
[1 0 0 1 181.33333 407.2341] CT
10.0 ML
N
3 0 M
3 -1.657 1.657 -3 0 -3 C
-1.657 -3 -3 -1.657 -3 0 C
-3 1.657 -1.657 3 0 3 C
1.657 3 3 1.657 3 0 C
cp
S
GR
GS
[1 0 0 1 207.16667 434.25244] CT
N
f-2087191549
f
GR
GS
[1 0 0 1 207.16667 434.25244] CT
10.0 ML
N
3 0 M
3 -1.657 1.657 -3 0 -3 C
-1.657 -3 -3 -1.657 -3 0 C
-3 1.657 -1.657 3 0 3 C
1.657 3 3 1.657 3 0 C
cp
S
GR
GS
[1 0 0 1 233 453.78915] CT
N
f-2087191549
f
GR
GS
[1 0 0 1 233 453.78915] CT
10.0 ML
N
3 0 M
3 -1.657 1.657 -3 0 -3 C
-1.657 -3 -3 -1.657 -3 0 C
-3 1.657 -1.657 3 0 3 C
1.657 3 3 1.657 3 0 C
cp
S
GR
GS
[1 0 0 1 258.83334 468.80957] CT
N
f-2087191549
f
GR
GS
[1 0 0 1 258.83334 468.80957] CT
10.0 ML
N
3 0 M
3 -1.657 1.657 -3 0 -3 C
-1.657 -3 -3 -1.657 -3 0 C
-3 1.657 -1.657 3 0 3 C
1.657 3 3 1.657 3 0 C
cp
S
GR
GS
[1 0 0 1 284.66666 480.85599] CT
N
f-2087191549
f
GR
GS
[1 0 0 1 284.66666 480.85599] CT
10.0 ML
N
3 0 M
3 -1.657 1.657 -3 0 -3 C
-1.657 -3 -3 -1.657 -3 0 C
-3 1.657 -1.657 3 0 3 C
1.657 3 3 1.657 3 0 C
cp
S
GR
GS
[1 0 0 1 310.5 490.81931] CT
N
f-2087191549
f
GR
GS
[1 0 0 1 310.5 490.81931] CT
10.0 ML
N
3 0 M
3 -1.657 1.657 -3 0 -3 C
-1.657 -3 -3 -1.657 -3 0 C
-3 1.657 -1.657 3 0 3 C
1.657 3 3 1.657 3 0 C
cp
S
GR
GS
[1 0 0 1 336.33334 499.25464] CT
N
f-2087191549
f
GR
GS
[1 0 0 1 336.33334 499.25464] CT
10.0 ML
N
3 0 M
3 -1.657 1.657 -3 0 -3 C
-1.657 -3 -3 -1.657 -3 0 C
-3 1.657 -1.657 3 0 3 C
1.657 3 3 1.657 3 0 C
cp
S
GR
GS
[1 0 0 1 362.16666 506.52847] CT
N
f-2087191549
f
GR
GS
[1 0 0 1 362.16666 506.52847] CT
10.0 ML
N
3 0 M
3 -1.657 1.657 -3 0 -3 C
-1.657 -3 -3 -1.657 -3 0 C
-3 1.657 -1.657 3 0 3 C
1.657 3 3 1.657 3 0 C
cp
S
GR
GS
[1 0 0 1 388 512.89386] CT
N
f-2087191549
f
GR
GS
[1 0 0 1 388 512.89386] CT
10.0 ML
N
3 0 M
3 -1.657 1.657 -3 0 -3 C
-1.657 -3 -3 -1.657 -3 0 C
-3 1.657 -1.657 3 0 3 C
1.657 3 3 1.657 3 0 C
cp
S
GR
GS
[1 0 0 1 413.83334 518.53204] CT
N
f-2087191549
f
GR
GS
[1 0 0 1 413.83334 518.53204] CT
10.0 ML
N
3 0 M
3 -1.657 1.657 -3 0 -3 C
-1.657 -3 -3 -1.657 -3 0 C
-3 1.657 -1.657 3 0 3 C
1.657 3 3 1.657 3 0 C
cp
S
GR
GS
[1 0 0 1 439.66666 523.57697] CT
N
f-2087191549
f
GR
GS
[1 0 0 1 439.66666 523.57697] CT
10.0 ML
N
3 0 M
3 -1.657 1.657 -3 0 -3 C
-1.657 -3 -3 -1.657 -3 0 C
-3 1.657 -1.657 3 0 3 C
1.657 3 3 1.657 3 0 C
cp
S
GR
GS
[1 0 0 1 465.5 528.12982] CT
N
f-2087191549
f
GR
GS
[1 0 0 1 465.5 528.12982] CT
10.0 ML
N
3 0 M
3 -1.657 1.657 -3 0 -3 C
-1.657 -3 -3 -1.657 -3 0 C
-3 1.657 -1.657 3 0 3 C
1.657 3 3 1.657 3 0 C
cp
S
GR
GS
[1 0 0 1 491.33334 532.26892] CT
N
f-2087191549
f
GR
GS
[1 0 0 1 491.33334 532.26892] CT
10.0 ML
N
3 0 M
3 -1.657 1.657 -3 0 -3 C
-1.657 -3 -3 -1.657 -3 0 C
-3 1.657 -1.657 3 0 3 C
1.657 3 3 1.657 3 0 C
cp
S
GR
GS
[1 0 0 1 517.16669 536.05591] CT
N
f-2087191549
f
GR
GS
[1 0 0 1 517.16669 536.05591] CT
10.0 ML
N
3 0 M
3 -1.657 1.657 -3 0 -3 C
-1.657 -3 -3 -1.657 -3 0 C
-3 1.657 -1.657 3 0 3 C
1.657 3 3 1.657 3 0 C
cp
S
GR
GS
[1 0 0 1 543 539.54016] CT
N
f-2087191549
f
GR
GS
[1 0 0 1 543 539.54016] CT
10.0 ML
N
3 0 M
3 -1.657 1.657 -3 0 -3 C
-1.657 -3 -3 -1.657 -3 0 C
-3 1.657 -1.657 3 0 3 C
1.657 3 3 1.657 3 0 C
cp
S
GR
GS
1 GC
N
/f1838043390{530 267 M
530 91 L
460 91 L
460 267 L
cp}def
f1838043390
f
GR
GS
[1 0 0 1 497 103.53561] CT
/Times-Roman 18 F
GS
[1 0 0 1 0 0] CT
0 6.5 moveto 
1 -1 scale
(n=7) t 
GR
GR
GS
[1 0 0 1 479 103.53561] CT
1 0 0 RC
N
f-2087191549
f
GR
GS
[1 0 0 1 479 103.53561] CT
1 0 0 RC
10.0 ML
N
3 0 M
3 -1.657 1.657 -3 0 -3 C
-1.657 -3 -3 -1.657 -3 0 C
-3 1.657 -1.657 3 0 3 C
1.657 3 3 1.657 3 0 C
cp
S
GR
GS
[1 0 0 1 497 125.09687] CT
/Times-Roman 18 F
GS
[1 0 0 1 0 0] CT
0 6.5 moveto 
1 -1 scale
(6) t 
GR
GR
GS
[1 0 0 1 479 125.09686] CT
0 0 1 RC
N
f1485265658
f
GR
GS
[1 0 0 1 479 125.09686] CT
0 0 1 RC
10.0 ML
N
-2.598 -1.5 M
-0.866 -1.5 L
0 -3 L
0.866 -1.5 L
2.598 -1.5 L
1.5 0 L
2.598 1.5 L
0.866 1.5 L
0 3 L
-0.866 1.5 L
-2.598 1.5 L
-1.5 0 L
cp
S
GR
GS
[1 0 0 1 497 146.65811] CT
/Times-Roman 18 F
GS
[1 0 0 1 0 0] CT
0 6.5 moveto 
1 -1 scale
(5) t 
GR
GR
GS
[1 0 0 1 479 146.65813] CT
N
f-500281869
f
GR
GS
[1 0 0 1 479 146.65813] CT
10.0 ML
N
-2.853 -0.927 M
-0.705 -0.927 L
0 -3 L
0.705 -0.927 L
2.853 -0.927 L
1.141 0.371 L
1.763 2.427 L
0 1.2 L
-1.763 2.427 L
-1.141 0.371 L
cp
S
GR
GS
[1 0 0 1 497 168.21938] CT
/Times-Roman 18 F
GS
[1 0 0 1 0 0] CT
0 6.5 moveto 
1 -1 scale
(4) t 
GR
GR
GS
[1 0 0 1 479 168.21938] CT
0 1 0 RC
N
f701565780
f
GR
GS
[1 0 0 1 479 168.21938] CT
0 1 0 RC
10.0 ML
N
-2 -2 M
-2 2 L
2 2 L
2 -2 L
cp
S
GR
GS
[1 0 0 1 497 189.78062] CT
/Times-Roman 18 F
GS
[1 0 0 1 0 0] CT
0 6.5 moveto 
1 -1 scale
(3) t 
GR
GR
GS
[1 0 0 1 479 189.78062] CT
1 0 1 RC
N
f1414333259
f
GR
GS
[1 0 0 1 479 189.78062] CT
1 0 1 RC
10.0 ML
N
0 3.999 M
-3.463 -2 L
3.463 -2 L
cp
S
GR
GS
[1 0 0 1 497 211.34187] CT
/Times-Roman 18 F
GS
[1 0 0 1 0 0] CT
0 6.5 moveto 
1 -1 scale
(2) t 
GR
GR
GS
[1 0 0 1 479 211.34187] CT
1 0 0 RC
N
f909745642
f
GR
GS
[1 0 0 1 479 211.34187] CT
1 0 0 RC
10.0 ML
N
0 -3 M
0 3 L
-3 0 M
3 0 L
S
GR
GS
[1 0 0 1 497 232.90314] CT
/Times-Roman 18 F
GS
[1 0 0 1 0 0] CT
0 6.5 moveto 
1 -1 scale
(1) t 
GR
GR
GS
[1 0 0 1 479 232.90314] CT
0 0 1 RC
N
f1363619694
f
GR
GS
[1 0 0 1 479 232.90314] CT
0 0 1 RC
10.0 ML
N
-2.121 -2.121 M
2.121 2.121 L
-2.121 2.121 M
2.121 -2.121 L
S
GR
GS
[1 0 0 1 497 254.46439] CT
/Times-Roman 18 F
GS
[1 0 0 1 0 0] CT
0 6.5 moveto 
1 -1 scale
(0) t 
GR
GR
GS
[1 0 0 1 479 254.46439] CT
N
f-2087191549
f
GR
GS
[1 0 0 1 479 254.46439] CT
10.0 ML
N
3 0 M
3 -1.657 1.657 -3 0 -3 C
-1.657 -3 -3 -1.657 -3 0 C
-3 1.657 -1.657 3 0 3 C
1.657 3 3 1.657 3 0 C
cp
S
GR
GS
0.149 GC
10.0 ML
0.5 LW
N
460 267 M
460 91 L
530 91 L
530 267 L
cp
S
GR
%%Trailer
%%Pages: 1
%%EOF
