%!PS-Adobe-3.0 EPSF-3.0
%%Creator: (MATLAB, The Mathworks, Inc. Version 9.6.0.1335978 \(R2019a\) Update 8. Operating System: Mac OS X)
%%Title: /Users/natafhenri-claude/Documents/Recherche/Acoustics/compute_modes/Figures/ZoRo2/ZoRo2-N2-rigid_attenuation.eps
%%CreationDate: 2021-08-11T14:50:05
%%Pages: (atend)
%%BoundingBox: 0 0 600 800
%%LanguageLevel: 3
%%EndComments
%%BeginProlog
%%BeginResource: procset (Apache XML Graphics Std ProcSet) 1.2 0
%%Version: 1.2 0
%%Copyright: (Copyright 2001-2003,2010 The Apache Software Foundation. License terms: http://www.apache.org/licenses/LICENSE-2.0)
/bd{bind def}bind def
/ld{load def}bd
/GR/grestore ld
/GS/gsave ld
/RM/rmoveto ld
/C/curveto ld
/t/show ld
/L/lineto ld
/ML/setmiterlimit ld
/CT/concat ld
/f/fill ld
/N/newpath ld
/S/stroke ld
/CC/setcmykcolor ld
/A/ashow ld
/cp/closepath ld
/RC/setrgbcolor ld
/LJ/setlinejoin ld
/GC/setgray ld
/LW/setlinewidth ld
/M/moveto ld
/re {4 2 roll M
1 index 0 rlineto
0 exch rlineto
neg 0 rlineto
cp } bd
/_ctm matrix def
/_tm matrix def
/BT { _ctm currentmatrix pop matrix _tm copy pop 0 0 moveto } bd
/ET { _ctm setmatrix } bd
/iTm { _ctm setmatrix _tm concat } bd
/Tm { _tm astore pop iTm 0 0 moveto } bd
/ux 0.0 def
/uy 0.0 def
/F {
  /Tp exch def
  /Tf exch def
  Tf findfont Tp scalefont setfont
  /cf Tf def  /cs Tp def
} bd
/ULS {currentpoint /uy exch def /ux exch def} bd
/ULE {
  /Tcx currentpoint pop def
  gsave
  newpath
  cf findfont cs scalefont dup
  /FontMatrix get 0 get /Ts exch def /FontInfo get dup
  /UnderlinePosition get Ts mul /To exch def
  /UnderlineThickness get Ts mul /Tt exch def
  ux uy To add moveto  Tcx uy To add lineto
  Tt setlinewidth stroke
  grestore
} bd
/OLE {
  /Tcx currentpoint pop def
  gsave
  newpath
  cf findfont cs scalefont dup
  /FontMatrix get 0 get /Ts exch def /FontInfo get dup
  /UnderlinePosition get Ts mul /To exch def
  /UnderlineThickness get Ts mul /Tt exch def
  ux uy To add cs add moveto Tcx uy To add cs add lineto
  Tt setlinewidth stroke
  grestore
} bd
/SOE {
  /Tcx currentpoint pop def
  gsave
  newpath
  cf findfont cs scalefont dup
  /FontMatrix get 0 get /Ts exch def /FontInfo get dup
  /UnderlinePosition get Ts mul /To exch def
  /UnderlineThickness get Ts mul /Tt exch def
  ux uy To add cs 10 mul 26 idiv add moveto Tcx uy To add cs 10 mul 26 idiv add lineto
  Tt setlinewidth stroke
  grestore
} bd
/QT {
/Y22 exch store
/X22 exch store
/Y21 exch store
/X21 exch store
currentpoint
/Y21 load 2 mul add 3 div exch
/X21 load 2 mul add 3 div exch
/X21 load 2 mul /X22 load add 3 div
/Y21 load 2 mul /Y22 load add 3 div
/X22 load /Y22 load curveto
} bd
/SSPD {
dup length /d exch dict def
{
/v exch def
/k exch def
currentpagedevice k known {
/cpdv currentpagedevice k get def
v cpdv ne {
/upd false def
/nullv v type /nulltype eq def
/nullcpdv cpdv type /nulltype eq def
nullv nullcpdv or
{
/upd true def
} {
/sametype v type cpdv type eq def
sametype {
v type /arraytype eq {
/vlen v length def
/cpdvlen cpdv length def
vlen cpdvlen eq {
0 1 vlen 1 sub {
/i exch def
/obj v i get def
/cpdobj cpdv i get def
obj cpdobj ne {
/upd true def
exit
} if
} for
} {
/upd true def
} ifelse
} {
v type /dicttype eq {
v {
/dv exch def
/dk exch def
/cpddv cpdv dk get def
dv cpddv ne {
/upd true def
exit
} if
} forall
} {
/upd true def
} ifelse
} ifelse
} if
} ifelse
upd true eq {
d k v put
} if
} if
} if
} forall
d length 0 gt {
d setpagedevice
} if
} bd
/RE { % /NewFontName [NewEncodingArray] /FontName RE -
  findfont dup length dict begin
  {
    1 index /FID ne
    {def} {pop pop} ifelse
  } forall
  /Encoding exch def
  /FontName 1 index def
  currentdict definefont pop
  end
} bind def
%%EndResource
%%BeginResource: procset (Apache XML Graphics EPS ProcSet) 1.0 0
%%Version: 1.0 0
%%Copyright: (Copyright 2002-2003 The Apache Software Foundation. License terms: http://www.apache.org/licenses/LICENSE-2.0)
/BeginEPSF { %def
/b4_Inc_state save def         % Save state for cleanup
/dict_count countdictstack def % Count objects on dict stack
/op_count count 1 sub def      % Count objects on operand stack
userdict begin                 % Push userdict on dict stack
/showpage { } def              % Redefine showpage, { } = null proc
0 setgray 0 setlinecap         % Prepare graphics state
1 setlinewidth 0 setlinejoin
10 setmiterlimit [ ] 0 setdash newpath
/languagelevel where           % If level not equal to 1 then
{pop languagelevel             % set strokeadjust and
1 ne                           % overprint to their defaults.
{false setstrokeadjust false setoverprint
} if
} if
} bd
/EndEPSF { %def
count op_count sub {pop} repeat            % Clean up stacks
countdictstack dict_count sub {end} repeat
b4_Inc_state restore
} bd
%%EndResource
%FOPBeginFontDict
%%IncludeResource: font Courier-Oblique
%%IncludeResource: font Courier-BoldOblique
%%IncludeResource: font Courier-Bold
%%IncludeResource: font ZapfDingbats
%%IncludeResource: font Symbol
%%IncludeResource: font Helvetica
%%IncludeResource: font Helvetica-Oblique
%%IncludeResource: font Helvetica-Bold
%%IncludeResource: font Helvetica-BoldOblique
%%IncludeResource: font Times-Roman
%%IncludeResource: font Times-Italic
%%IncludeResource: font Times-Bold
%%IncludeResource: font Times-BoldItalic
%%IncludeResource: font Courier
%FOPEndFontDict
%%BeginResource: encoding WinAnsiEncoding
/WinAnsiEncoding [
/.notdef /.notdef /.notdef /.notdef /.notdef
/.notdef /.notdef /.notdef /.notdef /.notdef
/.notdef /.notdef /.notdef /.notdef /.notdef
/.notdef /.notdef /.notdef /.notdef /.notdef
/.notdef /.notdef /.notdef /.notdef /.notdef
/.notdef /.notdef /.notdef /.notdef /.notdef
/.notdef /.notdef /space /exclam /quotedbl
/numbersign /dollar /percent /ampersand /quotesingle
/parenleft /parenright /asterisk /plus /comma
/hyphen /period /slash /zero /one
/two /three /four /five /six
/seven /eight /nine /colon /semicolon
/less /equal /greater /question /at
/A /B /C /D /E
/F /G /H /I /J
/K /L /M /N /O
/P /Q /R /S /T
/U /V /W /X /Y
/Z /bracketleft /backslash /bracketright /asciicircum
/underscore /quoteleft /a /b /c
/d /e /f /g /h
/i /j /k /l /m
/n /o /p /q /r
/s /t /u /v /w
/x /y /z /braceleft /bar
/braceright /asciitilde /bullet /Euro /bullet
/quotesinglbase /florin /quotedblbase /ellipsis /dagger
/daggerdbl /circumflex /perthousand /Scaron /guilsinglleft
/OE /bullet /Zcaron /bullet /bullet
/quoteleft /quoteright /quotedblleft /quotedblright /bullet
/endash /emdash /asciitilde /trademark /scaron
/guilsinglright /oe /bullet /zcaron /Ydieresis
/space /exclamdown /cent /sterling /currency
/yen /brokenbar /section /dieresis /copyright
/ordfeminine /guillemotleft /logicalnot /sfthyphen /registered
/macron /degree /plusminus /twosuperior /threesuperior
/acute /mu /paragraph /middot /cedilla
/onesuperior /ordmasculine /guillemotright /onequarter /onehalf
/threequarters /questiondown /Agrave /Aacute /Acircumflex
/Atilde /Adieresis /Aring /AE /Ccedilla
/Egrave /Eacute /Ecircumflex /Edieresis /Igrave
/Iacute /Icircumflex /Idieresis /Eth /Ntilde
/Ograve /Oacute /Ocircumflex /Otilde /Odieresis
/multiply /Oslash /Ugrave /Uacute /Ucircumflex
/Udieresis /Yacute /Thorn /germandbls /agrave
/aacute /acircumflex /atilde /adieresis /aring
/ae /ccedilla /egrave /eacute /ecircumflex
/edieresis /igrave /iacute /icircumflex /idieresis
/eth /ntilde /ograve /oacute /ocircumflex
/otilde /odieresis /divide /oslash /ugrave
/uacute /ucircumflex /udieresis /yacute /thorn
/ydieresis
] def
%%EndResource
%FOPBeginFontReencode
/Courier-Oblique findfont
dup length dict begin
  {1 index /FID ne {def} {pop pop} ifelse} forall
  /Encoding WinAnsiEncoding def
  currentdict
end
/Courier-Oblique exch definefont pop
/Courier-BoldOblique findfont
dup length dict begin
  {1 index /FID ne {def} {pop pop} ifelse} forall
  /Encoding WinAnsiEncoding def
  currentdict
end
/Courier-BoldOblique exch definefont pop
/Courier-Bold findfont
dup length dict begin
  {1 index /FID ne {def} {pop pop} ifelse} forall
  /Encoding WinAnsiEncoding def
  currentdict
end
/Courier-Bold exch definefont pop
/Helvetica findfont
dup length dict begin
  {1 index /FID ne {def} {pop pop} ifelse} forall
  /Encoding WinAnsiEncoding def
  currentdict
end
/Helvetica exch definefont pop
/Helvetica-Oblique findfont
dup length dict begin
  {1 index /FID ne {def} {pop pop} ifelse} forall
  /Encoding WinAnsiEncoding def
  currentdict
end
/Helvetica-Oblique exch definefont pop
/Helvetica-Bold findfont
dup length dict begin
  {1 index /FID ne {def} {pop pop} ifelse} forall
  /Encoding WinAnsiEncoding def
  currentdict
end
/Helvetica-Bold exch definefont pop
/Helvetica-BoldOblique findfont
dup length dict begin
  {1 index /FID ne {def} {pop pop} ifelse} forall
  /Encoding WinAnsiEncoding def
  currentdict
end
/Helvetica-BoldOblique exch definefont pop
/Times-Roman findfont
dup length dict begin
  {1 index /FID ne {def} {pop pop} ifelse} forall
  /Encoding WinAnsiEncoding def
  currentdict
end
/Times-Roman exch definefont pop
/Times-Italic findfont
dup length dict begin
  {1 index /FID ne {def} {pop pop} ifelse} forall
  /Encoding WinAnsiEncoding def
  currentdict
end
/Times-Italic exch definefont pop
/Times-Bold findfont
dup length dict begin
  {1 index /FID ne {def} {pop pop} ifelse} forall
  /Encoding WinAnsiEncoding def
  currentdict
end
/Times-Bold exch definefont pop
/Times-BoldItalic findfont
dup length dict begin
  {1 index /FID ne {def} {pop pop} ifelse} forall
  /Encoding WinAnsiEncoding def
  currentdict
end
/Times-BoldItalic exch definefont pop
/Courier findfont
dup length dict begin
  {1 index /FID ne {def} {pop pop} ifelse} forall
  /Encoding WinAnsiEncoding def
  currentdict
end
/Courier exch definefont pop
%FOPEndFontReencode
%%EndProlog
%%Page: 1 1
%%PageBoundingBox: 0 0 600 800
%%BeginPageSetup
[1 0 0 -1 0 800] CT
%%EndPageSetup
GS
1 GC
N
0 0 600 800 re
f
GR
GS
1 GC
N
0 0 600 800 re
f
GR
GS
1 GC
N
78 712 M
543 712 L
543 60 L
78 60 L
cp
f
GR
GS
0.873 GC
1 LJ
0.5 LW
N
78 712 M
78 60 L
S
GR
GS
0.873 GC
1 LJ
0.5 LW
N
207.167 712 M
207.167 60 L
S
GR
GS
0.873 GC
1 LJ
0.5 LW
N
336.333 712 M
336.333 60 L
S
GR
GS
0.873 GC
1 LJ
0.5 LW
N
465.5 712 M
465.5 60 L
S
GR
GS
0.873 GC
1 LJ
0.5 LW
N
543 712 M
78 712 L
S
GR
GS
0.873 GC
1 LJ
0.5 LW
N
543 603.333 M
78 603.333 L
S
GR
GS
0.873 GC
1 LJ
0.5 LW
N
543 494.667 M
78 494.667 L
S
GR
GS
0.873 GC
1 LJ
0.5 LW
N
543 386 M
78 386 L
S
GR
GS
0.873 GC
1 LJ
0.5 LW
N
543 277.333 M
78 277.333 L
S
GR
GS
0.873 GC
1 LJ
0.5 LW
N
543 168.667 M
78 168.667 L
S
GR
GS
0.873 GC
1 LJ
0.5 LW
N
543 60 M
78 60 L
S
GR
GS
0.149 GC
2 setlinecap
1 LJ
0.5 LW
N
78 712 M
543 712 L
S
GR
GS
0.149 GC
2 setlinecap
1 LJ
0.5 LW
N
78 60 M
543 60 L
S
GR
GS
0.149 GC
2 setlinecap
1 LJ
0.5 LW
N
78 712 M
78 705.48 L
S
GR
GS
0.149 GC
2 setlinecap
1 LJ
0.5 LW
N
207.167 712 M
207.167 705.48 L
S
GR
GS
0.149 GC
2 setlinecap
1 LJ
0.5 LW
N
336.333 712 M
336.333 705.48 L
S
GR
GS
0.149 GC
2 setlinecap
1 LJ
0.5 LW
N
465.5 712 M
465.5 705.48 L
S
GR
GS
0.149 GC
2 setlinecap
1 LJ
0.5 LW
N
78 60 M
78 66.52 L
S
GR
GS
0.149 GC
2 setlinecap
1 LJ
0.5 LW
N
207.167 60 M
207.167 66.52 L
S
GR
GS
0.149 GC
2 setlinecap
1 LJ
0.5 LW
N
336.333 60 M
336.333 66.52 L
S
GR
GS
0.149 GC
2 setlinecap
1 LJ
0.5 LW
N
465.5 60 M
465.5 66.52 L
S
GR
GS
[1 0 0 1 78 718] CT
0.149 GC
/Times-Roman 20 F
GS
[1 0 0 1 0 0] CT
-5 18 moveto 
1 -1 scale
(0) t 
GR
GR
GS
[1 0 0 1 207.16667 718] CT
0.149 GC
/Times-Roman 20 F
GS
[1 0 0 1 0 0] CT
-5 18 moveto 
1 -1 scale
(5) t 
GR
GR
GS
[1 0 0 1 336.33334 718] CT
0.149 GC
/Times-Roman 20 F
GS
[1 0 0 1 0 0] CT
-10 18 moveto 
1 -1 scale
(10) t 
GR
GR
GS
[1 0 0 1 465.5 718] CT
0.149 GC
/Times-Roman 20 F
GS
[1 0 0 1 0 0] CT
-10 18 moveto 
1 -1 scale
(15) t 
GR
GR
GS
[1 0 0 1 310.50021 742] CT
0.149 GC
N
-111.85 18.48 M
-111.85 17.699 L
-111.1 17.699 -110.615 17.581 QT
-110.131 17.464 -110.131 17.011 QT
-110.131 10.996 L
-110.131 10.417 -110.31 10.152 QT
-110.49 9.886 -110.818 9.824 QT
-111.146 9.761 -111.85 9.761 QT
-111.85 8.996 L
-108.662 8.761 L
-108.662 10.902 L
-108.225 9.964 -107.357 9.363 QT
-106.49 8.761 -105.475 8.761 QT
-102.928 8.761 -102.49 10.824 QT
-102.053 9.902 -101.201 9.331 QT
-100.35 8.761 -99.35 8.761 QT
-98.35 8.761 -97.67 9.081 QT
-96.99 9.402 -96.646 10.066 QT
-96.303 10.73 -96.303 11.73 QT
-96.303 17.011 L
-96.303 17.464 -95.81 17.581 QT
-95.318 17.699 -94.584 17.699 QT
-94.584 18.48 L
-99.615 18.48 L
-99.615 17.699 L
-98.865 17.699 -98.381 17.581 QT
-97.896 17.464 -97.896 17.011 QT
-97.896 11.792 L
-97.896 10.683 -98.209 10.003 QT
-98.521 9.324 -99.49 9.324 QT
-100.756 9.324 -101.584 10.347 QT
-102.412 11.371 -102.412 12.667 QT
-102.412 17.011 L
-102.412 17.464 -101.928 17.581 QT
-101.443 17.699 -100.693 17.699 QT
-100.693 18.48 L
-105.725 18.48 L
-105.725 17.699 L
-104.975 17.699 -104.49 17.581 QT
-104.006 17.464 -104.006 17.011 QT
-104.006 11.792 L
-104.006 10.714 -104.318 10.019 QT
-104.631 9.324 -105.6 9.324 QT
-106.881 9.324 -107.701 10.347 QT
-108.521 11.371 -108.521 12.667 QT
-108.521 17.011 L
-108.521 17.464 -108.037 17.581 QT
-107.553 17.699 -106.818 17.699 QT
-106.818 18.48 L
-111.85 18.48 L
cp
f
GR
GS
[1 0 0 1 310.50021 742] CT
0.149 GC
N
-88.672 18.73 M
-90.001 18.73 -91.126 18.058 QT
-92.251 17.386 -92.907 16.253 QT
-93.563 15.121 -93.563 13.792 QT
-93.563 12.792 -93.204 11.855 QT
-92.844 10.917 -92.172 10.183 QT
-91.501 9.449 -90.61 9.035 QT
-89.719 8.621 -88.672 8.621 QT
-87.313 8.621 -86.204 9.331 QT
-85.094 10.042 -84.454 11.246 QT
-83.813 12.449 -83.813 13.792 QT
-83.813 15.121 -84.461 16.253 QT
-85.11 17.386 -86.235 18.058 QT
-87.36 18.73 -88.672 18.73 QT
cp
-88.672 18.089 M
-86.907 18.089 -86.321 16.808 QT
-85.735 15.527 -85.735 13.542 QT
-85.735 12.449 -85.852 11.722 QT
-85.969 10.996 -86.36 10.402 QT
-86.61 10.042 -86.993 9.769 QT
-87.376 9.496 -87.797 9.347 QT
-88.219 9.199 -88.672 9.199 QT
-89.36 9.199 -89.977 9.511 QT
-90.594 9.824 -91.001 10.402 QT
-91.407 11.027 -91.524 11.769 QT
-91.641 12.511 -91.641 13.542 QT
-91.641 14.777 -91.422 15.761 QT
-91.204 16.746 -90.555 17.417 QT
-89.907 18.089 -88.672 18.089 QT
cp
f
GR
GS
[1 0 0 1 310.50021 742] CT
0.149 GC
N
-77.186 18.73 M
-78.483 18.73 -79.561 18.027 QT
-80.639 17.324 -81.233 16.175 QT
-81.827 15.027 -81.827 13.73 QT
-81.827 12.402 -81.178 11.253 QT
-80.53 10.105 -79.413 9.433 QT
-78.296 8.761 -76.952 8.761 QT
-76.155 8.761 -75.428 9.097 QT
-74.702 9.433 -74.186 10.042 QT
-74.186 5.464 L
-74.186 4.871 -74.358 4.605 QT
-74.53 4.339 -74.858 4.285 QT
-75.186 4.23 -75.889 4.23 QT
-75.889 3.449 L
-72.639 3.214 L
-72.639 16.48 L
-72.639 17.058 -72.46 17.324 QT
-72.28 17.589 -71.952 17.644 QT
-71.624 17.699 -70.921 17.699 QT
-70.921 18.48 L
-74.249 18.73 L
-74.249 17.339 L
-74.811 17.996 -75.6 18.363 QT
-76.389 18.73 -77.186 18.73 QT
cp
-79.436 16.574 M
-79.061 17.292 -78.428 17.722 QT
-77.796 18.152 -77.061 18.152 QT
-76.155 18.152 -75.389 17.621 QT
-74.624 17.089 -74.249 16.261 QT
-74.249 10.98 L
-74.499 10.496 -74.897 10.113 QT
-75.296 9.73 -75.78 9.527 QT
-76.264 9.324 -76.811 9.324 QT
-77.967 9.324 -78.663 9.972 QT
-79.358 10.621 -79.639 11.636 QT
-79.921 12.652 -79.921 13.746 QT
-79.921 14.636 -79.827 15.292 QT
-79.733 15.949 -79.436 16.574 QT
cp
f
GR
GS
[1 0 0 1 310.50021 742] CT
0.149 GC
N
-64.855 18.73 M
-66.198 18.73 -67.323 18.027 QT
-68.448 17.324 -69.089 16.144 QT
-69.73 14.964 -69.73 13.652 QT
-69.73 12.371 -69.144 11.206 QT
-68.558 10.042 -67.511 9.331 QT
-66.464 8.621 -65.167 8.621 QT
-64.167 8.621 -63.417 8.956 QT
-62.667 9.292 -62.183 9.894 QT
-61.698 10.496 -61.456 11.316 QT
-61.214 12.136 -61.214 13.105 QT
-61.214 13.402 -61.433 13.402 QT
-67.808 13.402 L
-67.808 13.636 L
-67.808 15.464 -67.073 16.777 QT
-66.339 18.089 -64.667 18.089 QT
-63.995 18.089 -63.417 17.785 QT
-62.839 17.48 -62.417 16.941 QT
-61.995 16.402 -61.839 15.792 QT
-61.823 15.714 -61.761 15.66 QT
-61.698 15.605 -61.62 15.605 QT
-61.433 15.605 L
-61.214 15.605 -61.214 15.886 QT
-61.526 17.121 -62.558 17.925 QT
-63.589 18.73 -64.855 18.73 QT
cp
-67.776 12.855 M
-62.761 12.855 L
-62.761 12.027 -62.995 11.175 QT
-63.23 10.324 -63.769 9.761 QT
-64.308 9.199 -65.167 9.199 QT
-66.417 9.199 -67.097 10.363 QT
-67.776 11.527 -67.776 12.855 QT
cp
f
GR
GS
[1 0 0 1 310.50021 742] CT
0.149 GC
N
-52.353 16.324 M
-52.353 15.011 -51.322 14.191 QT
-50.29 13.371 -48.845 13.027 QT
-47.4 12.683 -46.087 12.683 QT
-46.087 11.792 L
-46.087 11.152 -46.368 10.558 QT
-46.65 9.964 -47.181 9.581 QT
-47.712 9.199 -48.337 9.199 QT
-49.806 9.199 -50.556 9.855 QT
-50.15 9.855 -49.876 10.167 QT
-49.603 10.48 -49.603 10.902 QT
-49.603 11.339 -49.908 11.652 QT
-50.212 11.964 -50.65 11.964 QT
-51.087 11.964 -51.4 11.652 QT
-51.712 11.339 -51.712 10.902 QT
-51.712 9.746 -50.658 9.183 QT
-49.603 8.621 -48.337 8.621 QT
-47.447 8.621 -46.548 9.003 QT
-45.65 9.386 -45.072 10.089 QT
-44.493 10.792 -44.493 11.746 QT
-44.493 16.699 L
-44.493 17.121 -44.314 17.48 QT
-44.134 17.839 -43.743 17.839 QT
-43.384 17.839 -43.204 17.48 QT
-43.025 17.121 -43.025 16.699 QT
-43.025 15.292 L
-42.384 15.292 L
-42.384 16.699 L
-42.384 17.183 -42.642 17.636 QT
-42.9 18.089 -43.329 18.347 QT
-43.759 18.605 -44.275 18.605 QT
-44.915 18.605 -45.384 18.105 QT
-45.853 17.605 -45.9 16.917 QT
-46.306 17.746 -47.103 18.238 QT
-47.9 18.73 -48.806 18.73 QT
-49.634 18.73 -50.447 18.48 QT
-51.259 18.23 -51.806 17.699 QT
-52.353 17.167 -52.353 16.324 QT
cp
-50.556 16.324 M
-50.556 17.089 -49.993 17.621 QT
-49.431 18.152 -48.65 18.152 QT
-47.947 18.152 -47.361 17.792 QT
-46.775 17.433 -46.431 16.824 QT
-46.087 16.214 -46.087 15.542 QT
-46.087 13.246 L
-47.087 13.246 -48.134 13.574 QT
-49.181 13.902 -49.868 14.597 QT
-50.556 15.292 -50.556 16.324 QT
cp
f
GR
GS
[1 0 0 1 310.50021 742] CT
0.149 GC
N
-41.572 18.48 M
-41.572 17.699 L
-40.822 17.699 -40.337 17.581 QT
-39.853 17.464 -39.853 17.011 QT
-39.853 10.996 L
-39.853 10.417 -40.033 10.152 QT
-40.212 9.886 -40.54 9.824 QT
-40.868 9.761 -41.572 9.761 QT
-41.572 8.996 L
-38.384 8.761 L
-38.384 10.902 L
-37.947 9.964 -37.079 9.363 QT
-36.212 8.761 -35.197 8.761 QT
-33.665 8.761 -32.9 9.488 QT
-32.134 10.214 -32.134 11.73 QT
-32.134 17.011 L
-32.134 17.464 -31.65 17.581 QT
-31.165 17.699 -30.415 17.699 QT
-30.415 18.48 L
-35.447 18.48 L
-35.447 17.699 L
-34.697 17.699 -34.212 17.581 QT
-33.728 17.464 -33.728 17.011 QT
-33.728 11.792 L
-33.728 10.714 -34.04 10.019 QT
-34.353 9.324 -35.322 9.324 QT
-36.603 9.324 -37.423 10.347 QT
-38.243 11.371 -38.243 12.667 QT
-38.243 17.011 L
-38.243 17.464 -37.759 17.581 QT
-37.275 17.699 -36.54 17.699 QT
-36.54 18.48 L
-41.572 18.48 L
cp
f
GR
GS
[1 0 0 1 310.50021 742] CT
0.149 GC
N
-29.396 20.199 M
-29.396 19.417 -28.826 18.831 QT
-28.256 18.246 -27.474 17.996 QT
-27.912 17.667 -28.138 17.16 QT
-28.365 16.652 -28.365 16.089 QT
-28.365 15.058 -27.724 14.261 QT
-28.724 13.277 -28.724 11.996 QT
-28.724 11.308 -28.427 10.706 QT
-28.131 10.105 -27.607 9.66 QT
-27.084 9.214 -26.435 8.988 QT
-25.787 8.761 -25.115 8.761 QT
-23.802 8.761 -22.771 9.527 QT
-22.318 9.042 -21.701 8.777 QT
-21.084 8.511 -20.412 8.511 QT
-19.943 8.511 -19.638 8.847 QT
-19.334 9.183 -19.334 9.667 QT
-19.334 9.933 -19.537 10.136 QT
-19.74 10.339 -20.021 10.339 QT
-20.287 10.339 -20.498 10.136 QT
-20.709 9.933 -20.709 9.667 QT
-20.709 9.246 -20.427 9.089 QT
-21.568 9.089 -22.396 9.871 QT
-21.99 10.277 -21.748 10.847 QT
-21.506 11.417 -21.506 11.996 QT
-21.506 12.933 -22.021 13.675 QT
-22.537 14.417 -23.381 14.831 QT
-24.224 15.246 -25.115 15.246 QT
-26.318 15.246 -27.318 14.589 QT
-27.631 15.027 -27.631 15.558 QT
-27.631 16.136 -27.248 16.574 QT
-26.865 17.011 -26.287 17.011 QT
-24.49 17.011 L
-23.177 17.011 -22.123 17.246 QT
-21.068 17.48 -20.357 18.191 QT
-19.646 18.902 -19.646 20.199 QT
-19.646 21.167 -20.459 21.808 QT
-21.271 22.449 -22.404 22.73 QT
-23.537 23.011 -24.506 23.011 QT
-25.49 23.011 -26.623 22.73 QT
-27.756 22.449 -28.576 21.808 QT
-29.396 21.167 -29.396 20.199 QT
cp
-28.162 20.199 M
-28.162 20.933 -27.56 21.433 QT
-26.959 21.933 -26.107 22.175 QT
-25.256 22.417 -24.506 22.417 QT
-23.771 22.417 -22.92 22.175 QT
-22.068 21.933 -21.474 21.433 QT
-20.881 20.933 -20.881 20.199 QT
-20.881 19.042 -21.927 18.706 QT
-22.974 18.371 -24.49 18.371 QT
-26.287 18.371 L
-26.787 18.371 -27.217 18.613 QT
-27.646 18.855 -27.904 19.292 QT
-28.162 19.73 -28.162 20.199 QT
cp
-25.115 14.652 M
-23.256 14.652 -23.256 11.996 QT
-23.256 10.839 -23.646 10.097 QT
-24.037 9.355 -25.115 9.355 QT
-26.193 9.355 -26.592 10.097 QT
-26.99 10.839 -26.99 11.996 QT
-26.99 12.714 -26.842 13.308 QT
-26.693 13.902 -26.279 14.277 QT
-25.865 14.652 -25.115 14.652 QT
cp
f
GR
GS
[1 0 0 1 310.50021 742] CT
0.149 GC
N
-16.631 15.855 M
-16.631 10.996 L
-16.631 10.417 -16.81 10.152 QT
-16.99 9.886 -17.318 9.824 QT
-17.646 9.761 -18.349 9.761 QT
-18.349 8.996 L
-15.021 8.761 L
-15.021 15.855 L
-15.021 16.714 -14.896 17.191 QT
-14.771 17.667 -14.373 17.91 QT
-13.974 18.152 -13.084 18.152 QT
-11.912 18.152 -11.209 17.16 QT
-10.506 16.167 -10.506 14.917 QT
-10.506 10.996 L
-10.506 10.417 -10.693 10.152 QT
-10.881 9.886 -11.201 9.824 QT
-11.521 9.761 -12.224 9.761 QT
-12.224 8.996 L
-8.912 8.761 L
-8.912 16.48 L
-8.912 17.058 -8.732 17.324 QT
-8.552 17.589 -8.216 17.644 QT
-7.881 17.699 -7.193 17.699 QT
-7.193 18.48 L
-10.443 18.73 L
-10.443 16.871 L
-10.849 17.699 -11.584 18.214 QT
-12.318 18.73 -13.193 18.73 QT
-14.771 18.73 -15.701 18.058 QT
-16.631 17.386 -16.631 15.855 QT
cp
f
GR
GS
[1 0 0 1 310.50021 742] CT
0.149 GC
N
-6.111 18.48 M
-6.111 17.699 L
-5.361 17.699 -4.877 17.581 QT
-4.393 17.464 -4.393 17.011 QT
-4.393 5.464 L
-4.393 4.871 -4.565 4.605 QT
-4.736 4.339 -5.072 4.285 QT
-5.408 4.23 -6.111 4.23 QT
-6.111 3.449 L
-2.846 3.214 L
-2.846 17.011 L
-2.846 17.464 -2.361 17.581 QT
-1.877 17.699 -1.127 17.699 QT
-1.127 18.48 L
-6.111 18.48 L
cp
f
GR
GS
[1 0 0 1 310.50021 742] CT
0.149 GC
N
0.203 16.324 M
0.203 15.011 1.234 14.191 QT
2.265 13.371 3.711 13.027 QT
5.156 12.683 6.468 12.683 QT
6.468 11.792 L
6.468 11.152 6.187 10.558 QT
5.906 9.964 5.375 9.581 QT
4.843 9.199 4.218 9.199 QT
2.75 9.199 2 9.855 QT
2.406 9.855 2.679 10.167 QT
2.953 10.48 2.953 10.902 QT
2.953 11.339 2.648 11.652 QT
2.343 11.964 1.906 11.964 QT
1.468 11.964 1.156 11.652 QT
0.843 11.339 0.843 10.902 QT
0.843 9.746 1.898 9.183 QT
2.953 8.621 4.218 8.621 QT
5.109 8.621 6.008 9.003 QT
6.906 9.386 7.484 10.089 QT
8.062 10.792 8.062 11.746 QT
8.062 16.699 L
8.062 17.121 8.242 17.48 QT
8.422 17.839 8.812 17.839 QT
9.172 17.839 9.351 17.48 QT
9.531 17.121 9.531 16.699 QT
9.531 15.292 L
10.172 15.292 L
10.172 16.699 L
10.172 17.183 9.914 17.636 QT
9.656 18.089 9.226 18.347 QT
8.797 18.605 8.281 18.605 QT
7.64 18.605 7.172 18.105 QT
6.703 17.605 6.656 16.917 QT
6.25 17.746 5.453 18.238 QT
4.656 18.73 3.75 18.73 QT
2.922 18.73 2.109 18.48 QT
1.297 18.23 0.75 17.699 QT
0.203 17.167 0.203 16.324 QT
cp
2 16.324 M
2 17.089 2.562 17.621 QT
3.125 18.152 3.906 18.152 QT
4.609 18.152 5.195 17.792 QT
5.781 17.433 6.125 16.824 QT
6.468 16.214 6.468 15.542 QT
6.468 13.246 L
5.468 13.246 4.422 13.574 QT
3.375 13.902 2.687 14.597 QT
2 15.292 2 16.324 QT
cp
f
GR
GS
[1 0 0 1 310.50021 742] CT
0.149 GC
N
10.89 18.48 M
10.89 17.699 L
11.656 17.699 12.133 17.581 QT
12.609 17.464 12.609 17.011 QT
12.609 10.996 L
12.609 10.417 12.437 10.152 QT
12.265 9.886 11.929 9.824 QT
11.594 9.761 10.89 9.761 QT
10.89 8.996 L
14.047 8.761 L
14.047 10.902 L
14.406 9.949 15.054 9.355 QT
15.703 8.761 16.64 8.761 QT
17.297 8.761 17.812 9.144 QT
18.328 9.527 18.328 10.167 QT
18.328 10.558 18.047 10.855 QT
17.765 11.152 17.344 11.152 QT
16.937 11.152 16.648 10.863 QT
16.359 10.574 16.359 10.167 QT
16.359 9.574 16.781 9.324 QT
16.64 9.324 L
15.75 9.324 15.187 9.972 QT
14.625 10.621 14.39 11.574 QT
14.156 12.527 14.156 13.402 QT
14.156 17.011 L
14.156 17.699 16.297 17.699 QT
16.297 18.48 L
10.89 18.48 L
cp
f
GR
GS
[1 0 0 1 310.50021 742] CT
0.149 GC
N
26.934 18.48 M
26.934 17.699 L
27.684 17.699 28.169 17.581 QT
28.653 17.464 28.653 17.011 QT
28.653 10.996 L
28.653 10.417 28.473 10.152 QT
28.294 9.886 27.965 9.824 QT
27.637 9.761 26.934 9.761 QT
26.934 8.996 L
30.122 8.761 L
30.122 10.902 L
30.559 9.964 31.426 9.363 QT
32.294 8.761 33.309 8.761 QT
34.84 8.761 35.606 9.488 QT
36.372 10.214 36.372 11.73 QT
36.372 17.011 L
36.372 17.464 36.856 17.581 QT
37.34 17.699 38.09 17.699 QT
38.09 18.48 L
33.059 18.48 L
33.059 17.699 L
33.809 17.699 34.294 17.581 QT
34.778 17.464 34.778 17.011 QT
34.778 11.792 L
34.778 10.714 34.465 10.019 QT
34.153 9.324 33.184 9.324 QT
31.903 9.324 31.083 10.347 QT
30.262 11.371 30.262 12.667 QT
30.262 17.011 L
30.262 17.464 30.747 17.581 QT
31.231 17.699 31.965 17.699 QT
31.965 18.48 L
26.934 18.48 L
cp
f
GR
GS
[1 0 0 1 310.50021 742] CT
0.149 GC
N
40.264 15.855 M
40.264 10.996 L
40.264 10.417 40.084 10.152 QT
39.905 9.886 39.577 9.824 QT
39.248 9.761 38.545 9.761 QT
38.545 8.996 L
41.873 8.761 L
41.873 15.855 L
41.873 16.714 41.998 17.191 QT
42.123 17.667 42.522 17.91 QT
42.92 18.152 43.811 18.152 QT
44.983 18.152 45.686 17.16 QT
46.389 16.167 46.389 14.917 QT
46.389 10.996 L
46.389 10.417 46.202 10.152 QT
46.014 9.886 45.694 9.824 QT
45.373 9.761 44.67 9.761 QT
44.67 8.996 L
47.983 8.761 L
47.983 16.48 L
47.983 17.058 48.162 17.324 QT
48.342 17.589 48.678 17.644 QT
49.014 17.699 49.702 17.699 QT
49.702 18.48 L
46.452 18.73 L
46.452 16.871 L
46.045 17.699 45.311 18.214 QT
44.577 18.73 43.702 18.73 QT
42.123 18.73 41.194 18.058 QT
40.264 17.386 40.264 15.855 QT
cp
f
GR
GS
[1 0 0 1 310.50021 742] CT
0.149 GC
N
50.768 18.48 M
50.768 17.699 L
51.518 17.699 52.002 17.581 QT
52.486 17.464 52.486 17.011 QT
52.486 10.996 L
52.486 10.417 52.307 10.152 QT
52.127 9.886 51.799 9.824 QT
51.471 9.761 50.768 9.761 QT
50.768 8.996 L
53.955 8.761 L
53.955 10.902 L
54.393 9.964 55.26 9.363 QT
56.127 8.761 57.143 8.761 QT
59.689 8.761 60.127 10.824 QT
60.564 9.902 61.416 9.331 QT
62.268 8.761 63.268 8.761 QT
64.268 8.761 64.947 9.081 QT
65.627 9.402 65.971 10.066 QT
66.314 10.73 66.314 11.73 QT
66.314 17.011 L
66.314 17.464 66.807 17.581 QT
67.299 17.699 68.033 17.699 QT
68.033 18.48 L
63.002 18.48 L
63.002 17.699 L
63.752 17.699 64.236 17.581 QT
64.721 17.464 64.721 17.011 QT
64.721 11.792 L
64.721 10.683 64.408 10.003 QT
64.096 9.324 63.127 9.324 QT
61.861 9.324 61.033 10.347 QT
60.205 11.371 60.205 12.667 QT
60.205 17.011 L
60.205 17.464 60.689 17.581 QT
61.174 17.699 61.924 17.699 QT
61.924 18.48 L
56.893 18.48 L
56.893 17.699 L
57.643 17.699 58.127 17.581 QT
58.611 17.464 58.611 17.011 QT
58.611 11.792 L
58.611 10.714 58.299 10.019 QT
57.986 9.324 57.018 9.324 QT
55.736 9.324 54.916 10.347 QT
54.096 11.371 54.096 12.667 QT
54.096 17.011 L
54.096 17.464 54.58 17.581 QT
55.064 17.699 55.799 17.699 QT
55.799 18.48 L
50.768 18.48 L
cp
f
GR
GS
[1 0 0 1 310.50021 742] CT
0.149 GC
N
70.115 18.48 M
70.115 5.464 L
70.115 4.871 69.943 4.605 QT
69.771 4.339 69.435 4.285 QT
69.099 4.23 68.396 4.23 QT
68.396 3.449 L
71.662 3.214 L
71.662 10.105 L
72.021 9.699 72.513 9.386 QT
73.005 9.074 73.56 8.917 QT
74.115 8.761 74.693 8.761 QT
75.693 8.761 76.537 9.16 QT
77.38 9.558 77.998 10.253 QT
78.615 10.949 78.966 11.855 QT
79.318 12.761 79.318 13.73 QT
79.318 15.058 78.669 16.206 QT
78.021 17.355 76.896 18.042 QT
75.771 18.73 74.427 18.73 QT
73.599 18.73 72.81 18.3 QT
72.021 17.871 71.505 17.152 QT
70.755 18.48 L
70.115 18.48 L
cp
71.724 16.324 M
72.084 17.121 72.771 17.636 QT
73.459 18.152 74.302 18.152 QT
75.443 18.152 76.146 17.496 QT
76.849 16.839 77.13 15.839 QT
77.412 14.839 77.412 13.73 QT
77.412 11.871 76.927 10.902 QT
76.709 10.48 76.334 10.113 QT
75.959 9.746 75.505 9.535 QT
75.052 9.324 74.552 9.324 QT
73.662 9.324 72.912 9.792 QT
72.162 10.261 71.724 11.042 QT
71.724 16.324 L
cp
f
GR
GS
[1 0 0 1 310.50021 742] CT
0.149 GC
N
86.151 18.73 M
84.808 18.73 83.683 18.027 QT
82.558 17.324 81.917 16.144 QT
81.276 14.964 81.276 13.652 QT
81.276 12.371 81.862 11.206 QT
82.448 10.042 83.495 9.331 QT
84.542 8.621 85.839 8.621 QT
86.839 8.621 87.589 8.956 QT
88.339 9.292 88.823 9.894 QT
89.308 10.496 89.55 11.316 QT
89.792 12.136 89.792 13.105 QT
89.792 13.402 89.573 13.402 QT
83.198 13.402 L
83.198 13.636 L
83.198 15.464 83.933 16.777 QT
84.667 18.089 86.339 18.089 QT
87.011 18.089 87.589 17.785 QT
88.167 17.48 88.589 16.941 QT
89.011 16.402 89.167 15.792 QT
89.183 15.714 89.245 15.66 QT
89.308 15.605 89.386 15.605 QT
89.573 15.605 L
89.792 15.605 89.792 15.886 QT
89.479 17.121 88.448 17.925 QT
87.417 18.73 86.151 18.73 QT
cp
83.229 12.855 M
88.245 12.855 L
88.245 12.027 88.011 11.175 QT
87.776 10.324 87.237 9.761 QT
86.698 9.199 85.839 9.199 QT
84.589 9.199 83.909 10.363 QT
83.229 11.527 83.229 12.855 QT
cp
f
GR
GS
[1 0 0 1 310.50021 742] CT
0.149 GC
N
91.007 18.48 M
91.007 17.699 L
91.773 17.699 92.249 17.581 QT
92.726 17.464 92.726 17.011 QT
92.726 10.996 L
92.726 10.417 92.554 10.152 QT
92.382 9.886 92.046 9.824 QT
91.71 9.761 91.007 9.761 QT
91.007 8.996 L
94.163 8.761 L
94.163 10.902 L
94.523 9.949 95.171 9.355 QT
95.82 8.761 96.757 8.761 QT
97.413 8.761 97.929 9.144 QT
98.445 9.527 98.445 10.167 QT
98.445 10.558 98.163 10.855 QT
97.882 11.152 97.46 11.152 QT
97.054 11.152 96.765 10.863 QT
96.476 10.574 96.476 10.167 QT
96.476 9.574 96.898 9.324 QT
96.757 9.324 L
95.867 9.324 95.304 9.972 QT
94.742 10.621 94.507 11.574 QT
94.273 12.527 94.273 13.402 QT
94.273 17.011 L
94.273 17.699 96.413 17.699 QT
96.413 18.48 L
91.007 18.48 L
cp
f
GR
GS
[1 0 0 1 310.50021 742] CT
0.149 GC
N
107.067 18.48 M
107.067 17.699 L
107.817 17.699 108.301 17.581 QT
108.785 17.464 108.785 17.011 QT
108.785 5.464 L
108.785 4.871 108.613 4.605 QT
108.442 4.339 108.106 4.285 QT
107.77 4.23 107.067 4.23 QT
107.067 3.449 L
110.332 3.214 L
110.332 17.011 L
110.332 17.464 110.817 17.581 QT
111.301 17.699 112.051 17.699 QT
112.051 18.48 L
107.067 18.48 L
cp
f
GR
GS
0.149 GC
2 setlinecap
1 LJ
0.5 LW
N
78 712 M
78 60 L
S
GR
GS
0.149 GC
2 setlinecap
1 LJ
0.5 LW
N
543 712 M
543 60 L
S
GR
GS
0.149 GC
2 setlinecap
1 LJ
0.5 LW
N
78 712 M
84.52 712 L
S
GR
GS
0.149 GC
2 setlinecap
1 LJ
0.5 LW
N
78 603.333 M
84.52 603.333 L
S
GR
GS
0.149 GC
2 setlinecap
1 LJ
0.5 LW
N
78 494.667 M
84.52 494.667 L
S
GR
GS
0.149 GC
2 setlinecap
1 LJ
0.5 LW
N
78 386 M
84.52 386 L
S
GR
GS
0.149 GC
2 setlinecap
1 LJ
0.5 LW
N
78 277.333 M
84.52 277.333 L
S
GR
GS
0.149 GC
2 setlinecap
1 LJ
0.5 LW
N
78 168.667 M
84.52 168.667 L
S
GR
GS
0.149 GC
2 setlinecap
1 LJ
0.5 LW
N
78 60 M
84.52 60 L
S
GR
GS
0.149 GC
2 setlinecap
1 LJ
0.5 LW
N
543 712 M
536.48 712 L
S
GR
GS
0.149 GC
2 setlinecap
1 LJ
0.5 LW
N
543 603.333 M
536.48 603.333 L
S
GR
GS
0.149 GC
2 setlinecap
1 LJ
0.5 LW
N
543 494.667 M
536.48 494.667 L
S
GR
GS
0.149 GC
2 setlinecap
1 LJ
0.5 LW
N
543 386 M
536.48 386 L
S
GR
GS
0.149 GC
2 setlinecap
1 LJ
0.5 LW
N
543 277.333 M
536.48 277.333 L
S
GR
GS
0.149 GC
2 setlinecap
1 LJ
0.5 LW
N
543 168.667 M
536.48 168.667 L
S
GR
GS
0.149 GC
2 setlinecap
1 LJ
0.5 LW
N
543 60 M
536.48 60 L
S
GR
GS
[1 0 0 1 72 712] CT
0.149 GC
/Times-Roman 20 F
GS
[1 0 0 1 0 0] CT
-10 6.5 moveto 
1 -1 scale
(0) t 
GR
GR
GS
[1 0 0 1 72 603.33331] CT
0.149 GC
/Times-Roman 20 F
GS
[1 0 0 1 0 0] CT
-25 6.5 moveto 
1 -1 scale
(0.5) t 
GR
GR
GS
[1 0 0 1 72 494.66666] CT
0.149 GC
/Times-Roman 20 F
GS
[1 0 0 1 0 0] CT
-10 6.5 moveto 
1 -1 scale
(1) t 
GR
GR
GS
[1 0 0 1 72 386] CT
0.149 GC
/Times-Roman 20 F
GS
[1 0 0 1 0 0] CT
-25 6.5 moveto 
1 -1 scale
(1.5) t 
GR
GR
GS
[1 0 0 1 72 277.33334] CT
0.149 GC
/Times-Roman 20 F
GS
[1 0 0 1 0 0] CT
-10 6.5 moveto 
1 -1 scale
(2) t 
GR
GR
GS
[1 0 0 1 72 168.66667] CT
0.149 GC
/Times-Roman 20 F
GS
[1 0 0 1 0 0] CT
-25 6.5 moveto 
1 -1 scale
(2.5) t 
GR
GR
GS
[1 0 0 1 72 60] CT
0.149 GC
/Times-Roman 20 F
GS
[1 0 0 1 0 0] CT
-10 6.5 moveto 
1 -1 scale
(3) t 
GR
GR
GS
[0 -1 1 0 44 385.99969] CT
0.149 GC
/Times-Roman 22 F
GS
[1 0 0 1 0 0] CT
-102 -5 moveto 
1 -1 scale
(g_{nl} half-width \(Hz\)) t 
GR
GR
GS
[1 0 0 1 310.50031 54.50001] CT
/Times-Bold 22 F
GS
[1 0 0 1 0 0] CT
-163.5 -57 moveto 
1 -1 scale
(g_{nl} half-widths for modes _nS_l) t 
GR
GR
GS
[1 0 0 1 310.50031 54.50001] CT
/Times-Bold 22 F
GS
[1 0 0 1 0 0] CT
-312 -31 moveto 
1 -1 scale
(in a spherical shell of fluid enclosed between inner and outer shells) t 
GR
GR
GS
[1 0 0 1 310.50031 54.50001] CT
/Times-Bold 22 F
GS
[1 0 0 1 0 0] CT
-219.5 -5 moveto 
1 -1 scale
(sphere type : ZoRo2-N2-rigid     \(11-Aug-2021\)) t 
GR
GR
GS
[1 0 0 1 103.83334 660.54413] CT
N
3 0 M
3 -1.657 1.657 -3 0 -3 C
-1.657 -3 -3 -1.657 -3 0 C
-3 1.657 -1.657 3 0 3 C
1.657 3 3 1.657 3 0 C
cp
f
GR
GS
[1 0 0 1 103.83334 660.54413] CT
10.0 ML
N
3 0 M
3 -1.657 1.657 -3 0 -3 C
-1.657 -3 -3 -1.657 -3 0 C
-3 1.657 -1.657 3 0 3 C
1.657 3 3 1.657 3 0 C
cp
S
GR
GS
[1 0 0 1 129.66667 629.94391] CT
N
/f-2087191549{3 0 M
3 -1.657 1.657 -3 0 -3 C
-1.657 -3 -3 -1.657 -3 0 C
-3 1.657 -1.657 3 0 3 C
1.657 3 3 1.657 3 0 C
cp}def
f-2087191549
f
GR
GS
[1 0 0 1 129.66667 629.94391] CT
10.0 ML
N
3 0 M
3 -1.657 1.657 -3 0 -3 C
-1.657 -3 -3 -1.657 -3 0 C
-3 1.657 -1.657 3 0 3 C
1.657 3 3 1.657 3 0 C
cp
S
GR
GS
[1 0 0 1 155.5 599.05383] CT
N
f-2087191549
f
GR
GS
[1 0 0 1 155.5 599.05383] CT
10.0 ML
N
3 0 M
3 -1.657 1.657 -3 0 -3 C
-1.657 -3 -3 -1.657 -3 0 C
-3 1.657 -1.657 3 0 3 C
1.657 3 3 1.657 3 0 C
cp
S
GR
GS
[1 0 0 1 181.33333 567.54614] CT
N
f-2087191549
f
GR
GS
[1 0 0 1 181.33333 567.54614] CT
10.0 ML
N
3 0 M
3 -1.657 1.657 -3 0 -3 C
-1.657 -3 -3 -1.657 -3 0 C
-3 1.657 -1.657 3 0 3 C
1.657 3 3 1.657 3 0 C
cp
S
GR
GS
[1 0 0 1 207.16667 535.40216] CT
N
f-2087191549
f
GR
GS
[1 0 0 1 207.16667 535.40216] CT
10.0 ML
N
3 0 M
3 -1.657 1.657 -3 0 -3 C
-1.657 -3 -3 -1.657 -3 0 C
-3 1.657 -1.657 3 0 3 C
1.657 3 3 1.657 3 0 C
cp
S
GR
GS
[1 0 0 1 233 502.65317] CT
N
f-2087191549
f
GR
GS
[1 0 0 1 233 502.65317] CT
10.0 ML
N
3 0 M
3 -1.657 1.657 -3 0 -3 C
-1.657 -3 -3 -1.657 -3 0 C
-3 1.657 -1.657 3 0 3 C
1.657 3 3 1.657 3 0 C
cp
S
GR
GS
[1 0 0 1 258.83334 469.3381] CT
N
f-2087191549
f
GR
GS
[1 0 0 1 258.83334 469.3381] CT
10.0 ML
N
3 0 M
3 -1.657 1.657 -3 0 -3 C
-1.657 -3 -3 -1.657 -3 0 C
-3 1.657 -1.657 3 0 3 C
1.657 3 3 1.657 3 0 C
cp
S
GR
GS
[1 0 0 1 284.66666 435.49438] CT
N
f-2087191549
f
GR
GS
[1 0 0 1 284.66666 435.49438] CT
10.0 ML
N
3 0 M
3 -1.657 1.657 -3 0 -3 C
-1.657 -3 -3 -1.657 -3 0 C
-3 1.657 -1.657 3 0 3 C
1.657 3 3 1.657 3 0 C
cp
S
GR
GS
[1 0 0 1 310.5 401.15552] CT
N
f-2087191549
f
GR
GS
[1 0 0 1 310.5 401.15552] CT
10.0 ML
N
3 0 M
3 -1.657 1.657 -3 0 -3 C
-1.657 -3 -3 -1.657 -3 0 C
-3 1.657 -1.657 3 0 3 C
1.657 3 3 1.657 3 0 C
cp
S
GR
GS
[1 0 0 1 336.33334 366.35107] CT
N
f-2087191549
f
GR
GS
[1 0 0 1 336.33334 366.35107] CT
10.0 ML
N
3 0 M
3 -1.657 1.657 -3 0 -3 C
-1.657 -3 -3 -1.657 -3 0 C
-3 1.657 -1.657 3 0 3 C
1.657 3 3 1.657 3 0 C
cp
S
GR
GS
[1 0 0 1 362.16666 331.10715] CT
N
f-2087191549
f
GR
GS
[1 0 0 1 362.16666 331.10715] CT
10.0 ML
N
3 0 M
3 -1.657 1.657 -3 0 -3 C
-1.657 -3 -3 -1.657 -3 0 C
-3 1.657 -1.657 3 0 3 C
1.657 3 3 1.657 3 0 C
cp
S
GR
GS
[1 0 0 1 388 295.44675] CT
N
f-2087191549
f
GR
GS
[1 0 0 1 388 295.44675] CT
10.0 ML
N
3 0 M
3 -1.657 1.657 -3 0 -3 C
-1.657 -3 -3 -1.657 -3 0 C
-3 1.657 -1.657 3 0 3 C
1.657 3 3 1.657 3 0 C
cp
S
GR
GS
[1 0 0 1 413.83334 259.39029] CT
N
f-2087191549
f
GR
GS
[1 0 0 1 413.83334 259.39029] CT
10.0 ML
N
3 0 M
3 -1.657 1.657 -3 0 -3 C
-1.657 -3 -3 -1.657 -3 0 C
-3 1.657 -1.657 3 0 3 C
1.657 3 3 1.657 3 0 C
cp
S
GR
GS
[1 0 0 1 439.66666 222.95596] CT
N
f-2087191549
f
GR
GS
[1 0 0 1 439.66666 222.95596] CT
10.0 ML
N
3 0 M
3 -1.657 1.657 -3 0 -3 C
-1.657 -3 -3 -1.657 -3 0 C
-3 1.657 -1.657 3 0 3 C
1.657 3 3 1.657 3 0 C
cp
S
GR
GS
[1 0 0 1 465.5 186.16011] CT
N
f-2087191549
f
GR
GS
[1 0 0 1 465.5 186.16011] CT
10.0 ML
N
3 0 M
3 -1.657 1.657 -3 0 -3 C
-1.657 -3 -3 -1.657 -3 0 C
-3 1.657 -1.657 3 0 3 C
1.657 3 3 1.657 3 0 C
cp
S
GR
GS
[1 0 0 1 491.33334 149.01752] CT
N
f-2087191549
f
GR
GS
[1 0 0 1 491.33334 149.01752] CT
10.0 ML
N
3 0 M
3 -1.657 1.657 -3 0 -3 C
-1.657 -3 -3 -1.657 -3 0 C
-3 1.657 -1.657 3 0 3 C
1.657 3 3 1.657 3 0 C
cp
S
GR
GS
[1 0 0 1 517.16669 111.54142] CT
N
f-2087191549
f
GR
GS
[1 0 0 1 517.16669 111.54142] CT
10.0 ML
N
3 0 M
3 -1.657 1.657 -3 0 -3 C
-1.657 -3 -3 -1.657 -3 0 C
-3 1.657 -1.657 3 0 3 C
1.657 3 3 1.657 3 0 C
cp
S
GR
GS
[1 0 0 1 543 73.74402] CT
N
f-2087191549
f
GR
GS
[1 0 0 1 543 73.74402] CT
10.0 ML
N
3 0 M
3 -1.657 1.657 -3 0 -3 C
-1.657 -3 -3 -1.657 -3 0 C
-3 1.657 -1.657 3 0 3 C
1.657 3 3 1.657 3 0 C
cp
S
GR
GS
[1 0 0 1 78 691.05139] CT
0 0 1 RC
N
/f1363619694{-2.121 -2.121 M
2.121 2.121 L
-2.121 2.121 M
2.121 -2.121 L}def
f1363619694
f
GR
GS
[1 0 0 1 78 691.05139] CT
0 0 1 RC
10.0 ML
N
-2.121 -2.121 M
2.121 2.121 L
-2.121 2.121 M
2.121 -2.121 L
S
GR
GS
[1 0 0 1 103.83334 683.27289] CT
0 0 1 RC
N
f1363619694
f
GR
GS
[1 0 0 1 103.83334 683.27289] CT
0 0 1 RC
10.0 ML
N
-2.121 -2.121 M
2.121 2.121 L
-2.121 2.121 M
2.121 -2.121 L
S
GR
GS
[1 0 0 1 129.66667 674.44385] CT
0 0 1 RC
N
f1363619694
f
GR
GS
[1 0 0 1 129.66667 674.44385] CT
0 0 1 RC
10.0 ML
N
-2.121 -2.121 M
2.121 2.121 L
-2.121 2.121 M
2.121 -2.121 L
S
GR
GS
[1 0 0 1 155.5 665.00494] CT
0 0 1 RC
N
f1363619694
f
GR
GS
[1 0 0 1 155.5 665.00494] CT
0 0 1 RC
10.0 ML
N
-2.121 -2.121 M
2.121 2.121 L
-2.121 2.121 M
2.121 -2.121 L
S
GR
GS
[1 0 0 1 181.33333 655.12921] CT
0 0 1 RC
N
f1363619694
f
GR
GS
[1 0 0 1 181.33333 655.12921] CT
0 0 1 RC
10.0 ML
N
-2.121 -2.121 M
2.121 2.121 L
-2.121 2.121 M
2.121 -2.121 L
S
GR
GS
[1 0 0 1 207.16667 644.90619] CT
0 0 1 RC
N
f1363619694
f
GR
GS
[1 0 0 1 207.16667 644.90619] CT
0 0 1 RC
10.0 ML
N
-2.121 -2.121 M
2.121 2.121 L
-2.121 2.121 M
2.121 -2.121 L
S
GR
GS
[1 0 0 1 233 634.38995] CT
0 0 1 RC
N
f1363619694
f
GR
GS
[1 0 0 1 233 634.38995] CT
0 0 1 RC
10.0 ML
N
-2.121 -2.121 M
2.121 2.121 L
-2.121 2.121 M
2.121 -2.121 L
S
GR
GS
[1 0 0 1 258.83334 623.617] CT
0 0 1 RC
N
f1363619694
f
GR
GS
[1 0 0 1 258.83334 623.617] CT
0 0 1 RC
10.0 ML
N
-2.121 -2.121 M
2.121 2.121 L
-2.121 2.121 M
2.121 -2.121 L
S
GR
GS
[1 0 0 1 284.66666 612.61346] CT
0 0 1 RC
N
f1363619694
f
GR
GS
[1 0 0 1 284.66666 612.61346] CT
0 0 1 RC
10.0 ML
N
-2.121 -2.121 M
2.121 2.121 L
-2.121 2.121 M
2.121 -2.121 L
S
GR
GS
[1 0 0 1 310.5 601.39911] CT
0 0 1 RC
N
f1363619694
f
GR
GS
[1 0 0 1 310.5 601.39911] CT
0 0 1 RC
10.0 ML
N
-2.121 -2.121 M
2.121 2.121 L
-2.121 2.121 M
2.121 -2.121 L
S
GR
GS
[1 0 0 1 336.33334 589.98962] CT
0 0 1 RC
N
f1363619694
f
GR
GS
[1 0 0 1 336.33334 589.98962] CT
0 0 1 RC
10.0 ML
N
-2.121 -2.121 M
2.121 2.121 L
-2.121 2.121 M
2.121 -2.121 L
S
GR
GS
[1 0 0 1 362.16666 578.39764] CT
0 0 1 RC
N
f1363619694
f
GR
GS
[1 0 0 1 362.16666 578.39764] CT
0 0 1 RC
10.0 ML
N
-2.121 -2.121 M
2.121 2.121 L
-2.121 2.121 M
2.121 -2.121 L
S
GR
GS
[1 0 0 1 388 566.63354] CT
0 0 1 RC
N
f1363619694
f
GR
GS
[1 0 0 1 388 566.63354] CT
0 0 1 RC
10.0 ML
N
-2.121 -2.121 M
2.121 2.121 L
-2.121 2.121 M
2.121 -2.121 L
S
GR
GS
[1 0 0 1 413.83334 554.70618] CT
0 0 1 RC
N
f1363619694
f
GR
GS
[1 0 0 1 413.83334 554.70618] CT
0 0 1 RC
10.0 ML
N
-2.121 -2.121 M
2.121 2.121 L
-2.121 2.121 M
2.121 -2.121 L
S
GR
GS
[1 0 0 1 439.66666 542.62323] CT
0 0 1 RC
N
f1363619694
f
GR
GS
[1 0 0 1 439.66666 542.62323] CT
0 0 1 RC
10.0 ML
N
-2.121 -2.121 M
2.121 2.121 L
-2.121 2.121 M
2.121 -2.121 L
S
GR
GS
[1 0 0 1 465.5 530.39124] CT
0 0 1 RC
N
f1363619694
f
GR
GS
[1 0 0 1 465.5 530.39124] CT
0 0 1 RC
10.0 ML
N
-2.121 -2.121 M
2.121 2.121 L
-2.121 2.121 M
2.121 -2.121 L
S
GR
GS
[1 0 0 1 491.33334 518.01605] CT
0 0 1 RC
N
f1363619694
f
GR
GS
[1 0 0 1 491.33334 518.01605] CT
0 0 1 RC
10.0 ML
N
-2.121 -2.121 M
2.121 2.121 L
-2.121 2.121 M
2.121 -2.121 L
S
GR
GS
[1 0 0 1 517.16669 505.50281] CT
0 0 1 RC
N
f1363619694
f
GR
GS
[1 0 0 1 517.16669 505.50281] CT
0 0 1 RC
10.0 ML
N
-2.121 -2.121 M
2.121 2.121 L
-2.121 2.121 M
2.121 -2.121 L
S
GR
GS
[1 0 0 1 543 492.85608] CT
0 0 1 RC
N
f1363619694
f
GR
GS
[1 0 0 1 543 492.85608] CT
0 0 1 RC
10.0 ML
N
-2.121 -2.121 M
2.121 2.121 L
-2.121 2.121 M
2.121 -2.121 L
S
GR
GS
[1 0 0 1 78 683.93652] CT
1 0 0 RC
N
/f909745642{0 -3 M
0 3 L
-3 0 M
3 0 L}def
f909745642
f
GR
GS
[1 0 0 1 78 683.93652] CT
1 0 0 RC
10.0 ML
N
0 -3 M
0 3 L
-3 0 M
3 0 L
S
GR
GS
[1 0 0 1 103.83334 678.79791] CT
1 0 0 RC
N
f909745642
f
GR
GS
[1 0 0 1 103.83334 678.79791] CT
1 0 0 RC
10.0 ML
N
0 -3 M
0 3 L
-3 0 M
3 0 L
S
GR
GS
[1 0 0 1 129.66667 672.80255] CT
1 0 0 RC
N
f909745642
f
GR
GS
[1 0 0 1 129.66667 672.80255] CT
1 0 0 RC
10.0 ML
N
0 -3 M
0 3 L
-3 0 M
3 0 L
S
GR
GS
[1 0 0 1 155.5 666.27405] CT
1 0 0 RC
N
f909745642
f
GR
GS
[1 0 0 1 155.5 666.27405] CT
1 0 0 RC
10.0 ML
N
0 -3 M
0 3 L
-3 0 M
3 0 L
S
GR
GS
[1 0 0 1 181.33333 659.36377] CT
1 0 0 RC
N
f909745642
f
GR
GS
[1 0 0 1 181.33333 659.36377] CT
1 0 0 RC
10.0 ML
N
0 -3 M
0 3 L
-3 0 M
3 0 L
S
GR
GS
[1 0 0 1 207.16667 652.15503] CT
1 0 0 RC
N
f909745642
f
GR
GS
[1 0 0 1 207.16667 652.15503] CT
1 0 0 RC
10.0 ML
N
0 -3 M
0 3 L
-3 0 M
3 0 L
S
GR
GS
[1 0 0 1 233 644.6991] CT
1 0 0 RC
N
f909745642
f
GR
GS
[1 0 0 1 233 644.6991] CT
1 0 0 RC
10.0 ML
N
0 -3 M
0 3 L
-3 0 M
3 0 L
S
GR
GS
[1 0 0 1 258.83334 637.03021] CT
1 0 0 RC
N
f909745642
f
GR
GS
[1 0 0 1 258.83334 637.03021] CT
1 0 0 RC
10.0 ML
N
0 -3 M
0 3 L
-3 0 M
3 0 L
S
GR
GS
[1 0 0 1 284.66666 629.17255] CT
1 0 0 RC
N
f909745642
f
GR
GS
[1 0 0 1 284.66666 629.17255] CT
1 0 0 RC
10.0 ML
N
0 -3 M
0 3 L
-3 0 M
3 0 L
S
GR
GS
[1 0 0 1 310.5 621.1441] CT
1 0 0 RC
N
f909745642
f
GR
GS
[1 0 0 1 310.5 621.1441] CT
1 0 0 RC
10.0 ML
N
0 -3 M
0 3 L
-3 0 M
3 0 L
S
GR
GS
[1 0 0 1 336.33334 612.95868] CT
1 0 0 RC
N
f909745642
f
GR
GS
[1 0 0 1 336.33334 612.95868] CT
1 0 0 RC
10.0 ML
N
0 -3 M
0 3 L
-3 0 M
3 0 L
S
GR
GS
[1 0 0 1 362.16666 604.62714] CT
1 0 0 RC
N
f909745642
f
GR
GS
[1 0 0 1 362.16666 604.62714] CT
1 0 0 RC
10.0 ML
N
0 -3 M
0 3 L
-3 0 M
3 0 L
S
GR
GS
[1 0 0 1 388 596.15845] CT
1 0 0 RC
N
f909745642
f
GR
GS
[1 0 0 1 388 596.15845] CT
1 0 0 RC
10.0 ML
N
0 -3 M
0 3 L
-3 0 M
3 0 L
S
GR
GS
[1 0 0 1 413.83334 587.55994] CT
1 0 0 RC
N
f909745642
f
GR
GS
[1 0 0 1 413.83334 587.55994] CT
1 0 0 RC
10.0 ML
N
0 -3 M
0 3 L
-3 0 M
3 0 L
S
GR
GS
[1 0 0 1 439.66666 578.83771] CT
1 0 0 RC
N
f909745642
f
GR
GS
[1 0 0 1 439.66666 578.83771] CT
1 0 0 RC
10.0 ML
N
0 -3 M
0 3 L
-3 0 M
3 0 L
S
GR
GS
[1 0 0 1 465.5 569.99725] CT
1 0 0 RC
N
f909745642
f
GR
GS
[1 0 0 1 465.5 569.99725] CT
1 0 0 RC
10.0 ML
N
0 -3 M
0 3 L
-3 0 M
3 0 L
S
GR
GS
[1 0 0 1 491.33334 561.04303] CT
1 0 0 RC
N
f909745642
f
GR
GS
[1 0 0 1 491.33334 561.04303] CT
1 0 0 RC
10.0 ML
N
0 -3 M
0 3 L
-3 0 M
3 0 L
S
GR
GS
[1 0 0 1 517.16669 551.97913] CT
1 0 0 RC
N
f909745642
f
GR
GS
[1 0 0 1 517.16669 551.97913] CT
1 0 0 RC
10.0 ML
N
0 -3 M
0 3 L
-3 0 M
3 0 L
S
GR
GS
[1 0 0 1 543 542.80902] CT
1 0 0 RC
N
f909745642
f
GR
GS
[1 0 0 1 543 542.80902] CT
1 0 0 RC
10.0 ML
N
0 -3 M
0 3 L
-3 0 M
3 0 L
S
GR
GS
[1 0 0 1 78 677.79773] CT
1 0 1 RC
N
/f1414333259{0 3.999 M
-3.463 -2 L
3.463 -2 L
cp}def
f1414333259
f
GR
GS
[1 0 0 1 78 677.79773] CT
1 0 1 RC
10.0 ML
N
0 3.999 M
-3.463 -2 L
3.463 -2 L
cp
S
GR
GS
[1 0 0 1 103.83334 673.63403] CT
1 0 1 RC
N
f1414333259
f
GR
GS
[1 0 0 1 103.83334 673.63403] CT
1 0 1 RC
10.0 ML
N
0 3.999 M
-3.463 -2 L
3.463 -2 L
cp
S
GR
GS
[1 0 0 1 129.66667 668.79138] CT
1 0 1 RC
N
f1414333259
f
GR
GS
[1 0 0 1 129.66667 668.79138] CT
1 0 1 RC
10.0 ML
N
0 3.999 M
-3.463 -2 L
3.463 -2 L
cp
S
GR
GS
[1 0 0 1 155.5 663.49005] CT
1 0 1 RC
N
f1414333259
f
GR
GS
[1 0 0 1 155.5 663.49005] CT
1 0 1 RC
10.0 ML
N
0 3.999 M
-3.463 -2 L
3.463 -2 L
cp
S
GR
GS
[1 0 0 1 181.33333 657.84766] CT
1 0 1 RC
N
f1414333259
f
GR
GS
[1 0 0 1 181.33333 657.84766] CT
1 0 1 RC
10.0 ML
N
0 3.999 M
-3.463 -2 L
3.463 -2 L
cp
S
GR
GS
[1 0 0 1 207.16667 651.93439] CT
1 0 1 RC
N
f1414333259
f
GR
GS
[1 0 0 1 207.16667 651.93439] CT
1 0 1 RC
10.0 ML
N
0 3.999 M
-3.463 -2 L
3.463 -2 L
cp
S
GR
GS
[1 0 0 1 233 645.79547] CT
1 0 1 RC
N
f1414333259
f
GR
GS
[1 0 0 1 233 645.79547] CT
1 0 1 RC
10.0 ML
N
0 3.999 M
-3.463 -2 L
3.463 -2 L
cp
S
GR
GS
[1 0 0 1 258.83334 639.46216] CT
1 0 1 RC
N
f1414333259
f
GR
GS
[1 0 0 1 258.83334 639.46216] CT
1 0 1 RC
10.0 ML
N
0 3.999 M
-3.463 -2 L
3.463 -2 L
cp
S
GR
GS
[1 0 0 1 284.66666 632.95673] CT
1 0 1 RC
N
f1414333259
f
GR
GS
[1 0 0 1 284.66666 632.95673] CT
1 0 1 RC
10.0 ML
N
0 3.999 M
-3.463 -2 L
3.463 -2 L
cp
S
GR
GS
[1 0 0 1 310.5 626.2959] CT
1 0 1 RC
N
f1414333259
f
GR
GS
[1 0 0 1 310.5 626.2959] CT
1 0 1 RC
10.0 ML
N
0 3.999 M
-3.463 -2 L
3.463 -2 L
cp
S
GR
GS
[1 0 0 1 336.33334 619.49268] CT
1 0 1 RC
N
f1414333259
f
GR
GS
[1 0 0 1 336.33334 619.49268] CT
1 0 1 RC
10.0 ML
N
0 3.999 M
-3.463 -2 L
3.463 -2 L
cp
S
GR
GS
[1 0 0 1 362.16666 612.55719] CT
1 0 1 RC
N
f1414333259
f
GR
GS
[1 0 0 1 362.16666 612.55719] CT
1 0 1 RC
10.0 ML
N
0 3.999 M
-3.463 -2 L
3.463 -2 L
cp
S
GR
GS
[1 0 0 1 388 605.49774] CT
1 0 1 RC
N
f1414333259
f
GR
GS
[1 0 0 1 388 605.49774] CT
1 0 1 RC
10.0 ML
N
0 3.999 M
-3.463 -2 L
3.463 -2 L
cp
S
GR
GS
[1 0 0 1 413.83334 598.32111] CT
1 0 1 RC
N
f1414333259
f
GR
GS
[1 0 0 1 413.83334 598.32111] CT
1 0 1 RC
10.0 ML
N
0 3.999 M
-3.463 -2 L
3.463 -2 L
cp
S
GR
GS
[1 0 0 1 439.66666 591.03314] CT
1 0 1 RC
N
f1414333259
f
GR
GS
[1 0 0 1 439.66666 591.03314] CT
1 0 1 RC
10.0 ML
N
0 3.999 M
-3.463 -2 L
3.463 -2 L
cp
S
GR
GS
[1 0 0 1 465.5 583.63855] CT
1 0 1 RC
N
f1414333259
f
GR
GS
[1 0 0 1 465.5 583.63855] CT
1 0 1 RC
10.0 ML
N
0 3.999 M
-3.463 -2 L
3.463 -2 L
cp
S
GR
GS
[1 0 0 1 491.33334 576.1416] CT
1 0 1 RC
N
f1414333259
f
GR
GS
[1 0 0 1 491.33334 576.1416] CT
1 0 1 RC
10.0 ML
N
0 3.999 M
-3.463 -2 L
3.463 -2 L
cp
S
GR
GS
[1 0 0 1 517.16669 568.54602] CT
1 0 1 RC
N
f1414333259
f
GR
GS
[1 0 0 1 517.16669 568.54602] CT
1 0 1 RC
10.0 ML
N
0 3.999 M
-3.463 -2 L
3.463 -2 L
cp
S
GR
GS
[1 0 0 1 543 560.8548] CT
1 0 1 RC
N
f1414333259
f
GR
GS
[1 0 0 1 543 560.8548] CT
1 0 1 RC
10.0 ML
N
0 3.999 M
-3.463 -2 L
3.463 -2 L
cp
S
GR
GS
[1 0 0 1 78 672.02704] CT
0 1 0 RC
N
/f701565780{-2 -2 M
-2 2 L
2 2 L
2 -2 L
cp}def
f701565780
f
GR
GS
[1 0 0 1 78 672.02704] CT
0 1 0 RC
10.0 ML
N
-2 -2 M
-2 2 L
2 2 L
2 -2 L
cp
S
GR
GS
[1 0 0 1 103.83334 668.32263] CT
0 1 0 RC
N
f701565780
f
GR
GS
[1 0 0 1 103.83334 668.32263] CT
0 1 0 RC
10.0 ML
N
-2 -2 M
-2 2 L
2 2 L
2 -2 L
cp
S
GR
GS
[1 0 0 1 129.66667 664.06586] CT
0 1 0 RC
N
f701565780
f
GR
GS
[1 0 0 1 129.66667 664.06586] CT
0 1 0 RC
10.0 ML
N
-2 -2 M
-2 2 L
2 2 L
2 -2 L
cp
S
GR
GS
[1 0 0 1 155.5 659.41144] CT
0 1 0 RC
N
f701565780
f
GR
GS
[1 0 0 1 155.5 659.41144] CT
0 1 0 RC
10.0 ML
N
-2 -2 M
-2 2 L
2 2 L
2 -2 L
cp
S
GR
GS
[1 0 0 1 181.33333 654.45007] CT
0 1 0 RC
N
f701565780
f
GR
GS
[1 0 0 1 181.33333 654.45007] CT
0 1 0 RC
10.0 ML
N
-2 -2 M
-2 2 L
2 2 L
2 -2 L
cp
S
GR
GS
[1 0 0 1 207.16667 649.23975] CT
0 1 0 RC
N
f701565780
f
GR
GS
[1 0 0 1 207.16667 649.23975] CT
0 1 0 RC
10.0 ML
N
-2 -2 M
-2 2 L
2 2 L
2 -2 L
cp
S
GR
GS
[1 0 0 1 233 643.8194] CT
0 1 0 RC
N
f701565780
f
GR
GS
[1 0 0 1 233 643.8194] CT
0 1 0 RC
10.0 ML
N
-2 -2 M
-2 2 L
2 2 L
2 -2 L
cp
S
GR
GS
[1 0 0 1 258.83334 638.21674] CT
0 1 0 RC
N
f701565780
f
GR
GS
[1 0 0 1 258.83334 638.21674] CT
0 1 0 RC
10.0 ML
N
-2 -2 M
-2 2 L
2 2 L
2 -2 L
cp
S
GR
GS
[1 0 0 1 284.66666 632.45209] CT
0 1 0 RC
N
f701565780
f
GR
GS
[1 0 0 1 284.66666 632.45209] CT
0 1 0 RC
10.0 ML
N
-2 -2 M
-2 2 L
2 2 L
2 -2 L
cp
S
GR
GS
[1 0 0 1 310.5 626.54089] CT
0 1 0 RC
N
f701565780
f
GR
GS
[1 0 0 1 310.5 626.54089] CT
0 1 0 RC
10.0 ML
N
-2 -2 M
-2 2 L
2 2 L
2 -2 L
cp
S
GR
GS
[1 0 0 1 336.33334 620.49524] CT
0 1 0 RC
N
f701565780
f
GR
GS
[1 0 0 1 336.33334 620.49524] CT
0 1 0 RC
10.0 ML
N
-2 -2 M
-2 2 L
2 2 L
2 -2 L
cp
S
GR
GS
[1 0 0 1 362.16666 614.32465] CT
0 1 0 RC
N
f701565780
f
GR
GS
[1 0 0 1 362.16666 614.32465] CT
0 1 0 RC
10.0 ML
N
-2 -2 M
-2 2 L
2 2 L
2 -2 L
cp
S
GR
GS
[1 0 0 1 388 608.03705] CT
0 1 0 RC
N
f701565780
f
GR
GS
[1 0 0 1 388 608.03705] CT
0 1 0 RC
10.0 ML
N
-2 -2 M
-2 2 L
2 2 L
2 -2 L
cp
S
GR
GS
[1 0 0 1 413.83334 601.63879] CT
0 1 0 RC
N
f701565780
f
GR
GS
[1 0 0 1 413.83334 601.63879] CT
0 1 0 RC
10.0 ML
N
-2 -2 M
-2 2 L
2 2 L
2 -2 L
cp
S
GR
GS
[1 0 0 1 439.66666 595.13544] CT
0 1 0 RC
N
f701565780
f
GR
GS
[1 0 0 1 439.66666 595.13544] CT
0 1 0 RC
10.0 ML
N
-2 -2 M
-2 2 L
2 2 L
2 -2 L
cp
S
GR
GS
[1 0 0 1 465.5 588.53143] CT
0 1 0 RC
N
f701565780
f
GR
GS
[1 0 0 1 465.5 588.53143] CT
0 1 0 RC
10.0 ML
N
-2 -2 M
-2 2 L
2 2 L
2 -2 L
cp
S
GR
GS
[1 0 0 1 491.33334 581.83087] CT
0 1 0 RC
N
f701565780
f
GR
GS
[1 0 0 1 491.33334 581.83087] CT
0 1 0 RC
10.0 ML
N
-2 -2 M
-2 2 L
2 2 L
2 -2 L
cp
S
GR
GS
[1 0 0 1 517.16669 575.03717] CT
0 1 0 RC
N
f701565780
f
GR
GS
[1 0 0 1 517.16669 575.03717] CT
0 1 0 RC
10.0 ML
N
-2 -2 M
-2 2 L
2 2 L
2 -2 L
cp
S
GR
GS
[1 0 0 1 543 568.15332] CT
0 1 0 RC
N
f701565780
f
GR
GS
[1 0 0 1 543 568.15332] CT
0 1 0 RC
10.0 ML
N
-2 -2 M
-2 2 L
2 2 L
2 -2 L
cp
S
GR
GS
[1 0 0 1 78 666.37854] CT
N
/f-500281869{-2.853 -0.927 M
-0.705 -0.927 L
0 -3 L
0.705 -0.927 L
2.853 -0.927 L
1.141 0.371 L
1.763 2.427 L
0 1.2 L
-1.763 2.427 L
-1.141 0.371 L
cp}def
f-500281869
f
GR
GS
[1 0 0 1 78 666.37854] CT
10.0 ML
N
-2.853 -0.927 M
-0.705 -0.927 L
0 -3 L
0.705 -0.927 L
2.853 -0.927 L
1.141 0.371 L
1.763 2.427 L
0 1.2 L
-1.763 2.427 L
-1.141 0.371 L
cp
S
GR
GS
[1 0 0 1 103.83334 662.90466] CT
N
f-500281869
f
GR
GS
[1 0 0 1 103.83334 662.90466] CT
10.0 ML
N
-2.853 -0.927 M
-0.705 -0.927 L
0 -3 L
0.705 -0.927 L
2.853 -0.927 L
1.141 0.371 L
1.763 2.427 L
0 1.2 L
-1.763 2.427 L
-1.141 0.371 L
cp
S
GR
GS
[1 0 0 1 129.66667 658.96887] CT
N
f-500281869
f
GR
GS
[1 0 0 1 129.66667 658.96887] CT
10.0 ML
N
-2.853 -0.927 M
-0.705 -0.927 L
0 -3 L
0.705 -0.927 L
2.853 -0.927 L
1.141 0.371 L
1.763 2.427 L
0 1.2 L
-1.763 2.427 L
-1.141 0.371 L
cp
S
GR
GS
[1 0 0 1 155.5 654.68408] CT
N
f-500281869
f
GR
GS
[1 0 0 1 155.5 654.68408] CT
10.0 ML
N
-2.853 -0.927 M
-0.705 -0.927 L
0 -3 L
0.705 -0.927 L
2.853 -0.927 L
1.141 0.371 L
1.763 2.427 L
0 1.2 L
-1.763 2.427 L
-1.141 0.371 L
cp
S
GR
GS
[1 0 0 1 181.33333 650.1214] CT
N
f-500281869
f
GR
GS
[1 0 0 1 181.33333 650.1214] CT
10.0 ML
N
-2.853 -0.927 M
-0.705 -0.927 L
0 -3 L
0.705 -0.927 L
2.853 -0.927 L
1.141 0.371 L
1.763 2.427 L
0 1.2 L
-1.763 2.427 L
-1.141 0.371 L
cp
S
GR
GS
[1 0 0 1 207.16667 645.32831] CT
N
f-500281869
f
GR
GS
[1 0 0 1 207.16667 645.32831] CT
10.0 ML
N
-2.853 -0.927 M
-0.705 -0.927 L
0 -3 L
0.705 -0.927 L
2.853 -0.927 L
1.141 0.371 L
1.763 2.427 L
0 1.2 L
-1.763 2.427 L
-1.141 0.371 L
cp
S
GR
GS
[1 0 0 1 233 640.33832] CT
N
f-500281869
f
GR
GS
[1 0 0 1 233 640.33832] CT
10.0 ML
N
-2.853 -0.927 M
-0.705 -0.927 L
0 -3 L
0.705 -0.927 L
2.853 -0.927 L
1.141 0.371 L
1.763 2.427 L
0 1.2 L
-1.763 2.427 L
-1.141 0.371 L
cp
S
GR
GS
[1 0 0 1 258.83334 635.17572] CT
N
f-500281869
f
GR
GS
[1 0 0 1 258.83334 635.17572] CT
10.0 ML
N
-2.853 -0.927 M
-0.705 -0.927 L
0 -3 L
0.705 -0.927 L
2.853 -0.927 L
1.141 0.371 L
1.763 2.427 L
0 1.2 L
-1.763 2.427 L
-1.141 0.371 L
cp
S
GR
GS
[1 0 0 1 284.66666 629.85876] CT
N
f-500281869
f
GR
GS
[1 0 0 1 284.66666 629.85876] CT
10.0 ML
N
-2.853 -0.927 M
-0.705 -0.927 L
0 -3 L
0.705 -0.927 L
2.853 -0.927 L
1.141 0.371 L
1.763 2.427 L
0 1.2 L
-1.763 2.427 L
-1.141 0.371 L
cp
S
GR
GS
[1 0 0 1 310.5 624.40167] CT
N
f-500281869
f
GR
GS
[1 0 0 1 310.5 624.40167] CT
10.0 ML
N
-2.853 -0.927 M
-0.705 -0.927 L
0 -3 L
0.705 -0.927 L
2.853 -0.927 L
1.141 0.371 L
1.763 2.427 L
0 1.2 L
-1.763 2.427 L
-1.141 0.371 L
cp
S
GR
GS
[1 0 0 1 336.33334 618.81555] CT
N
f-500281869
f
GR
GS
[1 0 0 1 336.33334 618.81555] CT
10.0 ML
N
-2.853 -0.927 M
-0.705 -0.927 L
0 -3 L
0.705 -0.927 L
2.853 -0.927 L
1.141 0.371 L
1.763 2.427 L
0 1.2 L
-1.763 2.427 L
-1.141 0.371 L
cp
S
GR
GS
[1 0 0 1 362.16666 613.10944] CT
N
f-500281869
f
GR
GS
[1 0 0 1 362.16666 613.10944] CT
10.0 ML
N
-2.853 -0.927 M
-0.705 -0.927 L
0 -3 L
0.705 -0.927 L
2.853 -0.927 L
1.141 0.371 L
1.763 2.427 L
0 1.2 L
-1.763 2.427 L
-1.141 0.371 L
cp
S
GR
GS
[1 0 0 1 388 607.29071] CT
N
f-500281869
f
GR
GS
[1 0 0 1 388 607.29071] CT
10.0 ML
N
-2.853 -0.927 M
-0.705 -0.927 L
0 -3 L
0.705 -0.927 L
2.853 -0.927 L
1.141 0.371 L
1.763 2.427 L
0 1.2 L
-1.763 2.427 L
-1.141 0.371 L
cp
S
GR
GS
[1 0 0 1 413.83334 601.36542] CT
N
f-500281869
f
GR
GS
[1 0 0 1 413.83334 601.36542] CT
10.0 ML
N
-2.853 -0.927 M
-0.705 -0.927 L
0 -3 L
0.705 -0.927 L
2.853 -0.927 L
1.141 0.371 L
1.763 2.427 L
0 1.2 L
-1.763 2.427 L
-1.141 0.371 L
cp
S
GR
GS
[1 0 0 1 439.66666 595.33881] CT
N
f-500281869
f
GR
GS
[1 0 0 1 439.66666 595.33881] CT
10.0 ML
N
-2.853 -0.927 M
-0.705 -0.927 L
0 -3 L
0.705 -0.927 L
2.853 -0.927 L
1.141 0.371 L
1.763 2.427 L
0 1.2 L
-1.763 2.427 L
-1.141 0.371 L
cp
S
GR
GS
[1 0 0 1 465.5 589.21521] CT
N
f-500281869
f
GR
GS
[1 0 0 1 465.5 589.21521] CT
10.0 ML
N
-2.853 -0.927 M
-0.705 -0.927 L
0 -3 L
0.705 -0.927 L
2.853 -0.927 L
1.141 0.371 L
1.763 2.427 L
0 1.2 L
-1.763 2.427 L
-1.141 0.371 L
cp
S
GR
GS
[1 0 0 1 491.33334 582.99847] CT
N
f-500281869
f
GR
GS
[1 0 0 1 491.33334 582.99847] CT
10.0 ML
N
-2.853 -0.927 M
-0.705 -0.927 L
0 -3 L
0.705 -0.927 L
2.853 -0.927 L
1.141 0.371 L
1.763 2.427 L
0 1.2 L
-1.763 2.427 L
-1.141 0.371 L
cp
S
GR
GS
[1 0 0 1 517.16669 576.69196] CT
N
f-500281869
f
GR
GS
[1 0 0 1 517.16669 576.69196] CT
10.0 ML
N
-2.853 -0.927 M
-0.705 -0.927 L
0 -3 L
0.705 -0.927 L
2.853 -0.927 L
1.141 0.371 L
1.763 2.427 L
0 1.2 L
-1.763 2.427 L
-1.141 0.371 L
cp
S
GR
GS
[1 0 0 1 543 570.2984] CT
N
f-500281869
f
GR
GS
[1 0 0 1 543 570.2984] CT
10.0 ML
N
-2.853 -0.927 M
-0.705 -0.927 L
0 -3 L
0.705 -0.927 L
2.853 -0.927 L
1.141 0.371 L
1.763 2.427 L
0 1.2 L
-1.763 2.427 L
-1.141 0.371 L
cp
S
GR
GS
[1 0 0 1 78 660.72205] CT
0 0 1 RC
N
/f1485265658{-2.598 -1.5 M
-0.866 -1.5 L
0 -3 L
0.866 -1.5 L
2.598 -1.5 L
1.5 0 L
2.598 1.5 L
0.866 1.5 L
0 3 L
-0.866 1.5 L
-2.598 1.5 L
-1.5 0 L
cp}def
f1485265658
f
GR
GS
[1 0 0 1 78 660.72205] CT
0 0 1 RC
10.0 ML
N
-2.598 -1.5 M
-0.866 -1.5 L
0 -3 L
0.866 -1.5 L
2.598 -1.5 L
1.5 0 L
2.598 1.5 L
0.866 1.5 L
0 3 L
-0.866 1.5 L
-2.598 1.5 L
-1.5 0 L
cp
S
GR
GS
[1 0 0 1 103.83334 657.35632] CT
0 0 1 RC
N
f1485265658
f
GR
GS
[1 0 0 1 103.83334 657.35632] CT
0 0 1 RC
10.0 ML
N
-2.598 -1.5 M
-0.866 -1.5 L
0 -3 L
0.866 -1.5 L
2.598 -1.5 L
1.5 0 L
2.598 1.5 L
0.866 1.5 L
0 3 L
-0.866 1.5 L
-2.598 1.5 L
-1.5 0 L
cp
S
GR
GS
[1 0 0 1 129.66667 653.59558] CT
0 0 1 RC
N
f1485265658
f
GR
GS
[1 0 0 1 129.66667 653.59558] CT
0 0 1 RC
10.0 ML
N
-2.598 -1.5 M
-0.866 -1.5 L
0 -3 L
0.866 -1.5 L
2.598 -1.5 L
1.5 0 L
2.598 1.5 L
0.866 1.5 L
0 3 L
-0.866 1.5 L
-2.598 1.5 L
-1.5 0 L
cp
S
GR
GS
[1 0 0 1 155.5 649.52466] CT
0 0 1 RC
N
f1485265658
f
GR
GS
[1 0 0 1 155.5 649.52466] CT
0 0 1 RC
10.0 ML
N
-2.598 -1.5 M
-0.866 -1.5 L
0 -3 L
0.866 -1.5 L
2.598 -1.5 L
1.5 0 L
2.598 1.5 L
0.866 1.5 L
0 3 L
-0.866 1.5 L
-2.598 1.5 L
-1.5 0 L
cp
S
GR
GS
[1 0 0 1 181.33333 645.20026] CT
0 0 1 RC
N
f1485265658
f
GR
GS
[1 0 0 1 181.33333 645.20026] CT
0 0 1 RC
10.0 ML
N
-2.598 -1.5 M
-0.866 -1.5 L
0 -3 L
0.866 -1.5 L
2.598 -1.5 L
1.5 0 L
2.598 1.5 L
0.866 1.5 L
0 3 L
-0.866 1.5 L
-2.598 1.5 L
-1.5 0 L
cp
S
GR
GS
[1 0 0 1 207.16667 640.66174] CT
0 0 1 RC
N
f1485265658
f
GR
GS
[1 0 0 1 207.16667 640.66174] CT
0 0 1 RC
10.0 ML
N
-2.598 -1.5 M
-0.866 -1.5 L
0 -3 L
0.866 -1.5 L
2.598 -1.5 L
1.5 0 L
2.598 1.5 L
0.866 1.5 L
0 3 L
-0.866 1.5 L
-2.598 1.5 L
-1.5 0 L
cp
S
GR
GS
[1 0 0 1 233 635.93762] CT
0 0 1 RC
N
f1485265658
f
GR
GS
[1 0 0 1 233 635.93762] CT
0 0 1 RC
10.0 ML
N
-2.598 -1.5 M
-0.866 -1.5 L
0 -3 L
0.866 -1.5 L
2.598 -1.5 L
1.5 0 L
2.598 1.5 L
0.866 1.5 L
0 3 L
-0.866 1.5 L
-2.598 1.5 L
-1.5 0 L
cp
S
GR
GS
[1 0 0 1 258.83334 631.04938] CT
0 0 1 RC
N
f1485265658
f
GR
GS
[1 0 0 1 258.83334 631.04938] CT
0 0 1 RC
10.0 ML
N
-2.598 -1.5 M
-0.866 -1.5 L
0 -3 L
0.866 -1.5 L
2.598 -1.5 L
1.5 0 L
2.598 1.5 L
0.866 1.5 L
0 3 L
-0.866 1.5 L
-2.598 1.5 L
-1.5 0 L
cp
S
GR
GS
[1 0 0 1 284.66666 626.01331] CT
0 0 1 RC
N
f1485265658
f
GR
GS
[1 0 0 1 284.66666 626.01331] CT
0 0 1 RC
10.0 ML
N
-2.598 -1.5 M
-0.866 -1.5 L
0 -3 L
0.866 -1.5 L
2.598 -1.5 L
1.5 0 L
2.598 1.5 L
0.866 1.5 L
0 3 L
-0.866 1.5 L
-2.598 1.5 L
-1.5 0 L
cp
S
GR
GS
[1 0 0 1 310.5 620.84235] CT
0 0 1 RC
N
f1485265658
f
GR
GS
[1 0 0 1 310.5 620.84235] CT
0 0 1 RC
10.0 ML
N
-2.598 -1.5 M
-0.866 -1.5 L
0 -3 L
0.866 -1.5 L
2.598 -1.5 L
1.5 0 L
2.598 1.5 L
0.866 1.5 L
0 3 L
-0.866 1.5 L
-2.598 1.5 L
-1.5 0 L
cp
S
GR
GS
[1 0 0 1 336.33334 615.54663] CT
0 0 1 RC
N
f1485265658
f
GR
GS
[1 0 0 1 336.33334 615.54663] CT
0 0 1 RC
10.0 ML
N
-2.598 -1.5 M
-0.866 -1.5 L
0 -3 L
0.866 -1.5 L
2.598 -1.5 L
1.5 0 L
2.598 1.5 L
0.866 1.5 L
0 3 L
-0.866 1.5 L
-2.598 1.5 L
-1.5 0 L
cp
S
GR
GS
[1 0 0 1 362.16666 610.1347] CT
0 0 1 RC
N
f1485265658
f
GR
GS
[1 0 0 1 362.16666 610.1347] CT
0 0 1 RC
10.0 ML
N
-2.598 -1.5 M
-0.866 -1.5 L
0 -3 L
0.866 -1.5 L
2.598 -1.5 L
1.5 0 L
2.598 1.5 L
0.866 1.5 L
0 3 L
-0.866 1.5 L
-2.598 1.5 L
-1.5 0 L
cp
S
GR
GS
[1 0 0 1 388 604.6134] CT
0 0 1 RC
N
f1485265658
f
GR
GS
[1 0 0 1 388 604.6134] CT
0 0 1 RC
10.0 ML
N
-2.598 -1.5 M
-0.866 -1.5 L
0 -3 L
0.866 -1.5 L
2.598 -1.5 L
1.5 0 L
2.598 1.5 L
0.866 1.5 L
0 3 L
-0.866 1.5 L
-2.598 1.5 L
-1.5 0 L
cp
S
GR
GS
[1 0 0 1 413.83334 598.98853] CT
0 0 1 RC
N
f1485265658
f
GR
GS
[1 0 0 1 413.83334 598.98853] CT
0 0 1 RC
10.0 ML
N
-2.598 -1.5 M
-0.866 -1.5 L
0 -3 L
0.866 -1.5 L
2.598 -1.5 L
1.5 0 L
2.598 1.5 L
0.866 1.5 L
0 3 L
-0.866 1.5 L
-2.598 1.5 L
-1.5 0 L
cp
S
GR
GS
[1 0 0 1 439.66666 593.26495] CT
0 0 1 RC
N
f1485265658
f
GR
GS
[1 0 0 1 439.66666 593.26495] CT
0 0 1 RC
10.0 ML
N
-2.598 -1.5 M
-0.866 -1.5 L
0 -3 L
0.866 -1.5 L
2.598 -1.5 L
1.5 0 L
2.598 1.5 L
0.866 1.5 L
0 3 L
-0.866 1.5 L
-2.598 1.5 L
-1.5 0 L
cp
S
GR
GS
[1 0 0 1 465.5 587.44696] CT
0 0 1 RC
N
f1485265658
f
GR
GS
[1 0 0 1 465.5 587.44696] CT
0 0 1 RC
10.0 ML
N
-2.598 -1.5 M
-0.866 -1.5 L
0 -3 L
0.866 -1.5 L
2.598 -1.5 L
1.5 0 L
2.598 1.5 L
0.866 1.5 L
0 3 L
-0.866 1.5 L
-2.598 1.5 L
-1.5 0 L
cp
S
GR
GS
[1 0 0 1 491.33334 581.53809] CT
0 0 1 RC
N
f1485265658
f
GR
GS
[1 0 0 1 491.33334 581.53809] CT
0 0 1 RC
10.0 ML
N
-2.598 -1.5 M
-0.866 -1.5 L
0 -3 L
0.866 -1.5 L
2.598 -1.5 L
1.5 0 L
2.598 1.5 L
0.866 1.5 L
0 3 L
-0.866 1.5 L
-2.598 1.5 L
-1.5 0 L
cp
S
GR
GS
[1 0 0 1 517.16669 575.54163] CT
0 0 1 RC
N
f1485265658
f
GR
GS
[1 0 0 1 517.16669 575.54163] CT
0 0 1 RC
10.0 ML
N
-2.598 -1.5 M
-0.866 -1.5 L
0 -3 L
0.866 -1.5 L
2.598 -1.5 L
1.5 0 L
2.598 1.5 L
0.866 1.5 L
0 3 L
-0.866 1.5 L
-2.598 1.5 L
-1.5 0 L
cp
S
GR
GS
[1 0 0 1 543 569.46027] CT
0 0 1 RC
N
f1485265658
f
GR
GS
[1 0 0 1 543 569.46027] CT
0 0 1 RC
10.0 ML
N
-2.598 -1.5 M
-0.866 -1.5 L
0 -3 L
0.866 -1.5 L
2.598 -1.5 L
1.5 0 L
2.598 1.5 L
0.866 1.5 L
0 3 L
-0.866 1.5 L
-2.598 1.5 L
-1.5 0 L
cp
S
GR
GS
[1 0 0 1 78 654.97784] CT
1 0 0 RC
N
f-2087191549
f
GR
GS
[1 0 0 1 78 654.97784] CT
1 0 0 RC
10.0 ML
N
3 0 M
3 -1.657 1.657 -3 0 -3 C
-1.657 -3 -3 -1.657 -3 0 C
-3 1.657 -1.657 3 0 3 C
1.657 3 3 1.657 3 0 C
cp
S
GR
GS
[1 0 0 1 103.83334 651.64722] CT
1 0 0 RC
N
f-2087191549
f
GR
GS
[1 0 0 1 103.83334 651.64722] CT
1 0 0 RC
10.0 ML
N
3 0 M
3 -1.657 1.657 -3 0 -3 C
-1.657 -3 -3 -1.657 -3 0 C
-3 1.657 -1.657 3 0 3 C
1.657 3 3 1.657 3 0 C
cp
S
GR
GS
[1 0 0 1 129.66667 647.97211] CT
1 0 0 RC
N
f-2087191549
f
GR
GS
[1 0 0 1 129.66667 647.97211] CT
1 0 0 RC
10.0 ML
N
3 0 M
3 -1.657 1.657 -3 0 -3 C
-1.657 -3 -3 -1.657 -3 0 C
-3 1.657 -1.657 3 0 3 C
1.657 3 3 1.657 3 0 C
cp
S
GR
GS
[1 0 0 1 155.5 644.01837] CT
1 0 0 RC
N
f-2087191549
f
GR
GS
[1 0 0 1 155.5 644.01837] CT
1 0 0 RC
10.0 ML
N
3 0 M
3 -1.657 1.657 -3 0 -3 C
-1.657 -3 -3 -1.657 -3 0 C
-3 1.657 -1.657 3 0 3 C
1.657 3 3 1.657 3 0 C
cp
S
GR
GS
[1 0 0 1 181.33333 639.83167] CT
1 0 0 RC
N
f-2087191549
f
GR
GS
[1 0 0 1 181.33333 639.83167] CT
1 0 0 RC
10.0 ML
N
3 0 M
3 -1.657 1.657 -3 0 -3 C
-1.657 -3 -3 -1.657 -3 0 C
-3 1.657 -1.657 3 0 3 C
1.657 3 3 1.657 3 0 C
cp
S
GR
GS
[1 0 0 1 207.16667 635.44507] CT
1 0 0 RC
N
f-2087191549
f
GR
GS
[1 0 0 1 207.16667 635.44507] CT
1 0 0 RC
10.0 ML
N
3 0 M
3 -1.657 1.657 -3 0 -3 C
-1.657 -3 -3 -1.657 -3 0 C
-3 1.657 -1.657 3 0 3 C
1.657 3 3 1.657 3 0 C
cp
S
GR
GS
[1 0 0 1 233 630.883] CT
1 0 0 RC
N
f-2087191549
f
GR
GS
[1 0 0 1 233 630.883] CT
1 0 0 RC
10.0 ML
N
3 0 M
3 -1.657 1.657 -3 0 -3 C
-1.657 -3 -3 -1.657 -3 0 C
-3 1.657 -1.657 3 0 3 C
1.657 3 3 1.657 3 0 C
cp
S
GR
GS
[1 0 0 1 258.83334 626.16431] CT
1 0 0 RC
N
f-2087191549
f
GR
GS
[1 0 0 1 258.83334 626.16431] CT
1 0 0 RC
10.0 ML
N
3 0 M
3 -1.657 1.657 -3 0 -3 C
-1.657 -3 -3 -1.657 -3 0 C
-3 1.657 -1.657 3 0 3 C
1.657 3 3 1.657 3 0 C
cp
S
GR
GS
[1 0 0 1 284.66666 621.30359] CT
1 0 0 RC
N
f-2087191549
f
GR
GS
[1 0 0 1 284.66666 621.30359] CT
1 0 0 RC
10.0 ML
N
3 0 M
3 -1.657 1.657 -3 0 -3 C
-1.657 -3 -3 -1.657 -3 0 C
-3 1.657 -1.657 3 0 3 C
1.657 3 3 1.657 3 0 C
cp
S
GR
GS
[1 0 0 1 310.5 616.3125] CT
1 0 0 RC
N
f-2087191549
f
GR
GS
[1 0 0 1 310.5 616.3125] CT
1 0 0 RC
10.0 ML
N
3 0 M
3 -1.657 1.657 -3 0 -3 C
-1.657 -3 -3 -1.657 -3 0 C
-3 1.657 -1.657 3 0 3 C
1.657 3 3 1.657 3 0 C
cp
S
GR
GS
[1 0 0 1 336.33334 611.20044] CT
1 0 0 RC
N
f-2087191549
f
GR
GS
[1 0 0 1 336.33334 611.20044] CT
1 0 0 RC
10.0 ML
N
3 0 M
3 -1.657 1.657 -3 0 -3 C
-1.657 -3 -3 -1.657 -3 0 C
-3 1.657 -1.657 3 0 3 C
1.657 3 3 1.657 3 0 C
cp
S
GR
GS
[1 0 0 1 362.16666 605.97528] CT
1 0 0 RC
N
f-2087191549
f
GR
GS
[1 0 0 1 362.16666 605.97528] CT
1 0 0 RC
10.0 ML
N
3 0 M
3 -1.657 1.657 -3 0 -3 C
-1.657 -3 -3 -1.657 -3 0 C
-3 1.657 -1.657 3 0 3 C
1.657 3 3 1.657 3 0 C
cp
S
GR
GS
[1 0 0 1 388 600.64343] CT
1 0 0 RC
N
f-2087191549
f
GR
GS
[1 0 0 1 388 600.64343] CT
1 0 0 RC
10.0 ML
N
3 0 M
3 -1.657 1.657 -3 0 -3 C
-1.657 -3 -3 -1.657 -3 0 C
-3 1.657 -1.657 3 0 3 C
1.657 3 3 1.657 3 0 C
cp
S
GR
GS
[1 0 0 1 413.83334 595.21039] CT
1 0 0 RC
N
f-2087191549
f
GR
GS
[1 0 0 1 413.83334 595.21039] CT
1 0 0 RC
10.0 ML
N
3 0 M
3 -1.657 1.657 -3 0 -3 C
-1.657 -3 -3 -1.657 -3 0 C
-3 1.657 -1.657 3 0 3 C
1.657 3 3 1.657 3 0 C
cp
S
GR
GS
[1 0 0 1 439.66666 589.68073] CT
1 0 0 RC
N
f-2087191549
f
GR
GS
[1 0 0 1 439.66666 589.68073] CT
1 0 0 RC
10.0 ML
N
3 0 M
3 -1.657 1.657 -3 0 -3 C
-1.657 -3 -3 -1.657 -3 0 C
-3 1.657 -1.657 3 0 3 C
1.657 3 3 1.657 3 0 C
cp
S
GR
GS
[1 0 0 1 465.5 584.05853] CT
1 0 0 RC
N
f-2087191549
f
GR
GS
[1 0 0 1 465.5 584.05853] CT
1 0 0 RC
10.0 ML
N
3 0 M
3 -1.657 1.657 -3 0 -3 C
-1.657 -3 -3 -1.657 -3 0 C
-3 1.657 -1.657 3 0 3 C
1.657 3 3 1.657 3 0 C
cp
S
GR
GS
[1 0 0 1 491.33334 578.34723] CT
1 0 0 RC
N
f-2087191549
f
GR
GS
[1 0 0 1 491.33334 578.34723] CT
1 0 0 RC
10.0 ML
N
3 0 M
3 -1.657 1.657 -3 0 -3 C
-1.657 -3 -3 -1.657 -3 0 C
-3 1.657 -1.657 3 0 3 C
1.657 3 3 1.657 3 0 C
cp
S
GR
GS
[1 0 0 1 517.16669 572.54993] CT
1 0 0 RC
N
f-2087191549
f
GR
GS
[1 0 0 1 517.16669 572.54993] CT
1 0 0 RC
10.0 ML
N
3 0 M
3 -1.657 1.657 -3 0 -3 C
-1.657 -3 -3 -1.657 -3 0 C
-3 1.657 -1.657 3 0 3 C
1.657 3 3 1.657 3 0 C
cp
S
GR
GS
[1 0 0 1 543 566.66919] CT
1 0 0 RC
N
f-2087191549
f
GR
GS
[1 0 0 1 543 566.66919] CT
1 0 0 RC
10.0 ML
N
3 0 M
3 -1.657 1.657 -3 0 -3 C
-1.657 -3 -3 -1.657 -3 0 C
-3 1.657 -1.657 3 0 3 C
1.657 3 3 1.657 3 0 C
cp
S
GR
GS
1 GC
N
/f1717580624{173 263 M
173 88 L
103 88 L
103 263 L
cp}def
f1717580624
f
GR
GS
[1 0 0 1 140 100.46439] CT
/Times-Roman 18 F
GS
[1 0 0 1 0 0] CT
0 6.5 moveto 
1 -1 scale
(n=0) t 
GR
GR
GS
[1 0 0 1 122 100.46439] CT
N
f-2087191549
f
GR
GS
[1 0 0 1 122 100.46439] CT
10.0 ML
N
3 0 M
3 -1.657 1.657 -3 0 -3 C
-1.657 -3 -3 -1.657 -3 0 C
-3 1.657 -1.657 3 0 3 C
1.657 3 3 1.657 3 0 C
cp
S
GR
GS
[1 0 0 1 140 121.90314] CT
/Times-Roman 18 F
GS
[1 0 0 1 0 0] CT
0 6.5 moveto 
1 -1 scale
(n=1) t 
GR
GR
GS
[1 0 0 1 122 121.90314] CT
0 0 1 RC
N
f1363619694
f
GR
GS
[1 0 0 1 122 121.90314] CT
0 0 1 RC
10.0 ML
N
-2.121 -2.121 M
2.121 2.121 L
-2.121 2.121 M
2.121 -2.121 L
S
GR
GS
[1 0 0 1 140 143.34187] CT
/Times-Roman 18 F
GS
[1 0 0 1 0 0] CT
0 6.5 moveto 
1 -1 scale
(n=2) t 
GR
GR
GS
[1 0 0 1 122 143.34187] CT
1 0 0 RC
N
f909745642
f
GR
GS
[1 0 0 1 122 143.34187] CT
1 0 0 RC
10.0 ML
N
0 -3 M
0 3 L
-3 0 M
3 0 L
S
GR
GS
[1 0 0 1 140 164.78062] CT
/Times-Roman 18 F
GS
[1 0 0 1 0 0] CT
0 6.5 moveto 
1 -1 scale
(n=3) t 
GR
GR
GS
[1 0 0 1 122 164.78062] CT
1 0 1 RC
N
f1414333259
f
GR
GS
[1 0 0 1 122 164.78062] CT
1 0 1 RC
10.0 ML
N
0 3.999 M
-3.463 -2 L
3.463 -2 L
cp
S
GR
GS
[1 0 0 1 140 186.21938] CT
/Times-Roman 18 F
GS
[1 0 0 1 0 0] CT
0 6.5 moveto 
1 -1 scale
(n=4) t 
GR
GR
GS
[1 0 0 1 122 186.21938] CT
0 1 0 RC
N
f701565780
f
GR
GS
[1 0 0 1 122 186.21938] CT
0 1 0 RC
10.0 ML
N
-2 -2 M
-2 2 L
2 2 L
2 -2 L
cp
S
GR
GS
[1 0 0 1 140 207.65811] CT
/Times-Roman 18 F
GS
[1 0 0 1 0 0] CT
0 6.5 moveto 
1 -1 scale
(n=5) t 
GR
GR
GS
[1 0 0 1 122 207.65813] CT
N
f-500281869
f
GR
GS
[1 0 0 1 122 207.65813] CT
10.0 ML
N
-2.853 -0.927 M
-0.705 -0.927 L
0 -3 L
0.705 -0.927 L
2.853 -0.927 L
1.141 0.371 L
1.763 2.427 L
0 1.2 L
-1.763 2.427 L
-1.141 0.371 L
cp
S
GR
GS
[1 0 0 1 140 229.09686] CT
/Times-Roman 18 F
GS
[1 0 0 1 0 0] CT
0 6.5 moveto 
1 -1 scale
(n=6) t 
GR
GR
GS
[1 0 0 1 122 229.09686] CT
0 0 1 RC
N
f1485265658
f
GR
GS
[1 0 0 1 122 229.09686] CT
0 0 1 RC
10.0 ML
N
-2.598 -1.5 M
-0.866 -1.5 L
0 -3 L
0.866 -1.5 L
2.598 -1.5 L
1.5 0 L
2.598 1.5 L
0.866 1.5 L
0 3 L
-0.866 1.5 L
-2.598 1.5 L
-1.5 0 L
cp
S
GR
GS
[1 0 0 1 140 250.53561] CT
/Times-Roman 18 F
GS
[1 0 0 1 0 0] CT
0 6.5 moveto 
1 -1 scale
(n=7) t 
GR
GR
GS
[1 0 0 1 122 250.53561] CT
1 0 0 RC
N
f-2087191549
f
GR
GS
[1 0 0 1 122 250.53561] CT
1 0 0 RC
10.0 ML
N
3 0 M
3 -1.657 1.657 -3 0 -3 C
-1.657 -3 -3 -1.657 -3 0 C
-3 1.657 -1.657 3 0 3 C
1.657 3 3 1.657 3 0 C
cp
S
GR
GS
0.149 GC
10.0 ML
0.5 LW
N
103 263 M
103 88 L
173 88 L
173 263 L
cp
S
GR
%%Trailer
%%Pages: 1
%%EOF
