%!PS-Adobe-3.0 EPSF-3.0
%%Creator: MATLAB, The MathWorks, Inc. Version 7.14.0.739 (R2012a). Operating System: Linux 2.6.32-279.2.1.el6.x86_64 #1 SMP Fri Jul 20 01:55:29 UTC 2012 x86_64.
%%Title: /lgit/data-geodynamo/natafh/Dynamo/Acoustics/elastic_shell/Figures/Fluid_shell/30cm.eps
%%CreationDate: 01/24/2014  12:14:58
%%DocumentNeededFonts: Helvetica
%%DocumentProcessColors: Cyan Magenta Yellow Black
%%LanguageLevel: 2
%%Pages: 1
%%BoundingBox:    78    40   532   751
%%EndComments

%%BeginProlog
% MathWorks dictionary
/MathWorks 160 dict begin
% definition operators
/bdef {bind def} bind def
/ldef {load def} bind def
/xdef {exch def} bdef
/xstore {exch store} bdef
% operator abbreviations
/c  /clip ldef
/cc /concat ldef
/cp /closepath ldef
/gr /grestore ldef
/gs /gsave ldef
/mt /moveto ldef
/np /newpath ldef
/cm /currentmatrix ldef
/sm /setmatrix ldef
/rm /rmoveto ldef
/rl /rlineto ldef
/s {show newpath} bdef
/sc {setcmykcolor} bdef
/sr /setrgbcolor ldef
/sg /setgray ldef
/w /setlinewidth ldef
/j /setlinejoin ldef
/cap /setlinecap ldef
/rc {rectclip} bdef
/rf {rectfill} bdef
% page state control
/pgsv () def
/bpage {/pgsv save def} bdef
/epage {pgsv restore} bdef
/bplot /gsave ldef
/eplot {stroke grestore} bdef
% orientation switch
/portraitMode 0 def /landscapeMode 1 def /rotateMode 2 def
% coordinate system mappings
/dpi2point 0 def
% font control
/FontSize 0 def
/FMS {/FontSize xstore findfont [FontSize 0 0 FontSize neg 0 0]
  makefont setfont} bdef
/reencode {exch dup where {pop load} {pop StandardEncoding} ifelse
  exch dup 3 1 roll findfont dup length dict begin
  { 1 index /FID ne {def}{pop pop} ifelse } forall
  /Encoding exch def currentdict end definefont pop} bdef
/isroman {findfont /CharStrings get /Agrave known} bdef
/FMSR {3 1 roll 1 index dup isroman {reencode} {pop pop} ifelse
  exch FMS} bdef
/csm {1 dpi2point div -1 dpi2point div scale neg translate
 dup landscapeMode eq {pop -90 rotate}
  {rotateMode eq {90 rotate} if} ifelse} bdef
% line types: solid, dotted, dashed, dotdash
/SO { [] 0 setdash } bdef
/DO { [.5 dpi2point mul 4 dpi2point mul] 0 setdash } bdef
/DA { [6 dpi2point mul] 0 setdash } bdef
/DD { [.5 dpi2point mul 4 dpi2point mul 6 dpi2point mul 4
  dpi2point mul] 0 setdash } bdef
% macros for lines and objects
/L {lineto stroke} bdef
/MP {3 1 roll moveto 1 sub {rlineto} repeat} bdef
/AP {{rlineto} repeat} bdef
/PDlw -1 def
/W {/PDlw currentlinewidth def setlinewidth} def
/PP {closepath eofill} bdef
/DP {closepath stroke} bdef
/MR {4 -2 roll moveto dup  0 exch rlineto exch 0 rlineto
  neg 0 exch rlineto closepath} bdef
/FR {MR stroke} bdef
/PR {MR fill} bdef
/L1i {{currentfile picstr readhexstring pop} image} bdef
/tMatrix matrix def
/MakeOval {newpath tMatrix currentmatrix pop translate scale
0 0 1 0 360 arc tMatrix setmatrix} bdef
/FO {MakeOval stroke} bdef
/PO {MakeOval fill} bdef
/PD {currentlinewidth 2 div 0 360 arc fill
   PDlw -1 eq not {PDlw w /PDlw -1 def} if} def
/FA {newpath tMatrix currentmatrix pop translate scale
  0 0 1 5 -2 roll arc tMatrix setmatrix stroke} bdef
/PA {newpath tMatrix currentmatrix pop	translate 0 0 moveto scale
  0 0 1 5 -2 roll arc closepath tMatrix setmatrix fill} bdef
/FAn {newpath tMatrix currentmatrix pop translate scale
  0 0 1 5 -2 roll arcn tMatrix setmatrix stroke} bdef
/PAn {newpath tMatrix currentmatrix pop translate 0 0 moveto scale
  0 0 1 5 -2 roll arcn closepath tMatrix setmatrix fill} bdef
/vradius 0 def /hradius 0 def /lry 0 def
/lrx 0 def /uly 0 def /ulx 0 def /rad 0 def
/MRR {/vradius xdef /hradius xdef /lry xdef /lrx xdef /uly xdef
  /ulx xdef newpath tMatrix currentmatrix pop ulx hradius add uly
  vradius add translate hradius vradius scale 0 0 1 180 270 arc 
  tMatrix setmatrix lrx hradius sub uly vradius add translate
  hradius vradius scale 0 0 1 270 360 arc tMatrix setmatrix
  lrx hradius sub lry vradius sub translate hradius vradius scale
  0 0 1 0 90 arc tMatrix setmatrix ulx hradius add lry vradius sub
  translate hradius vradius scale 0 0 1 90 180 arc tMatrix setmatrix
  closepath} bdef
/FRR {MRR stroke } bdef
/PRR {MRR fill } bdef
/MlrRR {/lry xdef /lrx xdef /uly xdef /ulx xdef /rad lry uly sub 2 div def
  newpath tMatrix currentmatrix pop ulx rad add uly rad add translate
  rad rad scale 0 0 1 90 270 arc tMatrix setmatrix lrx rad sub lry rad
  sub translate rad rad scale 0 0 1 270 90 arc tMatrix setmatrix
  closepath} bdef
/FlrRR {MlrRR stroke } bdef
/PlrRR {MlrRR fill } bdef
/MtbRR {/lry xdef /lrx xdef /uly xdef /ulx xdef /rad lrx ulx sub 2 div def
  newpath tMatrix currentmatrix pop ulx rad add uly rad add translate
  rad rad scale 0 0 1 180 360 arc tMatrix setmatrix lrx rad sub lry rad
  sub translate rad rad scale 0 0 1 0 180 arc tMatrix setmatrix
  closepath} bdef
/FtbRR {MtbRR stroke } bdef
/PtbRR {MtbRR fill } bdef
/stri 6 array def /dtri 6 array def
/smat 6 array def /dmat 6 array def
/tmat1 6 array def /tmat2 6 array def /dif 3 array def
/asub {/ind2 exch def /ind1 exch def dup dup
  ind1 get exch ind2 get sub exch } bdef
/tri_to_matrix {
  2 0 asub 3 1 asub 4 0 asub 5 1 asub
  dup 0 get exch 1 get 7 -1 roll astore } bdef
/compute_transform {
  dmat dtri tri_to_matrix tmat1 invertmatrix 
  smat stri tri_to_matrix tmat2 concatmatrix } bdef
/ds {stri astore pop} bdef
/dt {dtri astore pop} bdef
/db {2 copy /cols xdef /rows xdef mul dup 3 mul string
  currentfile 
  3 index 0 eq {/ASCIIHexDecode filter}
  {/ASCII85Decode filter 3 index 2 eq {/RunLengthDecode filter} if }
  ifelse exch readstring pop
  dup 0 3 index getinterval /rbmap xdef
  dup 2 index dup getinterval /gbmap xdef
  1 index dup 2 mul exch getinterval /bbmap xdef pop pop}bdef
/it {gs np dtri aload pop moveto lineto lineto cp c
  cols rows 8 compute_transform 
  rbmap gbmap bbmap true 3 colorimage gr}bdef
/il {newpath moveto lineto stroke}bdef
currentdict end def
%%EndProlog

%%BeginSetup
MathWorks begin

0 cap

end
%%EndSetup

%%Page: 1 1
%%BeginPageSetup
%%PageBoundingBox:    78    40   532   751
MathWorks begin
bpage
%%EndPageSetup

%%BeginObject: obj1
bplot

/dpi2point 12 def
portraitMode 0936 9012 csm

    0     0  5453  8525 rc
87 dict begin %Colortable dictionary
/c0 { 0.000000 0.000000 0.000000 sr} bdef
/c1 { 1.000000 1.000000 1.000000 sr} bdef
/c2 { 0.900000 0.000000 0.000000 sr} bdef
/c3 { 0.000000 0.820000 0.000000 sr} bdef
/c4 { 0.000000 0.000000 0.800000 sr} bdef
/c5 { 0.910000 0.820000 0.320000 sr} bdef
/c6 { 1.000000 0.260000 0.820000 sr} bdef
/c7 { 0.000000 0.820000 0.820000 sr} bdef
c0
1 j
1 sg
   0    0 5454 8526 rf
6 w
0 6949 4226 0 0 -6949 709 7587 4 MP
PP
-4226 0 0 6949 4226 0 0 -6949 709 7587 5 MP stroke
4 w
DO
0 sg
 709 7587 mt  709  639 L
 709  639 mt  709  639 L
1237 7587 mt 1237  639 L
1237  639 mt 1237  639 L
1765 7587 mt 1765  639 L
1765  639 mt 1765  639 L
2293 7587 mt 2293  639 L
2293  639 mt 2293  639 L
2822 7587 mt 2822  639 L
2822  639 mt 2822  639 L
3350 7587 mt 3350  639 L
3350  639 mt 3350  639 L
3878 7587 mt 3878  639 L
3878  639 mt 3878  639 L
4406 7587 mt 4406  639 L
4406  639 mt 4406  639 L
4935 7587 mt 4935  639 L
4935  639 mt 4935  639 L
 709 7587 mt 4935 7587 L
4935 7587 mt 4935 7587 L
 709 6594 mt 4935 6594 L
4935 6594 mt 4935 6594 L
 709 5601 mt 4935 5601 L
4935 5601 mt 4935 5601 L
 709 4609 mt 4935 4609 L
4935 4609 mt 4935 4609 L
 709 3616 mt 4935 3616 L
4935 3616 mt 4935 3616 L
 709 2624 mt 4935 2624 L
4935 2624 mt 4935 2624 L
 709 1631 mt 4935 1631 L
4935 1631 mt 4935 1631 L
 709  639 mt 4935  639 L
4935  639 mt 4935  639 L
SO
6 w
 709 7587 mt 4935 7587 L
 709  638 mt 4935  638 L
 709 7587 mt  709  638 L
4935 7587 mt 4935  638 L
 709 7587 mt 4935 7587 L
 709 7587 mt  709  638 L
 709 7587 mt  709 7517 L
 709  639 mt  709  708 L
%%IncludeResource: font Helvetica
/Helvetica /ISOLatin1Encoding 120 FMSR

 676 7732 mt 
(0) s
1237 7587 mt 1237 7517 L
1237  639 mt 1237  708 L
1204 7732 mt 
(2) s
1765 7587 mt 1765 7517 L
1765  639 mt 1765  708 L
1732 7732 mt 
(4) s
2293 7587 mt 2293 7517 L
2293  639 mt 2293  708 L
2260 7732 mt 
(6) s
2822 7587 mt 2822 7517 L
2822  639 mt 2822  708 L
2789 7732 mt 
(8) s
3350 7587 mt 3350 7517 L
3350  639 mt 3350  708 L
3284 7732 mt 
(10) s
3878 7587 mt 3878 7517 L
3878  639 mt 3878  708 L
3812 7732 mt 
(12) s
4406 7587 mt 4406 7517 L
4406  639 mt 4406  708 L
4340 7732 mt 
(14) s
4935 7587 mt 4935 7517 L
4935  639 mt 4935  708 L
4869 7732 mt 
(16) s
 709 7587 mt  778 7587 L
4935 7587 mt 4865 7587 L
 608 7631 mt 
(0) s
 709 6594 mt  778 6594 L
4935 6594 mt 4865 6594 L
 408 6638 mt 
(2000) s
 709 5601 mt  778 5601 L
4935 5601 mt 4865 5601 L
 408 5645 mt 
(4000) s
 709 4609 mt  778 4609 L
4935 4609 mt 4865 4609 L
 408 4653 mt 
(6000) s
 709 3616 mt  778 3616 L
4935 3616 mt 4865 3616 L
 408 3660 mt 
(8000) s
 709 2624 mt  778 2624 L
4935 2624 mt 4865 2624 L
 341 2668 mt 
(10000) s
 709 1631 mt  778 1631 L
4935 1631 mt 4865 1631 L
 341 1675 mt 
(12000) s
 709  639 mt  778  639 L
4935  639 mt 4865  639 L
 341  683 mt 
(14000) s
 709 7587 mt 4935 7587 L
 709  638 mt 4935  638 L
 709 7587 mt  709  638 L
4935 7587 mt 4935  638 L
%%IncludeResource: font Helvetica
/Helvetica /ISOLatin1Encoding 96 FMSR

  43  380 mt 
(n) s
%%IncludeResource: font Helvetica
/Helvetica /ISOLatin1Encoding 120 FMSR

  96  320 mt 
(S) s
%%IncludeResource: font Helvetica
/Helvetica /ISOLatin1Encoding 96 FMSR

 176  380 mt 
(l) s
%%IncludeResource: font Helvetica
/Helvetica /ISOLatin1Encoding 120 FMSR

 197  320 mt 
( mode frequencies for fluid shell enclosed between rigid in\
ner sphere and elastic spherical outer shell : ) s
1116  490 mt 
(r) s
%%IncludeResource: font Helvetica
/Helvetica /ISOLatin1Encoding 96 FMSR

1155  550 mt 
(i) s
%%IncludeResource: font Helvetica
/Helvetica /ISOLatin1Encoding 120 FMSR

1176  490 mt 
(=0.051, r) s
%%IncludeResource: font Helvetica
/Helvetica /ISOLatin1Encoding 96 FMSR

1653  550 mt 
(o) s
%%IncludeResource: font Helvetica
/Helvetica /ISOLatin1Encoding 120 FMSR

1706  490 mt 
(=0.15, nu=0.3, lambda=0.0066708, kappa) s
%%IncludeResource: font Helvetica
/Helvetica /ISOLatin1Encoding 96 FMSR

3936  550 mt 
(0) s
%%IncludeResource: font Helvetica
/Helvetica /ISOLatin1Encoding 120 FMSR

3989  490 mt 
(0.0017443) s
2205 7875 mt 
(mode angular number l) s
 259 4674 mt  -90 rotate
(mode frequency \(Hz\)) s
90 rotate
gs 709 639 4227 6949 rc
gr

  36   36  709 7587 PO
  36   36  973 7232 PO
  36   36 1237 6996 PO
  36   36 1501 6781 PO
  36   36 1765 6576 PO
  36   36 2029 6377 PO
  36   36 2293 6181 PO
  36   36 2557 5987 PO
  36   36 2822 5794 PO
  36   36 3086 5603 PO
  36   36 3350 5413 PO
  36   36 3614 5224 PO
  36   36 3878 5114 PO
  36   36 4142 5109 PO
  36   36 4406 5106 PO
  36   36 4670 4469 PO
  36   36 4935 4282 PO
  36   36  709 7587 FO
  36   36  973 7232 FO
  36   36 1237 6996 FO
  36   36 1501 6781 FO
  36   36 1765 6576 FO
  36   36 2029 6377 FO
  36   36 2293 6181 FO
  36   36 2557 5987 FO
  36   36 2822 5794 FO
  36   36 3086 5603 FO
  36   36 3350 5413 FO
  36   36 3614 5224 FO
  36   36 3878 5114 FO
  36   36 4142 5109 FO
  36   36 4406 5106 FO
  36   36 4670 4469 FO
  36   36 4935 4282 FO
gs 709 639 4227 6949 rc
gr

/c8 { 0.000000 0.000000 1.000000 sr} bdef
c8
 684 6622 mt  734 6672 L
 734 6622 mt  684 6672 L
 948 6504 mt  998 6554 L
 998 6504 mt  948 6554 L
1212 6302 mt 1262 6352 L
1262 6302 mt 1212 6352 L
1476 6064 mt 1526 6114 L
1526 6064 mt 1476 6114 L
1740 5822 mt 1790 5872 L
1790 5822 mt 1740 5872 L
2004 5589 mt 2054 5639 L
2054 5589 mt 2004 5639 L
2268 5367 mt 2318 5417 L
2318 5367 mt 2268 5417 L
2532 5127 mt 2582 5177 L
2582 5127 mt 2532 5177 L
2797 5115 mt 2847 5165 L
2847 5115 mt 2797 5165 L
3061 5104 mt 3111 5154 L
3111 5104 mt 3061 5154 L
3325 5096 mt 3375 5146 L
3375 5096 mt 3325 5146 L
3589 4316 mt 3639 4366 L
3639 4316 mt 3589 4366 L
3853 4111 mt 3903 4161 L
3903 4111 mt 3853 4161 L
4117 4820 mt 4167 4870 L
4167 4820 mt 4117 4870 L
4381 4632 mt 4431 4682 L
4431 4632 mt 4381 4682 L
4645 3504 mt 4695 3554 L
4695 3504 mt 4645 3554 L
4910 3303 mt 4960 3353 L
4960 3303 mt 4910 3353 L
gs 709 639 4227 6949 rc
gr

/c9 { 1.000000 0.000000 0.000000 sr} bdef
c9
 673 5831 mt  745 5831 L
 709 5795 mt  709 5867 L
 937 5771 mt 1009 5771 L
 973 5735 mt  973 5807 L
1201 5750 mt 1273 5750 L
1237 5714 mt 1237 5786 L
1465 5482 mt 1537 5482 L
1501 5446 mt 1501 5518 L
1729 5263 mt 1801 5263 L
1765 5227 mt 1765 5299 L
1993 5214 mt 2065 5214 L
2029 5178 mt 2029 5250 L
2257 5177 mt 2329 5177 L
2293 5141 mt 2293 5213 L
2521 4538 mt 2593 4538 L
2557 4502 mt 2557 4574 L
2786 4307 mt 2858 4307 L
2822 4271 mt 2822 4343 L
3050 4754 mt 3122 4754 L
3086 4718 mt 3086 4790 L
3314 4547 mt 3386 4547 L
3350 4511 mt 3350 4583 L
3578 3648 mt 3650 3648 L
3614 3612 mt 3614 3684 L
3842 3434 mt 3914 3434 L
3878 3398 mt 3878 3470 L
4106 3933 mt 4178 3933 L
4142 3897 mt 4142 3969 L
4370 3731 mt 4442 3731 L
4406 3695 mt 4406 3767 L
4634 2800 mt 4706 2800 L
4670 2764 mt 4670 2836 L
4899 2591 mt 4971 2591 L
4935 2555 mt 4935 2627 L
gs 709 639 4227 6949 rc
gr

0 j
41 71 -82 0 41 -71 709 5041 4 MP
/c10 { 1.000000 0.000000 1.000000 sr} bdef
c10
gs
PP
gr
DP
41 71 -82 0 41 -71 973 5003 4 MP
gs
PP
gr
DP
41 71 -82 0 41 -71 1237 4926 4 MP
gs
PP
gr
DP
41 71 -82 0 41 -71 1501 4811 4 MP
gs
PP
gr
DP
41 71 -82 0 41 -71 1765 4660 4 MP
gs
PP
gr
DP
41 71 -82 0 41 -71 2029 5072 4 MP
gs
PP
gr
DP
41 71 -82 0 41 -71 2293 4825 4 MP
gs
PP
gr
DP
41 71 -82 0 41 -71 2557 4011 4 MP
gs
PP
gr
DP
41 71 -82 0 41 -71 2822 3763 4 MP
gs
PP
gr
DP
41 71 -82 0 41 -71 3086 4131 4 MP
gs
PP
gr
DP
41 71 -82 0 41 -71 3350 3911 4 MP
gs
PP
gr
DP
41 71 -82 0 41 -71 3614 3054 4 MP
gs
PP
gr
DP
41 71 -82 0 41 -71 3878 2831 4 MP
gs
PP
gr
DP
41 71 -82 0 41 -71 4142 3268 4 MP
gs
PP
gr
DP
41 71 -82 0 41 -71 4406 3057 4 MP
gs
PP
gr
DP
41 71 -82 0 41 -71 4670 2175 4 MP
gs
PP
gr
DP
41 71 -82 0 41 -71 4935 1960 4 MP
gs
PP
gr
DP
gs 709 639 4227 6949 rc
gr

0 -58 -58 0 0 58 58 0 680 4122 5 MP
/c11 { 0.000000 1.000000 0.000000 sr} bdef
c11
gs
PP
gr
DP
0 -58 -58 0 0 58 58 0 944 4093 5 MP
gs
PP
gr
DP
0 -58 -58 0 0 58 58 0 1208 4036 5 MP
gs
PP
gr
DP
0 -58 -58 0 0 58 58 0 1472 3952 5 MP
gs
PP
gr
DP
0 -58 -58 0 0 58 58 0 1736 3840 5 MP
gs
PP
gr
DP
0 -58 -58 0 0 58 58 0 2000 4396 5 MP
gs
PP
gr
DP
0 -58 -58 0 0 58 58 0 2264 4176 5 MP
gs
PP
gr
DP
0 -58 -58 0 0 58 58 0 2528 3337 5 MP
gs
PP
gr
DP
0 -58 -58 0 0 58 58 0 2793 3115 5 MP
gs
PP
gr
DP
0 -58 -58 0 0 58 58 0 3057 3443 5 MP
gs
PP
gr
DP
0 -58 -58 0 0 58 58 0 3321 3207 5 MP
gs
PP
gr
DP
0 -58 -58 0 0 58 58 0 3585 2379 5 MP
gs
PP
gr
DP
0 -58 -58 0 0 58 58 0 3849 2140 5 MP
gs
PP
gr
DP
0 -58 -58 0 0 58 58 0 4113 2534 5 MP
gs
PP
gr
DP
0 -58 -58 0 0 58 58 0 4377 2316 5 MP
gs
PP
gr
DP
0 -58 -58 0 0 58 58 0 4641 1458 5 MP
gs
PP
gr
DP
0 -58 -58 0 0 58 58 0 4906 1237 5 MP
gs
PP
gr
DP
gs 709 639 4227 6949 rc
gr

-21 -16 8 -25 -22 15 -21 -15 8 25 -21 16 26 0 8 24 
9 -24 26 0 674 3351 11 MP
0 sg
gs
PP
gr
DP
-21 -16 8 -25 -22 15 -21 -15 8 25 -21 16 26 0 8 24 
9 -24 26 0 938 3269 11 MP
gs
PP
gr
DP
-21 -16 8 -25 -22 15 -21 -15 8 25 -21 16 26 0 8 24 
9 -24 26 0 1202 3224 11 MP
gs
PP
gr
DP
-21 -16 8 -25 -22 15 -21 -15 8 25 -21 16 26 0 8 24 
9 -24 26 0 1466 3157 11 MP
gs
PP
gr
DP
-21 -16 8 -25 -22 15 -21 -15 8 25 -21 16 26 0 8 24 
9 -24 26 0 1730 3068 11 MP
gs
PP
gr
DP
-21 -16 8 -25 -22 15 -21 -15 8 25 -21 16 26 0 8 24 
9 -24 26 0 1994 3717 11 MP
gs
PP
gr
DP
-21 -16 8 -25 -22 15 -21 -15 8 25 -21 16 26 0 8 24 
9 -24 26 0 2258 3549 11 MP
gs
PP
gr
DP
-21 -16 8 -25 -22 15 -21 -15 8 25 -21 16 26 0 8 24 
9 -24 26 0 2522 2670 11 MP
gs
PP
gr
DP
-21 -16 8 -25 -22 15 -21 -15 8 25 -21 16 26 0 8 24 
9 -24 26 0 2787 2493 11 MP
gs
PP
gr
DP
-21 -16 8 -25 -22 15 -21 -15 8 25 -21 16 26 0 8 24 
9 -24 26 0 3051 2891 11 MP
gs
PP
gr
DP
-21 -16 8 -25 -22 15 -21 -15 8 25 -21 16 26 0 8 24 
9 -24 26 0 3315 2642 11 MP
gs
PP
gr
DP
-21 -16 8 -25 -22 15 -21 -15 8 25 -21 16 26 0 8 24 
9 -24 26 0 3579 1829 11 MP
gs
PP
gr
DP
-21 -16 8 -25 -22 15 -21 -15 8 25 -21 16 26 0 8 24 
9 -24 26 0 3843 1581 11 MP
gs
PP
gr
DP
-21 -16 8 -25 -22 15 -21 -15 8 25 -21 16 26 0 8 24 
9 -24 26 0 4107 1925 11 MP
gs
PP
gr
DP
-21 -16 8 -25 -22 15 -21 -15 8 25 -21 16 26 0 8 24 
9 -24 26 0 4371 1698 11 MP
gs
PP
gr
DP
-21 -16 8 -25 -22 15 -21 -15 8 25 -21 16 26 0 8 24 
9 -24 26 0 4635 858 11 MP
gs
PP
gr
DP
-21 -16 8 -25 -22 15 -21 -15 8 25 -21 16 26 0 8 24 
9 -24 26 0 4900 628 11 MP
gs
PP
gr
DP
gs 709 639 4227 6949 rc
gr

 692 7630 mt 
( ) s
4919  681 mt 
( ) s
1 sg
0 1230 724 0 0 -1230 838 1981 4 MP
PP
-724 0 0 1230 724 0 0 -1230 838 1981 5 MP stroke
4 w
DO
SO
6 w
0 sg
 838 1981 mt 1562 1981 L
 838  751 mt 1562  751 L
 838 1981 mt  838  751 L
1562 1981 mt 1562  751 L
 838 1981 mt 1562 1981 L
 838 1981 mt  838  751 L
 838 1981 mt 1562 1981 L
 838  751 mt 1562  751 L
 838 1981 mt  838  751 L
1562 1981 mt 1562  751 L
1306  913 mt 
(n=0) s
gs 838 751 725 1231 rc
gr

  36   36 1089  871 PO
  36   36 1089  871 FO
gs 838 751 725 1231 rc
gr

1306 1111 mt 
(1) s
gs 838 751 725 1231 rc
gr

c8
1064 1044 mt 1114 1094 L
1114 1044 mt 1064 1094 L
gs 838 751 725 1231 rc
gr

0 sg
1306 1309 mt 
(2) s
gs 838 751 725 1231 rc
gr

c9
1053 1267 mt 1125 1267 L
1089 1231 mt 1089 1303 L
gs 838 751 725 1231 rc
gr

0 sg
1306 1508 mt 
(3) s
gs 838 751 725 1231 rc
gr

41 71 -82 0 41 -71 1089 1512 4 MP
c10
gs
PP
gr
DP
gs 838 751 725 1231 rc
gr

0 sg
1306 1706 mt 
(4) s
gs 838 751 725 1231 rc
gr

0 -58 -58 0 0 58 58 0 1060 1634 5 MP
c11
gs
PP
gr
DP
gs 838 751 725 1231 rc
gr

0 sg
1306 1904 mt 
(5) s
gs 838 751 725 1231 rc
gr

-21 -16 8 -25 -22 15 -21 -15 8 25 -21 16 26 0 8 24 
9 -24 26 0 1054 1849 11 MP
gs
PP
gr
DP
gs 838 751 725 1231 rc
gr


end %%Color Dict

eplot
%%EndObject

epage
end

showpage

%%Trailer
%%EOF
