%!PS-Adobe-3.0 EPSF-3.0
%%Creator: MATLAB, The MathWorks, Inc. Version 7.14.0.739 (R2012a). Operating System: Linux 2.6.32-279.2.1.el6.x86_64 #1 SMP Fri Jul 20 01:55:29 UTC 2012 x86_64.
%%Title: /lgit/data-geodynamo/natafh/Dynamo/Acoustics/elastic_shell/Figures/Fluid_shell/30cm_rigid.eps
%%CreationDate: 01/24/2014  12:15:50
%%DocumentNeededFonts: Helvetica
%%DocumentProcessColors: Cyan Magenta Yellow Black
%%LanguageLevel: 2
%%Pages: 1
%%BoundingBox:    78    41   532   750
%%EndComments

%%BeginProlog
% MathWorks dictionary
/MathWorks 160 dict begin
% definition operators
/bdef {bind def} bind def
/ldef {load def} bind def
/xdef {exch def} bdef
/xstore {exch store} bdef
% operator abbreviations
/c  /clip ldef
/cc /concat ldef
/cp /closepath ldef
/gr /grestore ldef
/gs /gsave ldef
/mt /moveto ldef
/np /newpath ldef
/cm /currentmatrix ldef
/sm /setmatrix ldef
/rm /rmoveto ldef
/rl /rlineto ldef
/s {show newpath} bdef
/sc {setcmykcolor} bdef
/sr /setrgbcolor ldef
/sg /setgray ldef
/w /setlinewidth ldef
/j /setlinejoin ldef
/cap /setlinecap ldef
/rc {rectclip} bdef
/rf {rectfill} bdef
% page state control
/pgsv () def
/bpage {/pgsv save def} bdef
/epage {pgsv restore} bdef
/bplot /gsave ldef
/eplot {stroke grestore} bdef
% orientation switch
/portraitMode 0 def /landscapeMode 1 def /rotateMode 2 def
% coordinate system mappings
/dpi2point 0 def
% font control
/FontSize 0 def
/FMS {/FontSize xstore findfont [FontSize 0 0 FontSize neg 0 0]
  makefont setfont} bdef
/reencode {exch dup where {pop load} {pop StandardEncoding} ifelse
  exch dup 3 1 roll findfont dup length dict begin
  { 1 index /FID ne {def}{pop pop} ifelse } forall
  /Encoding exch def currentdict end definefont pop} bdef
/isroman {findfont /CharStrings get /Agrave known} bdef
/FMSR {3 1 roll 1 index dup isroman {reencode} {pop pop} ifelse
  exch FMS} bdef
/csm {1 dpi2point div -1 dpi2point div scale neg translate
 dup landscapeMode eq {pop -90 rotate}
  {rotateMode eq {90 rotate} if} ifelse} bdef
% line types: solid, dotted, dashed, dotdash
/SO { [] 0 setdash } bdef
/DO { [.5 dpi2point mul 4 dpi2point mul] 0 setdash } bdef
/DA { [6 dpi2point mul] 0 setdash } bdef
/DD { [.5 dpi2point mul 4 dpi2point mul 6 dpi2point mul 4
  dpi2point mul] 0 setdash } bdef
% macros for lines and objects
/L {lineto stroke} bdef
/MP {3 1 roll moveto 1 sub {rlineto} repeat} bdef
/AP {{rlineto} repeat} bdef
/PDlw -1 def
/W {/PDlw currentlinewidth def setlinewidth} def
/PP {closepath eofill} bdef
/DP {closepath stroke} bdef
/MR {4 -2 roll moveto dup  0 exch rlineto exch 0 rlineto
  neg 0 exch rlineto closepath} bdef
/FR {MR stroke} bdef
/PR {MR fill} bdef
/L1i {{currentfile picstr readhexstring pop} image} bdef
/tMatrix matrix def
/MakeOval {newpath tMatrix currentmatrix pop translate scale
0 0 1 0 360 arc tMatrix setmatrix} bdef
/FO {MakeOval stroke} bdef
/PO {MakeOval fill} bdef
/PD {currentlinewidth 2 div 0 360 arc fill
   PDlw -1 eq not {PDlw w /PDlw -1 def} if} def
/FA {newpath tMatrix currentmatrix pop translate scale
  0 0 1 5 -2 roll arc tMatrix setmatrix stroke} bdef
/PA {newpath tMatrix currentmatrix pop	translate 0 0 moveto scale
  0 0 1 5 -2 roll arc closepath tMatrix setmatrix fill} bdef
/FAn {newpath tMatrix currentmatrix pop translate scale
  0 0 1 5 -2 roll arcn tMatrix setmatrix stroke} bdef
/PAn {newpath tMatrix currentmatrix pop translate 0 0 moveto scale
  0 0 1 5 -2 roll arcn closepath tMatrix setmatrix fill} bdef
/vradius 0 def /hradius 0 def /lry 0 def
/lrx 0 def /uly 0 def /ulx 0 def /rad 0 def
/MRR {/vradius xdef /hradius xdef /lry xdef /lrx xdef /uly xdef
  /ulx xdef newpath tMatrix currentmatrix pop ulx hradius add uly
  vradius add translate hradius vradius scale 0 0 1 180 270 arc 
  tMatrix setmatrix lrx hradius sub uly vradius add translate
  hradius vradius scale 0 0 1 270 360 arc tMatrix setmatrix
  lrx hradius sub lry vradius sub translate hradius vradius scale
  0 0 1 0 90 arc tMatrix setmatrix ulx hradius add lry vradius sub
  translate hradius vradius scale 0 0 1 90 180 arc tMatrix setmatrix
  closepath} bdef
/FRR {MRR stroke } bdef
/PRR {MRR fill } bdef
/MlrRR {/lry xdef /lrx xdef /uly xdef /ulx xdef /rad lry uly sub 2 div def
  newpath tMatrix currentmatrix pop ulx rad add uly rad add translate
  rad rad scale 0 0 1 90 270 arc tMatrix setmatrix lrx rad sub lry rad
  sub translate rad rad scale 0 0 1 270 90 arc tMatrix setmatrix
  closepath} bdef
/FlrRR {MlrRR stroke } bdef
/PlrRR {MlrRR fill } bdef
/MtbRR {/lry xdef /lrx xdef /uly xdef /ulx xdef /rad lrx ulx sub 2 div def
  newpath tMatrix currentmatrix pop ulx rad add uly rad add translate
  rad rad scale 0 0 1 180 360 arc tMatrix setmatrix lrx rad sub lry rad
  sub translate rad rad scale 0 0 1 0 180 arc tMatrix setmatrix
  closepath} bdef
/FtbRR {MtbRR stroke } bdef
/PtbRR {MtbRR fill } bdef
/stri 6 array def /dtri 6 array def
/smat 6 array def /dmat 6 array def
/tmat1 6 array def /tmat2 6 array def /dif 3 array def
/asub {/ind2 exch def /ind1 exch def dup dup
  ind1 get exch ind2 get sub exch } bdef
/tri_to_matrix {
  2 0 asub 3 1 asub 4 0 asub 5 1 asub
  dup 0 get exch 1 get 7 -1 roll astore } bdef
/compute_transform {
  dmat dtri tri_to_matrix tmat1 invertmatrix 
  smat stri tri_to_matrix tmat2 concatmatrix } bdef
/ds {stri astore pop} bdef
/dt {dtri astore pop} bdef
/db {2 copy /cols xdef /rows xdef mul dup 3 mul string
  currentfile 
  3 index 0 eq {/ASCIIHexDecode filter}
  {/ASCII85Decode filter 3 index 2 eq {/RunLengthDecode filter} if }
  ifelse exch readstring pop
  dup 0 3 index getinterval /rbmap xdef
  dup 2 index dup getinterval /gbmap xdef
  1 index dup 2 mul exch getinterval /bbmap xdef pop pop}bdef
/it {gs np dtri aload pop moveto lineto lineto cp c
  cols rows 8 compute_transform 
  rbmap gbmap bbmap true 3 colorimage gr}bdef
/il {newpath moveto lineto stroke}bdef
currentdict end def
%%EndProlog

%%BeginSetup
MathWorks begin

0 cap

end
%%EndSetup

%%Page: 1 1
%%BeginPageSetup
%%PageBoundingBox:    78    41   532   750
MathWorks begin
bpage
%%EndPageSetup

%%BeginObject: obj1
bplot

/dpi2point 12 def
portraitMode 0936 9000 csm

    0     0  5453  8505 rc
87 dict begin %Colortable dictionary
/c0 { 0.000000 0.000000 0.000000 sr} bdef
/c1 { 1.000000 1.000000 1.000000 sr} bdef
/c2 { 0.900000 0.000000 0.000000 sr} bdef
/c3 { 0.000000 0.820000 0.000000 sr} bdef
/c4 { 0.000000 0.000000 0.800000 sr} bdef
/c5 { 0.910000 0.820000 0.320000 sr} bdef
/c6 { 1.000000 0.260000 0.820000 sr} bdef
/c7 { 0.000000 0.820000 0.820000 sr} bdef
c0
1 j
1 sg
   0    0 5454 8506 rf
6 w
0 6932 4226 0 0 -6932 709 7569 4 MP
PP
-4226 0 0 6932 4226 0 0 -6932 709 7569 5 MP stroke
4 w
DO
0 sg
 709 7569 mt  709  638 L
 709  638 mt  709  638 L
1237 7569 mt 1237  638 L
1237  638 mt 1237  638 L
1765 7569 mt 1765  638 L
1765  638 mt 1765  638 L
2293 7569 mt 2293  638 L
2293  638 mt 2293  638 L
2822 7569 mt 2822  638 L
2822  638 mt 2822  638 L
3350 7569 mt 3350  638 L
3350  638 mt 3350  638 L
3878 7569 mt 3878  638 L
3878  638 mt 3878  638 L
4406 7569 mt 4406  638 L
4406  638 mt 4406  638 L
4935 7569 mt 4935  638 L
4935  638 mt 4935  638 L
 709 7569 mt 4935 7569 L
4935 7569 mt 4935 7569 L
 709 6578 mt 4935 6578 L
4935 6578 mt 4935 6578 L
 709 5588 mt 4935 5588 L
4935 5588 mt 4935 5588 L
 709 4598 mt 4935 4598 L
4935 4598 mt 4935 4598 L
 709 3608 mt 4935 3608 L
4935 3608 mt 4935 3608 L
 709 2618 mt 4935 2618 L
4935 2618 mt 4935 2618 L
 709 1628 mt 4935 1628 L
4935 1628 mt 4935 1628 L
 709  638 mt 4935  638 L
4935  638 mt 4935  638 L
SO
6 w
 709 7569 mt 4935 7569 L
 709  637 mt 4935  637 L
 709 7569 mt  709  637 L
4935 7569 mt 4935  637 L
 709 7569 mt 4935 7569 L
 709 7569 mt  709  637 L
 709 7569 mt  709 7499 L
 709  638 mt  709  707 L
%%IncludeResource: font Helvetica
/Helvetica /ISOLatin1Encoding 120 FMSR

 676 7714 mt 
(0) s
1237 7569 mt 1237 7499 L
1237  638 mt 1237  707 L
1204 7714 mt 
(2) s
1765 7569 mt 1765 7499 L
1765  638 mt 1765  707 L
1732 7714 mt 
(4) s
2293 7569 mt 2293 7499 L
2293  638 mt 2293  707 L
2260 7714 mt 
(6) s
2822 7569 mt 2822 7499 L
2822  638 mt 2822  707 L
2789 7714 mt 
(8) s
3350 7569 mt 3350 7499 L
3350  638 mt 3350  707 L
3284 7714 mt 
(10) s
3878 7569 mt 3878 7499 L
3878  638 mt 3878  707 L
3812 7714 mt 
(12) s
4406 7569 mt 4406 7499 L
4406  638 mt 4406  707 L
4340 7714 mt 
(14) s
4935 7569 mt 4935 7499 L
4935  638 mt 4935  707 L
4869 7714 mt 
(16) s
 709 7569 mt  778 7569 L
4935 7569 mt 4865 7569 L
 608 7613 mt 
(0) s
 709 6578 mt  778 6578 L
4935 6578 mt 4865 6578 L
 408 6622 mt 
(2000) s
 709 5588 mt  778 5588 L
4935 5588 mt 4865 5588 L
 408 5632 mt 
(4000) s
 709 4598 mt  778 4598 L
4935 4598 mt 4865 4598 L
 408 4642 mt 
(6000) s
 709 3608 mt  778 3608 L
4935 3608 mt 4865 3608 L
 408 3652 mt 
(8000) s
 709 2618 mt  778 2618 L
4935 2618 mt 4865 2618 L
 341 2662 mt 
(10000) s
 709 1628 mt  778 1628 L
4935 1628 mt 4865 1628 L
 341 1672 mt 
(12000) s
 709  638 mt  778  638 L
4935  638 mt 4865  638 L
 341  682 mt 
(14000) s
 709 7569 mt 4935 7569 L
 709  637 mt 4935  637 L
 709 7569 mt  709  637 L
4935 7569 mt 4935  637 L
%%IncludeResource: font Helvetica
/Helvetica /ISOLatin1Encoding 96 FMSR

1121  549 mt 
(n) s
%%IncludeResource: font Helvetica
/Helvetica /ISOLatin1Encoding 120 FMSR

1174  489 mt 
(S) s
%%IncludeResource: font Helvetica
/Helvetica /ISOLatin1Encoding 96 FMSR

1254  549 mt 
(l) s
%%IncludeResource: font Helvetica
/Helvetica /ISOLatin1Encoding 120 FMSR

1275  489 mt 
( mode frequencies for spherical shell r) s
%%IncludeResource: font Helvetica
/Helvetica /ISOLatin1Encoding 96 FMSR

3300  549 mt 
(i) s
%%IncludeResource: font Helvetica
/Helvetica /ISOLatin1Encoding 120 FMSR

3321  489 mt 
(=0.051, r) s
%%IncludeResource: font Helvetica
/Helvetica /ISOLatin1Encoding 96 FMSR

3798  549 mt 
(o) s
%%IncludeResource: font Helvetica
/Helvetica /ISOLatin1Encoding 120 FMSR

3851  489 mt 
(=0.15, c=340) s
2205 7857 mt 
(mode angular number l) s
 259 4664 mt  -90 rotate
(mode frequency \(Hz\)) s
90 rotate
gs 709 638 4227 6932 rc
gr

  36   36  709 7569 PO
  36   36  973 7215 PO
  36   36 1237 6979 PO
  36   36 1501 6765 PO
  36   36 1765 6561 PO
  36   36 2029 6362 PO
  36   36 2293 6166 PO
  36   36 2557 5973 PO
  36   36 2822 5781 PO
  36   36 3086 5590 PO
  36   36 3350 5400 PO
  36   36 3614 5211 PO
  36   36 3878 5022 PO
  36   36 4142 4834 PO
  36   36 4406 4647 PO
  36   36 4670 4459 PO
  36   36 4935 4273 PO
  36   36  709 7569 FO
  36   36  973 7215 FO
  36   36 1237 6979 FO
  36   36 1501 6765 FO
  36   36 1765 6561 FO
  36   36 2029 6362 FO
  36   36 2293 6166 FO
  36   36 2557 5973 FO
  36   36 2822 5781 FO
  36   36 3086 5590 FO
  36   36 3350 5400 FO
  36   36 3614 5211 FO
  36   36 3878 5022 FO
  36   36 4142 4834 FO
  36   36 4406 4647 FO
  36   36 4670 4459 FO
  36   36 4935 4273 FO
gs 709 638 4227 6932 rc
gr

/c8 { 0.000000 0.000000 1.000000 sr} bdef
c8
 684 6606 mt  734 6656 L
 734 6606 mt  684 6656 L
 948 6488 mt  998 6538 L
 998 6488 mt  948 6538 L
1212 6288 mt 1262 6338 L
1262 6288 mt 1212 6338 L
1476 6049 mt 1526 6099 L
1526 6049 mt 1476 6099 L
1740 5808 mt 1790 5858 L
1790 5808 mt 1740 5858 L
2004 5576 mt 2054 5626 L
2054 5576 mt 2004 5626 L
2268 5354 mt 2318 5404 L
2318 5354 mt 2268 5404 L
2532 5139 mt 2582 5189 L
2582 5139 mt 2532 5189 L
2797 4927 mt 2847 4977 L
2847 4927 mt 2797 4977 L
3061 4718 mt 3111 4768 L
3111 4718 mt 3061 4768 L
3325 4511 mt 3375 4561 L
3375 4511 mt 3325 4561 L
3589 4306 mt 3639 4356 L
3639 4306 mt 3589 4356 L
3853 4102 mt 3903 4152 L
3903 4102 mt 3853 4152 L
4117 3899 mt 4167 3949 L
4167 3899 mt 4117 3949 L
4381 3697 mt 4431 3747 L
4431 3697 mt 4381 3747 L
4645 3496 mt 4695 3546 L
4695 3496 mt 4645 3546 L
4910 3296 mt 4960 3346 L
4960 3296 mt 4910 3346 L
gs 709 638 4227 6932 rc
gr

/c9 { 1.000000 0.000000 0.000000 sr} bdef
c9
 673 5817 mt  745 5817 L
 709 5781 mt  709 5853 L
 937 5757 mt 1009 5757 L
 973 5721 mt  973 5793 L
1201 5640 mt 1273 5640 L
1237 5604 mt 1237 5676 L
1465 5469 mt 1537 5469 L
1501 5433 mt 1501 5505 L
1729 5254 mt 1801 5254 L
1765 5218 mt 1765 5290 L
1993 5013 mt 2065 5013 L
2029 4977 mt 2029 5049 L
2257 4767 mt 2329 4767 L
2293 4731 mt 2293 4803 L
2521 4528 mt 2593 4528 L
2557 4492 mt 2557 4564 L
2786 4297 mt 2858 4297 L
2822 4261 mt 2822 4333 L
3050 4074 mt 3122 4074 L
3086 4038 mt 3086 4110 L
3314 3856 mt 3386 3856 L
3350 3820 mt 3350 3892 L
3578 3640 mt 3650 3640 L
3614 3604 mt 3614 3676 L
3842 3426 mt 3914 3426 L
3878 3390 mt 3878 3462 L
4106 3214 mt 4178 3214 L
4142 3178 mt 4142 3250 L
4370 3003 mt 4442 3003 L
4406 2967 mt 4406 3039 L
4634 2794 mt 4706 2794 L
4670 2758 mt 4670 2830 L
4899 2585 mt 4971 2585 L
4935 2549 mt 4935 2621 L
gs 709 638 4227 6932 rc
gr

0 j
41 71 -82 0 41 -71 709 5030 4 MP
/c10 { 1.000000 0.000000 1.000000 sr} bdef
c10
gs
PP
gr
DP
41 71 -82 0 41 -71 973 4991 4 MP
gs
PP
gr
DP
41 71 -82 0 41 -71 1237 4914 4 MP
gs
PP
gr
DP
41 71 -82 0 41 -71 1501 4800 4 MP
gs
PP
gr
DP
41 71 -82 0 41 -71 1765 4649 4 MP
gs
PP
gr
DP
41 71 -82 0 41 -71 2029 4462 4 MP
gs
PP
gr
DP
41 71 -82 0 41 -71 2293 4243 4 MP
gs
PP
gr
DP
41 71 -82 0 41 -71 2557 4002 4 MP
gs
PP
gr
DP
41 71 -82 0 41 -71 2822 3754 4 MP
gs
PP
gr
DP
41 71 -82 0 41 -71 3086 3511 4 MP
gs
PP
gr
DP
41 71 -82 0 41 -71 3350 3276 4 MP
gs
PP
gr
DP
41 71 -82 0 41 -71 3614 3048 4 MP
gs
PP
gr
DP
41 71 -82 0 41 -71 3878 2825 4 MP
gs
PP
gr
DP
41 71 -82 0 41 -71 4142 2605 4 MP
gs
PP
gr
DP
41 71 -82 0 41 -71 4406 2387 4 MP
gs
PP
gr
DP
41 71 -82 0 41 -71 4670 2171 4 MP
gs
PP
gr
DP
41 71 -82 0 41 -71 4935 1956 4 MP
gs
PP
gr
DP
gs 709 638 4227 6932 rc
gr

0 -58 -58 0 0 58 58 0 680 4112 5 MP
/c11 { 0.000000 1.000000 0.000000 sr} bdef
c11
gs
PP
gr
DP
0 -58 -58 0 0 58 58 0 944 4084 5 MP
gs
PP
gr
DP
0 -58 -58 0 0 58 58 0 1208 4027 5 MP
gs
PP
gr
DP
0 -58 -58 0 0 58 58 0 1472 3943 5 MP
gs
PP
gr
DP
0 -58 -58 0 0 58 58 0 1736 3831 5 MP
gs
PP
gr
DP
0 -58 -58 0 0 58 58 0 2000 3691 5 MP
gs
PP
gr
DP
0 -58 -58 0 0 58 58 0 2264 3524 5 MP
gs
PP
gr
DP
0 -58 -58 0 0 58 58 0 2528 3329 5 MP
gs
PP
gr
DP
0 -58 -58 0 0 58 58 0 2793 3108 5 MP
gs
PP
gr
DP
0 -58 -58 0 0 58 58 0 3057 2867 5 MP
gs
PP
gr
DP
0 -58 -58 0 0 58 58 0 3321 2619 5 MP
gs
PP
gr
DP
0 -58 -58 0 0 58 58 0 3585 2374 5 MP
gs
PP
gr
DP
0 -58 -58 0 0 58 58 0 3849 2136 5 MP
gs
PP
gr
DP
0 -58 -58 0 0 58 58 0 4113 1904 5 MP
gs
PP
gr
DP
0 -58 -58 0 0 58 58 0 4377 1678 5 MP
gs
PP
gr
DP
0 -58 -58 0 0 58 58 0 4641 1455 5 MP
gs
PP
gr
DP
0 -58 -58 0 0 58 58 0 4906 1234 5 MP
gs
PP
gr
DP
gs 709 638 4227 6932 rc
gr

-21 -16 8 -25 -22 15 -21 -15 8 25 -21 16 26 0 8 24 
9 -24 26 0 674 3284 11 MP
0 sg
gs
PP
gr
DP
-21 -16 8 -25 -22 15 -21 -15 8 25 -21 16 26 0 8 24 
9 -24 26 0 938 3262 11 MP
gs
PP
gr
DP
-21 -16 8 -25 -22 15 -21 -15 8 25 -21 16 26 0 8 24 
9 -24 26 0 1202 3217 11 MP
gs
PP
gr
DP
-21 -16 8 -25 -22 15 -21 -15 8 25 -21 16 26 0 8 24 
9 -24 26 0 1466 3150 11 MP
gs
PP
gr
DP
-21 -16 8 -25 -22 15 -21 -15 8 25 -21 16 26 0 8 24 
9 -24 26 0 1730 3061 11 MP
gs
PP
gr
DP
-21 -16 8 -25 -22 15 -21 -15 8 25 -21 16 26 0 8 24 
9 -24 26 0 1994 2950 11 MP
gs
PP
gr
DP
-21 -16 8 -25 -22 15 -21 -15 8 25 -21 16 26 0 8 24 
9 -24 26 0 2258 2818 11 MP
gs
PP
gr
DP
-21 -16 8 -25 -22 15 -21 -15 8 25 -21 16 26 0 8 24 
9 -24 26 0 2522 2664 11 MP
gs
PP
gr
DP
-21 -16 8 -25 -22 15 -21 -15 8 25 -21 16 26 0 8 24 
9 -24 26 0 2787 2488 11 MP
gs
PP
gr
DP
-21 -16 8 -25 -22 15 -21 -15 8 25 -21 16 26 0 8 24 
9 -24 26 0 3051 2287 11 MP
gs
PP
gr
DP
-21 -16 8 -25 -22 15 -21 -15 8 25 -21 16 26 0 8 24 
9 -24 26 0 3315 2065 11 MP
gs
PP
gr
DP
-21 -16 8 -25 -22 15 -21 -15 8 25 -21 16 26 0 8 24 
9 -24 26 0 3579 1825 11 MP
gs
PP
gr
DP
-21 -16 8 -25 -22 15 -21 -15 8 25 -21 16 26 0 8 24 
9 -24 26 0 3843 1578 11 MP
gs
PP
gr
DP
-21 -16 8 -25 -22 15 -21 -15 8 25 -21 16 26 0 8 24 
9 -24 26 0 4107 1331 11 MP
gs
PP
gr
DP
-21 -16 8 -25 -22 15 -21 -15 8 25 -21 16 26 0 8 24 
9 -24 26 0 4371 1090 11 MP
gs
PP
gr
DP
-21 -16 8 -25 -22 15 -21 -15 8 25 -21 16 26 0 8 24 
9 -24 26 0 4635 856 11 MP
gs
PP
gr
DP
-21 -16 8 -25 -22 15 -21 -15 8 25 -21 16 26 0 8 24 
9 -24 26 0 4900 627 11 MP
gs
PP
gr
DP
gs 709 638 4227 6932 rc
gr

 692 7612 mt 
( ) s
4919  680 mt 
( ) s
1 sg
0 1230 725 0 0 -1230 809 1943 4 MP
PP
-725 0 0 1230 725 0 0 -1230 809 1943 5 MP stroke
4 w
DO
SO
6 w
0 sg
 809 1943 mt 1534 1943 L
 809  713 mt 1534  713 L
 809 1943 mt  809  713 L
1534 1943 mt 1534  713 L
 809 1943 mt 1534 1943 L
 809 1943 mt  809  713 L
 809 1943 mt 1534 1943 L
 809  713 mt 1534  713 L
 809 1943 mt  809  713 L
1534 1943 mt 1534  713 L
1278  875 mt 
(n=0) s
gs 809 713 726 1231 rc
gr

  36   36 1061  833 PO
  36   36 1061  833 FO
gs 809 713 726 1231 rc
gr

1278 1073 mt 
(1) s
gs 809 713 726 1231 rc
gr

c8
1036 1006 mt 1086 1056 L
1086 1006 mt 1036 1056 L
gs 809 713 726 1231 rc
gr

0 sg
1278 1271 mt 
(2) s
gs 809 713 726 1231 rc
gr

c9
1025 1229 mt 1097 1229 L
1061 1193 mt 1061 1265 L
gs 809 713 726 1231 rc
gr

0 sg
1278 1470 mt 
(3) s
gs 809 713 726 1231 rc
gr

41 71 -82 0 41 -71 1061 1474 4 MP
c10
gs
PP
gr
DP
gs 809 713 726 1231 rc
gr

0 sg
1278 1668 mt 
(4) s
gs 809 713 726 1231 rc
gr

0 -58 -58 0 0 58 58 0 1032 1596 5 MP
c11
gs
PP
gr
DP
gs 809 713 726 1231 rc
gr

0 sg
1278 1866 mt 
(5) s
gs 809 713 726 1231 rc
gr

-21 -16 8 -25 -22 15 -21 -15 8 25 -21 16 26 0 8 24 
9 -24 26 0 1026 1811 11 MP
gs
PP
gr
DP
gs 809 713 726 1231 rc
gr


end %%Color Dict

eplot
%%EndObject

epage
end

showpage

%%Trailer
%%EOF
