%!PS-Adobe-3.0 EPSF-3.0
%%Creator: MATLAB, The MathWorks, Inc. Version 7.14.0.739 (R2012a). Operating System: Linux 2.6.32-279.2.1.el6.x86_64 #1 SMP Fri Jul 20 01:55:29 UTC 2012 x86_64.
%%Title: /lgit/data-geodynamo/natafh/Dynamo/Acoustics/elastic_shell/Figures/30cmd.eps
%%CreationDate: 01/24/2014  07:47:45
%%DocumentNeededFonts: Helvetica
%%DocumentProcessColors: Cyan Magenta Yellow Black
%%LanguageLevel: 2
%%Pages: 1
%%BoundingBox:    90   140   521   652
%%EndComments

%%BeginProlog
% MathWorks dictionary
/MathWorks 160 dict begin
% definition operators
/bdef {bind def} bind def
/ldef {load def} bind def
/xdef {exch def} bdef
/xstore {exch store} bdef
% operator abbreviations
/c  /clip ldef
/cc /concat ldef
/cp /closepath ldef
/gr /grestore ldef
/gs /gsave ldef
/mt /moveto ldef
/np /newpath ldef
/cm /currentmatrix ldef
/sm /setmatrix ldef
/rm /rmoveto ldef
/rl /rlineto ldef
/s {show newpath} bdef
/sc {setcmykcolor} bdef
/sr /setrgbcolor ldef
/sg /setgray ldef
/w /setlinewidth ldef
/j /setlinejoin ldef
/cap /setlinecap ldef
/rc {rectclip} bdef
/rf {rectfill} bdef
% page state control
/pgsv () def
/bpage {/pgsv save def} bdef
/epage {pgsv restore} bdef
/bplot /gsave ldef
/eplot {stroke grestore} bdef
% orientation switch
/portraitMode 0 def /landscapeMode 1 def /rotateMode 2 def
% coordinate system mappings
/dpi2point 0 def
% font control
/FontSize 0 def
/FMS {/FontSize xstore findfont [FontSize 0 0 FontSize neg 0 0]
  makefont setfont} bdef
/reencode {exch dup where {pop load} {pop StandardEncoding} ifelse
  exch dup 3 1 roll findfont dup length dict begin
  { 1 index /FID ne {def}{pop pop} ifelse } forall
  /Encoding exch def currentdict end definefont pop} bdef
/isroman {findfont /CharStrings get /Agrave known} bdef
/FMSR {3 1 roll 1 index dup isroman {reencode} {pop pop} ifelse
  exch FMS} bdef
/csm {1 dpi2point div -1 dpi2point div scale neg translate
 dup landscapeMode eq {pop -90 rotate}
  {rotateMode eq {90 rotate} if} ifelse} bdef
% line types: solid, dotted, dashed, dotdash
/SO { [] 0 setdash } bdef
/DO { [.5 dpi2point mul 4 dpi2point mul] 0 setdash } bdef
/DA { [6 dpi2point mul] 0 setdash } bdef
/DD { [.5 dpi2point mul 4 dpi2point mul 6 dpi2point mul 4
  dpi2point mul] 0 setdash } bdef
% macros for lines and objects
/L {lineto stroke} bdef
/MP {3 1 roll moveto 1 sub {rlineto} repeat} bdef
/AP {{rlineto} repeat} bdef
/PDlw -1 def
/W {/PDlw currentlinewidth def setlinewidth} def
/PP {closepath eofill} bdef
/DP {closepath stroke} bdef
/MR {4 -2 roll moveto dup  0 exch rlineto exch 0 rlineto
  neg 0 exch rlineto closepath} bdef
/FR {MR stroke} bdef
/PR {MR fill} bdef
/L1i {{currentfile picstr readhexstring pop} image} bdef
/tMatrix matrix def
/MakeOval {newpath tMatrix currentmatrix pop translate scale
0 0 1 0 360 arc tMatrix setmatrix} bdef
/FO {MakeOval stroke} bdef
/PO {MakeOval fill} bdef
/PD {currentlinewidth 2 div 0 360 arc fill
   PDlw -1 eq not {PDlw w /PDlw -1 def} if} def
/FA {newpath tMatrix currentmatrix pop translate scale
  0 0 1 5 -2 roll arc tMatrix setmatrix stroke} bdef
/PA {newpath tMatrix currentmatrix pop	translate 0 0 moveto scale
  0 0 1 5 -2 roll arc closepath tMatrix setmatrix fill} bdef
/FAn {newpath tMatrix currentmatrix pop translate scale
  0 0 1 5 -2 roll arcn tMatrix setmatrix stroke} bdef
/PAn {newpath tMatrix currentmatrix pop translate 0 0 moveto scale
  0 0 1 5 -2 roll arcn closepath tMatrix setmatrix fill} bdef
/vradius 0 def /hradius 0 def /lry 0 def
/lrx 0 def /uly 0 def /ulx 0 def /rad 0 def
/MRR {/vradius xdef /hradius xdef /lry xdef /lrx xdef /uly xdef
  /ulx xdef newpath tMatrix currentmatrix pop ulx hradius add uly
  vradius add translate hradius vradius scale 0 0 1 180 270 arc 
  tMatrix setmatrix lrx hradius sub uly vradius add translate
  hradius vradius scale 0 0 1 270 360 arc tMatrix setmatrix
  lrx hradius sub lry vradius sub translate hradius vradius scale
  0 0 1 0 90 arc tMatrix setmatrix ulx hradius add lry vradius sub
  translate hradius vradius scale 0 0 1 90 180 arc tMatrix setmatrix
  closepath} bdef
/FRR {MRR stroke } bdef
/PRR {MRR fill } bdef
/MlrRR {/lry xdef /lrx xdef /uly xdef /ulx xdef /rad lry uly sub 2 div def
  newpath tMatrix currentmatrix pop ulx rad add uly rad add translate
  rad rad scale 0 0 1 90 270 arc tMatrix setmatrix lrx rad sub lry rad
  sub translate rad rad scale 0 0 1 270 90 arc tMatrix setmatrix
  closepath} bdef
/FlrRR {MlrRR stroke } bdef
/PlrRR {MlrRR fill } bdef
/MtbRR {/lry xdef /lrx xdef /uly xdef /ulx xdef /rad lrx ulx sub 2 div def
  newpath tMatrix currentmatrix pop ulx rad add uly rad add translate
  rad rad scale 0 0 1 180 360 arc tMatrix setmatrix lrx rad sub lry rad
  sub translate rad rad scale 0 0 1 0 180 arc tMatrix setmatrix
  closepath} bdef
/FtbRR {MtbRR stroke } bdef
/PtbRR {MtbRR fill } bdef
/stri 6 array def /dtri 6 array def
/smat 6 array def /dmat 6 array def
/tmat1 6 array def /tmat2 6 array def /dif 3 array def
/asub {/ind2 exch def /ind1 exch def dup dup
  ind1 get exch ind2 get sub exch } bdef
/tri_to_matrix {
  2 0 asub 3 1 asub 4 0 asub 5 1 asub
  dup 0 get exch 1 get 7 -1 roll astore } bdef
/compute_transform {
  dmat dtri tri_to_matrix tmat1 invertmatrix 
  smat stri tri_to_matrix tmat2 concatmatrix } bdef
/ds {stri astore pop} bdef
/dt {dtri astore pop} bdef
/db {2 copy /cols xdef /rows xdef mul dup 3 mul string
  currentfile 
  3 index 0 eq {/ASCIIHexDecode filter}
  {/ASCII85Decode filter 3 index 2 eq {/RunLengthDecode filter} if }
  ifelse exch readstring pop
  dup 0 3 index getinterval /rbmap xdef
  dup 2 index dup getinterval /gbmap xdef
  1 index dup 2 mul exch getinterval /bbmap xdef pop pop}bdef
/it {gs np dtri aload pop moveto lineto lineto cp c
  cols rows 8 compute_transform 
  rbmap gbmap bbmap true 3 colorimage gr}bdef
/il {newpath moveto lineto stroke}bdef
currentdict end def
%%EndProlog

%%BeginSetup
MathWorks begin

0 cap

end
%%EndSetup

%%Page: 1 1
%%BeginPageSetup
%%PageBoundingBox:    90   140   521   652
MathWorks begin
bpage
%%EndPageSetup

%%BeginObject: obj1
bplot

/dpi2point 12 def
portraitMode 1080 7824 csm

    0     0  5175  6135 rc
87 dict begin %Colortable dictionary
/c0 { 0.000000 0.000000 0.000000 sr} bdef
/c1 { 1.000000 1.000000 1.000000 sr} bdef
/c2 { 0.900000 0.000000 0.000000 sr} bdef
/c3 { 0.000000 0.820000 0.000000 sr} bdef
/c4 { 0.000000 0.000000 0.800000 sr} bdef
/c5 { 0.910000 0.820000 0.320000 sr} bdef
/c6 { 1.000000 0.260000 0.820000 sr} bdef
/c7 { 0.000000 0.820000 0.820000 sr} bdef
c0
1 j
1 sg
   0    0 5176 6136 rf
6 w
0 5000 4010 0 0 -5000 673 5460 4 MP
PP
-4010 0 0 5000 4010 0 0 -5000 673 5460 5 MP stroke
4 w
DO
0 sg
 673 5460 mt  673  460 L
 673  460 mt  673  460 L
2009 5460 mt 2009  460 L
2009  460 mt 2009  460 L
3346 5460 mt 3346  460 L
3346  460 mt 3346  460 L
4683 5460 mt 4683  460 L
4683  460 mt 4683  460 L
 673 5460 mt 4683 5460 L
4683 5460 mt 4683 5460 L
 673 4745 mt 4683 4745 L
4683 4745 mt 4683 4745 L
 673 4031 mt 4683 4031 L
4683 4031 mt 4683 4031 L
 673 3317 mt 4683 3317 L
4683 3317 mt 4683 3317 L
 673 2602 mt 4683 2602 L
4683 2602 mt 4683 2602 L
 673 1888 mt 4683 1888 L
4683 1888 mt 4683 1888 L
 673 1174 mt 4683 1174 L
4683 1174 mt 4683 1174 L
 673  460 mt 4683  460 L
4683  460 mt 4683  460 L
SO
6 w
 673 5460 mt 4683 5460 L
 673  460 mt 4683  460 L
 673 5460 mt  673  460 L
4683 5460 mt 4683  460 L
 673 5460 mt 4683 5460 L
 673 5460 mt  673  460 L
 673 5460 mt  673 5410 L
 673  460 mt  673  510 L
%%IncludeResource: font Helvetica
/Helvetica /ISOLatin1Encoding 120 FMSR

 640 5605 mt 
(0) s
2009 5460 mt 2009 5410 L
2009  460 mt 2009  510 L
1976 5605 mt 
(5) s
3346 5460 mt 3346 5410 L
3346  460 mt 3346  510 L
3280 5605 mt 
(10) s
4683 5460 mt 4683 5410 L
4683  460 mt 4683  510 L
4617 5605 mt 
(15) s
 673 5460 mt  723 5460 L
4683 5460 mt 4633 5460 L
 572 5504 mt 
(0) s
 673 4745 mt  723 4745 L
4683 4745 mt 4633 4745 L
 372 4789 mt 
(2000) s
 673 4031 mt  723 4031 L
4683 4031 mt 4633 4031 L
 372 4075 mt 
(4000) s
 673 3317 mt  723 3317 L
4683 3317 mt 4633 3317 L
 372 3361 mt 
(6000) s
 673 2602 mt  723 2602 L
4683 2602 mt 4633 2602 L
 372 2646 mt 
(8000) s
 673 1888 mt  723 1888 L
4683 1888 mt 4633 1888 L
 305 1932 mt 
(10000) s
 673 1174 mt  723 1174 L
4683 1174 mt 4633 1174 L
 305 1218 mt 
(12000) s
 673  460 mt  723  460 L
4683  460 mt 4633  460 L
 305  504 mt 
(14000) s
 673 5460 mt 4683 5460 L
 673  460 mt 4683  460 L
 673 5460 mt  673  460 L
4683 5460 mt 4683  460 L
%%IncludeResource: font Helvetica
/Helvetica /ISOLatin1Encoding 96 FMSR

 876  371 mt 
(n) s
%%IncludeResource: font Helvetica
/Helvetica /ISOLatin1Encoding 120 FMSR

 929  311 mt 
(S) s
%%IncludeResource: font Helvetica
/Helvetica /ISOLatin1Encoding 96 FMSR

1009  371 mt 
(l) s
%%IncludeResource: font Helvetica
/Helvetica /ISOLatin1Encoding 120 FMSR

1030  311 mt 
( mode frequencies for elastic spherical shell 30cm r) s
%%IncludeResource: font Helvetica
/Helvetica /ISOLatin1Encoding 96 FMSR

3755  371 mt 
(o) s
%%IncludeResource: font Helvetica
/Helvetica /ISOLatin1Encoding 120 FMSR

3808  311 mt 
(=0.15, c=340) s
2061 5748 mt 
(mode angular number l) s
 223 3521 mt  -90 rotate
(mode frequency \(Hz\)) s
90 rotate
gs 673 460 4011 5001 rc
gr

  36   36  673 5460 PO
  36   36  940 5191 PO
  36   36 1207 5029 PO
  36   36 1475 4878 PO
  36   36 1742 4732 PO
  36   36 2009 4589 PO
  36   36 2277 4448 PO
  36   36 2544 4308 PO
  36   36 2811 4170 PO
  36   36 3079 4032 PO
  36   36 3346 3895 PO
  36   36 3613 3759 PO
  36   36 3881 3679 PO
  36   36 4148 3676 PO
  36   36 4415 3674 PO
  36   36 4683 3216 PO
  36   36  673 5460 FO
  36   36  940 5191 FO
  36   36 1207 5029 FO
  36   36 1475 4878 FO
  36   36 1742 4732 FO
  36   36 2009 4589 FO
  36   36 2277 4448 FO
  36   36 2544 4308 FO
  36   36 2811 4170 FO
  36   36 3079 4032 FO
  36   36 3346 3895 FO
  36   36 3613 3759 FO
  36   36 3881 3679 FO
  36   36 4148 3676 FO
  36   36 4415 3674 FO
  36   36 4683 3216 FO
gs 673 460 4011 5001 rc
gr

/c8 { 0.000000 0.000000 1.000000 sr} bdef
c8
 648 4856 mt  698 4906 L
 698 4856 mt  648 4906 L
 915 4669 mt  965 4719 L
 965 4669 mt  915 4719 L
1182 4495 mt 1232 4545 L
1232 4495 mt 1182 4545 L
1450 4329 mt 1500 4379 L
1500 4329 mt 1450 4379 L
1717 4167 mt 1767 4217 L
1767 4167 mt 1717 4217 L
1984 4008 mt 2034 4058 L
2034 4008 mt 1984 4058 L
2252 3853 mt 2302 3903 L
2302 3853 mt 2252 3903 L
2519 3683 mt 2569 3733 L
2569 3683 mt 2519 3733 L
2786 3674 mt 2836 3724 L
2836 3674 mt 2786 3724 L
3054 3666 mt 3104 3716 L
3104 3666 mt 3054 3716 L
3321 3660 mt 3371 3710 L
3371 3660 mt 3321 3710 L
3588 3099 mt 3638 3149 L
3638 3099 mt 3588 3149 L
3856 2952 mt 3906 3002 L
3906 2952 mt 3856 3002 L
4123 3461 mt 4173 3511 L
4173 3461 mt 4123 3511 L
4390 3326 mt 4440 3376 L
4440 3326 mt 4390 3376 L
4658 2515 mt 4708 2565 L
4708 2515 mt 4658 2565 L
gs 673 460 4011 5001 rc
gr

/c9 { 1.000000 0.000000 0.000000 sr} bdef
c9
 637 4464 mt  709 4464 L
 673 4428 mt  673 4500 L
 904 4273 mt  976 4273 L
 940 4237 mt  940 4309 L
1171 4138 mt 1243 4138 L
1207 4102 mt 1207 4174 L
1439 3918 mt 1511 3918 L
1475 3882 mt 1475 3954 L
1706 3800 mt 1778 3800 L
1742 3764 mt 1742 3836 L
1973 3580 mt 2045 3580 L
2009 3544 mt 2009 3616 L
2241 3726 mt 2313 3726 L
2277 3690 mt 2277 3762 L
2508 3254 mt 2580 3254 L
2544 3218 mt 2544 3290 L
2775 3094 mt 2847 3094 L
2811 3058 mt 2811 3130 L
3043 3421 mt 3115 3421 L
3079 3385 mt 3079 3457 L
3310 3272 mt 3382 3272 L
3346 3236 mt 3346 3308 L
3577 2625 mt 3649 2625 L
3613 2589 mt 3613 2661 L
3845 2471 mt 3917 2471 L
3881 2435 mt 3881 2507 L
4112 2830 mt 4184 2830 L
4148 2794 mt 4148 2866 L
4379 2685 mt 4451 2685 L
4415 2649 mt 4415 2721 L
4647 2015 mt 4719 2015 L
4683 1979 mt 4683 2051 L
gs 673 460 4011 5001 rc
gr

0 j
41 71 -82 0 41 -71 673 4102 4 MP
/c10 { 1.000000 0.000000 1.000000 sr} bdef
c10
gs
PP
gr
DP
41 71 -82 0 41 -71 940 3908 4 MP
gs
PP
gr
DP
41 71 -82 0 41 -71 1207 3723 4 MP
gs
PP
gr
DP
41 71 -82 0 41 -71 1475 3542 4 MP
gs
PP
gr
DP
41 71 -82 0 41 -71 1742 3367 4 MP
gs
PP
gr
DP
41 71 -82 0 41 -71 2009 3194 4 MP
gs
PP
gr
DP
41 71 -82 0 41 -71 2277 3463 4 MP
gs
PP
gr
DP
41 71 -82 0 41 -71 2544 2858 4 MP
gs
PP
gr
DP
41 71 -82 0 41 -71 2811 2693 4 MP
gs
PP
gr
DP
41 71 -82 0 41 -71 3079 2984 4 MP
gs
PP
gr
DP
41 71 -82 0 41 -71 3346 2827 4 MP
gs
PP
gr
DP
41 71 -82 0 41 -71 3613 2208 4 MP
gs
PP
gr
DP
41 71 -82 0 41 -71 3881 2049 4 MP
gs
PP
gr
DP
41 71 -82 0 41 -71 4148 2365 4 MP
gs
PP
gr
DP
41 71 -82 0 41 -71 4415 2213 4 MP
gs
PP
gr
DP
41 71 -82 0 41 -71 4683 1578 4 MP
gs
PP
gr
DP
gs 673 460 4011 5001 rc
gr

0 -58 -58 0 0 58 58 0 644 3618 5 MP
/c11 { 0.000000 1.000000 0.000000 sr} bdef
c11
gs
PP
gr
DP
0 -58 -58 0 0 58 58 0 911 3423 5 MP
gs
PP
gr
DP
0 -58 -58 0 0 58 58 0 1178 3235 5 MP
gs
PP
gr
DP
0 -58 -58 0 0 58 58 0 1446 3051 5 MP
gs
PP
gr
DP
0 -58 -58 0 0 58 58 0 1713 2871 5 MP
gs
PP
gr
DP
0 -58 -58 0 0 58 58 0 1980 2695 5 MP
gs
PP
gr
DP
0 -58 -58 0 0 58 58 0 2248 2949 5 MP
gs
PP
gr
DP
0 -58 -58 0 0 58 58 0 2515 2350 5 MP
gs
PP
gr
DP
0 -58 -58 0 0 58 58 0 2782 2181 5 MP
gs
PP
gr
DP
0 -58 -58 0 0 58 58 0 3050 2453 5 MP
gs
PP
gr
DP
0 -58 -58 0 0 58 58 0 3317 2292 5 MP
gs
PP
gr
DP
0 -58 -58 0 0 58 58 0 3584 1684 5 MP
gs
PP
gr
DP
0 -58 -58 0 0 58 58 0 3852 1522 5 MP
gs
PP
gr
DP
0 -58 -58 0 0 58 58 0 4119 1815 5 MP
gs
PP
gr
DP
0 -58 -58 0 0 58 58 0 4386 1658 5 MP
gs
PP
gr
DP
0 -58 -58 0 0 58 58 0 4654 1040 5 MP
gs
PP
gr
DP
gs 673 460 4011 5001 rc
gr

-21 -16 8 -25 -22 15 -21 -15 8 25 -21 16 26 0 8 24 
9 -24 26 0 638 3229 11 MP
0 sg
gs
PP
gr
DP
-21 -16 8 -25 -22 15 -21 -15 8 25 -21 16 26 0 8 24 
9 -24 26 0 905 3033 11 MP
gs
PP
gr
DP
-21 -16 8 -25 -22 15 -21 -15 8 25 -21 16 26 0 8 24 
9 -24 26 0 1172 2842 11 MP
gs
PP
gr
DP
-21 -16 8 -25 -22 15 -21 -15 8 25 -21 16 26 0 8 24 
9 -24 26 0 1440 2656 11 MP
gs
PP
gr
DP
-21 -16 8 -25 -22 15 -21 -15 8 25 -21 16 26 0 8 24 
9 -24 26 0 1707 2474 11 MP
gs
PP
gr
DP
-21 -16 8 -25 -22 15 -21 -15 8 25 -21 16 26 0 8 24 
9 -24 26 0 1974 2294 11 MP
gs
PP
gr
DP
-21 -16 8 -25 -22 15 -21 -15 8 25 -21 16 26 0 8 24 
9 -24 26 0 2242 2539 11 MP
gs
PP
gr
DP
-21 -16 8 -25 -22 15 -21 -15 8 25 -21 16 26 0 8 24 
9 -24 26 0 2509 1943 11 MP
gs
PP
gr
DP
-21 -16 8 -25 -22 15 -21 -15 8 25 -21 16 26 0 8 24 
9 -24 26 0 2776 1771 11 MP
gs
PP
gr
DP
-21 -16 8 -25 -22 15 -21 -15 8 25 -21 16 26 0 8 24 
9 -24 26 0 3044 2031 11 MP
gs
PP
gr
DP
-21 -16 8 -25 -22 15 -21 -15 8 25 -21 16 26 0 8 24 
9 -24 26 0 3311 1866 11 MP
gs
PP
gr
DP
-21 -16 8 -25 -22 15 -21 -15 8 25 -21 16 26 0 8 24 
9 -24 26 0 3578 1264 11 MP
gs
PP
gr
DP
-21 -16 8 -25 -22 15 -21 -15 8 25 -21 16 26 0 8 24 
9 -24 26 0 3846 1098 11 MP
gs
PP
gr
DP
-21 -16 8 -25 -22 15 -21 -15 8 25 -21 16 26 0 8 24 
9 -24 26 0 4113 1377 11 MP
gs
PP
gr
DP
-21 -16 8 -25 -22 15 -21 -15 8 25 -21 16 26 0 8 24 
9 -24 26 0 4380 1216 11 MP
gs
PP
gr
DP
-21 -16 8 -25 -22 15 -21 -15 8 25 -21 16 26 0 8 24 
9 -24 26 0 4648 607 11 MP
gs
PP
gr
DP
gs 673 460 4011 5001 rc
gr

 656 5503 mt 
( ) s
4667  502 mt 
( ) s
1 sg
0 1230 725 0 0 -1230 790 1789 4 MP
PP
-725 0 0 1230 725 0 0 -1230 790 1789 5 MP stroke
4 w
DO
SO
6 w
0 sg
 790 1789 mt 1515 1789 L
 790  559 mt 1515  559 L
 790 1789 mt  790  559 L
1515 1789 mt 1515  559 L
 790 1789 mt 1515 1789 L
 790 1789 mt  790  559 L
 790 1789 mt 1515 1789 L
 790  559 mt 1515  559 L
 790 1789 mt  790  559 L
1515 1789 mt 1515  559 L
1259  721 mt 
(n=0) s
gs 790 559 726 1231 rc
gr

  36   36 1042  679 PO
  36   36 1042  679 FO
gs 790 559 726 1231 rc
gr

1259  919 mt 
(1) s
gs 790 559 726 1231 rc
gr

c8
1017  852 mt 1067  902 L
1067  852 mt 1017  902 L
gs 790 559 726 1231 rc
gr

0 sg
1259 1117 mt 
(2) s
gs 790 559 726 1231 rc
gr

c9
1006 1075 mt 1078 1075 L
1042 1039 mt 1042 1111 L
gs 790 559 726 1231 rc
gr

0 sg
1259 1316 mt 
(3) s
gs 790 559 726 1231 rc
gr

41 71 -82 0 41 -71 1042 1320 4 MP
c10
gs
PP
gr
DP
gs 790 559 726 1231 rc
gr

0 sg
1259 1514 mt 
(4) s
gs 790 559 726 1231 rc
gr

0 -58 -58 0 0 58 58 0 1013 1441 5 MP
c11
gs
PP
gr
DP
gs 790 559 726 1231 rc
gr

0 sg
1259 1712 mt 
(5) s
gs 790 559 726 1231 rc
gr

-21 -16 8 -25 -22 15 -21 -15 8 25 -21 16 26 0 8 24 
9 -24 26 0 1007 1656 11 MP
gs
PP
gr
DP
gs 790 559 726 1231 rc
gr


end %%Color Dict

eplot
%%EndObject

epage
end

showpage

%%Trailer
%%EOF
