%!PS-Adobe-3.0 EPSF-3.0
%%Creator: MATLAB, The MathWorks, Inc. Version 7.14.0.739 (R2012a). Operating System: Linux 2.6.32-279.2.1.el6.x86_64 #1 SMP Fri Jul 20 01:55:29 UTC 2012 x86_64.
%%Title: /lgit/data-geodynamo/natafh/Dynamo/Acoustics/elastic_shell/BigSister.eps
%%CreationDate: 01/24/2014  07:45:05
%%DocumentNeededFonts: Helvetica
%%DocumentProcessColors: Cyan Magenta Yellow Black
%%LanguageLevel: 2
%%Pages: 1
%%BoundingBox:    90   131   521   660
%%EndComments

%%BeginProlog
% MathWorks dictionary
/MathWorks 160 dict begin
% definition operators
/bdef {bind def} bind def
/ldef {load def} bind def
/xdef {exch def} bdef
/xstore {exch store} bdef
% operator abbreviations
/c  /clip ldef
/cc /concat ldef
/cp /closepath ldef
/gr /grestore ldef
/gs /gsave ldef
/mt /moveto ldef
/np /newpath ldef
/cm /currentmatrix ldef
/sm /setmatrix ldef
/rm /rmoveto ldef
/rl /rlineto ldef
/s {show newpath} bdef
/sc {setcmykcolor} bdef
/sr /setrgbcolor ldef
/sg /setgray ldef
/w /setlinewidth ldef
/j /setlinejoin ldef
/cap /setlinecap ldef
/rc {rectclip} bdef
/rf {rectfill} bdef
% page state control
/pgsv () def
/bpage {/pgsv save def} bdef
/epage {pgsv restore} bdef
/bplot /gsave ldef
/eplot {stroke grestore} bdef
% orientation switch
/portraitMode 0 def /landscapeMode 1 def /rotateMode 2 def
% coordinate system mappings
/dpi2point 0 def
% font control
/FontSize 0 def
/FMS {/FontSize xstore findfont [FontSize 0 0 FontSize neg 0 0]
  makefont setfont} bdef
/reencode {exch dup where {pop load} {pop StandardEncoding} ifelse
  exch dup 3 1 roll findfont dup length dict begin
  { 1 index /FID ne {def}{pop pop} ifelse } forall
  /Encoding exch def currentdict end definefont pop} bdef
/isroman {findfont /CharStrings get /Agrave known} bdef
/FMSR {3 1 roll 1 index dup isroman {reencode} {pop pop} ifelse
  exch FMS} bdef
/csm {1 dpi2point div -1 dpi2point div scale neg translate
 dup landscapeMode eq {pop -90 rotate}
  {rotateMode eq {90 rotate} if} ifelse} bdef
% line types: solid, dotted, dashed, dotdash
/SO { [] 0 setdash } bdef
/DO { [.5 dpi2point mul 4 dpi2point mul] 0 setdash } bdef
/DA { [6 dpi2point mul] 0 setdash } bdef
/DD { [.5 dpi2point mul 4 dpi2point mul 6 dpi2point mul 4
  dpi2point mul] 0 setdash } bdef
% macros for lines and objects
/L {lineto stroke} bdef
/MP {3 1 roll moveto 1 sub {rlineto} repeat} bdef
/AP {{rlineto} repeat} bdef
/PDlw -1 def
/W {/PDlw currentlinewidth def setlinewidth} def
/PP {closepath eofill} bdef
/DP {closepath stroke} bdef
/MR {4 -2 roll moveto dup  0 exch rlineto exch 0 rlineto
  neg 0 exch rlineto closepath} bdef
/FR {MR stroke} bdef
/PR {MR fill} bdef
/L1i {{currentfile picstr readhexstring pop} image} bdef
/tMatrix matrix def
/MakeOval {newpath tMatrix currentmatrix pop translate scale
0 0 1 0 360 arc tMatrix setmatrix} bdef
/FO {MakeOval stroke} bdef
/PO {MakeOval fill} bdef
/PD {currentlinewidth 2 div 0 360 arc fill
   PDlw -1 eq not {PDlw w /PDlw -1 def} if} def
/FA {newpath tMatrix currentmatrix pop translate scale
  0 0 1 5 -2 roll arc tMatrix setmatrix stroke} bdef
/PA {newpath tMatrix currentmatrix pop	translate 0 0 moveto scale
  0 0 1 5 -2 roll arc closepath tMatrix setmatrix fill} bdef
/FAn {newpath tMatrix currentmatrix pop translate scale
  0 0 1 5 -2 roll arcn tMatrix setmatrix stroke} bdef
/PAn {newpath tMatrix currentmatrix pop translate 0 0 moveto scale
  0 0 1 5 -2 roll arcn closepath tMatrix setmatrix fill} bdef
/vradius 0 def /hradius 0 def /lry 0 def
/lrx 0 def /uly 0 def /ulx 0 def /rad 0 def
/MRR {/vradius xdef /hradius xdef /lry xdef /lrx xdef /uly xdef
  /ulx xdef newpath tMatrix currentmatrix pop ulx hradius add uly
  vradius add translate hradius vradius scale 0 0 1 180 270 arc 
  tMatrix setmatrix lrx hradius sub uly vradius add translate
  hradius vradius scale 0 0 1 270 360 arc tMatrix setmatrix
  lrx hradius sub lry vradius sub translate hradius vradius scale
  0 0 1 0 90 arc tMatrix setmatrix ulx hradius add lry vradius sub
  translate hradius vradius scale 0 0 1 90 180 arc tMatrix setmatrix
  closepath} bdef
/FRR {MRR stroke } bdef
/PRR {MRR fill } bdef
/MlrRR {/lry xdef /lrx xdef /uly xdef /ulx xdef /rad lry uly sub 2 div def
  newpath tMatrix currentmatrix pop ulx rad add uly rad add translate
  rad rad scale 0 0 1 90 270 arc tMatrix setmatrix lrx rad sub lry rad
  sub translate rad rad scale 0 0 1 270 90 arc tMatrix setmatrix
  closepath} bdef
/FlrRR {MlrRR stroke } bdef
/PlrRR {MlrRR fill } bdef
/MtbRR {/lry xdef /lrx xdef /uly xdef /ulx xdef /rad lrx ulx sub 2 div def
  newpath tMatrix currentmatrix pop ulx rad add uly rad add translate
  rad rad scale 0 0 1 180 360 arc tMatrix setmatrix lrx rad sub lry rad
  sub translate rad rad scale 0 0 1 0 180 arc tMatrix setmatrix
  closepath} bdef
/FtbRR {MtbRR stroke } bdef
/PtbRR {MtbRR fill } bdef
/stri 6 array def /dtri 6 array def
/smat 6 array def /dmat 6 array def
/tmat1 6 array def /tmat2 6 array def /dif 3 array def
/asub {/ind2 exch def /ind1 exch def dup dup
  ind1 get exch ind2 get sub exch } bdef
/tri_to_matrix {
  2 0 asub 3 1 asub 4 0 asub 5 1 asub
  dup 0 get exch 1 get 7 -1 roll astore } bdef
/compute_transform {
  dmat dtri tri_to_matrix tmat1 invertmatrix 
  smat stri tri_to_matrix tmat2 concatmatrix } bdef
/ds {stri astore pop} bdef
/dt {dtri astore pop} bdef
/db {2 copy /cols xdef /rows xdef mul dup 3 mul string
  currentfile 
  3 index 0 eq {/ASCIIHexDecode filter}
  {/ASCII85Decode filter 3 index 2 eq {/RunLengthDecode filter} if }
  ifelse exch readstring pop
  dup 0 3 index getinterval /rbmap xdef
  dup 2 index dup getinterval /gbmap xdef
  1 index dup 2 mul exch getinterval /bbmap xdef pop pop}bdef
/it {gs np dtri aload pop moveto lineto lineto cp c
  cols rows 8 compute_transform 
  rbmap gbmap bbmap true 3 colorimage gr}bdef
/il {newpath moveto lineto stroke}bdef
currentdict end def
%%EndProlog

%%BeginSetup
MathWorks begin

0 cap

end
%%EndSetup

%%Page: 1 1
%%BeginPageSetup
%%PageBoundingBox:    90   131   521   660
MathWorks begin
bpage
%%EndPageSetup

%%BeginObject: obj1
bplot

/dpi2point 12 def
portraitMode 1080 7920 csm

    0     0  5175  6345 rc
87 dict begin %Colortable dictionary
/c0 { 0.000000 0.000000 0.000000 sr} bdef
/c1 { 1.000000 1.000000 1.000000 sr} bdef
/c2 { 0.900000 0.000000 0.000000 sr} bdef
/c3 { 0.000000 0.820000 0.000000 sr} bdef
/c4 { 0.000000 0.000000 0.800000 sr} bdef
/c5 { 0.910000 0.820000 0.320000 sr} bdef
/c6 { 1.000000 0.260000 0.820000 sr} bdef
/c7 { 0.000000 0.820000 0.820000 sr} bdef
c0
1 j
1 sg
   0    0 5176 6346 rf
6 w
0 5171 4010 0 0 -5171 673 5647 4 MP
PP
-4010 0 0 5171 4010 0 0 -5171 673 5647 5 MP stroke
4 w
DO
0 sg
 673 5647 mt  673  476 L
 673  476 mt  673  476 L
2009 5647 mt 2009  476 L
2009  476 mt 2009  476 L
3346 5647 mt 3346  476 L
3346  476 mt 3346  476 L
4683 5647 mt 4683  476 L
4683  476 mt 4683  476 L
 673 5647 mt 4683 5647 L
4683 5647 mt 4683 5647 L
 673 4785 mt 4683 4785 L
4683 4785 mt 4683 4785 L
 673 3923 mt 4683 3923 L
4683 3923 mt 4683 3923 L
 673 3061 mt 4683 3061 L
4683 3061 mt 4683 3061 L
 673 2199 mt 4683 2199 L
4683 2199 mt 4683 2199 L
 673 1337 mt 4683 1337 L
4683 1337 mt 4683 1337 L
 673  476 mt 4683  476 L
4683  476 mt 4683  476 L
SO
6 w
 673 5647 mt 4683 5647 L
 673  476 mt 4683  476 L
 673 5647 mt  673  476 L
4683 5647 mt 4683  476 L
 673 5647 mt 4683 5647 L
 673 5647 mt  673  476 L
 673 5647 mt  673 5595 L
 673  476 mt  673  527 L
%%IncludeResource: font Helvetica
/Helvetica /ISOLatin1Encoding 120 FMSR

 640 5792 mt 
(0) s
2009 5647 mt 2009 5595 L
2009  476 mt 2009  527 L
1976 5792 mt 
(5) s
3346 5647 mt 3346 5595 L
3346  476 mt 3346  527 L
3280 5792 mt 
(10) s
4683 5647 mt 4683 5595 L
4683  476 mt 4683  527 L
4617 5792 mt 
(15) s
 673 5647 mt  724 5647 L
4683 5647 mt 4631 5647 L
 572 5691 mt 
(0) s
 673 4785 mt  724 4785 L
4683 4785 mt 4631 4785 L
 372 4829 mt 
(2000) s
 673 3923 mt  724 3923 L
4683 3923 mt 4631 3923 L
 372 3967 mt 
(4000) s
 673 3061 mt  724 3061 L
4683 3061 mt 4631 3061 L
 372 3105 mt 
(6000) s
 673 2199 mt  724 2199 L
4683 2199 mt 4631 2199 L
 372 2243 mt 
(8000) s
 673 1337 mt  724 1337 L
4683 1337 mt 4631 1337 L
 305 1381 mt 
(10000) s
 673  476 mt  724  476 L
4683  476 mt 4631  476 L
 305  520 mt 
(12000) s
 673 5647 mt 4683 5647 L
 673  476 mt 4683  476 L
 673 5647 mt  673  476 L
4683 5647 mt 4683  476 L
%%IncludeResource: font Helvetica
/Helvetica /ISOLatin1Encoding 96 FMSR

 751  387 mt 
(n) s
%%IncludeResource: font Helvetica
/Helvetica /ISOLatin1Encoding 120 FMSR

 804  327 mt 
(S) s
%%IncludeResource: font Helvetica
/Helvetica /ISOLatin1Encoding 96 FMSR

 884  387 mt 
(l) s
%%IncludeResource: font Helvetica
/Helvetica /ISOLatin1Encoding 120 FMSR

 905  327 mt 
( mode frequencies for elastic spherical shell BigSister r) s
%%IncludeResource: font Helvetica
/Helvetica /ISOLatin1Encoding 96 FMSR

3817  387 mt 
(o) s
%%IncludeResource: font Helvetica
/Helvetica /ISOLatin1Encoding 120 FMSR

3870  327 mt 
(=1.46, c=2500) s
2061 5935 mt 
(mode angular number l) s
 223 3622 mt  -90 rotate
(mode frequency \(Hz\)) s
90 rotate
gs 673 476 4011 5172 rc
gr

  36   36  673 5647 PO
  36   36  940 5386 PO
  36   36 1207 5147 PO
  36   36 1475 4960 PO
  36   36 1742 4811 PO
  36   36 2009 4678 PO
  36   36 2277 4550 PO
  36   36 2544 4424 PO
  36   36 2811 4300 PO
  36   36 3079 4177 PO
  36   36 3346 4054 PO
  36   36 3613 3932 PO
  36   36 3881 3810 PO
  36   36 4148 3688 PO
  36   36 4415 3567 PO
  36   36 4683 3446 PO
  36   36  673 5647 FO
  36   36  940 5386 FO
  36   36 1207 5147 FO
  36   36 1475 4960 FO
  36   36 1742 4811 FO
  36   36 2009 4678 FO
  36   36 2277 4550 FO
  36   36 2544 4424 FO
  36   36 2811 4300 FO
  36   36 3079 4177 FO
  36   36 3346 4054 FO
  36   36 3613 3932 FO
  36   36 3881 3810 FO
  36   36 4148 3688 FO
  36   36 4415 3567 FO
  36   36 4683 3446 FO
gs 673 476 4011 5172 rc
gr

/c8 { 0.000000 0.000000 1.000000 sr} bdef
c8
 648 4948 mt  698 4998 L
 698 4948 mt  648 4998 L
 915 5112 mt  965 5162 L
 965 5112 mt  915 5162 L
1182 4963 mt 1232 5013 L
1232 4963 mt 1182 5013 L
1450 4505 mt 1500 4555 L
1500 4505 mt 1450 4555 L
1717 4569 mt 1767 4619 L
1767 4569 mt 1717 4619 L
1984 4348 mt 2034 4398 L
2034 4348 mt 1984 4398 L
2252 4141 mt 2302 4191 L
2302 4141 mt 2252 4191 L
2519 3975 mt 2569 4025 L
2569 3975 mt 2519 4025 L
2786 3831 mt 2836 3881 L
2836 3831 mt 2786 3881 L
3054 3693 mt 3104 3743 L
3104 3693 mt 3054 3743 L
3321 3558 mt 3371 3608 L
3371 3558 mt 3321 3608 L
3588 3424 mt 3638 3474 L
3638 3424 mt 3588 3474 L
3856 3291 mt 3906 3341 L
3906 3291 mt 3856 3341 L
4123 3159 mt 4173 3209 L
4173 3159 mt 4123 3209 L
4390 3027 mt 4440 3077 L
4440 3027 mt 4390 3077 L
4658 2896 mt 4708 2946 L
4708 2896 mt 4658 2946 L
gs 673 476 4011 5172 rc
gr

/c9 { 1.000000 0.000000 0.000000 sr} bdef
c9
 637 4641 mt  709 4641 L
 673 4605 mt  673 4677 L
 904 4822 mt  976 4822 L
 940 4786 mt  940 4858 L
1171 4675 mt 1243 4675 L
1207 4639 mt 1207 4711 L
1439 4167 mt 1511 4167 L
1475 4131 mt 1475 4203 L
1706 4386 mt 1778 4386 L
1742 4350 mt 1742 4422 L
1973 4239 mt 2045 4239 L
2009 4203 mt 2009 4275 L
2241 3720 mt 2313 3720 L
2277 3684 mt 2277 3756 L
2508 3575 mt 2580 3575 L
2544 3539 mt 2544 3611 L
2775 3652 mt 2847 3652 L
2811 3616 mt 2811 3688 L
3043 3425 mt 3115 3425 L
3079 3389 mt 3079 3461 L
3310 3203 mt 3382 3203 L
3346 3167 mt 3346 3239 L
3577 3024 mt 3649 3024 L
3613 2988 mt 3613 3060 L
3845 2878 mt 3917 2878 L
3881 2842 mt 3881 2914 L
4112 2738 mt 4184 2738 L
4148 2702 mt 4148 2774 L
4379 2600 mt 4451 2600 L
4415 2564 mt 4415 2636 L
4647 2462 mt 4719 2462 L
4683 2426 mt 4683 2498 L
gs 673 476 4011 5172 rc
gr

0 j
41 71 -82 0 41 -71 673 4340 4 MP
/c10 { 1.000000 0.000000 1.000000 sr} bdef
c10
gs
PP
gr
DP
41 71 -82 0 41 -71 940 4526 4 MP
gs
PP
gr
DP
41 71 -82 0 41 -71 1207 4368 4 MP
gs
PP
gr
DP
41 71 -82 0 41 -71 1475 3847 4 MP
gs
PP
gr
DP
41 71 -82 0 41 -71 1742 4063 4 MP
gs
PP
gr
DP
41 71 -82 0 41 -71 2009 3914 4 MP
gs
PP
gr
DP
41 71 -82 0 41 -71 2277 3383 4 MP
gs
PP
gr
DP
41 71 -82 0 41 -71 2544 3232 4 MP
gs
PP
gr
DP
41 71 -82 0 41 -71 2811 3478 4 MP
gs
PP
gr
DP
41 71 -82 0 41 -71 3079 3333 4 MP
gs
PP
gr
DP
41 71 -82 0 41 -71 3346 2790 4 MP
gs
PP
gr
DP
41 71 -82 0 41 -71 3613 2645 4 MP
gs
PP
gr
DP
41 71 -82 0 41 -71 3881 2501 4 MP
gs
PP
gr
DP
41 71 -82 0 41 -71 4148 2357 4 MP
gs
PP
gr
DP
41 71 -82 0 41 -71 4415 2304 4 MP
gs
PP
gr
DP
41 71 -82 0 41 -71 4683 2093 4 MP
gs
PP
gr
DP
gs 673 476 4011 5172 rc
gr

0 -58 -58 0 0 58 58 0 644 3908 5 MP
/c11 { 0.000000 1.000000 0.000000 sr} bdef
c11
gs
PP
gr
DP
0 -58 -58 0 0 58 58 0 911 4095 5 MP
gs
PP
gr
DP
0 -58 -58 0 0 58 58 0 1178 3931 5 MP
gs
PP
gr
DP
0 -58 -58 0 0 58 58 0 1446 3402 5 MP
gs
PP
gr
DP
0 -58 -58 0 0 58 58 0 1713 3614 5 MP
gs
PP
gr
DP
0 -58 -58 0 0 58 58 0 1980 3459 5 MP
gs
PP
gr
DP
0 -58 -58 0 0 58 58 0 2248 2926 5 MP
gs
PP
gr
DP
0 -58 -58 0 0 58 58 0 2515 2771 5 MP
gs
PP
gr
DP
0 -58 -58 0 0 58 58 0 2782 3008 5 MP
gs
PP
gr
DP
0 -58 -58 0 0 58 58 0 3050 2860 5 MP
gs
PP
gr
DP
0 -58 -58 0 0 58 58 0 3317 2317 5 MP
gs
PP
gr
DP
0 -58 -58 0 0 58 58 0 3584 2169 5 MP
gs
PP
gr
DP
0 -58 -58 0 0 58 58 0 3852 2021 5 MP
gs
PP
gr
DP
0 -58 -58 0 0 58 58 0 4119 1875 5 MP
gs
PP
gr
DP
0 -58 -58 0 0 58 58 0 4386 1729 5 MP
gs
PP
gr
DP
0 -58 -58 0 0 58 58 0 4654 1584 5 MP
gs
PP
gr
DP
gs 673 476 4011 5172 rc
gr

-21 -16 8 -25 -22 15 -21 -15 8 25 -21 16 26 0 8 24 
9 -24 26 0 638 3564 11 MP
0 sg
gs
PP
gr
DP
-21 -16 8 -25 -22 15 -21 -15 8 25 -21 16 26 0 8 24 
9 -24 26 0 905 3752 11 MP
gs
PP
gr
DP
-21 -16 8 -25 -22 15 -21 -15 8 25 -21 16 26 0 8 24 
9 -24 26 0 1172 3584 11 MP
gs
PP
gr
DP
-21 -16 8 -25 -22 15 -21 -15 8 25 -21 16 26 0 8 24 
9 -24 26 0 1440 3051 11 MP
gs
PP
gr
DP
-21 -16 8 -25 -22 15 -21 -15 8 25 -21 16 26 0 8 24 
9 -24 26 0 1707 3258 11 MP
gs
PP
gr
DP
-21 -16 8 -25 -22 15 -21 -15 8 25 -21 16 26 0 8 24 
9 -24 26 0 1974 3099 11 MP
gs
PP
gr
DP
-21 -16 8 -25 -22 15 -21 -15 8 25 -21 16 26 0 8 24 
9 -24 26 0 2242 2565 11 MP
gs
PP
gr
DP
-21 -16 8 -25 -22 15 -21 -15 8 25 -21 16 26 0 8 24 
9 -24 26 0 2509 2407 11 MP
gs
PP
gr
DP
-21 -16 8 -25 -22 15 -21 -15 8 25 -21 16 26 0 8 24 
9 -24 26 0 2776 2636 11 MP
gs
PP
gr
DP
-21 -16 8 -25 -22 15 -21 -15 8 25 -21 16 26 0 8 24 
9 -24 26 0 3044 2484 11 MP
gs
PP
gr
DP
-21 -16 8 -25 -22 15 -21 -15 8 25 -21 16 26 0 8 24 
9 -24 26 0 3311 1944 11 MP
gs
PP
gr
DP
-21 -16 8 -25 -22 15 -21 -15 8 25 -21 16 26 0 8 24 
9 -24 26 0 3578 1792 11 MP
gs
PP
gr
DP
-21 -16 8 -25 -22 15 -21 -15 8 25 -21 16 26 0 8 24 
9 -24 26 0 3846 1641 11 MP
gs
PP
gr
DP
-21 -16 8 -25 -22 15 -21 -15 8 25 -21 16 26 0 8 24 
9 -24 26 0 4113 1492 11 MP
gs
PP
gr
DP
-21 -16 8 -25 -22 15 -21 -15 8 25 -21 16 26 0 8 24 
9 -24 26 0 4380 1343 11 MP
gs
PP
gr
DP
-21 -16 8 -25 -22 15 -21 -15 8 25 -21 16 26 0 8 24 
9 -24 26 0 4648 1196 11 MP
gs
PP
gr
DP
gs 673 476 4011 5172 rc
gr

 656 5690 mt 
( ) s
4667  518 mt 
( ) s
1 sg
0 1230 724 0 0 -1230 776 1814 4 MP
PP
-724 0 0 1230 724 0 0 -1230 776 1814 5 MP stroke
4 w
DO
SO
6 w
0 sg
 776 1814 mt 1500 1814 L
 776  584 mt 1500  584 L
 776 1814 mt  776  584 L
1500 1814 mt 1500  584 L
 776 1814 mt 1500 1814 L
 776 1814 mt  776  584 L
 776 1814 mt 1500 1814 L
 776  584 mt 1500  584 L
 776 1814 mt  776  584 L
1500 1814 mt 1500  584 L
1244  746 mt 
(n=0) s
gs 776 584 725 1231 rc
gs 954 631 147 147 rc
  36   36 1027  704 PO
  36   36 1027  704 FO
gr

gr

1244  944 mt 
(1) s
gs 776 584 725 1231 rc
gs 954 829 147 147 rc
c8
1002  877 mt 1052  927 L
1052  877 mt 1002  927 L
gr

c8
gr

c8
0 sg
1244 1142 mt 
(2) s
gs 776 584 725 1231 rc
gs 954 1027 147 147 rc
c9
 991 1100 mt 1063 1100 L
1027 1064 mt 1027 1136 L
gr

c9
gr

c9
0 sg
1244 1341 mt 
(3) s
gs 776 584 725 1231 rc
gs 954 1225 147 147 rc
41 71 -82 0 41 -71 1027 1345 4 MP
c10
gs
PP
gr
DP
gr

c10
gr

c10
0 sg
1244 1539 mt 
(4) s
gs 776 584 725 1231 rc
gs 954 1423 147 147 rc
0 -58 -58 0 0 58 58 0 998 1467 5 MP
c11
gs
PP
gr
DP
gr

c11
gr

c11
0 sg
1244 1737 mt 
(5) s
gs 776 584 725 1231 rc
gs 954 1621 147 147 rc
-21 -16 8 -25 -22 15 -21 -15 8 25 -21 16 26 0 8 24 
9 -24 26 0 992 1682 11 MP
gs
PP
gr
DP
gr

gr


end %%Color Dict

eplot
%%EndObject

epage
end

showpage

%%Trailer
%%EOF
