%!PS-Adobe-3.0 EPSF-3.0
%%Creator: MATLAB, The MathWorks, Inc. Version 7.14.0.739 (R2012a). Operating System: Linux 2.6.32-279.2.1.el6.x86_64 #1 SMP Fri Jul 20 01:55:29 UTC 2012 x86_64.
%%Title: /lgit/data-geodynamo/natafh/Dynamo/Acoustics/elastic_shell/Figures/DTS-sodium.eps
%%CreationDate: 01/24/2014  07:49:39
%%DocumentNeededFonts: Helvetica
%%DocumentProcessColors: Cyan Magenta Yellow Black
%%LanguageLevel: 2
%%Pages: 1
%%BoundingBox:    90   140   521   652
%%EndComments

%%BeginProlog
% MathWorks dictionary
/MathWorks 160 dict begin
% definition operators
/bdef {bind def} bind def
/ldef {load def} bind def
/xdef {exch def} bdef
/xstore {exch store} bdef
% operator abbreviations
/c  /clip ldef
/cc /concat ldef
/cp /closepath ldef
/gr /grestore ldef
/gs /gsave ldef
/mt /moveto ldef
/np /newpath ldef
/cm /currentmatrix ldef
/sm /setmatrix ldef
/rm /rmoveto ldef
/rl /rlineto ldef
/s {show newpath} bdef
/sc {setcmykcolor} bdef
/sr /setrgbcolor ldef
/sg /setgray ldef
/w /setlinewidth ldef
/j /setlinejoin ldef
/cap /setlinecap ldef
/rc {rectclip} bdef
/rf {rectfill} bdef
% page state control
/pgsv () def
/bpage {/pgsv save def} bdef
/epage {pgsv restore} bdef
/bplot /gsave ldef
/eplot {stroke grestore} bdef
% orientation switch
/portraitMode 0 def /landscapeMode 1 def /rotateMode 2 def
% coordinate system mappings
/dpi2point 0 def
% font control
/FontSize 0 def
/FMS {/FontSize xstore findfont [FontSize 0 0 FontSize neg 0 0]
  makefont setfont} bdef
/reencode {exch dup where {pop load} {pop StandardEncoding} ifelse
  exch dup 3 1 roll findfont dup length dict begin
  { 1 index /FID ne {def}{pop pop} ifelse } forall
  /Encoding exch def currentdict end definefont pop} bdef
/isroman {findfont /CharStrings get /Agrave known} bdef
/FMSR {3 1 roll 1 index dup isroman {reencode} {pop pop} ifelse
  exch FMS} bdef
/csm {1 dpi2point div -1 dpi2point div scale neg translate
 dup landscapeMode eq {pop -90 rotate}
  {rotateMode eq {90 rotate} if} ifelse} bdef
% line types: solid, dotted, dashed, dotdash
/SO { [] 0 setdash } bdef
/DO { [.5 dpi2point mul 4 dpi2point mul] 0 setdash } bdef
/DA { [6 dpi2point mul] 0 setdash } bdef
/DD { [.5 dpi2point mul 4 dpi2point mul 6 dpi2point mul 4
  dpi2point mul] 0 setdash } bdef
% macros for lines and objects
/L {lineto stroke} bdef
/MP {3 1 roll moveto 1 sub {rlineto} repeat} bdef
/AP {{rlineto} repeat} bdef
/PDlw -1 def
/W {/PDlw currentlinewidth def setlinewidth} def
/PP {closepath eofill} bdef
/DP {closepath stroke} bdef
/MR {4 -2 roll moveto dup  0 exch rlineto exch 0 rlineto
  neg 0 exch rlineto closepath} bdef
/FR {MR stroke} bdef
/PR {MR fill} bdef
/L1i {{currentfile picstr readhexstring pop} image} bdef
/tMatrix matrix def
/MakeOval {newpath tMatrix currentmatrix pop translate scale
0 0 1 0 360 arc tMatrix setmatrix} bdef
/FO {MakeOval stroke} bdef
/PO {MakeOval fill} bdef
/PD {currentlinewidth 2 div 0 360 arc fill
   PDlw -1 eq not {PDlw w /PDlw -1 def} if} def
/FA {newpath tMatrix currentmatrix pop translate scale
  0 0 1 5 -2 roll arc tMatrix setmatrix stroke} bdef
/PA {newpath tMatrix currentmatrix pop	translate 0 0 moveto scale
  0 0 1 5 -2 roll arc closepath tMatrix setmatrix fill} bdef
/FAn {newpath tMatrix currentmatrix pop translate scale
  0 0 1 5 -2 roll arcn tMatrix setmatrix stroke} bdef
/PAn {newpath tMatrix currentmatrix pop translate 0 0 moveto scale
  0 0 1 5 -2 roll arcn closepath tMatrix setmatrix fill} bdef
/vradius 0 def /hradius 0 def /lry 0 def
/lrx 0 def /uly 0 def /ulx 0 def /rad 0 def
/MRR {/vradius xdef /hradius xdef /lry xdef /lrx xdef /uly xdef
  /ulx xdef newpath tMatrix currentmatrix pop ulx hradius add uly
  vradius add translate hradius vradius scale 0 0 1 180 270 arc 
  tMatrix setmatrix lrx hradius sub uly vradius add translate
  hradius vradius scale 0 0 1 270 360 arc tMatrix setmatrix
  lrx hradius sub lry vradius sub translate hradius vradius scale
  0 0 1 0 90 arc tMatrix setmatrix ulx hradius add lry vradius sub
  translate hradius vradius scale 0 0 1 90 180 arc tMatrix setmatrix
  closepath} bdef
/FRR {MRR stroke } bdef
/PRR {MRR fill } bdef
/MlrRR {/lry xdef /lrx xdef /uly xdef /ulx xdef /rad lry uly sub 2 div def
  newpath tMatrix currentmatrix pop ulx rad add uly rad add translate
  rad rad scale 0 0 1 90 270 arc tMatrix setmatrix lrx rad sub lry rad
  sub translate rad rad scale 0 0 1 270 90 arc tMatrix setmatrix
  closepath} bdef
/FlrRR {MlrRR stroke } bdef
/PlrRR {MlrRR fill } bdef
/MtbRR {/lry xdef /lrx xdef /uly xdef /ulx xdef /rad lrx ulx sub 2 div def
  newpath tMatrix currentmatrix pop ulx rad add uly rad add translate
  rad rad scale 0 0 1 180 360 arc tMatrix setmatrix lrx rad sub lry rad
  sub translate rad rad scale 0 0 1 0 180 arc tMatrix setmatrix
  closepath} bdef
/FtbRR {MtbRR stroke } bdef
/PtbRR {MtbRR fill } bdef
/stri 6 array def /dtri 6 array def
/smat 6 array def /dmat 6 array def
/tmat1 6 array def /tmat2 6 array def /dif 3 array def
/asub {/ind2 exch def /ind1 exch def dup dup
  ind1 get exch ind2 get sub exch } bdef
/tri_to_matrix {
  2 0 asub 3 1 asub 4 0 asub 5 1 asub
  dup 0 get exch 1 get 7 -1 roll astore } bdef
/compute_transform {
  dmat dtri tri_to_matrix tmat1 invertmatrix 
  smat stri tri_to_matrix tmat2 concatmatrix } bdef
/ds {stri astore pop} bdef
/dt {dtri astore pop} bdef
/db {2 copy /cols xdef /rows xdef mul dup 3 mul string
  currentfile 
  3 index 0 eq {/ASCIIHexDecode filter}
  {/ASCII85Decode filter 3 index 2 eq {/RunLengthDecode filter} if }
  ifelse exch readstring pop
  dup 0 3 index getinterval /rbmap xdef
  dup 2 index dup getinterval /gbmap xdef
  1 index dup 2 mul exch getinterval /bbmap xdef pop pop}bdef
/it {gs np dtri aload pop moveto lineto lineto cp c
  cols rows 8 compute_transform 
  rbmap gbmap bbmap true 3 colorimage gr}bdef
/il {newpath moveto lineto stroke}bdef
currentdict end def
%%EndProlog

%%BeginSetup
MathWorks begin

0 cap

end
%%EndSetup

%%Page: 1 1
%%BeginPageSetup
%%PageBoundingBox:    90   140   521   652
MathWorks begin
bpage
%%EndPageSetup

%%BeginObject: obj1
bplot

/dpi2point 12 def
portraitMode 1080 7824 csm

    0     0  5175  6135 rc
87 dict begin %Colortable dictionary
/c0 { 0.000000 0.000000 0.000000 sr} bdef
/c1 { 1.000000 1.000000 1.000000 sr} bdef
/c2 { 0.900000 0.000000 0.000000 sr} bdef
/c3 { 0.000000 0.820000 0.000000 sr} bdef
/c4 { 0.000000 0.000000 0.800000 sr} bdef
/c5 { 0.910000 0.820000 0.320000 sr} bdef
/c6 { 1.000000 0.260000 0.820000 sr} bdef
/c7 { 0.000000 0.820000 0.820000 sr} bdef
c0
1 j
1 sg
   0    0 5176 6136 rf
6 w
0 5000 4010 0 0 -5000 673 5460 4 MP
PP
-4010 0 0 5000 4010 0 0 -5000 673 5460 5 MP stroke
4 w
DO
0 sg
 673 5460 mt  673  460 L
 673  460 mt  673  460 L
2009 5460 mt 2009  460 L
2009  460 mt 2009  460 L
3346 5460 mt 3346  460 L
3346  460 mt 3346  460 L
4683 5460 mt 4683  460 L
4683  460 mt 4683  460 L
 673 5460 mt 4683 5460 L
4683 5460 mt 4683 5460 L
 673 4835 mt 4683 4835 L
4683 4835 mt 4683 4835 L
 673 4210 mt 4683 4210 L
4683 4210 mt 4683 4210 L
 673 3585 mt 4683 3585 L
4683 3585 mt 4683 3585 L
 673 2960 mt 4683 2960 L
4683 2960 mt 4683 2960 L
 673 2335 mt 4683 2335 L
4683 2335 mt 4683 2335 L
 673 1710 mt 4683 1710 L
4683 1710 mt 4683 1710 L
 673 1085 mt 4683 1085 L
4683 1085 mt 4683 1085 L
 673  460 mt 4683  460 L
4683  460 mt 4683  460 L
SO
6 w
 673 5460 mt 4683 5460 L
 673  460 mt 4683  460 L
 673 5460 mt  673  460 L
4683 5460 mt 4683  460 L
 673 5460 mt 4683 5460 L
 673 5460 mt  673  460 L
 673 5460 mt  673 5410 L
 673  460 mt  673  510 L
%%IncludeResource: font Helvetica
/Helvetica /ISOLatin1Encoding 120 FMSR

 640 5605 mt 
(0) s
2009 5460 mt 2009 5410 L
2009  460 mt 2009  510 L
1976 5605 mt 
(5) s
3346 5460 mt 3346 5410 L
3346  460 mt 3346  510 L
3280 5605 mt 
(10) s
4683 5460 mt 4683 5410 L
4683  460 mt 4683  510 L
4617 5605 mt 
(15) s
 673 5460 mt  723 5460 L
4683 5460 mt 4633 5460 L
 572 5504 mt 
(0) s
 673 4835 mt  723 4835 L
4683 4835 mt 4633 4835 L
 572 4879 mt 
(1) s
 673 4210 mt  723 4210 L
4683 4210 mt 4633 4210 L
 572 4254 mt 
(2) s
 673 3585 mt  723 3585 L
4683 3585 mt 4633 3585 L
 572 3629 mt 
(3) s
 673 2960 mt  723 2960 L
4683 2960 mt 4633 2960 L
 572 3004 mt 
(4) s
 673 2335 mt  723 2335 L
4683 2335 mt 4633 2335 L
 572 2379 mt 
(5) s
 673 1710 mt  723 1710 L
4683 1710 mt 4633 1710 L
 572 1754 mt 
(6) s
 673 1085 mt  723 1085 L
4683 1085 mt 4633 1085 L
 572 1129 mt 
(7) s
 673  460 mt  723  460 L
4683  460 mt 4633  460 L
 572  504 mt 
(8) s
 673  406 mt 
(x 10) s
%%IncludeResource: font Helvetica
/Helvetica /ISOLatin1Encoding 80 FMSR

 899  332 mt 
(4) s
 673 5460 mt 4683 5460 L
 673  460 mt 4683  460 L
 673 5460 mt  673  460 L
4683 5460 mt 4683  460 L
%%IncludeResource: font Helvetica
/Helvetica /ISOLatin1Encoding 96 FMSR

 643  371 mt 
(n) s
%%IncludeResource: font Helvetica
/Helvetica /ISOLatin1Encoding 120 FMSR

 696  311 mt 
(S) s
%%IncludeResource: font Helvetica
/Helvetica /ISOLatin1Encoding 96 FMSR

 776  371 mt 
(l) s
%%IncludeResource: font Helvetica
/Helvetica /ISOLatin1Encoding 120 FMSR

 797  311 mt 
( mode frequencies for elastic spherical shell DTS-sodium r) s
%%IncludeResource: font Helvetica
/Helvetica /ISOLatin1Encoding 96 FMSR

3926  371 mt 
(o) s
%%IncludeResource: font Helvetica
/Helvetica /ISOLatin1Encoding 120 FMSR

3979  311 mt 
(=0.21, c=2500) s
2061 5748 mt 
(mode angular number l) s
 490 3521 mt  -90 rotate
(mode frequency \(Hz\)) s
90 rotate
gs 673 460 4011 5001 rc
gr

  36   36  673 5460 PO
  36   36  940 5199 PO
  36   36 1207 4967 PO
  36   36 1475 4788 PO
  36   36 1742 4643 PO
  36   36 2009 4510 PO
  36   36 2277 4383 PO
  36   36 2544 4257 PO
  36   36 2811 4132 PO
  36   36 3079 4008 PO
  36   36 3346 3885 PO
  36   36 3613 3762 PO
  36   36 3881 3639 PO
  36   36 4148 3517 PO
  36   36 4415 3394 PO
  36   36 4683 3272 PO
  36   36  673 5460 FO
  36   36  940 5199 FO
  36   36 1207 4967 FO
  36   36 1475 4788 FO
  36   36 1742 4643 FO
  36   36 2009 4510 FO
  36   36 2277 4383 FO
  36   36 2544 4257 FO
  36   36 2811 4132 FO
  36   36 3079 4008 FO
  36   36 3346 3885 FO
  36   36 3613 3762 FO
  36   36 3881 3639 FO
  36   36 4148 3517 FO
  36   36 4415 3394 FO
  36   36 4683 3272 FO
gs 673 460 4011 5001 rc
gr

/c8 { 0.000000 0.000000 1.000000 sr} bdef
c8
 648 4773 mt  698 4823 L
 698 4773 mt  648 4823 L
 915 4926 mt  965 4976 L
 965 4926 mt  915 4976 L
1182 4774 mt 1232 4824 L
1232 4774 mt 1182 4824 L
1450 4586 mt 1500 4636 L
1500 4586 mt 1450 4636 L
1717 4370 mt 1767 4420 L
1767 4370 mt 1717 4420 L
1984 4149 mt 2034 4199 L
2034 4149 mt 1984 4199 L
2252 3948 mt 2302 3998 L
2302 3948 mt 2252 3998 L
2519 3789 mt 2569 3839 L
2569 3789 mt 2519 3839 L
2786 3646 mt 2836 3696 L
2836 3646 mt 2786 3696 L
3054 3508 mt 3104 3558 L
3104 3508 mt 3054 3558 L
3321 3371 mt 3371 3421 L
3371 3371 mt 3321 3421 L
3588 3236 mt 3638 3286 L
3638 3236 mt 3588 3286 L
3856 3102 mt 3906 3152 L
3906 3102 mt 3856 3152 L
4123 2968 mt 4173 3018 L
4173 2968 mt 4123 3018 L
4390 2835 mt 4440 2885 L
4440 2835 mt 4390 2885 L
4658 2703 mt 4708 2753 L
4708 2703 mt 4658 2753 L
gs 673 460 4011 5001 rc
gr

/c9 { 1.000000 0.000000 0.000000 sr} bdef
c9
 637 4465 mt  709 4465 L
 673 4429 mt  673 4501 L
 904 4648 mt  976 4648 L
 940 4612 mt  940 4684 L
1171 4500 mt 1243 4500 L
1207 4464 mt 1207 4536 L
1439 4354 mt 1511 4354 L
1475 4318 mt 1475 4390 L
1706 4208 mt 1778 4208 L
1742 4172 mt 1742 4244 L
1973 3682 mt 2045 3682 L
2009 3646 mt 2009 3718 L
2241 3533 mt 2313 3533 L
2277 3497 mt 2277 3569 L
2508 3676 mt 2580 3676 L
2544 3640 mt 2544 3712 L
2775 3240 mt 2847 3240 L
2811 3204 mt 2811 3276 L
3043 3218 mt 3115 3218 L
3079 3182 mt 3079 3254 L
3310 2996 mt 3382 2996 L
3346 2960 mt 3346 3032 L
3577 2825 mt 3649 2825 L
3613 2789 mt 3613 2861 L
3845 2680 mt 3917 2680 L
3881 2644 mt 3881 2716 L
4112 2539 mt 4184 2539 L
4148 2503 mt 4148 2575 L
4379 2399 mt 4451 2399 L
4415 2363 mt 4415 2435 L
4647 2261 mt 4719 2261 L
4683 2225 mt 4683 2297 L
gs 673 460 4011 5001 rc
gr

0 j
41 71 -82 0 41 -71 673 4159 4 MP
/c10 { 1.000000 0.000000 1.000000 sr} bdef
c10
gs
PP
gr
DP
41 71 -82 0 41 -71 940 4348 4 MP
gs
PP
gr
DP
41 71 -82 0 41 -71 1207 4188 4 MP
gs
PP
gr
DP
41 71 -82 0 41 -71 1475 4032 4 MP
gs
PP
gr
DP
41 71 -82 0 41 -71 1742 3879 4 MP
gs
PP
gr
DP
41 71 -82 0 41 -71 2009 3343 4 MP
gs
PP
gr
DP
41 71 -82 0 41 -71 2277 3189 4 MP
gs
PP
gr
DP
41 71 -82 0 41 -71 2544 3433 4 MP
gs
PP
gr
DP
41 71 -82 0 41 -71 2811 2887 4 MP
gs
PP
gr
DP
41 71 -82 0 41 -71 3079 3141 4 MP
gs
PP
gr
DP
41 71 -82 0 41 -71 3346 2590 4 MP
gs
PP
gr
DP
41 71 -82 0 41 -71 3613 2444 4 MP
gs
PP
gr
DP
41 71 -82 0 41 -71 3881 2298 4 MP
gs
PP
gr
DP
41 71 -82 0 41 -71 4148 2320 4 MP
gs
PP
gr
DP
41 71 -82 0 41 -71 4415 2007 4 MP
gs
PP
gr
DP
41 71 -82 0 41 -71 4683 1880 4 MP
gs
PP
gr
DP
gs 673 460 4011 5001 rc
gr

0 -58 -58 0 0 58 58 0 644 3721 5 MP
/c11 { 0.000000 1.000000 0.000000 sr} bdef
c11
gs
PP
gr
DP
0 -58 -58 0 0 58 58 0 911 3911 5 MP
gs
PP
gr
DP
0 -58 -58 0 0 58 58 0 1178 3745 5 MP
gs
PP
gr
DP
0 -58 -58 0 0 58 58 0 1446 3583 5 MP
gs
PP
gr
DP
0 -58 -58 0 0 58 58 0 1713 3424 5 MP
gs
PP
gr
DP
0 -58 -58 0 0 58 58 0 1980 2885 5 MP
gs
PP
gr
DP
0 -58 -58 0 0 58 58 0 2248 2727 5 MP
gs
PP
gr
DP
0 -58 -58 0 0 58 58 0 2515 2961 5 MP
gs
PP
gr
DP
0 -58 -58 0 0 58 58 0 2782 2417 5 MP
gs
PP
gr
DP
0 -58 -58 0 0 58 58 0 3050 2662 5 MP
gs
PP
gr
DP
0 -58 -58 0 0 58 58 0 3317 2112 5 MP
gs
PP
gr
DP
0 -58 -58 0 0 58 58 0 3584 1962 5 MP
gs
PP
gr
DP
0 -58 -58 0 0 58 58 0 3852 1813 5 MP
gs
PP
gr
DP
0 -58 -58 0 0 58 58 0 4119 2077 5 MP
gs
PP
gr
DP
0 -58 -58 0 0 58 58 0 4386 1518 5 MP
gs
PP
gr
DP
0 -58 -58 0 0 58 58 0 4654 1372 5 MP
gs
PP
gr
DP
gs 673 460 4011 5001 rc
gr

-21 -16 8 -25 -22 15 -21 -15 8 25 -21 16 26 0 8 24 
9 -24 26 0 638 3373 11 MP
0 sg
gs
PP
gr
DP
-21 -16 8 -25 -22 15 -21 -15 8 25 -21 16 26 0 8 24 
9 -24 26 0 905 3563 11 MP
gs
PP
gr
DP
-21 -16 8 -25 -22 15 -21 -15 8 25 -21 16 26 0 8 24 
9 -24 26 0 1172 3393 11 MP
gs
PP
gr
DP
-21 -16 8 -25 -22 15 -21 -15 8 25 -21 16 26 0 8 24 
9 -24 26 0 1440 3226 11 MP
gs
PP
gr
DP
-21 -16 8 -25 -22 15 -21 -15 8 25 -21 16 26 0 8 24 
9 -24 26 0 1707 3063 11 MP
gs
PP
gr
DP
-21 -16 8 -25 -22 15 -21 -15 8 25 -21 16 26 0 8 24 
9 -24 26 0 1974 2523 11 MP
gs
PP
gr
DP
-21 -16 8 -25 -22 15 -21 -15 8 25 -21 16 26 0 8 24 
9 -24 26 0 2242 2362 11 MP
gs
PP
gr
DP
-21 -16 8 -25 -22 15 -21 -15 8 25 -21 16 26 0 8 24 
9 -24 26 0 2509 2588 11 MP
gs
PP
gr
DP
-21 -16 8 -25 -22 15 -21 -15 8 25 -21 16 26 0 8 24 
9 -24 26 0 2776 2045 11 MP
gs
PP
gr
DP
-21 -16 8 -25 -22 15 -21 -15 8 25 -21 16 26 0 8 24 
9 -24 26 0 3044 2281 11 MP
gs
PP
gr
DP
-21 -16 8 -25 -22 15 -21 -15 8 25 -21 16 26 0 8 24 
9 -24 26 0 3311 1734 11 MP
gs
PP
gr
DP
-21 -16 8 -25 -22 15 -21 -15 8 25 -21 16 26 0 8 24 
9 -24 26 0 3578 1581 11 MP
gs
PP
gr
DP
-21 -16 8 -25 -22 15 -21 -15 8 25 -21 16 26 0 8 24 
9 -24 26 0 3846 1429 11 MP
gs
PP
gr
DP
-21 -16 8 -25 -22 15 -21 -15 8 25 -21 16 26 0 8 24 
9 -24 26 0 4113 1682 11 MP
gs
PP
gr
DP
-21 -16 8 -25 -22 15 -21 -15 8 25 -21 16 26 0 8 24 
9 -24 26 0 4380 1128 11 MP
gs
PP
gr
DP
-21 -16 8 -25 -22 15 -21 -15 8 25 -21 16 26 0 8 24 
9 -24 26 0 4648 979 11 MP
gs
PP
gr
DP
gs 673 460 4011 5001 rc
gr

 656 5503 mt 
( ) s
4667  502 mt 
( ) s
1 sg
0 1230 725 0 0 -1230 790 1809 4 MP
PP
-725 0 0 1230 725 0 0 -1230 790 1809 5 MP stroke
4 w
DO
SO
6 w
0 sg
 790 1809 mt 1515 1809 L
 790  579 mt 1515  579 L
 790 1809 mt  790  579 L
1515 1809 mt 1515  579 L
 790 1809 mt 1515 1809 L
 790 1809 mt  790  579 L
 790 1809 mt 1515 1809 L
 790  579 mt 1515  579 L
 790 1809 mt  790  579 L
1515 1809 mt 1515  579 L
1259  741 mt 
(n=0) s
gs 790 579 726 1231 rc
gs 969 626 147 147 rc
  36   36 1042  699 PO
  36   36 1042  699 FO
gr

gr

1259  939 mt 
(1) s
gs 790 579 726 1231 rc
gs 969 824 147 147 rc
c8
1017  872 mt 1067  922 L
1067  872 mt 1017  922 L
gr

c8
gr

c8
0 sg
1259 1137 mt 
(2) s
gs 790 579 726 1231 rc
gs 969 1022 147 147 rc
c9
1006 1095 mt 1078 1095 L
1042 1059 mt 1042 1131 L
gr

c9
gr

c9
0 sg
1259 1336 mt 
(3) s
gs 790 579 726 1231 rc
gs 969 1220 147 147 rc
41 71 -82 0 41 -71 1042 1340 4 MP
c10
gs
PP
gr
DP
gr

c10
gr

c10
0 sg
1259 1534 mt 
(4) s
gs 790 579 726 1231 rc
gs 969 1417 147 147 rc
0 -58 -58 0 0 58 58 0 1013 1461 5 MP
c11
gs
PP
gr
DP
gr

c11
gr

c11
0 sg
1259 1732 mt 
(5) s
gs 790 579 726 1231 rc
gs 969 1615 147 147 rc
-21 -16 8 -25 -22 15 -21 -15 8 25 -21 16 26 0 8 24 
9 -24 26 0 1007 1676 11 MP
gs
PP
gr
DP
gr

gr


end %%Color Dict

eplot
%%EndObject

epage
end

showpage

%%Trailer
%%EOF
