%!PS-Adobe-3.0 EPSF-3.0
%%Creator: MATLAB, The MathWorks, Inc. Version 8.1.0.604 (R2013a). Operating System: Linux 3.12-0.bpo.1-amd64 #1 SMP Debian 3.12.9-1~bpo70+1 (2014-02-07) x86_64.
%%Title: /data/geodynamo/natafh/Dynamo/Acoustics/elastic_shell/Figures/Full_sphere/plexi_elastic_full_sphere.eps
%%CreationDate: 07/11/2014  16:43:02
%%DocumentNeededFonts: Helvetica
%%DocumentProcessColors: Cyan Magenta Yellow Black
%%LanguageLevel: 2
%%Pages: 1
%%BoundingBox:    65    76   545   716
%%EndComments

%%BeginProlog
% MathWorks dictionary
/MathWorks 160 dict begin
% definition operators
/bdef {bind def} bind def
/ldef {load def} bind def
/xdef {exch def} bdef
/xstore {exch store} bdef
% operator abbreviations
/c  /clip ldef
/cc /concat ldef
/cp /closepath ldef
/gr /grestore ldef
/gs /gsave ldef
/mt /moveto ldef
/np /newpath ldef
/cm /currentmatrix ldef
/sm /setmatrix ldef
/rm /rmoveto ldef
/rl /rlineto ldef
/s {show newpath} bdef
/sc {setcmykcolor} bdef
/sr /setrgbcolor ldef
/sg /setgray ldef
/w /setlinewidth ldef
/j /setlinejoin ldef
/cap /setlinecap ldef
/rc {rectclip} bdef
/rf {rectfill} bdef
% page state control
/pgsv () def
/bpage {/pgsv save def} bdef
/epage {pgsv restore} bdef
/bplot /gsave ldef
/eplot {stroke grestore} bdef
% orientation switch
/portraitMode 0 def /landscapeMode 1 def /rotateMode 2 def
% coordinate system mappings
/dpi2point 0 def
% font control
/FontSize 0 def
/FMS {/FontSize xstore findfont [FontSize 0 0 FontSize neg 0 0]
  makefont setfont} bdef
/reencode {exch dup where {pop load} {pop StandardEncoding} ifelse
  exch dup 3 1 roll findfont dup length dict begin
  { 1 index /FID ne {def}{pop pop} ifelse } forall
  /Encoding exch def currentdict end definefont pop} bdef
/isroman {findfont /CharStrings get /Agrave known} bdef
/FMSR {3 1 roll 1 index dup isroman {reencode} {pop pop} ifelse
  exch FMS} bdef
/csm {1 dpi2point div -1 dpi2point div scale neg translate
 dup landscapeMode eq {pop -90 rotate}
  {rotateMode eq {90 rotate} if} ifelse} bdef
% line types: solid, dotted, dashed, dotdash
/SO { [] 0 setdash } bdef
/DO { [.5 dpi2point mul 4 dpi2point mul] 0 setdash } bdef
/DA { [6 dpi2point mul] 0 setdash } bdef
/DD { [.5 dpi2point mul 4 dpi2point mul 6 dpi2point mul 4
  dpi2point mul] 0 setdash } bdef
% macros for lines and objects
/L {lineto stroke} bdef
/MP {3 1 roll moveto 1 sub {rlineto} repeat} bdef
/AP {{rlineto} repeat} bdef
/PDlw -1 def
/W {/PDlw currentlinewidth def setlinewidth} def
/PP {closepath eofill} bdef
/DP {closepath stroke} bdef
/MR {4 -2 roll moveto dup  0 exch rlineto exch 0 rlineto
  neg 0 exch rlineto closepath} bdef
/FR {MR stroke} bdef
/PR {MR fill} bdef
/L1i {{currentfile picstr readhexstring pop} image} bdef
/tMatrix matrix def
/MakeOval {newpath tMatrix currentmatrix pop translate scale
0 0 1 0 360 arc tMatrix setmatrix} bdef
/FO {MakeOval stroke} bdef
/PO {MakeOval fill} bdef
/PD {currentlinewidth 2 div 0 360 arc fill
   PDlw -1 eq not {PDlw w /PDlw -1 def} if} def
/FA {newpath tMatrix currentmatrix pop translate scale
  0 0 1 5 -2 roll arc tMatrix setmatrix stroke} bdef
/PA {newpath tMatrix currentmatrix pop	translate 0 0 moveto scale
  0 0 1 5 -2 roll arc closepath tMatrix setmatrix fill} bdef
/FAn {newpath tMatrix currentmatrix pop translate scale
  0 0 1 5 -2 roll arcn tMatrix setmatrix stroke} bdef
/PAn {newpath tMatrix currentmatrix pop translate 0 0 moveto scale
  0 0 1 5 -2 roll arcn closepath tMatrix setmatrix fill} bdef
/vradius 0 def /hradius 0 def /lry 0 def
/lrx 0 def /uly 0 def /ulx 0 def /rad 0 def
/MRR {/vradius xdef /hradius xdef /lry xdef /lrx xdef /uly xdef
  /ulx xdef newpath tMatrix currentmatrix pop ulx hradius add uly
  vradius add translate hradius vradius scale 0 0 1 180 270 arc 
  tMatrix setmatrix lrx hradius sub uly vradius add translate
  hradius vradius scale 0 0 1 270 360 arc tMatrix setmatrix
  lrx hradius sub lry vradius sub translate hradius vradius scale
  0 0 1 0 90 arc tMatrix setmatrix ulx hradius add lry vradius sub
  translate hradius vradius scale 0 0 1 90 180 arc tMatrix setmatrix
  closepath} bdef
/FRR {MRR stroke } bdef
/PRR {MRR fill } bdef
/MlrRR {/lry xdef /lrx xdef /uly xdef /ulx xdef /rad lry uly sub 2 div def
  newpath tMatrix currentmatrix pop ulx rad add uly rad add translate
  rad rad scale 0 0 1 90 270 arc tMatrix setmatrix lrx rad sub lry rad
  sub translate rad rad scale 0 0 1 270 90 arc tMatrix setmatrix
  closepath} bdef
/FlrRR {MlrRR stroke } bdef
/PlrRR {MlrRR fill } bdef
/MtbRR {/lry xdef /lrx xdef /uly xdef /ulx xdef /rad lrx ulx sub 2 div def
  newpath tMatrix currentmatrix pop ulx rad add uly rad add translate
  rad rad scale 0 0 1 180 360 arc tMatrix setmatrix lrx rad sub lry rad
  sub translate rad rad scale 0 0 1 0 180 arc tMatrix setmatrix
  closepath} bdef
/FtbRR {MtbRR stroke } bdef
/PtbRR {MtbRR fill } bdef
/stri 6 array def /dtri 6 array def
/smat 6 array def /dmat 6 array def
/tmat1 6 array def /tmat2 6 array def /dif 3 array def
/asub {/ind2 exch def /ind1 exch def dup dup
  ind1 get exch ind2 get sub exch } bdef
/tri_to_matrix {
  2 0 asub 3 1 asub 4 0 asub 5 1 asub
  dup 0 get exch 1 get 7 -1 roll astore } bdef
/compute_transform {
  dmat dtri tri_to_matrix tmat1 invertmatrix 
  smat stri tri_to_matrix tmat2 concatmatrix } bdef
/ds {stri astore pop} bdef
/dt {dtri astore pop} bdef
/db {2 copy /cols xdef /rows xdef mul dup 3 mul string
  currentfile 
  3 index 0 eq {/ASCIIHexDecode filter}
  {/ASCII85Decode filter 3 index 2 eq {/RunLengthDecode filter} if }
  ifelse exch readstring pop
  dup 0 3 index getinterval /rbmap xdef
  dup 2 index dup getinterval /gbmap xdef
  1 index dup 2 mul exch getinterval /bbmap xdef pop pop}bdef
/it {gs np dtri aload pop moveto lineto lineto cp c
  cols rows 8 compute_transform 
  rbmap gbmap bbmap true 3 colorimage gr}bdef
/il {newpath moveto lineto stroke}bdef
currentdict end def
%%EndProlog

%%BeginSetup
MathWorks begin

0 cap

end
%%EndSetup

%%Page: 1 1
%%BeginPageSetup
%%PageBoundingBox:    65    76   545   716
MathWorks begin
bpage
%%EndPageSetup

%%BeginObject: obj1
bplot

/dpi2point 12 def
portraitMode 0780 8592 csm

    0     0  5760  7680 rc
86 dict begin %Colortable dictionary
/c0 { 0.000000 0.000000 0.000000 sr} bdef
/c1 { 1.000000 1.000000 1.000000 sr} bdef
/c2 { 0.900000 0.000000 0.000000 sr} bdef
/c3 { 0.000000 0.820000 0.000000 sr} bdef
/c4 { 0.000000 0.000000 0.800000 sr} bdef
/c5 { 0.910000 0.820000 0.320000 sr} bdef
/c6 { 1.000000 0.260000 0.820000 sr} bdef
/c7 { 0.000000 0.820000 0.820000 sr} bdef
c0
1 j
1 sg
   0    0 5761 7681 rf
6 w
0 6236 4464 0 0 -6236 749 6835 4 MP
PP
-4464 0 0 6236 4464 0 0 -6236 749 6835 5 MP stroke
4 w
DO
0 sg
 749 6835 mt  749  599 L
 749  599 mt  749  599 L
1493 6835 mt 1493  599 L
1493  599 mt 1493  599 L
2237 6835 mt 2237  599 L
2237  599 mt 2237  599 L
2981 6835 mt 2981  599 L
2981  599 mt 2981  599 L
3725 6835 mt 3725  599 L
3725  599 mt 3725  599 L
4469 6835 mt 4469  599 L
4469  599 mt 4469  599 L
5213 6835 mt 5213  599 L
5213  599 mt 5213  599 L
 749 6835 mt 5213 6835 L
5213 6835 mt 5213 6835 L
 749 6211 mt 5213 6211 L
5213 6211 mt 5213 6211 L
 749 5588 mt 5213 5588 L
5213 5588 mt 5213 5588 L
 749 4964 mt 5213 4964 L
5213 4964 mt 5213 4964 L
 749 4341 mt 5213 4341 L
5213 4341 mt 5213 4341 L
 749 3717 mt 5213 3717 L
5213 3717 mt 5213 3717 L
 749 3093 mt 5213 3093 L
5213 3093 mt 5213 3093 L
 749 2470 mt 5213 2470 L
5213 2470 mt 5213 2470 L
 749 1846 mt 5213 1846 L
5213 1846 mt 5213 1846 L
 749 1223 mt 5213 1223 L
5213 1223 mt 5213 1223 L
 749  599 mt 5213  599 L
5213  599 mt 5213  599 L
SO
6 w
 749 6835 mt 5213 6835 L
 749  599 mt 5213  599 L
 749 6835 mt  749  599 L
5213 6835 mt 5213  599 L
 749 6835 mt 5213 6835 L
 749 6835 mt  749  599 L
 749 6835 mt  749 6772 L
 749  599 mt  749  662 L
%%IncludeResource: font Helvetica
/Helvetica /ISOLatin1Encoding 120 FMSR

 716 6980 mt 
(0) s
1493 6835 mt 1493 6772 L
1493  599 mt 1493  662 L
1460 6980 mt 
(1) s
2237 6835 mt 2237 6772 L
2237  599 mt 2237  662 L
2204 6980 mt 
(2) s
2981 6835 mt 2981 6772 L
2981  599 mt 2981  662 L
2948 6980 mt 
(3) s
3725 6835 mt 3725 6772 L
3725  599 mt 3725  662 L
3692 6980 mt 
(4) s
4469 6835 mt 4469 6772 L
4469  599 mt 4469  662 L
4436 6980 mt 
(5) s
5213 6835 mt 5213 6772 L
5213  599 mt 5213  662 L
5180 6980 mt 
(6) s
 749 6835 mt  811 6835 L
5213 6835 mt 5150 6835 L
 648 6879 mt 
(0) s
 749 6211 mt  811 6211 L
5213 6211 mt 5150 6211 L
 514 6255 mt 
(500) s
 749 5588 mt  811 5588 L
5213 5588 mt 5150 5588 L
 448 5632 mt 
(1000) s
 749 4964 mt  811 4964 L
5213 4964 mt 5150 4964 L
 448 5008 mt 
(1500) s
 749 4341 mt  811 4341 L
5213 4341 mt 5150 4341 L
 448 4385 mt 
(2000) s
 749 3717 mt  811 3717 L
5213 3717 mt 5150 3717 L
 448 3761 mt 
(2500) s
 749 3093 mt  811 3093 L
5213 3093 mt 5150 3093 L
 448 3137 mt 
(3000) s
 749 2470 mt  811 2470 L
5213 2470 mt 5150 2470 L
 448 2514 mt 
(3500) s
 749 1846 mt  811 1846 L
5213 1846 mt 5150 1846 L
 448 1890 mt 
(4000) s
 749 1223 mt  811 1223 L
5213 1223 mt 5150 1223 L
 448 1267 mt 
(4500) s
 749  599 mt  811  599 L
5213  599 mt 5150  599 L
 448  643 mt 
(5000) s
 749 6835 mt 5213 6835 L
 749  599 mt 5213  599 L
 749 6835 mt  749  599 L
5213 6835 mt 5213  599 L
%%IncludeResource: font Helvetica
/Helvetica /ISOLatin1Encoding 96 FMSR

 478  171 mt 
(n) s
%%IncludeResource: font Helvetica
/Helvetica /ISOLatin1Encoding 120 FMSR

 531  111 mt 
(S) s
%%IncludeResource: font Helvetica
/Helvetica /ISOLatin1Encoding 96 FMSR

 611  171 mt 
(l) s
%%IncludeResource: font Helvetica
/Helvetica /ISOLatin1Encoding 120 FMSR

 632  111 mt 
( mode frequencies for spherical shell of fluid enclosed bet\
ween inner and outer solid shells : ) s
2098  281 mt 
(r) s
%%IncludeResource: font Helvetica
/Helvetica /ISOLatin1Encoding 96 FMSR

2137  341 mt 
(i) s
%%IncludeResource: font Helvetica
/Helvetica /ISOLatin1Encoding 120 FMSR

2158  281 mt 
(=0, lambda) s
%%IncludeResource: font Helvetica
/Helvetica /ISOLatin1Encoding 96 FMSR

2755  341 mt 
(i) s
%%IncludeResource: font Helvetica
/Helvetica /ISOLatin1Encoding 120 FMSR

2776  281 mt 
(=0, kappa) s
%%IncludeResource: font Helvetica
/Helvetica /ISOLatin1Encoding 96 FMSR

3306  341 mt 
(0) s
3359  341 mt 
(i) s
%%IncludeResource: font Helvetica
/Helvetica /ISOLatin1Encoding 120 FMSR

3380  281 mt 
(=0, nu) s
%%IncludeResource: font Helvetica
/Helvetica /ISOLatin1Encoding 96 FMSR

3715  341 mt 
(i) s
%%IncludeResource: font Helvetica
/Helvetica /ISOLatin1Encoding 120 FMSR

3736  281 mt 
(=1) s
1490  451 mt 
(r) s
%%IncludeResource: font Helvetica
/Helvetica /ISOLatin1Encoding 96 FMSR

1529  511 mt 
(o) s
%%IncludeResource: font Helvetica
/Helvetica /ISOLatin1Encoding 120 FMSR

1582  451 mt 
(=0.223 lambda) s
%%IncludeResource: font Helvetica
/Helvetica /ISOLatin1Encoding 96 FMSR

2379  511 mt 
(o) s
%%IncludeResource: font Helvetica
/Helvetica /ISOLatin1Encoding 120 FMSR

2432  451 mt 
(=0.10045, kappa) s
%%IncludeResource: font Helvetica
/Helvetica /ISOLatin1Encoding 96 FMSR

3329  511 mt 
(0) s
3382  511 mt 
(o) s
%%IncludeResource: font Helvetica
/Helvetica /ISOLatin1Encoding 120 FMSR

3435  451 mt 
(=0.073094, nu) s
%%IncludeResource: font Helvetica
/Helvetica /ISOLatin1Encoding 96 FMSR

4204  511 mt 
(o) s
%%IncludeResource: font Helvetica
/Helvetica /ISOLatin1Encoding 120 FMSR

4257  451 mt 
(=0.4) s
2364 7123 mt 
(mode angular number l) s
 366 4810 mt  -90 rotate
(mode frequency \(Hz\) \(csound = 340 m/s\)) s
90 rotate
gs 749 600 4465 6236 rc
gr

0 j
41 71 -82 0 41 -71 749 4525 4 MP
/c8 { 1.000000 0.000000 1.000000 sr} bdef
c8
gs
PP
gr
DP
41 71 -82 0 41 -71 1493 3124 4 MP
gs
PP
gr
DP
41 71 -82 0 41 -71 2237 2687 4 MP
gs
PP
gr
DP
41 71 -82 0 41 -71 2981 2350 4 MP
gs
PP
gr
DP
41 71 -82 0 41 -71 3725 1854 4 MP
gs
PP
gr
DP
41 71 -82 0 41 -71 4469 1449 4 MP
gs
PP
gr
DP
41 71 -82 0 41 -71 5213 1051 4 MP
gs
PP
gr
DP
gs 749 600 4465 6236 rc
gr

/c9 { 1.000000 0.000000 0.000000 sr} bdef
c9
 713 4782 mt  785 4782 L
 749 4746 mt  749 4818 L
1457 4317 mt 1529 4317 L
1493 4281 mt 1493 4353 L
2201 3628 mt 2273 3628 L
2237 3592 mt 2237 3664 L
2945 3210 mt 3017 3210 L
2981 3174 mt 2981 3246 L
3689 2809 mt 3761 2809 L
3725 2773 mt 3725 2845 L
4433 2417 mt 4505 2417 L
4469 2381 mt 4469 2453 L
5177 2032 mt 5249 2032 L
5213 1996 mt 5213 2068 L
gs 749 600 4465 6236 rc
gr

/c10 { 0.000000 0.000000 1.000000 sr} bdef
c10
 724 5456 mt  774 5506 L
 774 5456 mt  724 5506 L
1468 5014 mt 1518 5064 L
1518 5014 mt 1468 5064 L
2212 4601 mt 2262 4651 L
2262 4601 mt 2212 4651 L
2956 4208 mt 3006 4258 L
3006 4208 mt 2956 4258 L
3700 3827 mt 3750 3877 L
3750 3827 mt 3700 3877 L
4444 3455 mt 4494 3505 L
4494 3455 mt 4444 3505 L
5188 3090 mt 5238 3140 L
5238 3090 mt 5188 3140 L
gs 749 600 4465 6236 rc
gr

0 sg
  36   36  749 6835 PO
  36   36 1493 6196 PO
  36   36 2237 6056 PO
  36   36 2981 5440 PO
  36   36 3725 5103 PO
  36   36 4469 4771 PO
  36   36 5213 4442 PO
  36   36  749 6835 FO
  36   36 1493 6196 FO
  36   36 2237 6056 FO
  36   36 2981 5440 FO
  36   36 3725 5103 FO
  36   36 4469 4771 FO
  36   36 5213 4442 FO
gs 749 600 4465 6236 rc
gr

 732 6878 mt 
( ) s
5197  642 mt 
( ) s
1 sg
0 718 725 0 0 -718 991 1580 4 MP
PP
-725 0 0 718 725 0 0 -718 991 1580 5 MP stroke
4 w
DO
SO
6 w
0 sg
 991 1580 mt 1716 1580 L
 991  862 mt 1716  862 L
 991 1580 mt  991  862 L
1716 1580 mt 1716  862 L
 991 1580 mt 1716 1580 L
 991 1580 mt  991  862 L
 991 1580 mt 1716 1580 L
 991  862 mt 1716  862 L
 991 1580 mt  991  862 L
1716 1580 mt 1716  862 L
1460 1010 mt 
(n=3) s
gs 991 862 726 719 rc
gr

41 71 -82 0 41 -71 1243 1014 4 MP
c8
gs
PP
gr
DP
gs 991 862 726 719 rc
gr

0 sg
1460 1179 mt 
(2) s
gs 991 862 726 719 rc
gr

c9
1207 1136 mt 1279 1136 L
1243 1100 mt 1243 1172 L
gs 991 862 726 719 rc
gr

0 sg
1460 1348 mt 
(1) s
gs 991 862 726 719 rc
gr

c10
1218 1280 mt 1268 1330 L
1268 1280 mt 1218 1330 L
gs 991 862 726 719 rc
gr

0 sg
1460 1517 mt 
(0) s
gs 991 862 726 719 rc
gr

  36   36 1243 1474 PO
  36   36 1243 1474 FO
gs 991 862 726 719 rc
gr


end %%Color Dict

eplot
%%EndObject

epage
end

showpage

%%Trailer
%%EOF
