%!PS-Adobe-3.0 EPSF-3.0
%%Creator: MATLAB, The MathWorks, Inc. Version 7.14.0.739 (R2012a). Operating System: Linux 2.6.32-279.2.1.el6.x86_64 #1 SMP Fri Jul 20 01:55:29 UTC 2012 x86_64.
%%Title: /lgit/data-geodynamo/natafh/Dynamo/Acoustics/elastic_shell/Figures/plexi.eps
%%CreationDate: 01/24/2014  07:46:33
%%DocumentNeededFonts: Helvetica
%%DocumentProcessColors: Cyan Magenta Yellow Black
%%LanguageLevel: 2
%%Pages: 1
%%BoundingBox:    90   140   521   652
%%EndComments

%%BeginProlog
% MathWorks dictionary
/MathWorks 160 dict begin
% definition operators
/bdef {bind def} bind def
/ldef {load def} bind def
/xdef {exch def} bdef
/xstore {exch store} bdef
% operator abbreviations
/c  /clip ldef
/cc /concat ldef
/cp /closepath ldef
/gr /grestore ldef
/gs /gsave ldef
/mt /moveto ldef
/np /newpath ldef
/cm /currentmatrix ldef
/sm /setmatrix ldef
/rm /rmoveto ldef
/rl /rlineto ldef
/s {show newpath} bdef
/sc {setcmykcolor} bdef
/sr /setrgbcolor ldef
/sg /setgray ldef
/w /setlinewidth ldef
/j /setlinejoin ldef
/cap /setlinecap ldef
/rc {rectclip} bdef
/rf {rectfill} bdef
% page state control
/pgsv () def
/bpage {/pgsv save def} bdef
/epage {pgsv restore} bdef
/bplot /gsave ldef
/eplot {stroke grestore} bdef
% orientation switch
/portraitMode 0 def /landscapeMode 1 def /rotateMode 2 def
% coordinate system mappings
/dpi2point 0 def
% font control
/FontSize 0 def
/FMS {/FontSize xstore findfont [FontSize 0 0 FontSize neg 0 0]
  makefont setfont} bdef
/reencode {exch dup where {pop load} {pop StandardEncoding} ifelse
  exch dup 3 1 roll findfont dup length dict begin
  { 1 index /FID ne {def}{pop pop} ifelse } forall
  /Encoding exch def currentdict end definefont pop} bdef
/isroman {findfont /CharStrings get /Agrave known} bdef
/FMSR {3 1 roll 1 index dup isroman {reencode} {pop pop} ifelse
  exch FMS} bdef
/csm {1 dpi2point div -1 dpi2point div scale neg translate
 dup landscapeMode eq {pop -90 rotate}
  {rotateMode eq {90 rotate} if} ifelse} bdef
% line types: solid, dotted, dashed, dotdash
/SO { [] 0 setdash } bdef
/DO { [.5 dpi2point mul 4 dpi2point mul] 0 setdash } bdef
/DA { [6 dpi2point mul] 0 setdash } bdef
/DD { [.5 dpi2point mul 4 dpi2point mul 6 dpi2point mul 4
  dpi2point mul] 0 setdash } bdef
% macros for lines and objects
/L {lineto stroke} bdef
/MP {3 1 roll moveto 1 sub {rlineto} repeat} bdef
/AP {{rlineto} repeat} bdef
/PDlw -1 def
/W {/PDlw currentlinewidth def setlinewidth} def
/PP {closepath eofill} bdef
/DP {closepath stroke} bdef
/MR {4 -2 roll moveto dup  0 exch rlineto exch 0 rlineto
  neg 0 exch rlineto closepath} bdef
/FR {MR stroke} bdef
/PR {MR fill} bdef
/L1i {{currentfile picstr readhexstring pop} image} bdef
/tMatrix matrix def
/MakeOval {newpath tMatrix currentmatrix pop translate scale
0 0 1 0 360 arc tMatrix setmatrix} bdef
/FO {MakeOval stroke} bdef
/PO {MakeOval fill} bdef
/PD {currentlinewidth 2 div 0 360 arc fill
   PDlw -1 eq not {PDlw w /PDlw -1 def} if} def
/FA {newpath tMatrix currentmatrix pop translate scale
  0 0 1 5 -2 roll arc tMatrix setmatrix stroke} bdef
/PA {newpath tMatrix currentmatrix pop	translate 0 0 moveto scale
  0 0 1 5 -2 roll arc closepath tMatrix setmatrix fill} bdef
/FAn {newpath tMatrix currentmatrix pop translate scale
  0 0 1 5 -2 roll arcn tMatrix setmatrix stroke} bdef
/PAn {newpath tMatrix currentmatrix pop translate 0 0 moveto scale
  0 0 1 5 -2 roll arcn closepath tMatrix setmatrix fill} bdef
/vradius 0 def /hradius 0 def /lry 0 def
/lrx 0 def /uly 0 def /ulx 0 def /rad 0 def
/MRR {/vradius xdef /hradius xdef /lry xdef /lrx xdef /uly xdef
  /ulx xdef newpath tMatrix currentmatrix pop ulx hradius add uly
  vradius add translate hradius vradius scale 0 0 1 180 270 arc 
  tMatrix setmatrix lrx hradius sub uly vradius add translate
  hradius vradius scale 0 0 1 270 360 arc tMatrix setmatrix
  lrx hradius sub lry vradius sub translate hradius vradius scale
  0 0 1 0 90 arc tMatrix setmatrix ulx hradius add lry vradius sub
  translate hradius vradius scale 0 0 1 90 180 arc tMatrix setmatrix
  closepath} bdef
/FRR {MRR stroke } bdef
/PRR {MRR fill } bdef
/MlrRR {/lry xdef /lrx xdef /uly xdef /ulx xdef /rad lry uly sub 2 div def
  newpath tMatrix currentmatrix pop ulx rad add uly rad add translate
  rad rad scale 0 0 1 90 270 arc tMatrix setmatrix lrx rad sub lry rad
  sub translate rad rad scale 0 0 1 270 90 arc tMatrix setmatrix
  closepath} bdef
/FlrRR {MlrRR stroke } bdef
/PlrRR {MlrRR fill } bdef
/MtbRR {/lry xdef /lrx xdef /uly xdef /ulx xdef /rad lrx ulx sub 2 div def
  newpath tMatrix currentmatrix pop ulx rad add uly rad add translate
  rad rad scale 0 0 1 180 360 arc tMatrix setmatrix lrx rad sub lry rad
  sub translate rad rad scale 0 0 1 0 180 arc tMatrix setmatrix
  closepath} bdef
/FtbRR {MtbRR stroke } bdef
/PtbRR {MtbRR fill } bdef
/stri 6 array def /dtri 6 array def
/smat 6 array def /dmat 6 array def
/tmat1 6 array def /tmat2 6 array def /dif 3 array def
/asub {/ind2 exch def /ind1 exch def dup dup
  ind1 get exch ind2 get sub exch } bdef
/tri_to_matrix {
  2 0 asub 3 1 asub 4 0 asub 5 1 asub
  dup 0 get exch 1 get 7 -1 roll astore } bdef
/compute_transform {
  dmat dtri tri_to_matrix tmat1 invertmatrix 
  smat stri tri_to_matrix tmat2 concatmatrix } bdef
/ds {stri astore pop} bdef
/dt {dtri astore pop} bdef
/db {2 copy /cols xdef /rows xdef mul dup 3 mul string
  currentfile 
  3 index 0 eq {/ASCIIHexDecode filter}
  {/ASCII85Decode filter 3 index 2 eq {/RunLengthDecode filter} if }
  ifelse exch readstring pop
  dup 0 3 index getinterval /rbmap xdef
  dup 2 index dup getinterval /gbmap xdef
  1 index dup 2 mul exch getinterval /bbmap xdef pop pop}bdef
/it {gs np dtri aload pop moveto lineto lineto cp c
  cols rows 8 compute_transform 
  rbmap gbmap bbmap true 3 colorimage gr}bdef
/il {newpath moveto lineto stroke}bdef
currentdict end def
%%EndProlog

%%BeginSetup
MathWorks begin

0 cap

end
%%EndSetup

%%Page: 1 1
%%BeginPageSetup
%%PageBoundingBox:    90   140   521   652
MathWorks begin
bpage
%%EndPageSetup

%%BeginObject: obj1
bplot

/dpi2point 12 def
portraitMode 1080 7824 csm

    0     0  5175  6135 rc
87 dict begin %Colortable dictionary
/c0 { 0.000000 0.000000 0.000000 sr} bdef
/c1 { 1.000000 1.000000 1.000000 sr} bdef
/c2 { 0.900000 0.000000 0.000000 sr} bdef
/c3 { 0.000000 0.820000 0.000000 sr} bdef
/c4 { 0.000000 0.000000 0.800000 sr} bdef
/c5 { 0.910000 0.820000 0.320000 sr} bdef
/c6 { 1.000000 0.260000 0.820000 sr} bdef
/c7 { 0.000000 0.820000 0.820000 sr} bdef
c0
1 j
1 sg
   0    0 5176 6136 rf
6 w
0 5000 4010 0 0 -5000 673 5460 4 MP
PP
-4010 0 0 5000 4010 0 0 -5000 673 5460 5 MP stroke
4 w
DO
0 sg
 673 5460 mt  673  460 L
 673  460 mt  673  460 L
2009 5460 mt 2009  460 L
2009  460 mt 2009  460 L
3346 5460 mt 3346  460 L
3346  460 mt 3346  460 L
4683 5460 mt 4683  460 L
4683  460 mt 4683  460 L
 673 5460 mt 4683 5460 L
4683 5460 mt 4683 5460 L
 673 4960 mt 4683 4960 L
4683 4960 mt 4683 4960 L
 673 4460 mt 4683 4460 L
4683 4460 mt 4683 4460 L
 673 3960 mt 4683 3960 L
4683 3960 mt 4683 3960 L
 673 3460 mt 4683 3460 L
4683 3460 mt 4683 3460 L
 673 2960 mt 4683 2960 L
4683 2960 mt 4683 2960 L
 673 2460 mt 4683 2460 L
4683 2460 mt 4683 2460 L
 673 1960 mt 4683 1960 L
4683 1960 mt 4683 1960 L
 673 1460 mt 4683 1460 L
4683 1460 mt 4683 1460 L
 673  960 mt 4683  960 L
4683  960 mt 4683  960 L
 673  460 mt 4683  460 L
4683  460 mt 4683  460 L
SO
6 w
 673 5460 mt 4683 5460 L
 673  460 mt 4683  460 L
 673 5460 mt  673  460 L
4683 5460 mt 4683  460 L
 673 5460 mt 4683 5460 L
 673 5460 mt  673  460 L
 673 5460 mt  673 5410 L
 673  460 mt  673  510 L
%%IncludeResource: font Helvetica
/Helvetica /ISOLatin1Encoding 120 FMSR

 640 5605 mt 
(0) s
2009 5460 mt 2009 5410 L
2009  460 mt 2009  510 L
1976 5605 mt 
(5) s
3346 5460 mt 3346 5410 L
3346  460 mt 3346  510 L
3280 5605 mt 
(10) s
4683 5460 mt 4683 5410 L
4683  460 mt 4683  510 L
4617 5605 mt 
(15) s
 673 5460 mt  723 5460 L
4683 5460 mt 4633 5460 L
 572 5504 mt 
(0) s
 673 4960 mt  723 4960 L
4683 4960 mt 4633 4960 L
 372 5004 mt 
(1000) s
 673 4460 mt  723 4460 L
4683 4460 mt 4633 4460 L
 372 4504 mt 
(2000) s
 673 3960 mt  723 3960 L
4683 3960 mt 4633 3960 L
 372 4004 mt 
(3000) s
 673 3460 mt  723 3460 L
4683 3460 mt 4633 3460 L
 372 3504 mt 
(4000) s
 673 2960 mt  723 2960 L
4683 2960 mt 4633 2960 L
 372 3004 mt 
(5000) s
 673 2460 mt  723 2460 L
4683 2460 mt 4633 2460 L
 372 2504 mt 
(6000) s
 673 1960 mt  723 1960 L
4683 1960 mt 4633 1960 L
 372 2004 mt 
(7000) s
 673 1460 mt  723 1460 L
4683 1460 mt 4633 1460 L
 372 1504 mt 
(8000) s
 673  960 mt  723  960 L
4683  960 mt 4633  960 L
 372 1004 mt 
(9000) s
 673  460 mt  723  460 L
4683  460 mt 4633  460 L
 305  504 mt 
(10000) s
 673 5460 mt 4683 5460 L
 673  460 mt 4683  460 L
 673 5460 mt  673  460 L
4683 5460 mt 4683  460 L
%%IncludeResource: font Helvetica
/Helvetica /ISOLatin1Encoding 96 FMSR

 860  371 mt 
(n) s
%%IncludeResource: font Helvetica
/Helvetica /ISOLatin1Encoding 120 FMSR

 913  311 mt 
(S) s
%%IncludeResource: font Helvetica
/Helvetica /ISOLatin1Encoding 96 FMSR

 993  371 mt 
(l) s
%%IncludeResource: font Helvetica
/Helvetica /ISOLatin1Encoding 120 FMSR

1014  311 mt 
( mode frequencies for elastic spherical shell Plexi r) s
%%IncludeResource: font Helvetica
/Helvetica /ISOLatin1Encoding 96 FMSR

3702  371 mt 
(o) s
%%IncludeResource: font Helvetica
/Helvetica /ISOLatin1Encoding 120 FMSR

3755  311 mt 
(=0.223, c=340) s
2061 5748 mt 
(mode angular number l) s
 223 3521 mt  -90 rotate
(mode frequency \(Hz\)) s
90 rotate
gs 673 460 4011 5001 rc
gr

  36   36  673 5460 PO
  36   36  940 5205 PO
  36   36 1207 5148 PO
  36   36 1475 4904 PO
  36   36 1742 4769 PO
  36   36 2009 4635 PO
  36   36 2277 4503 PO
  36   36 2544 4372 PO
  36   36 2811 4241 PO
  36   36 3079 4112 PO
  36   36 3346 3983 PO
  36   36 3613 3855 PO
  36   36 3881 3727 PO
  36   36 4148 3599 PO
  36   36 4415 3472 PO
  36   36 4683 3345 PO
  36   36  673 5460 FO
  36   36  940 5205 FO
  36   36 1207 5148 FO
  36   36 1475 4904 FO
  36   36 1742 4769 FO
  36   36 2009 4635 FO
  36   36 2277 4503 FO
  36   36 2544 4372 FO
  36   36 2811 4241 FO
  36   36 3079 4112 FO
  36   36 3346 3983 FO
  36   36 3613 3855 FO
  36   36 3881 3727 FO
  36   36 4148 3599 FO
  36   36 4415 3472 FO
  36   36 4683 3345 FO
gs 673 460 4011 5001 rc
gr

/c8 { 0.000000 0.000000 1.000000 sr} bdef
c8
 648 4891 mt  698 4941 L
 698 4891 mt  648 4941 L
 915 4714 mt  965 4764 L
 965 4714 mt  915 4764 L
1182 4549 mt 1232 4599 L
1232 4549 mt 1182 4599 L
1450 4392 mt 1500 4442 L
1500 4392 mt 1450 4442 L
1717 4239 mt 1767 4289 L
1767 4239 mt 1717 4289 L
1984 4090 mt 2034 4140 L
2034 4090 mt 1984 4140 L
2252 3944 mt 2302 3994 L
2302 3944 mt 2252 3994 L
2519 3799 mt 2569 3849 L
2569 3799 mt 2519 3849 L
2786 3656 mt 2836 3706 L
2836 3656 mt 2786 3706 L
3054 3514 mt 3104 3564 L
3104 3514 mt 3054 3564 L
3321 3374 mt 3371 3424 L
3371 3374 mt 3321 3424 L
3588 3234 mt 3638 3284 L
3638 3234 mt 3588 3284 L
3856 3096 mt 3906 3146 L
3906 3096 mt 3856 3146 L
4123 2958 mt 4173 3008 L
4173 2958 mt 4123 3008 L
4390 2821 mt 4440 2871 L
4440 2821 mt 4390 2871 L
4658 2684 mt 4708 2734 L
4708 2684 mt 4658 2734 L
gs 673 460 4011 5001 rc
gr

/c9 { 1.000000 0.000000 0.000000 sr} bdef
c9
 637 4518 mt  709 4518 L
 673 4482 mt  673 4554 L
 904 4339 mt  976 4339 L
 940 4303 mt  940 4375 L
1171 4174 mt 1243 4174 L
1207 4138 mt 1207 4210 L
1439 4006 mt 1511 4006 L
1475 3970 mt 1475 4042 L
1706 3846 mt 1778 3846 L
1742 3810 mt 1742 3882 L
1973 3689 mt 2045 3689 L
2009 3653 mt 2009 3725 L
2241 3534 mt 2313 3534 L
2277 3498 mt 2277 3570 L
2508 3382 mt 2580 3382 L
2544 3346 mt 2544 3418 L
2775 3232 mt 2847 3232 L
2811 3196 mt 2811 3268 L
3043 3083 mt 3115 3083 L
3079 3047 mt 3079 3119 L
3310 2936 mt 3382 2936 L
3346 2900 mt 3346 2972 L
3577 2790 mt 3649 2790 L
3613 2754 mt 3613 2826 L
3845 2645 mt 3917 2645 L
3881 2609 mt 3881 2681 L
4112 2501 mt 4184 2501 L
4148 2465 mt 4148 2537 L
4379 2358 mt 4451 2358 L
4415 2322 mt 4415 2394 L
4647 2215 mt 4719 2215 L
4683 2179 mt 4683 2251 L
gs 673 460 4011 5001 rc
gr

0 j
41 71 -82 0 41 -71 673 4182 4 MP
/c10 { 1.000000 0.000000 1.000000 sr} bdef
c10
gs
PP
gr
DP
41 71 -82 0 41 -71 940 4000 4 MP
gs
PP
gr
DP
41 71 -82 0 41 -71 1207 3825 4 MP
gs
PP
gr
DP
41 71 -82 0 41 -71 1475 3718 4 MP
gs
PP
gr
DP
41 71 -82 0 41 -71 1742 3491 4 MP
gs
PP
gr
DP
41 71 -82 0 41 -71 2009 3329 4 MP
gs
PP
gr
DP
41 71 -82 0 41 -71 2277 3169 4 MP
gs
PP
gr
DP
41 71 -82 0 41 -71 2544 3012 4 MP
gs
PP
gr
DP
41 71 -82 0 41 -71 2811 2856 4 MP
gs
PP
gr
DP
41 71 -82 0 41 -71 3079 2703 4 MP
gs
PP
gr
DP
41 71 -82 0 41 -71 3346 2550 4 MP
gs
PP
gr
DP
41 71 -82 0 41 -71 3613 2400 4 MP
gs
PP
gr
DP
41 71 -82 0 41 -71 3881 2250 4 MP
gs
PP
gr
DP
41 71 -82 0 41 -71 4148 2101 4 MP
gs
PP
gr
DP
41 71 -82 0 41 -71 4415 1954 4 MP
gs
PP
gr
DP
41 71 -82 0 41 -71 4683 1807 4 MP
gs
PP
gr
DP
gs 673 460 4011 5001 rc
gr

0 -58 -58 0 0 58 58 0 644 3723 5 MP
/c11 { 0.000000 1.000000 0.000000 sr} bdef
c11
gs
PP
gr
DP
0 -58 -58 0 0 58 58 0 911 3540 5 MP
gs
PP
gr
DP
0 -58 -58 0 0 58 58 0 1178 3362 5 MP
gs
PP
gr
DP
0 -58 -58 0 0 58 58 0 1446 3189 5 MP
gs
PP
gr
DP
0 -58 -58 0 0 58 58 0 1713 3020 5 MP
gs
PP
gr
DP
0 -58 -58 0 0 58 58 0 1980 2854 5 MP
gs
PP
gr
DP
0 -58 -58 0 0 58 58 0 2248 2691 5 MP
gs
PP
gr
DP
0 -58 -58 0 0 58 58 0 2515 2530 5 MP
gs
PP
gr
DP
0 -58 -58 0 0 58 58 0 2782 2370 5 MP
gs
PP
gr
DP
0 -58 -58 0 0 58 58 0 3050 2213 5 MP
gs
PP
gr
DP
0 -58 -58 0 0 58 58 0 3317 2057 5 MP
gs
PP
gr
DP
0 -58 -58 0 0 58 58 0 3584 1902 5 MP
gs
PP
gr
DP
0 -58 -58 0 0 58 58 0 3852 1749 5 MP
gs
PP
gr
DP
0 -58 -58 0 0 58 58 0 4119 1597 5 MP
gs
PP
gr
DP
0 -58 -58 0 0 58 58 0 4386 1446 5 MP
gs
PP
gr
DP
0 -58 -58 0 0 58 58 0 4654 1296 5 MP
gs
PP
gr
DP
gs 673 460 4011 5001 rc
gr

-21 -16 8 -25 -22 15 -21 -15 8 25 -21 16 26 0 8 24 
9 -24 26 0 638 3358 11 MP
0 sg
gs
PP
gr
DP
-21 -16 8 -25 -22 15 -21 -15 8 25 -21 16 26 0 8 24 
9 -24 26 0 905 3173 11 MP
gs
PP
gr
DP
-21 -16 8 -25 -22 15 -21 -15 8 25 -21 16 26 0 8 24 
9 -24 26 0 1172 2993 11 MP
gs
PP
gr
DP
-21 -16 8 -25 -22 15 -21 -15 8 25 -21 16 26 0 8 24 
9 -24 26 0 1440 2818 11 MP
gs
PP
gr
DP
-21 -16 8 -25 -22 15 -21 -15 8 25 -21 16 26 0 8 24 
9 -24 26 0 1707 2646 11 MP
gs
PP
gr
DP
-21 -16 8 -25 -22 15 -21 -15 8 25 -21 16 26 0 8 24 
9 -24 26 0 1974 2724 11 MP
gs
PP
gr
DP
-21 -16 8 -25 -22 15 -21 -15 8 25 -21 16 26 0 8 24 
9 -24 26 0 2242 2312 11 MP
gs
PP
gr
DP
-21 -16 8 -25 -22 15 -21 -15 8 25 -21 16 26 0 8 24 
9 -24 26 0 2509 2147 11 MP
gs
PP
gr
DP
-21 -16 8 -25 -22 15 -21 -15 8 25 -21 16 26 0 8 24 
9 -24 26 0 2776 1985 11 MP
gs
PP
gr
DP
-21 -16 8 -25 -22 15 -21 -15 8 25 -21 16 26 0 8 24 
9 -24 26 0 3044 1824 11 MP
gs
PP
gr
DP
-21 -16 8 -25 -22 15 -21 -15 8 25 -21 16 26 0 8 24 
9 -24 26 0 3311 1665 11 MP
gs
PP
gr
DP
-21 -16 8 -25 -22 15 -21 -15 8 25 -21 16 26 0 8 24 
9 -24 26 0 3578 1508 11 MP
gs
PP
gr
DP
-21 -16 8 -25 -22 15 -21 -15 8 25 -21 16 26 0 8 24 
9 -24 26 0 3846 1351 11 MP
gs
PP
gr
DP
-21 -16 8 -25 -22 15 -21 -15 8 25 -21 16 26 0 8 24 
9 -24 26 0 4113 1196 11 MP
gs
PP
gr
DP
-21 -16 8 -25 -22 15 -21 -15 8 25 -21 16 26 0 8 24 
9 -24 26 0 4380 1042 11 MP
gs
PP
gr
DP
-21 -16 8 -25 -22 15 -21 -15 8 25 -21 16 26 0 8 24 
9 -24 26 0 4648 889 11 MP
gs
PP
gr
DP
gs 673 460 4011 5001 rc
gr

 656 5503 mt 
( ) s
4667  502 mt 
( ) s
1 sg
0 1230 725 0 0 -1230 809 1799 4 MP
PP
-725 0 0 1230 725 0 0 -1230 809 1799 5 MP stroke
4 w
DO
SO
6 w
0 sg
 809 1799 mt 1534 1799 L
 809  569 mt 1534  569 L
 809 1799 mt  809  569 L
1534 1799 mt 1534  569 L
 809 1799 mt 1534 1799 L
 809 1799 mt  809  569 L
 809 1799 mt 1534 1799 L
 809  569 mt 1534  569 L
 809 1799 mt  809  569 L
1534 1799 mt 1534  569 L
1278  731 mt 
(n=0) s
gs 809 569 726 1231 rc
gr

  36   36 1061  689 PO
  36   36 1061  689 FO
gs 809 569 726 1231 rc
gr

1278  929 mt 
(1) s
gs 809 569 726 1231 rc
gr

c8
1036  862 mt 1086  912 L
1086  862 mt 1036  912 L
gs 809 569 726 1231 rc
gr

0 sg
1278 1127 mt 
(2) s
gs 809 569 726 1231 rc
gr

c9
1025 1085 mt 1097 1085 L
1061 1049 mt 1061 1121 L
gs 809 569 726 1231 rc
gr

0 sg
1278 1326 mt 
(3) s
gs 809 569 726 1231 rc
gr

41 71 -82 0 41 -71 1061 1330 4 MP
c10
gs
PP
gr
DP
gs 809 569 726 1231 rc
gr

0 sg
1278 1524 mt 
(4) s
gs 809 569 726 1231 rc
gr

0 -58 -58 0 0 58 58 0 1032 1451 5 MP
c11
gs
PP
gr
DP
gs 809 569 726 1231 rc
gr

0 sg
1278 1722 mt 
(5) s
gs 809 569 726 1231 rc
gr

-21 -16 8 -25 -22 15 -21 -15 8 25 -21 16 26 0 8 24 
9 -24 26 0 1026 1666 11 MP
gs
PP
gr
DP
gs 809 569 726 1231 rc
gr


end %%Color Dict

eplot
%%EndObject

epage
end

showpage

%%Trailer
%%EOF
