%!PS-Adobe-3.0 EPSF-3.0
%%Creator: MATLAB, The MathWorks, Inc. Version 8.1.0.604 (R2013a). Operating System: Linux 3.12-0.bpo.1-amd64 #1 SMP Debian 3.12.9-1~bpo70+1 (2014-02-07) x86_64.
%%Title: /data/geodynamo/natafh/Dynamo/Acoustics/elastic_shell/Figures/Full_sphere/plexi_elastic_full_sphere_new_zoom.eps
%%CreationDate: 07/16/2014  11:02:27
%%DocumentNeededFonts: Helvetica
%%DocumentProcessColors: Cyan Magenta Yellow Black
%%LanguageLevel: 2
%%Pages: 1
%%BoundingBox:  -125   108   738   683
%%EndComments

%%BeginProlog
% MathWorks dictionary
/MathWorks 160 dict begin
% definition operators
/bdef {bind def} bind def
/ldef {load def} bind def
/xdef {exch def} bdef
/xstore {exch store} bdef
% operator abbreviations
/c  /clip ldef
/cc /concat ldef
/cp /closepath ldef
/gr /grestore ldef
/gs /gsave ldef
/mt /moveto ldef
/np /newpath ldef
/cm /currentmatrix ldef
/sm /setmatrix ldef
/rm /rmoveto ldef
/rl /rlineto ldef
/s {show newpath} bdef
/sc {setcmykcolor} bdef
/sr /setrgbcolor ldef
/sg /setgray ldef
/w /setlinewidth ldef
/j /setlinejoin ldef
/cap /setlinecap ldef
/rc {rectclip} bdef
/rf {rectfill} bdef
% page state control
/pgsv () def
/bpage {/pgsv save def} bdef
/epage {pgsv restore} bdef
/bplot /gsave ldef
/eplot {stroke grestore} bdef
% orientation switch
/portraitMode 0 def /landscapeMode 1 def /rotateMode 2 def
% coordinate system mappings
/dpi2point 0 def
% font control
/FontSize 0 def
/FMS {/FontSize xstore findfont [FontSize 0 0 FontSize neg 0 0]
  makefont setfont} bdef
/reencode {exch dup where {pop load} {pop StandardEncoding} ifelse
  exch dup 3 1 roll findfont dup length dict begin
  { 1 index /FID ne {def}{pop pop} ifelse } forall
  /Encoding exch def currentdict end definefont pop} bdef
/isroman {findfont /CharStrings get /Agrave known} bdef
/FMSR {3 1 roll 1 index dup isroman {reencode} {pop pop} ifelse
  exch FMS} bdef
/csm {1 dpi2point div -1 dpi2point div scale neg translate
 dup landscapeMode eq {pop -90 rotate}
  {rotateMode eq {90 rotate} if} ifelse} bdef
% line types: solid, dotted, dashed, dotdash
/SO { [] 0 setdash } bdef
/DO { [.5 dpi2point mul 4 dpi2point mul] 0 setdash } bdef
/DA { [6 dpi2point mul] 0 setdash } bdef
/DD { [.5 dpi2point mul 4 dpi2point mul 6 dpi2point mul 4
  dpi2point mul] 0 setdash } bdef
% macros for lines and objects
/L {lineto stroke} bdef
/MP {3 1 roll moveto 1 sub {rlineto} repeat} bdef
/AP {{rlineto} repeat} bdef
/PDlw -1 def
/W {/PDlw currentlinewidth def setlinewidth} def
/PP {closepath eofill} bdef
/DP {closepath stroke} bdef
/MR {4 -2 roll moveto dup  0 exch rlineto exch 0 rlineto
  neg 0 exch rlineto closepath} bdef
/FR {MR stroke} bdef
/PR {MR fill} bdef
/L1i {{currentfile picstr readhexstring pop} image} bdef
/tMatrix matrix def
/MakeOval {newpath tMatrix currentmatrix pop translate scale
0 0 1 0 360 arc tMatrix setmatrix} bdef
/FO {MakeOval stroke} bdef
/PO {MakeOval fill} bdef
/PD {currentlinewidth 2 div 0 360 arc fill
   PDlw -1 eq not {PDlw w /PDlw -1 def} if} def
/FA {newpath tMatrix currentmatrix pop translate scale
  0 0 1 5 -2 roll arc tMatrix setmatrix stroke} bdef
/PA {newpath tMatrix currentmatrix pop	translate 0 0 moveto scale
  0 0 1 5 -2 roll arc closepath tMatrix setmatrix fill} bdef
/FAn {newpath tMatrix currentmatrix pop translate scale
  0 0 1 5 -2 roll arcn tMatrix setmatrix stroke} bdef
/PAn {newpath tMatrix currentmatrix pop translate 0 0 moveto scale
  0 0 1 5 -2 roll arcn closepath tMatrix setmatrix fill} bdef
/vradius 0 def /hradius 0 def /lry 0 def
/lrx 0 def /uly 0 def /ulx 0 def /rad 0 def
/MRR {/vradius xdef /hradius xdef /lry xdef /lrx xdef /uly xdef
  /ulx xdef newpath tMatrix currentmatrix pop ulx hradius add uly
  vradius add translate hradius vradius scale 0 0 1 180 270 arc 
  tMatrix setmatrix lrx hradius sub uly vradius add translate
  hradius vradius scale 0 0 1 270 360 arc tMatrix setmatrix
  lrx hradius sub lry vradius sub translate hradius vradius scale
  0 0 1 0 90 arc tMatrix setmatrix ulx hradius add lry vradius sub
  translate hradius vradius scale 0 0 1 90 180 arc tMatrix setmatrix
  closepath} bdef
/FRR {MRR stroke } bdef
/PRR {MRR fill } bdef
/MlrRR {/lry xdef /lrx xdef /uly xdef /ulx xdef /rad lry uly sub 2 div def
  newpath tMatrix currentmatrix pop ulx rad add uly rad add translate
  rad rad scale 0 0 1 90 270 arc tMatrix setmatrix lrx rad sub lry rad
  sub translate rad rad scale 0 0 1 270 90 arc tMatrix setmatrix
  closepath} bdef
/FlrRR {MlrRR stroke } bdef
/PlrRR {MlrRR fill } bdef
/MtbRR {/lry xdef /lrx xdef /uly xdef /ulx xdef /rad lrx ulx sub 2 div def
  newpath tMatrix currentmatrix pop ulx rad add uly rad add translate
  rad rad scale 0 0 1 180 360 arc tMatrix setmatrix lrx rad sub lry rad
  sub translate rad rad scale 0 0 1 0 180 arc tMatrix setmatrix
  closepath} bdef
/FtbRR {MtbRR stroke } bdef
/PtbRR {MtbRR fill } bdef
/stri 6 array def /dtri 6 array def
/smat 6 array def /dmat 6 array def
/tmat1 6 array def /tmat2 6 array def /dif 3 array def
/asub {/ind2 exch def /ind1 exch def dup dup
  ind1 get exch ind2 get sub exch } bdef
/tri_to_matrix {
  2 0 asub 3 1 asub 4 0 asub 5 1 asub
  dup 0 get exch 1 get 7 -1 roll astore } bdef
/compute_transform {
  dmat dtri tri_to_matrix tmat1 invertmatrix 
  smat stri tri_to_matrix tmat2 concatmatrix } bdef
/ds {stri astore pop} bdef
/dt {dtri astore pop} bdef
/db {2 copy /cols xdef /rows xdef mul dup 3 mul string
  currentfile 
  3 index 0 eq {/ASCIIHexDecode filter}
  {/ASCII85Decode filter 3 index 2 eq {/RunLengthDecode filter} if }
  ifelse exch readstring pop
  dup 0 3 index getinterval /rbmap xdef
  dup 2 index dup getinterval /gbmap xdef
  1 index dup 2 mul exch getinterval /bbmap xdef pop pop}bdef
/it {gs np dtri aload pop moveto lineto lineto cp c
  cols rows 8 compute_transform 
  rbmap gbmap bbmap true 3 colorimage gr}bdef
/il {newpath moveto lineto stroke}bdef
currentdict end def
%%EndProlog

%%BeginSetup
MathWorks begin

0 cap

end
%%EndSetup

%%Page: 1 1
%%BeginPageSetup
%%PageBoundingBox:  -125   108   738   683
MathWorks begin
bpage
%%EndPageSetup

%%BeginObject: obj1
bplot

/dpi2point 12 def
portraitMode -1500 8196 csm

    0     0 10367  6893 rc
87 dict begin %Colortable dictionary
/c0 { 0.000000 0.000000 0.000000 sr} bdef
/c1 { 1.000000 1.000000 1.000000 sr} bdef
/c2 { 0.900000 0.000000 0.000000 sr} bdef
/c3 { 0.000000 0.820000 0.000000 sr} bdef
/c4 { 0.000000 0.000000 0.800000 sr} bdef
/c5 { 0.910000 0.820000 0.320000 sr} bdef
/c6 { 1.000000 0.260000 0.820000 sr} bdef
/c7 { 0.000000 0.820000 0.820000 sr} bdef
c0
1 j
1 sg
   0    0 10368 6894 rf
6 w
0 5535 8035 0 0 -5535 1347 6135 4 MP
PP
-8035 0 0 5535 8035 0 0 -5535 1347 6135 5 MP stroke
4 w
DO
0 sg
1347 6135 mt 1347  600 L
1347  600 mt 1347  600 L
2151 6135 mt 2151  600 L
2151  600 mt 2151  600 L
2954 6135 mt 2954  600 L
2954  600 mt 2954  600 L
3758 6135 mt 3758  600 L
3758  600 mt 3758  600 L
4561 6135 mt 4561  600 L
4561  600 mt 4561  600 L
5365 6135 mt 5365  600 L
5365  600 mt 5365  600 L
6168 6135 mt 6168  600 L
6168  600 mt 6168  600 L
6971 6135 mt 6971  600 L
6971  600 mt 6971  600 L
7775 6135 mt 7775  600 L
7775  600 mt 7775  600 L
8578 6135 mt 8578  600 L
8578  600 mt 8578  600 L
9382 6135 mt 9382  600 L
9382  600 mt 9382  600 L
1347 6135 mt 9382 6135 L
9382 6135 mt 9382 6135 L
1347 5607 mt 9382 5607 L
9382 5607 mt 9382 5607 L
1347 5080 mt 9382 5080 L
9382 5080 mt 9382 5080 L
1347 4553 mt 9382 4553 L
9382 4553 mt 9382 4553 L
1347 4026 mt 9382 4026 L
9382 4026 mt 9382 4026 L
1347 3499 mt 9382 3499 L
9382 3499 mt 9382 3499 L
1347 2972 mt 9382 2972 L
9382 2972 mt 9382 2972 L
1347 2445 mt 9382 2445 L
9382 2445 mt 9382 2445 L
1347 1917 mt 9382 1917 L
9382 1917 mt 9382 1917 L
1347 1390 mt 9382 1390 L
9382 1390 mt 9382 1390 L
1347  863 mt 9382  863 L
9382  863 mt 9382  863 L
SO
6 w
1347 6135 mt 9382 6135 L
1347  600 mt 9382  600 L
1347 6135 mt 1347  600 L
9382 6135 mt 9382  600 L
1347 6135 mt 9382 6135 L
1347 6135 mt 1347  600 L
1347 6135 mt 1347 6054 L
1347  600 mt 1347  680 L
%%IncludeResource: font Helvetica
/Helvetica /ISOLatin1Encoding 120 FMSR

1314 6280 mt 
(0) s
2151 6135 mt 2151 6054 L
2151  600 mt 2151  680 L
2118 6280 mt 
(1) s
2954 6135 mt 2954 6054 L
2954  600 mt 2954  680 L
2921 6280 mt 
(2) s
3758 6135 mt 3758 6054 L
3758  600 mt 3758  680 L
3725 6280 mt 
(3) s
4561 6135 mt 4561 6054 L
4561  600 mt 4561  680 L
4528 6280 mt 
(4) s
5365 6135 mt 5365 6054 L
5365  600 mt 5365  680 L
5332 6280 mt 
(5) s
6168 6135 mt 6168 6054 L
6168  600 mt 6168  680 L
6135 6280 mt 
(6) s
6971 6135 mt 6971 6054 L
6971  600 mt 6971  680 L
6938 6280 mt 
(7) s
7775 6135 mt 7775 6054 L
7775  600 mt 7775  680 L
7742 6280 mt 
(8) s
8578 6135 mt 8578 6054 L
8578  600 mt 8578  680 L
8545 6280 mt 
(9) s
9382 6135 mt 9382 6054 L
9382  600 mt 9382  680 L
9316 6280 mt 
(10) s
1347 6135 mt 1428 6135 L
9382 6135 mt 9301 6135 L
1047 6179 mt 
(1000) s
1347 5607 mt 1428 5607 L
9382 5607 mt 9301 5607 L
1047 5651 mt 
(1200) s
1347 5080 mt 1428 5080 L
9382 5080 mt 9301 5080 L
1047 5124 mt 
(1400) s
1347 4553 mt 1428 4553 L
9382 4553 mt 9301 4553 L
1047 4597 mt 
(1600) s
1347 4026 mt 1428 4026 L
9382 4026 mt 9301 4026 L
1047 4070 mt 
(1800) s
1347 3499 mt 1428 3499 L
9382 3499 mt 9301 3499 L
1047 3543 mt 
(2000) s
1347 2972 mt 1428 2972 L
9382 2972 mt 9301 2972 L
1047 3016 mt 
(2200) s
1347 2445 mt 1428 2445 L
9382 2445 mt 9301 2445 L
1047 2489 mt 
(2400) s
1347 1917 mt 1428 1917 L
9382 1917 mt 9301 1917 L
1047 1961 mt 
(2600) s
1347 1390 mt 1428 1390 L
9382 1390 mt 9301 1390 L
1047 1434 mt 
(2800) s
1347  863 mt 1428  863 L
9382  863 mt 9301  863 L
1047  907 mt 
(3000) s
1347 6135 mt 9382 6135 L
1347  600 mt 9382  600 L
1347 6135 mt 1347  600 L
9382 6135 mt 9382  600 L
%%IncludeResource: font Helvetica
/Helvetica /ISOLatin1Encoding 96 FMSR

2862  171 mt 
(n) s
%%IncludeResource: font Helvetica
/Helvetica /ISOLatin1Encoding 120 FMSR

2915  111 mt 
(S) s
%%IncludeResource: font Helvetica
/Helvetica /ISOLatin1Encoding 96 FMSR

2995  171 mt 
(l) s
%%IncludeResource: font Helvetica
/Helvetica /ISOLatin1Encoding 120 FMSR

3016  111 mt 
( mode frequencies for spherical shell of fluid enclosed bet\
ween inner and outer solid shells : ) s
4482  281 mt 
(r) s
%%IncludeResource: font Helvetica
/Helvetica /ISOLatin1Encoding 96 FMSR

4521  341 mt 
(i) s
%%IncludeResource: font Helvetica
/Helvetica /ISOLatin1Encoding 120 FMSR

4542  281 mt 
(=0, lambda) s
%%IncludeResource: font Helvetica
/Helvetica /ISOLatin1Encoding 96 FMSR

5139  341 mt 
(i) s
%%IncludeResource: font Helvetica
/Helvetica /ISOLatin1Encoding 120 FMSR

5160  281 mt 
(=0, kappa) s
%%IncludeResource: font Helvetica
/Helvetica /ISOLatin1Encoding 96 FMSR

5690  341 mt 
(0) s
5743  341 mt 
(i) s
%%IncludeResource: font Helvetica
/Helvetica /ISOLatin1Encoding 120 FMSR

5764  281 mt 
(=0, nu) s
%%IncludeResource: font Helvetica
/Helvetica /ISOLatin1Encoding 96 FMSR

6099  341 mt 
(i) s
%%IncludeResource: font Helvetica
/Helvetica /ISOLatin1Encoding 120 FMSR

6120  281 mt 
(=1) s
3874  451 mt 
(r) s
%%IncludeResource: font Helvetica
/Helvetica /ISOLatin1Encoding 96 FMSR

3913  511 mt 
(o) s
%%IncludeResource: font Helvetica
/Helvetica /ISOLatin1Encoding 120 FMSR

3966  451 mt 
(=0.223 lambda) s
%%IncludeResource: font Helvetica
/Helvetica /ISOLatin1Encoding 96 FMSR

4763  511 mt 
(o) s
%%IncludeResource: font Helvetica
/Helvetica /ISOLatin1Encoding 120 FMSR

4816  451 mt 
(=0.10045, kappa) s
%%IncludeResource: font Helvetica
/Helvetica /ISOLatin1Encoding 96 FMSR

5713  511 mt 
(0) s
5766  511 mt 
(o) s
%%IncludeResource: font Helvetica
/Helvetica /ISOLatin1Encoding 120 FMSR

5819  451 mt 
(=0.073094, nu) s
%%IncludeResource: font Helvetica
/Helvetica /ISOLatin1Encoding 96 FMSR

6588  511 mt 
(o) s
%%IncludeResource: font Helvetica
/Helvetica /ISOLatin1Encoding 120 FMSR

6641  451 mt 
(=0.4) s
4748 6423 mt 
(mode angular number l) s
 965 4460 mt  -90 rotate
(mode frequency \(Hz\) \(csound = 340 m/s\)) s
90 rotate
gs 1348 600 8035 5536 rc
gr

gs 1348 600 8035 5536 rc
gr

0 j
41 71 -82 0 41 -71 2151 874 4 MP
/c8 { 1.000000 0.000000 1.000000 sr} bdef
c8
gs
PP
gr
DP
gs 1348 600 8035 5536 rc
gr

/c9 { 1.000000 0.000000 0.000000 sr} bdef
c9
2115 3449 mt 2187 3449 L
2151 3413 mt 2151 3485 L
2918 1993 mt 2990 1993 L
2954 1957 mt 2954 2029 L
3722 1109 mt 3794 1109 L
3758 1073 mt 3758 1145 L
gs 1348 600 8035 5536 rc
gr

/c10 { 0.000000 0.000000 1.000000 sr} bdef
c10
2126 4950 mt 2176 5000 L
2176 4950 mt 2126 5000 L
2929 4076 mt 2979 4126 L
2979 4076 mt 2929 4126 L
3733 3246 mt 3783 3296 L
3783 3246 mt 3733 3296 L
4536 2442 mt 4586 2492 L
4586 2442 mt 4536 2492 L
5340 1656 mt 5390 1706 L
5390 1656 mt 5340 1706 L
6143  883 mt 6193  933 L
6193  883 mt 6143  933 L
gs 1348 600 8035 5536 rc
gr

0 sg
  36   36 3758 5822 PO
  36   36 4561 5111 PO
  36   36 5365 4409 PO
  36   36 6168 3714 PO
  36   36 6971 3024 PO
  36   36 7775 2339 PO
  36   36 8578 1657 PO
  36   36 9382  978 PO
  36   36 3758 5822 FO
  36   36 4561 5111 FO
  36   36 5365 4409 FO
  36   36 6168 3714 FO
  36   36 6971 3024 FO
  36   36 7775 2339 FO
  36   36 8578 1657 FO
  36   36 9382  978 FO
gs 1348 600 8035 5536 rc
gr

1331 6178 mt 
( ) s
9366  642 mt 
( ) s
1 sg
0 1057 725 0 0 -1057 8000 5299 4 MP
PP
-725 0 0 1057 725 0 0 -1057 8000 5299 5 MP stroke
4 w
DO
SO
6 w
0 sg
8000 5299 mt 8725 5299 L
8000 4242 mt 8725 4242 L
8000 5299 mt 8000 4242 L
8725 5299 mt 8725 4242 L
8000 5299 mt 8725 5299 L
8000 5299 mt 8000 4242 L
8000 5299 mt 8725 5299 L
8000 4242 mt 8725 4242 L
8000 5299 mt 8000 4242 L
8725 5299 mt 8725 4242 L
8469 4390 mt 
(n=5) s
gs 8000 4242 726 1058 rc
gr

-21 -16 8 -25 -22 15 -21 -15 8 25 -21 16 26 0 8 24 
9 -24 26 0 8217 4335 11 MP
gs
PP
gr
DP
gs 8000 4242 726 1058 rc
gr

8469 4559 mt 
(4) s
gs 8000 4242 726 1058 rc
gr

0 -58 -58 0 0 58 58 0 8223 4487 5 MP
/c11 { 0.000000 1.000000 0.000000 sr} bdef
c11
gs
PP
gr
DP
gs 8000 4242 726 1058 rc
gr

0 sg
8469 4728 mt 
(3) s
gs 8000 4242 726 1058 rc
gr

41 71 -82 0 41 -71 8252 4732 4 MP
c8
gs
PP
gr
DP
gs 8000 4242 726 1058 rc
gr

0 sg
8469 4898 mt 
(2) s
gs 8000 4242 726 1058 rc
gr

c9
8216 4855 mt 8288 4855 L
8252 4819 mt 8252 4891 L
gs 8000 4242 726 1058 rc
gr

0 sg
8469 5067 mt 
(1) s
gs 8000 4242 726 1058 rc
gr

c10
8227 4999 mt 8277 5049 L
8277 4999 mt 8227 5049 L
gs 8000 4242 726 1058 rc
gr

0 sg
8469 5236 mt 
(0) s
gs 8000 4242 726 1058 rc
gr

  36   36 8252 5193 PO
  36   36 8252 5193 FO
gs 8000 4242 726 1058 rc
gr


end %%Color Dict

eplot
%%EndObject

epage
end

showpage

%%Trailer
%%EOF
