%!PS-Adobe-3.0 EPSF-3.0
%%Creator: MATLAB, The MathWorks, Inc. Version 7.14.0.739 (R2012a). Operating System: Linux 2.6.32-279.2.1.el6.x86_64 #1 SMP Fri Jul 20 01:55:29 UTC 2012 x86_64.
%%Title: /lgit/data-geodynamo/natafh/Dynamo/Acoustics/elastic_shell/Figures/Rand_Figure_6_check.eps
%%CreationDate: 01/24/2014  08:12:08
%%DocumentNeededFonts: Helvetica
%%DocumentProcessColors: Cyan Magenta Yellow Black
%%LanguageLevel: 2
%%Pages: 1
%%BoundingBox:    82    42   528   750
%%EndComments

%%BeginProlog
% MathWorks dictionary
/MathWorks 160 dict begin
% definition operators
/bdef {bind def} bind def
/ldef {load def} bind def
/xdef {exch def} bdef
/xstore {exch store} bdef
% operator abbreviations
/c  /clip ldef
/cc /concat ldef
/cp /closepath ldef
/gr /grestore ldef
/gs /gsave ldef
/mt /moveto ldef
/np /newpath ldef
/cm /currentmatrix ldef
/sm /setmatrix ldef
/rm /rmoveto ldef
/rl /rlineto ldef
/s {show newpath} bdef
/sc {setcmykcolor} bdef
/sr /setrgbcolor ldef
/sg /setgray ldef
/w /setlinewidth ldef
/j /setlinejoin ldef
/cap /setlinecap ldef
/rc {rectclip} bdef
/rf {rectfill} bdef
% page state control
/pgsv () def
/bpage {/pgsv save def} bdef
/epage {pgsv restore} bdef
/bplot /gsave ldef
/eplot {stroke grestore} bdef
% orientation switch
/portraitMode 0 def /landscapeMode 1 def /rotateMode 2 def
% coordinate system mappings
/dpi2point 0 def
% font control
/FontSize 0 def
/FMS {/FontSize xstore findfont [FontSize 0 0 FontSize neg 0 0]
  makefont setfont} bdef
/reencode {exch dup where {pop load} {pop StandardEncoding} ifelse
  exch dup 3 1 roll findfont dup length dict begin
  { 1 index /FID ne {def}{pop pop} ifelse } forall
  /Encoding exch def currentdict end definefont pop} bdef
/isroman {findfont /CharStrings get /Agrave known} bdef
/FMSR {3 1 roll 1 index dup isroman {reencode} {pop pop} ifelse
  exch FMS} bdef
/csm {1 dpi2point div -1 dpi2point div scale neg translate
 dup landscapeMode eq {pop -90 rotate}
  {rotateMode eq {90 rotate} if} ifelse} bdef
% line types: solid, dotted, dashed, dotdash
/SO { [] 0 setdash } bdef
/DO { [.5 dpi2point mul 4 dpi2point mul] 0 setdash } bdef
/DA { [6 dpi2point mul] 0 setdash } bdef
/DD { [.5 dpi2point mul 4 dpi2point mul 6 dpi2point mul 4
  dpi2point mul] 0 setdash } bdef
% macros for lines and objects
/L {lineto stroke} bdef
/MP {3 1 roll moveto 1 sub {rlineto} repeat} bdef
/AP {{rlineto} repeat} bdef
/PDlw -1 def
/W {/PDlw currentlinewidth def setlinewidth} def
/PP {closepath eofill} bdef
/DP {closepath stroke} bdef
/MR {4 -2 roll moveto dup  0 exch rlineto exch 0 rlineto
  neg 0 exch rlineto closepath} bdef
/FR {MR stroke} bdef
/PR {MR fill} bdef
/L1i {{currentfile picstr readhexstring pop} image} bdef
/tMatrix matrix def
/MakeOval {newpath tMatrix currentmatrix pop translate scale
0 0 1 0 360 arc tMatrix setmatrix} bdef
/FO {MakeOval stroke} bdef
/PO {MakeOval fill} bdef
/PD {currentlinewidth 2 div 0 360 arc fill
   PDlw -1 eq not {PDlw w /PDlw -1 def} if} def
/FA {newpath tMatrix currentmatrix pop translate scale
  0 0 1 5 -2 roll arc tMatrix setmatrix stroke} bdef
/PA {newpath tMatrix currentmatrix pop	translate 0 0 moveto scale
  0 0 1 5 -2 roll arc closepath tMatrix setmatrix fill} bdef
/FAn {newpath tMatrix currentmatrix pop translate scale
  0 0 1 5 -2 roll arcn tMatrix setmatrix stroke} bdef
/PAn {newpath tMatrix currentmatrix pop translate 0 0 moveto scale
  0 0 1 5 -2 roll arcn closepath tMatrix setmatrix fill} bdef
/vradius 0 def /hradius 0 def /lry 0 def
/lrx 0 def /uly 0 def /ulx 0 def /rad 0 def
/MRR {/vradius xdef /hradius xdef /lry xdef /lrx xdef /uly xdef
  /ulx xdef newpath tMatrix currentmatrix pop ulx hradius add uly
  vradius add translate hradius vradius scale 0 0 1 180 270 arc 
  tMatrix setmatrix lrx hradius sub uly vradius add translate
  hradius vradius scale 0 0 1 270 360 arc tMatrix setmatrix
  lrx hradius sub lry vradius sub translate hradius vradius scale
  0 0 1 0 90 arc tMatrix setmatrix ulx hradius add lry vradius sub
  translate hradius vradius scale 0 0 1 90 180 arc tMatrix setmatrix
  closepath} bdef
/FRR {MRR stroke } bdef
/PRR {MRR fill } bdef
/MlrRR {/lry xdef /lrx xdef /uly xdef /ulx xdef /rad lry uly sub 2 div def
  newpath tMatrix currentmatrix pop ulx rad add uly rad add translate
  rad rad scale 0 0 1 90 270 arc tMatrix setmatrix lrx rad sub lry rad
  sub translate rad rad scale 0 0 1 270 90 arc tMatrix setmatrix
  closepath} bdef
/FlrRR {MlrRR stroke } bdef
/PlrRR {MlrRR fill } bdef
/MtbRR {/lry xdef /lrx xdef /uly xdef /ulx xdef /rad lrx ulx sub 2 div def
  newpath tMatrix currentmatrix pop ulx rad add uly rad add translate
  rad rad scale 0 0 1 180 360 arc tMatrix setmatrix lrx rad sub lry rad
  sub translate rad rad scale 0 0 1 0 180 arc tMatrix setmatrix
  closepath} bdef
/FtbRR {MtbRR stroke } bdef
/PtbRR {MtbRR fill } bdef
/stri 6 array def /dtri 6 array def
/smat 6 array def /dmat 6 array def
/tmat1 6 array def /tmat2 6 array def /dif 3 array def
/asub {/ind2 exch def /ind1 exch def dup dup
  ind1 get exch ind2 get sub exch } bdef
/tri_to_matrix {
  2 0 asub 3 1 asub 4 0 asub 5 1 asub
  dup 0 get exch 1 get 7 -1 roll astore } bdef
/compute_transform {
  dmat dtri tri_to_matrix tmat1 invertmatrix 
  smat stri tri_to_matrix tmat2 concatmatrix } bdef
/ds {stri astore pop} bdef
/dt {dtri astore pop} bdef
/db {2 copy /cols xdef /rows xdef mul dup 3 mul string
  currentfile 
  3 index 0 eq {/ASCIIHexDecode filter}
  {/ASCII85Decode filter 3 index 2 eq {/RunLengthDecode filter} if }
  ifelse exch readstring pop
  dup 0 3 index getinterval /rbmap xdef
  dup 2 index dup getinterval /gbmap xdef
  1 index dup 2 mul exch getinterval /bbmap xdef pop pop}bdef
/it {gs np dtri aload pop moveto lineto lineto cp c
  cols rows 8 compute_transform 
  rbmap gbmap bbmap true 3 colorimage gr}bdef
/il {newpath moveto lineto stroke}bdef
currentdict end def
%%EndProlog

%%BeginSetup
MathWorks begin

0 cap

end
%%EndSetup

%%Page: 1 1
%%BeginPageSetup
%%PageBoundingBox:    82    42   528   750
MathWorks begin
bpage
%%EndPageSetup

%%BeginObject: obj1
bplot

/dpi2point 12 def
portraitMode 0984 9000 csm

    0     0  5357  8496 rc
87 dict begin %Colortable dictionary
/c0 { 0.000000 0.000000 0.000000 sr} bdef
/c1 { 1.000000 1.000000 1.000000 sr} bdef
/c2 { 0.900000 0.000000 0.000000 sr} bdef
/c3 { 0.000000 0.820000 0.000000 sr} bdef
/c4 { 0.000000 0.000000 0.800000 sr} bdef
/c5 { 0.910000 0.820000 0.320000 sr} bdef
/c6 { 1.000000 0.260000 0.820000 sr} bdef
/c7 { 0.000000 0.820000 0.820000 sr} bdef
c0
1 j
1 sg
   0    0 5358 8497 rf
6 w
0 6924 4152 0 0 -6924 696 7561 4 MP
PP
-4152 0 0 6924 4152 0 0 -6924 696 7561 5 MP stroke
4 w
DO
0 sg
 696 7561 mt  696  637 L
 696  637 mt  696  637 L
1734 7561 mt 1734  637 L
1734  637 mt 1734  637 L
2772 7561 mt 2772  637 L
2772  637 mt 2772  637 L
3810 7561 mt 3810  637 L
3810  637 mt 3810  637 L
4848 7561 mt 4848  637 L
4848  637 mt 4848  637 L
 696 7561 mt 4848 7561 L
4848 7561 mt 4848 7561 L
 696 6637 mt 4848 6637 L
4848 6637 mt 4848 6637 L
 696 5714 mt 4848 5714 L
4848 5714 mt 4848 5714 L
 696 4791 mt 4848 4791 L
4848 4791 mt 4848 4791 L
 696 3868 mt 4848 3868 L
4848 3868 mt 4848 3868 L
 696 2945 mt 4848 2945 L
4848 2945 mt 4848 2945 L
 696 2021 mt 4848 2021 L
4848 2021 mt 4848 2021 L
 696 1098 mt 4848 1098 L
4848 1098 mt 4848 1098 L
SO
6 w
 696 7561 mt 4848 7561 L
 696  637 mt 4848  637 L
 696 7561 mt  696  637 L
4848 7561 mt 4848  637 L
 696 7561 mt 4848 7561 L
 696 7561 mt  696  637 L
 696 7561 mt  696 7491 L
 696  637 mt  696  706 L
%%IncludeResource: font Helvetica
/Helvetica /ISOLatin1Encoding 120 FMSR

 663 7706 mt 
(0) s
1734 7561 mt 1734 7491 L
1734  637 mt 1734  706 L
1701 7706 mt 
(4) s
2772 7561 mt 2772 7491 L
2772  637 mt 2772  706 L
2739 7706 mt 
(8) s
3810 7561 mt 3810 7491 L
3810  637 mt 3810  706 L
3744 7706 mt 
(12) s
4848 7561 mt 4848 7491 L
4848  637 mt 4848  706 L
4782 7706 mt 
(16) s
 696 7561 mt  765 7561 L
4848 7561 mt 4778 7561 L
 595 7605 mt 
(0) s
 696 6637 mt  765 6637 L
4848 6637 mt 4778 6637 L
 595 6681 mt 
(4) s
 696 5714 mt  765 5714 L
4848 5714 mt 4778 5714 L
 595 5758 mt 
(8) s
 696 4791 mt  765 4791 L
4848 4791 mt 4778 4791 L
 528 4835 mt 
(12) s
 696 3868 mt  765 3868 L
4848 3868 mt 4778 3868 L
 528 3912 mt 
(16) s
 696 2945 mt  765 2945 L
4848 2945 mt 4778 2945 L
 528 2989 mt 
(20) s
 696 2021 mt  765 2021 L
4848 2021 mt 4778 2021 L
 528 2065 mt 
(24) s
 696 1098 mt  765 1098 L
4848 1098 mt 4778 1098 L
 528 1142 mt 
(28) s
 696 7561 mt 4848 7561 L
 696  637 mt 4848  637 L
 696 7561 mt  696  637 L
4848 7561 mt 4848  637 L
%%IncludeResource: font Helvetica
/Helvetica /ISOLatin1Encoding 96 FMSR

 559  410 mt 
(n) s
%%IncludeResource: font Helvetica
/Helvetica /ISOLatin1Encoding 120 FMSR

 612  350 mt 
(S) s
%%IncludeResource: font Helvetica
/Helvetica /ISOLatin1Encoding 96 FMSR

 692  410 mt 
(l) s
%%IncludeResource: font Helvetica
/Helvetica /ISOLatin1Encoding 120 FMSR

 713  350 mt 
( mode frequencies for elastic spherical shell nu=0.3, lambd\
a=0.103, kappa) s
%%IncludeResource: font Helvetica
/Helvetica /ISOLatin1Encoding 96 FMSR

4665  410 mt 
(0) s
%%IncludeResource: font Helvetica
/Helvetica /ISOLatin1Encoding 120 FMSR

4718  350 mt 
(=17.6) s
1373  542 mt 
(\(compare with Figure 6 of Rand and DiMaggio, 1967\)) s
2155 7849 mt 
(mode angular number l) s
 446 4453 mt  -90 rotate
(mode z \(or k\)) s
90 rotate
gs 696 637 4153 6925 rc
gr

  36   36  696 7561 PO
  36   36  955 6777 PO
  36   36 1215 7342 PO
  36   36 1474 7274 PO
  36   36 1734 7226 PO
  36   36 1993 7188 PO
  36   36 2253 5255 PO
  36   36 2512 5004 PO
  36   36 2772 7107 PO
  36   36 3031 7087 PO
  36   36 3291 4263 PO
  36   36 3550 4019 PO
  36   36 3810 3775 PO
  36   36 4069 7025 PO
  36   36 4329 7013 PO
  36   36 4588 3050 PO
  36   36 4848 2809 PO
  36   36  696 7561 FO
  36   36  955 6777 FO
  36   36 1215 7342 FO
  36   36 1474 7274 FO
  36   36 1734 7226 FO
  36   36 1993 7188 FO
  36   36 2253 5255 FO
  36   36 2512 5004 FO
  36   36 2772 7107 FO
  36   36 3031 7087 FO
  36   36 3291 4263 FO
  36   36 3550 4019 FO
  36   36 3810 3775 FO
  36   36 4069 7025 FO
  36   36 4329 7013 FO
  36   36 4588 3050 FO
  36   36 4848 2809 FO
gs 696 637 4153 6925 rc
gr

/c8 { 0.000000 0.000000 1.000000 sr} bdef
c8
 671 6727 mt  721 6777 L
 721 6727 mt  671 6777 L
 930 6326 mt  980 6376 L
 980 6326 mt  930 6376 L
1190 6297 mt 1240 6347 L
1240 6297 mt 1190 6347 L
1449 6008 mt 1499 6058 L
1499 6008 mt 1449 6058 L
1709 5742 mt 1759 5792 L
1759 5742 mt 1709 5792 L
1968 5484 mt 2018 5534 L
2018 5484 mt 1968 5534 L
2228 4419 mt 2278 4469 L
2278 4419 mt 2228 4469 L
2487 4146 mt 2537 4196 L
2537 4146 mt 2487 4196 L
2747 4731 mt 2797 4781 L
2797 4731 mt 2747 4781 L
3006 4484 mt 3056 4534 L
3056 4484 mt 3006 4534 L
3266 3347 mt 3316 3397 L
3316 3347 mt 3266 3397 L
3525 3085 mt 3575 3135 L
3575 3085 mt 3525 3135 L
3785 2824 mt 3835 2874 L
3835 2824 mt 3785 2874 L
4044 3508 mt 4094 3558 L
4094 3508 mt 4044 3558 L
4304 3266 mt 4354 3316 L
4354 3266 mt 4304 3316 L
4563 2050 mt 4613 2100 L
4613 2050 mt 4563 2100 L
4823 1794 mt 4873 1844 L
4873 1794 mt 4823 1844 L
gs 696 637 4153 6925 rc
gr

/c9 { 1.000000 0.000000 0.000000 sr} bdef
c9
 660 4772 mt  732 4772 L
 696 4736 mt  696 4808 L
 919 5124 mt  991 5124 L
 955 5088 mt  955 5160 L
1179 5708 mt 1251 5708 L
1215 5672 mt 1215 5744 L
1438 5309 mt 1510 5309 L
1474 5273 mt 1474 5345 L
1698 5005 mt 1770 5005 L
1734 4969 mt 1734 5041 L
1957 4721 mt 2029 4721 L
1993 4685 mt 1993 4757 L
2217 3680 mt 2289 3680 L
2253 3644 mt 2253 3716 L
2476 3393 mt 2548 3393 L
2512 3357 mt 2512 3429 L
2736 3902 mt 2808 3902 L
2772 3866 mt 2772 3938 L
2995 3636 mt 3067 3636 L
3031 3600 mt 3031 3672 L
3255 2554 mt 3327 2554 L
3291 2518 mt 3291 2590 L
3514 2279 mt 3586 2279 L
3550 2243 mt 3550 2315 L
3774 2007 mt 3846 2007 L
3810 1971 mt 3810 2043 L
4033 2590 mt 4105 2590 L
4069 2554 mt 4069 2626 L
4293 2332 mt 4365 2332 L
4329 2296 mt 4329 2368 L
4552 1198 mt 4624 1198 L
4588 1162 mt 4588 1234 L
4812  931 mt 4884  931 L
4848  895 mt 4848  967 L
gs 696 637 4153 6925 rc
gr

0 j
41 71 -82 0 41 -71 696 4130 4 MP
/c10 { 1.000000 0.000000 1.000000 sr} bdef
c10
gs
PP
gr
DP
41 71 -82 0 41 -71 955 4488 4 MP
gs
PP
gr
DP
41 71 -82 0 41 -71 1215 5393 4 MP
gs
PP
gr
DP
41 71 -82 0 41 -71 1474 4745 4 MP
gs
PP
gr
DP
41 71 -82 0 41 -71 1734 4333 4 MP
gs
PP
gr
DP
41 71 -82 0 41 -71 1993 4022 4 MP
gs
PP
gr
DP
41 71 -82 0 41 -71 2253 2984 4 MP
gs
PP
gr
DP
41 71 -82 0 41 -71 2512 2684 4 MP
gs
PP
gr
DP
41 71 -82 0 41 -71 2772 3157 4 MP
gs
PP
gr
DP
41 71 -82 0 41 -71 3031 2878 4 MP
gs
PP
gr
DP
41 71 -82 0 41 -71 3291 1814 4 MP
gs
PP
gr
DP
41 71 -82 0 41 -71 3550 1530 4 MP
gs
PP
gr
DP
41 71 -82 0 41 -71 3810 1248 4 MP
gs
PP
gr
DP
41 71 -82 0 41 -71 4069 1783 4 MP
gs
PP
gr
DP
41 71 -82 0 41 -71 4329 1513 4 MP
gs
PP
gr
DP
gs 696 637 4153 6925 rc
gr

0 -58 -58 0 0 58 58 0 667 3357 5 MP
/c11 { 0.000000 1.000000 0.000000 sr} bdef
c11
gs
PP
gr
DP
0 -58 -58 0 0 58 58 0 926 3718 5 MP
gs
PP
gr
DP
0 -58 -58 0 0 58 58 0 1186 4765 5 MP
gs
PP
gr
DP
0 -58 -58 0 0 58 58 0 1445 3762 5 MP
gs
PP
gr
DP
0 -58 -58 0 0 58 58 0 1705 3681 5 MP
gs
PP
gr
DP
0 -58 -58 0 0 58 58 0 1964 3227 5 MP
gs
PP
gr
DP
0 -58 -58 0 0 58 58 0 2224 2192 5 MP
gs
PP
gr
DP
0 -58 -58 0 0 58 58 0 2483 1866 5 MP
gs
PP
gr
DP
0 -58 -58 0 0 58 58 0 2743 2314 5 MP
gs
PP
gr
DP
0 -58 -58 0 0 58 58 0 3002 2024 5 MP
gs
PP
gr
DP
0 -58 -58 0 0 58 58 0 3262 968 5 MP
gs
PP
gr
DP
0 -58 -58 0 0 58 58 0 3521 676 5 MP
gs
PP
gr
DP
gs 696 637 4153 6925 rc
gr

0 -58 -58 0 0 58 58 0 4040 892 5 MP
gs
PP
gr
DP
0 -58 -58 0 0 58 58 0 4300 614 5 MP
gs
PP
gr
DP
gs 696 637 4153 6925 rc
gr

-21 -16 8 -25 -22 15 -21 -15 8 25 -21 16 26 0 8 24 
9 -24 26 0 661 2671 11 MP
0 sg
gs
PP
gr
DP
-21 -16 8 -25 -22 15 -21 -15 8 25 -21 16 26 0 8 24 
9 -24 26 0 920 3034 11 MP
gs
PP
gr
DP
-21 -16 8 -25 -22 15 -21 -15 8 25 -21 16 26 0 8 24 
9 -24 26 0 1180 4105 11 MP
gs
PP
gr
DP
-21 -16 8 -25 -22 15 -21 -15 8 25 -21 16 26 0 8 24 
9 -24 26 0 1439 3083 11 MP
gs
PP
gr
DP
-21 -16 8 -25 -22 15 -21 -15 8 25 -21 16 26 0 8 24 
9 -24 26 0 1699 3403 11 MP
gs
PP
gr
DP
-21 -16 8 -25 -22 15 -21 -15 8 25 -21 16 26 0 8 24 
9 -24 26 0 1958 2742 11 MP
gs
PP
gr
DP
-21 -16 8 -25 -22 15 -21 -15 8 25 -21 16 26 0 8 24 
9 -24 26 0 2218 1816 11 MP
gs
PP
gr
DP
-21 -16 8 -25 -22 15 -21 -15 8 25 -21 16 26 0 8 24 
9 -24 26 0 2477 1177 11 MP
gs
PP
gr
DP
-21 -16 8 -25 -22 15 -21 -15 8 25 -21 16 26 0 8 24 
9 -24 26 0 2737 1578 11 MP
gs
PP
gr
DP
-21 -16 8 -25 -22 15 -21 -15 8 25 -21 16 26 0 8 24 
9 -24 26 0 2996 1279 11 MP
gs
PP
gr
DP
gs 696 637 4153 6925 rc
gr

-13 -18 13 -18 -21 0 -10 -18 -10 18 -21 0 13 18 -13 18 
21 0 10 18 10 -18 21 0 665 1958 13 MP
c8
gs
PP
gr
DP
-13 -18 13 -18 -21 0 -10 -18 -10 18 -21 0 13 18 -13 18 
21 0 10 18 10 -18 21 0 924 2321 13 MP
gs
PP
gr
DP
-13 -18 13 -18 -21 0 -10 -18 -10 18 -21 0 13 18 -13 18 
21 0 10 18 10 -18 21 0 1184 3400 13 MP
gs
PP
gr
DP
-13 -18 13 -18 -21 0 -10 -18 -10 18 -21 0 13 18 -13 18 
21 0 10 18 10 -18 21 0 1443 2368 13 MP
gs
PP
gr
DP
-13 -18 13 -18 -21 0 -10 -18 -10 18 -21 0 13 18 -13 18 
21 0 10 18 10 -18 21 0 1703 2755 13 MP
gs
PP
gr
DP
-13 -18 13 -18 -21 0 -10 -18 -10 18 -21 0 13 18 -13 18 
21 0 10 18 10 -18 21 0 1962 2410 13 MP
gs
PP
gr
DP
-13 -18 13 -18 -21 0 -10 -18 -10 18 -21 0 13 18 -13 18 
21 0 10 18 10 -18 21 0 2222 1396 13 MP
gs
PP
gr
DP
gs 696 637 4153 6925 rc
gr

-13 -18 13 -18 -21 0 -10 -18 -10 18 -21 0 13 18 -13 18 
21 0 10 18 10 -18 21 0 2741 830 13 MP
gs
PP
gr
DP
gs 696 637 4153 6925 rc
gr

c9
  36   36  696 1265 PO
  36   36  955 1629 PO
  36   36 1215 2713 PO
  36   36 1474 1671 PO
  36   36 1734 2063 PO
  36   36 1993 1743 PO
  36   36 2253  704 PO
  36   36  696 1265 FO
  36   36  955 1629 FO
  36   36 1215 2713 FO
  36   36 1474 1671 FO
  36   36 1734 2063 FO
  36   36 1993 1743 FO
  36   36 2253  704 FO
gs 696 637 4153 6925 rc
gr

c10
 930  892 mt  980  942 L
 980  892 mt  930  942 L
1190 1977 mt 1240 2027 L
1240 1977 mt 1190 2027 L
1449  930 mt 1499  980 L
1499  930 mt 1449  980 L
1709 1320 mt 1759 1370 L
1759 1320 mt 1709 1370 L
1968  998 mt 2018 1048 L
2018  998 mt 1968 1048 L
gs 696 637 4153 6925 rc
gr

c11
1179 1289 mt 1251 1289 L
1215 1253 mt 1215 1325 L
gs 696 637 4153 6925 rc
gr

0 sg
 679 7604 mt 
( ) s
4832  679 mt 
( ) s
1 sg
0 2220 725 0 0 -2220 3988 6251 4 MP
PP
-725 0 0 2220 725 0 0 -2220 3988 6251 5 MP stroke
4 w
DO
SO
6 w
0 sg
3988 6251 mt 4713 6251 L
3988 4031 mt 4713 4031 L
3988 6251 mt 3988 4031 L
4713 6251 mt 4713 4031 L
3988 6251 mt 4713 6251 L
3988 6251 mt 3988 4031 L
3988 6251 mt 4713 6251 L
3988 4031 mt 4713 4031 L
3988 6251 mt 3988 4031 L
4713 6251 mt 4713 4031 L
4457 4193 mt 
(n=0) s
gs 3988 4031 726 2221 rc
gr

  36   36 4240 4151 PO
  36   36 4240 4151 FO
gs 3988 4031 726 2221 rc
gr

4457 4391 mt 
(1) s
gs 3988 4031 726 2221 rc
gr

c8
4215 4324 mt 4265 4374 L
4265 4324 mt 4215 4374 L
gs 3988 4031 726 2221 rc
gr

0 sg
4457 4589 mt 
(2) s
gs 3988 4031 726 2221 rc
gr

c9
4204 4547 mt 4276 4547 L
4240 4511 mt 4240 4583 L
gs 3988 4031 726 2221 rc
gr

0 sg
4457 4787 mt 
(3) s
gs 3988 4031 726 2221 rc
gr

41 71 -82 0 41 -71 4240 4792 4 MP
c10
gs
PP
gr
DP
gs 3988 4031 726 2221 rc
gr

0 sg
4457 4985 mt 
(4) s
gs 3988 4031 726 2221 rc
gr

0 -58 -58 0 0 58 58 0 4211 4914 5 MP
c11
gs
PP
gr
DP
gs 3988 4031 726 2221 rc
gr

0 sg
4457 5183 mt 
(5) s
gs 3988 4031 726 2221 rc
gr

-21 -16 8 -25 -22 15 -21 -15 8 25 -21 16 26 0 8 24 
9 -24 26 0 4205 5129 11 MP
gs
PP
gr
DP
gs 3988 4031 726 2221 rc
gr

4457 5382 mt 
(6) s
gs 3988 4031 726 2221 rc
gr

-13 -18 13 -18 -21 0 -10 -18 -10 18 -21 0 13 18 -13 18 
21 0 10 18 10 -18 21 0 4209 5321 13 MP
c8
gs
PP
gr
DP
gs 3988 4031 726 2221 rc
gr

0 sg
4457 5580 mt 
(7) s
gs 3988 4031 726 2221 rc
gr

c9
  36   36 4240 5537 PO
  36   36 4240 5537 FO
gs 3988 4031 726 2221 rc
gr

0 sg
4457 5778 mt 
(8) s
gs 3988 4031 726 2221 rc
gr

c10
4215 5710 mt 4265 5760 L
4265 5710 mt 4215 5760 L
gs 3988 4031 726 2221 rc
gr

0 sg
4457 5976 mt 
(9) s
gs 3988 4031 726 2221 rc
gr

c11
4204 5933 mt 4276 5933 L
4240 5897 mt 4240 5969 L
gs 3988 4031 726 2221 rc
gr

0 sg
4457 6174 mt 
(10) s
gs 3988 4031 726 2221 rc
gr

41 71 -82 0 41 -71 4240 6178 4 MP
gs
PP
gr
DP
gs 3988 4031 726 2221 rc
gr


end %%Color Dict

eplot
%%EndObject

epage
end

showpage

%%Trailer
%%EOF
