%!PS-Adobe-3.0 EPSF-3.0
%%Creator: (MATLAB, The Mathworks, Inc. Version 9.0.0.341360 \(R2016a\). Operating System: Linux)
%%Title: /data/geodynamo/natafh/Dynamo/Acoustics/elastic_shell/Figures/ZoRo/Ledoux_coefficients-elastic.eps
%%CreationDate: 2016-06-09T17:22:53
%%Pages: (atend)
%%BoundingBox: 0 0 485 632
%%LanguageLevel: 3
%%EndComments
%%BeginProlog
%%BeginResource: procset (Apache XML Graphics Std ProcSet) 1.2 0
%%Version: 1.2 0
%%Copyright: (Copyright 2001-2003,2010 The Apache Software Foundation. License terms: http://www.apache.org/licenses/LICENSE-2.0)
/bd{bind def}bind def
/ld{load def}bd
/GR/grestore ld
/M/moveto ld
/LJ/setlinejoin ld
/C/curveto ld
/f/fill ld
/LW/setlinewidth ld
/GC/setgray ld
/t/show ld
/N/newpath ld
/CT/concat ld
/cp/closepath ld
/S/stroke ld
/L/lineto ld
/CC/setcmykcolor ld
/A/ashow ld
/GS/gsave ld
/RC/setrgbcolor ld
/RM/rmoveto ld
/ML/setmiterlimit ld
/re {4 2 roll M
1 index 0 rlineto
0 exch rlineto
neg 0 rlineto
cp } bd
/_ctm matrix def
/_tm matrix def
/BT { _ctm currentmatrix pop matrix _tm copy pop 0 0 moveto } bd
/ET { _ctm setmatrix } bd
/iTm { _ctm setmatrix _tm concat } bd
/Tm { _tm astore pop iTm 0 0 moveto } bd
/ux 0.0 def
/uy 0.0 def
/F {
  /Tp exch def
  /Tf exch def
  Tf findfont Tp scalefont setfont
  /cf Tf def  /cs Tp def
} bd
/ULS {currentpoint /uy exch def /ux exch def} bd
/ULE {
  /Tcx currentpoint pop def
  gsave
  newpath
  cf findfont cs scalefont dup
  /FontMatrix get 0 get /Ts exch def /FontInfo get dup
  /UnderlinePosition get Ts mul /To exch def
  /UnderlineThickness get Ts mul /Tt exch def
  ux uy To add moveto  Tcx uy To add lineto
  Tt setlinewidth stroke
  grestore
} bd
/OLE {
  /Tcx currentpoint pop def
  gsave
  newpath
  cf findfont cs scalefont dup
  /FontMatrix get 0 get /Ts exch def /FontInfo get dup
  /UnderlinePosition get Ts mul /To exch def
  /UnderlineThickness get Ts mul /Tt exch def
  ux uy To add cs add moveto Tcx uy To add cs add lineto
  Tt setlinewidth stroke
  grestore
} bd
/SOE {
  /Tcx currentpoint pop def
  gsave
  newpath
  cf findfont cs scalefont dup
  /FontMatrix get 0 get /Ts exch def /FontInfo get dup
  /UnderlinePosition get Ts mul /To exch def
  /UnderlineThickness get Ts mul /Tt exch def
  ux uy To add cs 10 mul 26 idiv add moveto Tcx uy To add cs 10 mul 26 idiv add lineto
  Tt setlinewidth stroke
  grestore
} bd
/QT {
/Y22 exch store
/X22 exch store
/Y21 exch store
/X21 exch store
currentpoint
/Y21 load 2 mul add 3 div exch
/X21 load 2 mul add 3 div exch
/X21 load 2 mul /X22 load add 3 div
/Y21 load 2 mul /Y22 load add 3 div
/X22 load /Y22 load curveto
} bd
/SSPD {
dup length /d exch dict def
{
/v exch def
/k exch def
currentpagedevice k known {
/cpdv currentpagedevice k get def
v cpdv ne {
/upd false def
/nullv v type /nulltype eq def
/nullcpdv cpdv type /nulltype eq def
nullv nullcpdv or
{
/upd true def
} {
/sametype v type cpdv type eq def
sametype {
v type /arraytype eq {
/vlen v length def
/cpdvlen cpdv length def
vlen cpdvlen eq {
0 1 vlen 1 sub {
/i exch def
/obj v i get def
/cpdobj cpdv i get def
obj cpdobj ne {
/upd true def
exit
} if
} for
} {
/upd true def
} ifelse
} {
v type /dicttype eq {
v {
/dv exch def
/dk exch def
/cpddv cpdv dk get def
dv cpddv ne {
/upd true def
exit
} if
} forall
} {
/upd true def
} ifelse
} ifelse
} if
} ifelse
upd true eq {
d k v put
} if
} if
} if
} forall
d length 0 gt {
d setpagedevice
} if
} bd
%%EndResource
%%BeginResource: procset (Apache XML Graphics EPS ProcSet) 1.0 0
%%Version: 1.0 0
%%Copyright: (Copyright 2002-2003 The Apache Software Foundation. License terms: http://www.apache.org/licenses/LICENSE-2.0)
/BeginEPSF { %def
/b4_Inc_state save def         % Save state for cleanup
/dict_count countdictstack def % Count objects on dict stack
/op_count count 1 sub def      % Count objects on operand stack
userdict begin                 % Push userdict on dict stack
/showpage { } def              % Redefine showpage, { } = null proc
0 setgray 0 setlinecap         % Prepare graphics state
1 setlinewidth 0 setlinejoin
10 setmiterlimit [ ] 0 setdash newpath
/languagelevel where           % If level not equal to 1 then
{pop languagelevel             % set strokeadjust and
1 ne                           % overprint to their defaults.
{false setstrokeadjust false setoverprint
} if
} if
} bd
/EndEPSF { %def
count op_count sub {pop} repeat            % Clean up stacks
countdictstack dict_count sub {end} repeat
b4_Inc_state restore
} bd
%%EndResource
%FOPBeginFontDict
%%IncludeResource: font Courier-Bold
%%IncludeResource: font Helvetica
%%IncludeResource: font Courier-BoldOblique
%%IncludeResource: font Courier-Oblique
%%IncludeResource: font Times-Roman
%%IncludeResource: font Helvetica-BoldOblique
%%IncludeResource: font Helvetica-Bold
%%IncludeResource: font Helvetica-Oblique
%%IncludeResource: font Times-BoldItalic
%%IncludeResource: font Courier
%%IncludeResource: font Times-Italic
%%IncludeResource: font Times-Bold
%%IncludeResource: font Symbol
%%IncludeResource: font ZapfDingbats
%FOPEndFontDict
%%BeginResource: encoding WinAnsiEncoding
/WinAnsiEncoding [
/.notdef /.notdef /.notdef /.notdef /.notdef
/.notdef /.notdef /.notdef /.notdef /.notdef
/.notdef /.notdef /.notdef /.notdef /.notdef
/.notdef /.notdef /.notdef /.notdef /.notdef
/.notdef /.notdef /.notdef /.notdef /.notdef
/.notdef /.notdef /.notdef /.notdef /.notdef
/.notdef /.notdef /space /exclam /quotedbl
/numbersign /dollar /percent /ampersand /quotesingle
/parenleft /parenright /asterisk /plus /comma
/hyphen /period /slash /zero /one
/two /three /four /five /six
/seven /eight /nine /colon /semicolon
/less /equal /greater /question /at
/A /B /C /D /E
/F /G /H /I /J
/K /L /M /N /O
/P /Q /R /S /T
/U /V /W /X /Y
/Z /bracketleft /backslash /bracketright /asciicircum
/underscore /quoteleft /a /b /c
/d /e /f /g /h
/i /j /k /l /m
/n /o /p /q /r
/s /t /u /v /w
/x /y /z /braceleft /bar
/braceright /asciitilde /bullet /Euro /bullet
/quotesinglbase /florin /quotedblbase /ellipsis /dagger
/daggerdbl /circumflex /perthousand /Scaron /guilsinglleft
/OE /bullet /Zcaron /bullet /bullet
/quoteleft /quoteright /quotedblleft /quotedblright /bullet
/endash /emdash /asciitilde /trademark /scaron
/guilsinglright /oe /bullet /zcaron /Ydieresis
/space /exclamdown /cent /sterling /currency
/yen /brokenbar /section /dieresis /copyright
/ordfeminine /guillemotleft /logicalnot /sfthyphen /registered
/macron /degree /plusminus /twosuperior /threesuperior
/acute /mu /paragraph /middot /cedilla
/onesuperior /ordmasculine /guillemotright /onequarter /onehalf
/threequarters /questiondown /Agrave /Aacute /Acircumflex
/Atilde /Adieresis /Aring /AE /Ccedilla
/Egrave /Eacute /Ecircumflex /Edieresis /Igrave
/Iacute /Icircumflex /Idieresis /Eth /Ntilde
/Ograve /Oacute /Ocircumflex /Otilde /Odieresis
/multiply /Oslash /Ugrave /Uacute /Ucircumflex
/Udieresis /Yacute /Thorn /germandbls /agrave
/aacute /acircumflex /atilde /adieresis /aring
/ae /ccedilla /egrave /eacute /ecircumflex
/edieresis /igrave /iacute /icircumflex /idieresis
/eth /ntilde /ograve /oacute /ocircumflex
/otilde /odieresis /divide /oslash /ugrave
/uacute /ucircumflex /udieresis /yacute /thorn
/ydieresis
] def
%%EndResource
%FOPBeginFontReencode
/Courier-Bold findfont
dup length dict begin
  {1 index /FID ne {def} {pop pop} ifelse} forall
  /Encoding WinAnsiEncoding def
  currentdict
end
/Courier-Bold exch definefont pop
/Helvetica findfont
dup length dict begin
  {1 index /FID ne {def} {pop pop} ifelse} forall
  /Encoding WinAnsiEncoding def
  currentdict
end
/Helvetica exch definefont pop
/Courier-BoldOblique findfont
dup length dict begin
  {1 index /FID ne {def} {pop pop} ifelse} forall
  /Encoding WinAnsiEncoding def
  currentdict
end
/Courier-BoldOblique exch definefont pop
/Courier-Oblique findfont
dup length dict begin
  {1 index /FID ne {def} {pop pop} ifelse} forall
  /Encoding WinAnsiEncoding def
  currentdict
end
/Courier-Oblique exch definefont pop
/Times-Roman findfont
dup length dict begin
  {1 index /FID ne {def} {pop pop} ifelse} forall
  /Encoding WinAnsiEncoding def
  currentdict
end
/Times-Roman exch definefont pop
/Helvetica-BoldOblique findfont
dup length dict begin
  {1 index /FID ne {def} {pop pop} ifelse} forall
  /Encoding WinAnsiEncoding def
  currentdict
end
/Helvetica-BoldOblique exch definefont pop
/Helvetica-Bold findfont
dup length dict begin
  {1 index /FID ne {def} {pop pop} ifelse} forall
  /Encoding WinAnsiEncoding def
  currentdict
end
/Helvetica-Bold exch definefont pop
/Helvetica-Oblique findfont
dup length dict begin
  {1 index /FID ne {def} {pop pop} ifelse} forall
  /Encoding WinAnsiEncoding def
  currentdict
end
/Helvetica-Oblique exch definefont pop
/Times-BoldItalic findfont
dup length dict begin
  {1 index /FID ne {def} {pop pop} ifelse} forall
  /Encoding WinAnsiEncoding def
  currentdict
end
/Times-BoldItalic exch definefont pop
/Courier findfont
dup length dict begin
  {1 index /FID ne {def} {pop pop} ifelse} forall
  /Encoding WinAnsiEncoding def
  currentdict
end
/Courier exch definefont pop
/Times-Italic findfont
dup length dict begin
  {1 index /FID ne {def} {pop pop} ifelse} forall
  /Encoding WinAnsiEncoding def
  currentdict
end
/Times-Italic exch definefont pop
/Times-Bold findfont
dup length dict begin
  {1 index /FID ne {def} {pop pop} ifelse} forall
  /Encoding WinAnsiEncoding def
  currentdict
end
/Times-Bold exch definefont pop
%FOPEndFontReencode
%%EndProlog
%%Page: 1 1
%%PageBoundingBox: 0 0 485 632
%%BeginPageSetup
[1 0 0 -1 0 632] CT
%%EndPageSetup
GS
[0.75 0 0 0.75 0 0.5] CT
1 GC
N
0 0 647 842 re
f
GR
GS
[0.75 0 0 0.75 0 0.5] CT
1 GC
N
0 0 647 842 re
f
GR
GS
[0.75 0 0 0.75 0 0.5] CT
1 GC
N
84 749 M
586 749 L
586 64 L
84 64 L
cp
f
GR
GS
[0.75 0 0 0.75 0 0.5] CT
0.873 GC
1 LJ
0.667 LW
N
84 749 M
84 64 L
S
GR
GS
[0.75 0 0 0.75 0 0.5] CT
0.873 GC
1 LJ
0.667 LW
N
251.333 749 M
251.333 64 L
S
GR
GS
[0.75 0 0 0.75 0 0.5] CT
0.873 GC
1 LJ
0.667 LW
N
418.667 749 M
418.667 64 L
S
GR
GS
[0.75 0 0 0.75 0 0.5] CT
0.873 GC
1 LJ
0.667 LW
N
586 749 M
586 64 L
S
GR
GS
[0.75 0 0 0.75 0 0.5] CT
0.873 GC
1 LJ
0.667 LW
N
586 749 M
84 749 L
S
GR
GS
[0.75 0 0 0.75 0 0.5] CT
0.873 GC
1 LJ
0.667 LW
N
586 663.375 M
84 663.375 L
S
GR
GS
[0.75 0 0 0.75 0 0.5] CT
0.873 GC
1 LJ
0.667 LW
N
586 577.75 M
84 577.75 L
S
GR
GS
[0.75 0 0 0.75 0 0.5] CT
0.873 GC
1 LJ
0.667 LW
N
586 492.125 M
84 492.125 L
S
GR
GS
[0.75 0 0 0.75 0 0.5] CT
0.873 GC
1 LJ
0.667 LW
N
586 406.5 M
84 406.5 L
S
GR
GS
[0.75 0 0 0.75 0 0.5] CT
0.873 GC
1 LJ
0.667 LW
N
586 320.875 M
84 320.875 L
S
GR
GS
[0.75 0 0 0.75 0 0.5] CT
0.873 GC
1 LJ
0.667 LW
N
586 235.25 M
84 235.25 L
S
GR
GS
[0.75 0 0 0.75 0 0.5] CT
0.873 GC
1 LJ
0.667 LW
N
586 149.625 M
84 149.625 L
S
GR
GS
[0.75 0 0 0.75 0 0.5] CT
0.873 GC
1 LJ
0.667 LW
N
586 64 M
84 64 L
S
GR
GS
[0.75 0 0 0.75 0 0.5] CT
0.149 GC
2 setlinecap
1 LJ
0.667 LW
N
84 749 M
586 749 L
S
GR
GS
[0.75 0 0 0.75 0 0.5] CT
0.149 GC
2 setlinecap
1 LJ
0.667 LW
N
84 64 M
586 64 L
S
GR
GS
[0.75 0 0 0.75 0 0.5] CT
0.149 GC
2 setlinecap
1 LJ
0.667 LW
N
84 749 M
84 742.15 L
S
GR
GS
[0.75 0 0 0.75 0 0.5] CT
0.149 GC
2 setlinecap
1 LJ
0.667 LW
N
251.333 749 M
251.333 742.15 L
S
GR
GS
[0.75 0 0 0.75 0 0.5] CT
0.149 GC
2 setlinecap
1 LJ
0.667 LW
N
418.667 749 M
418.667 742.15 L
S
GR
GS
[0.75 0 0 0.75 0 0.5] CT
0.149 GC
2 setlinecap
1 LJ
0.667 LW
N
586 749 M
586 742.15 L
S
GR
GS
[0.75 0 0 0.75 0 0.5] CT
0.149 GC
2 setlinecap
1 LJ
0.667 LW
N
84 64 M
84 70.85 L
S
GR
GS
[0.75 0 0 0.75 0 0.5] CT
0.149 GC
2 setlinecap
1 LJ
0.667 LW
N
251.333 64 M
251.333 70.85 L
S
GR
GS
[0.75 0 0 0.75 0 0.5] CT
0.149 GC
2 setlinecap
1 LJ
0.667 LW
N
418.667 64 M
418.667 70.85 L
S
GR
GS
[0.75 0 0 0.75 0 0.5] CT
0.149 GC
2 setlinecap
1 LJ
0.667 LW
N
586 64 M
586 70.85 L
S
GR
GS
[0.75 0 0 0.75 63 566.24998] CT
0.149 GC
/Helvetica 13.333 F
GS
[1 0 0 1 0 0] CT
-4.5 13 moveto 
1 -1 scale
(0) t 
GR
GR
GS
[0.75 0 0 0.75 188.5 566.24998] CT
0.149 GC
/Helvetica 13.333 F
GS
[1 0 0 1 0 0] CT
-4.5 13 moveto 
1 -1 scale
(5) t 
GR
GR
GS
[0.75 0 0 0.75 313.99999 566.24998] CT
0.149 GC
/Helvetica 13.333 F
GS
[1 0 0 1 0 0] CT
-8.5 13 moveto 
1 -1 scale
(10) t 
GR
GR
GS
[0.75 0 0 0.75 439.5 566.24998] CT
0.149 GC
/Helvetica 13.333 F
GS
[1 0 0 1 0 0] CT
-8.5 13 moveto 
1 -1 scale
(15) t 
GR
GR
GS
[0.75 0 0 0.75 251.25018 580.00002] CT
0.149 GC
/Helvetica 14.667 F
GS
[1 0 0 1 0 0] CT
-88.5 14 moveto 
1 -1 scale
(mode angular number l) t 
GR
GR
GS
[0.75 0 0 0.75 0 0.5] CT
0.149 GC
2 setlinecap
1 LJ
0.667 LW
N
84 749 M
84 64 L
S
GR
GS
[0.75 0 0 0.75 0 0.5] CT
0.149 GC
2 setlinecap
1 LJ
0.667 LW
N
586 749 M
586 64 L
S
GR
GS
[0.75 0 0 0.75 0 0.5] CT
0.149 GC
2 setlinecap
1 LJ
0.667 LW
N
84 749 M
90.85 749 L
S
GR
GS
[0.75 0 0 0.75 0 0.5] CT
0.149 GC
2 setlinecap
1 LJ
0.667 LW
N
84 663.375 M
90.85 663.375 L
S
GR
GS
[0.75 0 0 0.75 0 0.5] CT
0.149 GC
2 setlinecap
1 LJ
0.667 LW
N
84 577.75 M
90.85 577.75 L
S
GR
GS
[0.75 0 0 0.75 0 0.5] CT
0.149 GC
2 setlinecap
1 LJ
0.667 LW
N
84 492.125 M
90.85 492.125 L
S
GR
GS
[0.75 0 0 0.75 0 0.5] CT
0.149 GC
2 setlinecap
1 LJ
0.667 LW
N
84 406.5 M
90.85 406.5 L
S
GR
GS
[0.75 0 0 0.75 0 0.5] CT
0.149 GC
2 setlinecap
1 LJ
0.667 LW
N
84 320.875 M
90.85 320.875 L
S
GR
GS
[0.75 0 0 0.75 0 0.5] CT
0.149 GC
2 setlinecap
1 LJ
0.667 LW
N
84 235.25 M
90.85 235.25 L
S
GR
GS
[0.75 0 0 0.75 0 0.5] CT
0.149 GC
2 setlinecap
1 LJ
0.667 LW
N
84 149.625 M
90.85 149.625 L
S
GR
GS
[0.75 0 0 0.75 0 0.5] CT
0.149 GC
2 setlinecap
1 LJ
0.667 LW
N
84 64 M
90.85 64 L
S
GR
GS
[0.75 0 0 0.75 0 0.5] CT
0.149 GC
2 setlinecap
1 LJ
0.667 LW
N
586 749 M
579.15 749 L
S
GR
GS
[0.75 0 0 0.75 0 0.5] CT
0.149 GC
2 setlinecap
1 LJ
0.667 LW
N
586 663.375 M
579.15 663.375 L
S
GR
GS
[0.75 0 0 0.75 0 0.5] CT
0.149 GC
2 setlinecap
1 LJ
0.667 LW
N
586 577.75 M
579.15 577.75 L
S
GR
GS
[0.75 0 0 0.75 0 0.5] CT
0.149 GC
2 setlinecap
1 LJ
0.667 LW
N
586 492.125 M
579.15 492.125 L
S
GR
GS
[0.75 0 0 0.75 0 0.5] CT
0.149 GC
2 setlinecap
1 LJ
0.667 LW
N
586 406.5 M
579.15 406.5 L
S
GR
GS
[0.75 0 0 0.75 0 0.5] CT
0.149 GC
2 setlinecap
1 LJ
0.667 LW
N
586 320.875 M
579.15 320.875 L
S
GR
GS
[0.75 0 0 0.75 0 0.5] CT
0.149 GC
2 setlinecap
1 LJ
0.667 LW
N
586 235.25 M
579.15 235.25 L
S
GR
GS
[0.75 0 0 0.75 0 0.5] CT
0.149 GC
2 setlinecap
1 LJ
0.667 LW
N
586 149.625 M
579.15 149.625 L
S
GR
GS
[0.75 0 0 0.75 0 0.5] CT
0.149 GC
2 setlinecap
1 LJ
0.667 LW
N
586 64 M
579.15 64 L
S
GR
GS
[0.75 0 0 0.75 59 562.25] CT
0.149 GC
/Helvetica 13.333 F
GS
[1 0 0 1 0 0] CT
-9 4.5 moveto 
1 -1 scale
(0) t 
GR
GR
GS
[0.75 0 0 0.75 59 498.03125] CT
0.149 GC
/Helvetica 13.333 F
GS
[1 0 0 1 0 0] CT
-21 4.5 moveto 
1 -1 scale
(0.1) t 
GR
GR
GS
[0.75 0 0 0.75 59 433.8125] CT
0.149 GC
/Helvetica 13.333 F
GS
[1 0 0 1 0 0] CT
-21 4.5 moveto 
1 -1 scale
(0.2) t 
GR
GR
GS
[0.75 0 0 0.75 59 369.59375] CT
0.149 GC
/Helvetica 13.333 F
GS
[1 0 0 1 0 0] CT
-21 4.5 moveto 
1 -1 scale
(0.3) t 
GR
GR
GS
[0.75 0 0 0.75 59 305.375] CT
0.149 GC
/Helvetica 13.333 F
GS
[1 0 0 1 0 0] CT
-21 4.5 moveto 
1 -1 scale
(0.4) t 
GR
GR
GS
[0.75 0 0 0.75 59 241.15625] CT
0.149 GC
/Helvetica 13.333 F
GS
[1 0 0 1 0 0] CT
-21 4.5 moveto 
1 -1 scale
(0.5) t 
GR
GR
GS
[0.75 0 0 0.75 59 176.93749] CT
0.149 GC
/Helvetica 13.333 F
GS
[1 0 0 1 0 0] CT
-21 4.5 moveto 
1 -1 scale
(0.6) t 
GR
GR
GS
[0.75 0 0 0.75 59 112.71876] CT
0.149 GC
/Helvetica 13.333 F
GS
[1 0 0 1 0 0] CT
-21 4.5 moveto 
1 -1 scale
(0.7) t 
GR
GR
GS
[0.75 0 0 0.75 59 48.49999] CT
0.149 GC
/Helvetica 13.333 F
GS
[1 0 0 1 0 0] CT
-21 4.5 moveto 
1 -1 scale
(0.8) t 
GR
GR
GS
[0 -0.75 0.75 0 40.25 305.37475] CT
0.149 GC
/Helvetica 14.667 F
GS
[1 0 0 1 0 0] CT
-69 -4 moveto 
1 -1 scale
(Ledoux coefficient) t 
GR
GR
GS
[0.75 0 0 0.75 133.5 11.75] CT
/Helvetica-Bold 14.667 F
GS
[1 0 0 1 0 0] CT
0 0 moveto 
1 -1 scale
(C) t 
GR
GR
GS
[0.75 0 0 0.75 142.5 17] CT
/Helvetica-Bold 10.667 F
GS
[1 0 0 1 0 0] CT
0 0 moveto 
1 -1 scale
(nl) t 
GR
GR
GS
[0.75 0 0 0.75 151.5 11.75] CT
/Helvetica-Bold 14.667 F
GS
[1 0 0 1 0 0] CT
0 0 moveto 
1 -1 scale
( Ledoux coefficients for modes ) t 
GR
GR
GS
[0.75 0 0 0.75 351 17] CT
/Helvetica-Bold 10.667 F
GS
[1 0 0 1 0 0] CT
0 0 moveto 
1 -1 scale
(n) t 
GR
GR
GS
[0.75 0 0 0.75 357 11.75] CT
/Helvetica-Bold 14.667 F
GS
[1 0 0 1 0 0] CT
0 0 moveto 
1 -1 scale
(S) t 
GR
GR
GS
[0.75 0 0 0.75 365.25 17] CT
/Helvetica-Bold 10.667 F
GS
[1 0 0 1 0 0] CT
0 0 moveto 
1 -1 scale
(l) t 
GR
GR
GS
[0.75 0 0 0.75 35.25 29.75] CT
/Helvetica-Bold 14.667 F
GS
[1 0 0 1 0 0] CT
0 0 moveto 
1 -1 scale
(in a spherical shell of fluid enclosed between inner and outer shells) t 
GR
GR
GS
[0.75 0 0 0.75 180 43.25] CT
/Helvetica-Bold 14.667 F
GS
[1 0 0 1 0 0] CT
0 0 moveto 
1 -1 scale
(sphere type : ZoRo-air) t 
GR
GR
GS
[0.75 0 0 0.75 0 0.5] CT
N
113.696 329.264 M
116.56 329.264 L
117.5 326.5 L
118.44 329.264 L
121.304 329.264 L
119.022 330.994 L
119.851 333.736 L
117.5 332.1 L
115.149 333.736 L
115.978 330.994 L
113.696 329.264 L
cp
f
GR
GS
[0.75 0 0 0.75 0 0.5] CT
10.0 ML
N
113.696 329.264 M
116.56 329.264 L
117.5 326.5 L
118.44 329.264 L
121.304 329.264 L
119.022 330.994 L
119.851 333.736 L
117.5 332.1 L
115.149 333.736 L
115.978 330.994 L
cp
S
GR
GS
[0.75 0 0 0.75 0 0.5] CT
N
146.696 601.264 M
149.56 601.264 L
150.5 598.5 L
151.44 601.264 L
154.304 601.264 L
152.022 602.994 L
152.851 605.736 L
150.5 604.1 L
148.149 605.736 L
148.978 602.994 L
146.696 601.264 L
cp
f
GR
GS
[0.75 0 0 0.75 0 0.5] CT
10.0 ML
N
146.696 601.264 M
149.56 601.264 L
150.5 598.5 L
151.44 601.264 L
154.304 601.264 L
152.022 602.994 L
152.851 605.736 L
150.5 604.1 L
148.149 605.736 L
148.978 602.994 L
cp
S
GR
GS
[0.75 0 0 0.75 0 0.5] CT
N
180.696 671.264 M
183.56 671.264 L
184.5 668.5 L
185.44 671.264 L
188.304 671.264 L
186.022 672.994 L
186.851 675.736 L
184.5 674.1 L
182.149 675.736 L
182.978 672.994 L
180.696 671.264 L
cp
f
GR
GS
[0.75 0 0 0.75 0 0.5] CT
10.0 ML
N
180.696 671.264 M
183.56 671.264 L
184.5 668.5 L
185.44 671.264 L
188.304 671.264 L
186.022 672.994 L
186.851 675.736 L
184.5 674.1 L
182.149 675.736 L
182.978 672.994 L
cp
S
GR
GS
[0.75 0 0 0.75 0 0.5] CT
N
213.696 699.264 M
216.56 699.264 L
217.5 696.5 L
218.44 699.264 L
221.304 699.264 L
219.022 700.994 L
219.851 703.736 L
217.5 702.1 L
215.149 703.736 L
215.978 700.994 L
213.696 699.264 L
cp
f
GR
GS
[0.75 0 0 0.75 0 0.5] CT
10.0 ML
N
213.696 699.264 M
216.56 699.264 L
217.5 696.5 L
218.44 699.264 L
221.304 699.264 L
219.022 700.994 L
219.851 703.736 L
217.5 702.1 L
215.149 703.736 L
215.978 700.994 L
cp
S
GR
GS
[0.75 0 0 0.75 0 0.5] CT
N
247.696 712.264 M
250.56 712.264 L
251.5 709.5 L
252.44 712.264 L
255.304 712.264 L
253.022 713.994 L
253.851 716.736 L
251.5 715.1 L
249.149 716.736 L
249.978 713.994 L
247.696 712.264 L
cp
f
GR
GS
[0.75 0 0 0.75 0 0.5] CT
10.0 ML
N
247.696 712.264 M
250.56 712.264 L
251.5 709.5 L
252.44 712.264 L
255.304 712.264 L
253.022 713.994 L
253.851 716.736 L
251.5 715.1 L
249.149 716.736 L
249.978 713.994 L
cp
S
GR
GS
[0.75 0 0 0.75 0 0.5] CT
N
280.696 722.264 M
283.56 722.264 L
284.5 719.5 L
285.44 722.264 L
288.304 722.264 L
286.022 723.994 L
286.851 726.736 L
284.5 725.1 L
282.149 726.736 L
282.978 723.994 L
280.696 722.264 L
cp
f
GR
GS
[0.75 0 0 0.75 0 0.5] CT
10.0 ML
N
280.696 722.264 M
283.56 722.264 L
284.5 719.5 L
285.44 722.264 L
288.304 722.264 L
286.022 723.994 L
286.851 726.736 L
284.5 725.1 L
282.149 726.736 L
282.978 723.994 L
cp
S
GR
GS
[0.75 0 0 0.75 0 0.5] CT
N
314.696 728.264 M
317.56 728.264 L
318.5 725.5 L
319.44 728.264 L
322.304 728.264 L
320.022 729.994 L
320.851 732.736 L
318.5 731.1 L
316.149 732.736 L
316.978 729.994 L
314.696 728.264 L
cp
f
GR
GS
[0.75 0 0 0.75 0 0.5] CT
10.0 ML
N
314.696 728.264 M
317.56 728.264 L
318.5 725.5 L
319.44 728.264 L
322.304 728.264 L
320.022 729.994 L
320.851 732.736 L
318.5 731.1 L
316.149 732.736 L
316.978 729.994 L
cp
S
GR
GS
[0.75 0 0 0.75 0 0.5] CT
N
347.696 732.264 M
350.56 732.264 L
351.5 729.5 L
352.44 732.264 L
355.304 732.264 L
353.022 733.994 L
353.851 736.736 L
351.5 735.1 L
349.149 736.736 L
349.978 733.994 L
347.696 732.264 L
cp
f
GR
GS
[0.75 0 0 0.75 0 0.5] CT
10.0 ML
N
347.696 732.264 M
350.56 732.264 L
351.5 729.5 L
352.44 732.264 L
355.304 732.264 L
353.022 733.994 L
353.851 736.736 L
351.5 735.1 L
349.149 736.736 L
349.978 733.994 L
cp
S
GR
GS
[0.75 0 0 0.75 0 0.5] CT
N
381.696 735.264 M
384.56 735.264 L
385.5 732.5 L
386.44 735.264 L
389.304 735.264 L
387.022 736.994 L
387.851 739.736 L
385.5 738.1 L
383.149 739.736 L
383.978 736.994 L
381.696 735.264 L
cp
f
GR
GS
[0.75 0 0 0.75 0 0.5] CT
10.0 ML
N
381.696 735.264 M
384.56 735.264 L
385.5 732.5 L
386.44 735.264 L
389.304 735.264 L
387.022 736.994 L
387.851 739.736 L
385.5 738.1 L
383.149 739.736 L
383.978 736.994 L
cp
S
GR
GS
[0.75 0 0 0.75 0 0.5] CT
N
414.696 737.264 M
417.56 737.264 L
418.5 734.5 L
419.44 737.264 L
422.304 737.264 L
420.022 738.994 L
420.851 741.736 L
418.5 740.1 L
416.149 741.736 L
416.978 738.994 L
414.696 737.264 L
cp
f
GR
GS
[0.75 0 0 0.75 0 0.5] CT
10.0 ML
N
414.696 737.264 M
417.56 737.264 L
418.5 734.5 L
419.44 737.264 L
422.304 737.264 L
420.022 738.994 L
420.851 741.736 L
418.5 740.1 L
416.149 741.736 L
416.978 738.994 L
cp
S
GR
GS
[0.75 0 0 0.75 0 0.5] CT
N
448.696 739.264 M
451.56 739.264 L
452.5 736.5 L
453.44 739.264 L
456.304 739.264 L
454.022 740.994 L
454.851 743.736 L
452.5 742.1 L
450.149 743.736 L
450.978 740.994 L
448.696 739.264 L
cp
f
GR
GS
[0.75 0 0 0.75 0 0.5] CT
10.0 ML
N
448.696 739.264 M
451.56 739.264 L
452.5 736.5 L
453.44 739.264 L
456.304 739.264 L
454.022 740.994 L
454.851 743.736 L
452.5 742.1 L
450.149 743.736 L
450.978 740.994 L
cp
S
GR
GS
[0.75 0 0 0.75 0 0.5] CT
N
481.696 740.264 M
484.56 740.264 L
485.5 737.5 L
486.44 740.264 L
489.304 740.264 L
487.022 741.994 L
487.851 744.736 L
485.5 743.1 L
483.149 744.736 L
483.978 741.994 L
481.696 740.264 L
cp
f
GR
GS
[0.75 0 0 0.75 0 0.5] CT
10.0 ML
N
481.696 740.264 M
484.56 740.264 L
485.5 737.5 L
486.44 740.264 L
489.304 740.264 L
487.022 741.994 L
487.851 744.736 L
485.5 743.1 L
483.149 744.736 L
483.978 741.994 L
cp
S
GR
GS
[0.75 0 0 0.75 0 0.5] CT
N
515.696 741.264 M
518.56 741.264 L
519.5 738.5 L
520.44 741.264 L
523.304 741.264 L
521.022 742.994 L
521.851 745.736 L
519.5 744.1 L
517.149 745.736 L
517.978 742.994 L
515.696 741.264 L
cp
f
GR
GS
[0.75 0 0 0.75 0 0.5] CT
10.0 ML
N
515.696 741.264 M
518.56 741.264 L
519.5 738.5 L
520.44 741.264 L
523.304 741.264 L
521.022 742.994 L
521.851 745.736 L
519.5 744.1 L
517.149 745.736 L
517.978 742.994 L
cp
S
GR
GS
[0.75 0 0 0.75 0 0.5] CT
N
548.696 742.264 M
551.56 742.264 L
552.5 739.5 L
553.44 742.264 L
556.304 742.264 L
554.022 743.994 L
554.851 746.736 L
552.5 745.1 L
550.149 746.736 L
550.978 743.994 L
548.696 742.264 L
cp
f
GR
GS
[0.75 0 0 0.75 0 0.5] CT
10.0 ML
N
548.696 742.264 M
551.56 742.264 L
552.5 739.5 L
553.44 742.264 L
556.304 742.264 L
554.022 743.994 L
554.851 746.736 L
552.5 745.1 L
550.149 746.736 L
550.978 743.994 L
cp
S
GR
GS
[0.75 0 0 0.75 0 0.5] CT
N
582.696 742.264 M
585.56 742.264 L
586.5 739.5 L
587.44 742.264 L
590.304 742.264 L
588.022 743.994 L
588.851 746.736 L
586.5 745.1 L
584.149 746.736 L
584.978 743.994 L
582.696 742.264 L
cp
f
GR
GS
[0.75 0 0 0.75 0 0.5] CT
10.0 ML
N
582.696 742.264 M
585.56 742.264 L
586.5 739.5 L
587.44 742.264 L
590.304 742.264 L
588.022 743.994 L
588.851 746.736 L
586.5 745.1 L
584.149 746.736 L
584.978 743.994 L
cp
S
GR
GS
[0.75 0 0 0.75 0 0.5] CT
0 1 0 RC
N
114.38 325.62 M
114.38 319.38 L
120.62 319.38 L
120.62 325.62 L
cp
f
GR
GS
[0.75 0 0 0.75 0 0.5] CT
0 1 0 RC
10.0 ML
N
114.38 325.62 M
114.38 319.38 L
120.62 319.38 L
120.62 325.62 L
cp
S
GR
GS
[0.75 0 0 0.75 0 0.5] CT
0 1 0 RC
N
147.38 600.62 M
147.38 594.38 L
153.62 594.38 L
153.62 600.62 L
cp
f
GR
GS
[0.75 0 0 0.75 0 0.5] CT
0 1 0 RC
10.0 ML
N
147.38 600.62 M
147.38 594.38 L
153.62 594.38 L
153.62 600.62 L
cp
S
GR
GS
[0.75 0 0 0.75 0 0.5] CT
0 1 0 RC
N
181.38 671.62 M
181.38 665.38 L
187.62 665.38 L
187.62 671.62 L
cp
f
GR
GS
[0.75 0 0 0.75 0 0.5] CT
0 1 0 RC
10.0 ML
N
181.38 671.62 M
181.38 665.38 L
187.62 665.38 L
187.62 671.62 L
cp
S
GR
GS
[0.75 0 0 0.75 0 0.5] CT
0 1 0 RC
N
214.38 701.62 M
214.38 695.38 L
220.62 695.38 L
220.62 701.62 L
cp
f
GR
GS
[0.75 0 0 0.75 0 0.5] CT
0 1 0 RC
10.0 ML
N
214.38 701.62 M
214.38 695.38 L
220.62 695.38 L
220.62 701.62 L
cp
S
GR
GS
[0.75 0 0 0.75 0 0.5] CT
0 1 0 RC
N
248.38 715.62 M
248.38 709.38 L
254.62 709.38 L
254.62 715.62 L
cp
f
GR
GS
[0.75 0 0 0.75 0 0.5] CT
0 1 0 RC
10.0 ML
N
248.38 715.62 M
248.38 709.38 L
254.62 709.38 L
254.62 715.62 L
cp
S
GR
GS
[0.75 0 0 0.75 0 0.5] CT
0 1 0 RC
N
281.38 724.62 M
281.38 718.38 L
287.62 718.38 L
287.62 724.62 L
cp
f
GR
GS
[0.75 0 0 0.75 0 0.5] CT
0 1 0 RC
10.0 ML
N
281.38 724.62 M
281.38 718.38 L
287.62 718.38 L
287.62 724.62 L
cp
S
GR
GS
[0.75 0 0 0.75 0 0.5] CT
0 1 0 RC
N
315.38 730.62 M
315.38 724.38 L
321.62 724.38 L
321.62 730.62 L
cp
f
GR
GS
[0.75 0 0 0.75 0 0.5] CT
0 1 0 RC
10.0 ML
N
315.38 730.62 M
315.38 724.38 L
321.62 724.38 L
321.62 730.62 L
cp
S
GR
GS
[0.75 0 0 0.75 0 0.5] CT
0 1 0 RC
N
348.38 736.62 M
348.38 730.38 L
354.62 730.38 L
354.62 736.62 L
cp
f
GR
GS
[0.75 0 0 0.75 0 0.5] CT
0 1 0 RC
10.0 ML
N
348.38 736.62 M
348.38 730.38 L
354.62 730.38 L
354.62 736.62 L
cp
S
GR
GS
[0.75 0 0 0.75 0 0.5] CT
0 1 0 RC
N
382.38 738.62 M
382.38 732.38 L
388.62 732.38 L
388.62 738.62 L
cp
f
GR
GS
[0.75 0 0 0.75 0 0.5] CT
0 1 0 RC
10.0 ML
N
382.38 738.62 M
382.38 732.38 L
388.62 732.38 L
388.62 738.62 L
cp
S
GR
GS
[0.75 0 0 0.75 0 0.5] CT
0 1 0 RC
N
415.38 740.62 M
415.38 734.38 L
421.62 734.38 L
421.62 740.62 L
cp
f
GR
GS
[0.75 0 0 0.75 0 0.5] CT
0 1 0 RC
10.0 ML
N
415.38 740.62 M
415.38 734.38 L
421.62 734.38 L
421.62 740.62 L
cp
S
GR
GS
[0.75 0 0 0.75 0 0.5] CT
0 1 0 RC
N
449.38 742.62 M
449.38 736.38 L
455.62 736.38 L
455.62 742.62 L
cp
f
GR
GS
[0.75 0 0 0.75 0 0.5] CT
0 1 0 RC
10.0 ML
N
449.38 742.62 M
449.38 736.38 L
455.62 736.38 L
455.62 742.62 L
cp
S
GR
GS
[0.75 0 0 0.75 0 0.5] CT
0 1 0 RC
N
482.38 744.62 M
482.38 738.38 L
488.62 738.38 L
488.62 744.62 L
cp
f
GR
GS
[0.75 0 0 0.75 0 0.5] CT
0 1 0 RC
10.0 ML
N
482.38 744.62 M
482.38 738.38 L
488.62 738.38 L
488.62 744.62 L
cp
S
GR
GS
[0.75 0 0 0.75 0 0.5] CT
0 1 0 RC
N
516.38 745.62 M
516.38 739.38 L
522.62 739.38 L
522.62 745.62 L
cp
f
GR
GS
[0.75 0 0 0.75 0 0.5] CT
0 1 0 RC
10.0 ML
N
516.38 745.62 M
516.38 739.38 L
522.62 739.38 L
522.62 745.62 L
cp
S
GR
GS
[0.75 0 0 0.75 0 0.5] CT
0 1 0 RC
N
549.38 745.62 M
549.38 739.38 L
555.62 739.38 L
555.62 745.62 L
cp
f
GR
GS
[0.75 0 0 0.75 0 0.5] CT
0 1 0 RC
10.0 ML
N
549.38 745.62 M
549.38 739.38 L
555.62 739.38 L
555.62 745.62 L
cp
S
GR
GS
[0.75 0 0 0.75 0 0.5] CT
0 1 0 RC
N
583.38 746.62 M
583.38 740.38 L
589.62 740.38 L
589.62 746.62 L
cp
f
GR
GS
[0.75 0 0 0.75 0 0.5] CT
0 1 0 RC
10.0 ML
N
583.38 746.62 M
583.38 740.38 L
589.62 740.38 L
589.62 746.62 L
cp
S
GR
GS
[0.75 0 0 0.75 0 0.5] CT
1 0 1 RC
N
117.5 312.832 M
122.118 304.834 L
112.882 304.834 L
cp
f
GR
GS
[0.75 0 0 0.75 0 0.5] CT
1 0 1 RC
10.0 ML
N
117.5 312.832 M
122.118 304.834 L
112.882 304.834 L
cp
S
GR
GS
[0.75 0 0 0.75 0 0.5] CT
1 0 1 RC
N
150.5 595.832 M
155.118 587.834 L
145.882 587.834 L
cp
f
GR
GS
[0.75 0 0 0.75 0 0.5] CT
1 0 1 RC
10.0 ML
N
150.5 595.832 M
155.118 587.834 L
145.882 587.834 L
cp
S
GR
GS
[0.75 0 0 0.75 0 0.5] CT
1 0 1 RC
N
184.5 669.832 M
189.118 661.834 L
179.882 661.834 L
cp
f
GR
GS
[0.75 0 0 0.75 0 0.5] CT
1 0 1 RC
10.0 ML
N
184.5 669.832 M
189.118 661.834 L
179.882 661.834 L
cp
S
GR
GS
[0.75 0 0 0.75 0 0.5] CT
1 0 1 RC
N
217.5 700.832 M
222.118 692.834 L
212.882 692.834 L
cp
f
GR
GS
[0.75 0 0 0.75 0 0.5] CT
1 0 1 RC
10.0 ML
N
217.5 700.832 M
222.118 692.834 L
212.882 692.834 L
cp
S
GR
GS
[0.75 0 0 0.75 0 0.5] CT
1 0 1 RC
N
251.5 714.832 M
256.118 706.834 L
246.882 706.834 L
cp
f
GR
GS
[0.75 0 0 0.75 0 0.5] CT
1 0 1 RC
10.0 ML
N
251.5 714.832 M
256.118 706.834 L
246.882 706.834 L
cp
S
GR
GS
[0.75 0 0 0.75 0 0.5] CT
1 0 1 RC
N
284.5 724.832 M
289.118 716.834 L
279.882 716.834 L
cp
f
GR
GS
[0.75 0 0 0.75 0 0.5] CT
1 0 1 RC
10.0 ML
N
284.5 724.832 M
289.118 716.834 L
279.882 716.834 L
cp
S
GR
GS
[0.75 0 0 0.75 0 0.5] CT
1 0 1 RC
N
318.5 731.832 M
323.118 723.834 L
313.882 723.834 L
cp
f
GR
GS
[0.75 0 0 0.75 0 0.5] CT
1 0 1 RC
10.0 ML
N
318.5 731.832 M
323.118 723.834 L
313.882 723.834 L
cp
S
GR
GS
[0.75 0 0 0.75 0 0.5] CT
1 0 1 RC
N
351.5 737.832 M
356.118 729.834 L
346.882 729.834 L
cp
f
GR
GS
[0.75 0 0 0.75 0 0.5] CT
1 0 1 RC
10.0 ML
N
351.5 737.832 M
356.118 729.834 L
346.882 729.834 L
cp
S
GR
GS
[0.75 0 0 0.75 0 0.5] CT
1 0 1 RC
N
385.5 740.832 M
390.118 732.834 L
380.882 732.834 L
cp
f
GR
GS
[0.75 0 0 0.75 0 0.5] CT
1 0 1 RC
10.0 ML
N
385.5 740.832 M
390.118 732.834 L
380.882 732.834 L
cp
S
GR
GS
[0.75 0 0 0.75 0 0.5] CT
1 0 1 RC
N
418.5 741.832 M
423.118 733.834 L
413.882 733.834 L
cp
f
GR
GS
[0.75 0 0 0.75 0 0.5] CT
1 0 1 RC
10.0 ML
N
418.5 741.832 M
423.118 733.834 L
413.882 733.834 L
cp
S
GR
GS
[0.75 0 0 0.75 0 0.5] CT
1 0 1 RC
N
452.5 744.832 M
457.118 736.834 L
447.882 736.834 L
cp
f
GR
GS
[0.75 0 0 0.75 0 0.5] CT
1 0 1 RC
10.0 ML
N
452.5 744.832 M
457.118 736.834 L
447.882 736.834 L
cp
S
GR
GS
[0.75 0 0 0.75 0 0.5] CT
1 0 1 RC
N
485.5 745.832 M
490.118 737.834 L
480.882 737.834 L
cp
f
GR
GS
[0.75 0 0 0.75 0 0.5] CT
1 0 1 RC
10.0 ML
N
485.5 745.832 M
490.118 737.834 L
480.882 737.834 L
cp
S
GR
GS
[0.75 0 0 0.75 0 0.5] CT
1 0 1 RC
N
519.5 746.832 M
524.117 738.834 L
514.883 738.834 L
cp
f
GR
GS
[0.75 0 0 0.75 0 0.5] CT
1 0 1 RC
10.0 ML
N
519.5 746.832 M
524.117 738.834 L
514.883 738.834 L
cp
S
GR
GS
[0.75 0 0 0.75 0 0.5] CT
1 0 1 RC
N
552.5 747.832 M
557.117 739.834 L
547.883 739.834 L
cp
f
GR
GS
[0.75 0 0 0.75 0 0.5] CT
1 0 1 RC
10.0 ML
N
552.5 747.832 M
557.117 739.834 L
547.883 739.834 L
cp
S
GR
GS
[0.75 0 0 0.75 0 0.5] CT
1 0 1 RC
N
586.5 748.832 M
591.117 740.834 L
581.883 740.834 L
cp
f
GR
GS
[0.75 0 0 0.75 0 0.5] CT
1 0 1 RC
10.0 ML
N
586.5 748.832 M
591.117 740.834 L
581.883 740.834 L
cp
S
GR
GS
[0.75 0 0 0.75 0 0.5] CT
1 0 0 RC
1 LJ
N
113 285.5 M
122 285.5 L
S
GR
GS
[0.75 0 0 0.75 0 0.5] CT
1 0 0 RC
1 LJ
N
117.5 290 M
117.5 281 L
S
GR
GS
[0.75 0 0 0.75 0 0.5] CT
1 0 0 RC
1 LJ
N
146 580.5 M
155 580.5 L
S
GR
GS
[0.75 0 0 0.75 0 0.5] CT
1 0 0 RC
1 LJ
N
150.5 585 M
150.5 576 L
S
GR
GS
[0.75 0 0 0.75 0 0.5] CT
1 0 0 RC
1 LJ
N
180 658.5 M
189 658.5 L
S
GR
GS
[0.75 0 0 0.75 0 0.5] CT
1 0 0 RC
1 LJ
N
184.5 663 M
184.5 654 L
S
GR
GS
[0.75 0 0 0.75 0 0.5] CT
1 0 0 RC
1 LJ
N
213 692.5 M
222 692.5 L
S
GR
GS
[0.75 0 0 0.75 0 0.5] CT
1 0 0 RC
1 LJ
N
217.5 697 M
217.5 688 L
S
GR
GS
[0.75 0 0 0.75 0 0.5] CT
1 0 0 RC
1 LJ
N
247 705.5 M
256 705.5 L
S
GR
GS
[0.75 0 0 0.75 0 0.5] CT
1 0 0 RC
1 LJ
N
251.5 710 M
251.5 701 L
S
GR
GS
[0.75 0 0 0.75 0 0.5] CT
1 0 0 RC
1 LJ
N
280 716.5 M
289 716.5 L
S
GR
GS
[0.75 0 0 0.75 0 0.5] CT
1 0 0 RC
1 LJ
N
284.5 721 M
284.5 712 L
S
GR
GS
[0.75 0 0 0.75 0 0.5] CT
1 0 0 RC
1 LJ
N
314 724.5 M
323 724.5 L
S
GR
GS
[0.75 0 0 0.75 0 0.5] CT
1 0 0 RC
1 LJ
N
318.5 729 M
318.5 720 L
S
GR
GS
[0.75 0 0 0.75 0 0.5] CT
1 0 0 RC
1 LJ
N
347 731.5 M
356 731.5 L
S
GR
GS
[0.75 0 0 0.75 0 0.5] CT
1 0 0 RC
1 LJ
N
351.5 736 M
351.5 727 L
S
GR
GS
[0.75 0 0 0.75 0 0.5] CT
1 0 0 RC
1 LJ
N
381 734.5 M
390 734.5 L
S
GR
GS
[0.75 0 0 0.75 0 0.5] CT
1 0 0 RC
1 LJ
N
385.5 739 M
385.5 730 L
S
GR
GS
[0.75 0 0 0.75 0 0.5] CT
1 0 0 RC
1 LJ
N
414 735.5 M
423 735.5 L
S
GR
GS
[0.75 0 0 0.75 0 0.5] CT
1 0 0 RC
1 LJ
N
418.5 740 M
418.5 731 L
S
GR
GS
[0.75 0 0 0.75 0 0.5] CT
1 0 0 RC
1 LJ
N
448 738.5 M
457 738.5 L
S
GR
GS
[0.75 0 0 0.75 0 0.5] CT
1 0 0 RC
1 LJ
N
452.5 743 M
452.5 734 L
S
GR
GS
[0.75 0 0 0.75 0 0.5] CT
1 0 0 RC
1 LJ
N
481 740.5 M
490 740.5 L
S
GR
GS
[0.75 0 0 0.75 0 0.5] CT
1 0 0 RC
1 LJ
N
485.5 745 M
485.5 736 L
S
GR
GS
[0.75 0 0 0.75 0 0.5] CT
1 0 0 RC
1 LJ
N
515 741.5 M
524 741.5 L
S
GR
GS
[0.75 0 0 0.75 0 0.5] CT
1 0 0 RC
1 LJ
N
519.5 746 M
519.5 737 L
S
GR
GS
[0.75 0 0 0.75 0 0.5] CT
1 0 0 RC
1 LJ
N
548 742.5 M
557 742.5 L
S
GR
GS
[0.75 0 0 0.75 0 0.5] CT
1 0 0 RC
1 LJ
N
552.5 747 M
552.5 738 L
S
GR
GS
[0.75 0 0 0.75 0 0.5] CT
1 0 0 RC
1 LJ
N
582 743.5 M
591 743.5 L
S
GR
GS
[0.75 0 0 0.75 0 0.5] CT
1 0 0 RC
1 LJ
N
586.5 748 M
586.5 739 L
S
GR
GS
[0.75 0 0 0.75 0 0.5] CT
0 0 1 RC
1 LJ
N
114 250 M
121 243 L
S
GR
GS
[0.75 0 0 0.75 0 0.5] CT
0 0 1 RC
1 LJ
N
114 243 M
121 250 L
S
GR
GS
[0.75 0 0 0.75 0 0.5] CT
0 0 1 RC
1 LJ
N
147 566 M
154 559 L
S
GR
GS
[0.75 0 0 0.75 0 0.5] CT
0 0 1 RC
1 LJ
N
147 559 M
154 566 L
S
GR
GS
[0.75 0 0 0.75 0 0.5] CT
0 0 1 RC
1 LJ
N
181 652 M
188 645 L
S
GR
GS
[0.75 0 0 0.75 0 0.5] CT
0 0 1 RC
1 LJ
N
181 645 M
188 652 L
S
GR
GS
[0.75 0 0 0.75 0 0.5] CT
0 0 1 RC
1 LJ
N
214 688 M
221 681 L
S
GR
GS
[0.75 0 0 0.75 0 0.5] CT
0 0 1 RC
1 LJ
N
214 681 M
221 688 L
S
GR
GS
[0.75 0 0 0.75 0 0.5] CT
0 0 1 RC
1 LJ
N
248 707 M
255 700 L
S
GR
GS
[0.75 0 0 0.75 0 0.5] CT
0 0 1 RC
1 LJ
N
248 700 M
255 707 L
S
GR
GS
[0.75 0 0 0.75 0 0.5] CT
0 0 1 RC
1 LJ
N
281 717 M
288 710 L
S
GR
GS
[0.75 0 0 0.75 0 0.5] CT
0 0 1 RC
1 LJ
N
281 710 M
288 717 L
S
GR
GS
[0.75 0 0 0.75 0 0.5] CT
0 0 1 RC
1 LJ
N
315 724 M
322 717 L
S
GR
GS
[0.75 0 0 0.75 0 0.5] CT
0 0 1 RC
1 LJ
N
315 717 M
322 724 L
S
GR
GS
[0.75 0 0 0.75 0 0.5] CT
0 0 1 RC
1 LJ
N
348 733 M
355 726 L
S
GR
GS
[0.75 0 0 0.75 0 0.5] CT
0 0 1 RC
1 LJ
N
348 726 M
355 733 L
S
GR
GS
[0.75 0 0 0.75 0 0.5] CT
0 0 1 RC
1 LJ
N
382 736 M
389 729 L
S
GR
GS
[0.75 0 0 0.75 0 0.5] CT
0 0 1 RC
1 LJ
N
382 729 M
389 736 L
S
GR
GS
[0.75 0 0 0.75 0 0.5] CT
0 0 1 RC
1 LJ
N
415 737 M
422 730 L
S
GR
GS
[0.75 0 0 0.75 0 0.5] CT
0 0 1 RC
1 LJ
N
415 730 M
422 737 L
S
GR
GS
[0.75 0 0 0.75 0 0.5] CT
0 0 1 RC
1 LJ
N
449 741 M
456 734 L
S
GR
GS
[0.75 0 0 0.75 0 0.5] CT
0 0 1 RC
1 LJ
N
449 734 M
456 741 L
S
GR
GS
[0.75 0 0 0.75 0 0.5] CT
0 0 1 RC
1 LJ
N
482 743 M
489 736 L
S
GR
GS
[0.75 0 0 0.75 0 0.5] CT
0 0 1 RC
1 LJ
N
482 736 M
489 743 L
S
GR
GS
[0.75 0 0 0.75 0 0.5] CT
0 0 1 RC
1 LJ
N
516 744 M
523 737 L
S
GR
GS
[0.75 0 0 0.75 0 0.5] CT
0 0 1 RC
1 LJ
N
516 737 M
523 744 L
S
GR
GS
[0.75 0 0 0.75 0 0.5] CT
0 0 1 RC
1 LJ
N
549 745 M
556 738 L
S
GR
GS
[0.75 0 0 0.75 0 0.5] CT
0 0 1 RC
1 LJ
N
549 738 M
556 745 L
S
GR
GS
[0.75 0 0 0.75 0 0.5] CT
0 0 1 RC
1 LJ
N
583 746 M
590 739 L
S
GR
GS
[0.75 0 0 0.75 0 0.5] CT
0 0 1 RC
1 LJ
N
583 739 M
590 746 L
S
GR
GS
[0.75 0 0 0.75 0 0.5] CT
N
121.5 94.5 M
120.328 91.672 L
117.5 90.5 L
114.672 91.672 L
113.5 94.5 L
114.672 97.328 L
117.5 98.5 L
120.328 97.328 L
121.5 94.5 L
cp
f
GR
GS
[0.75 0 0 0.75 0 0.5] CT
1 LJ
N
121.5 94.5 M
120.736 92.149 L
118.736 90.696 L
116.264 90.696 L
114.264 92.149 L
113.5 94.5 L
114.264 96.851 L
116.264 98.304 L
118.736 98.304 L
120.736 96.851 L
cp
S
GR
GS
[0.75 0 0 0.75 0 0.5] CT
N
154.5 505.5 M
153.328 502.672 L
150.5 501.5 L
147.672 502.672 L
146.5 505.5 L
147.672 508.328 L
150.5 509.5 L
153.328 508.328 L
154.5 505.5 L
cp
f
GR
GS
[0.75 0 0 0.75 0 0.5] CT
1 LJ
N
154.5 505.5 M
153.736 503.149 L
151.736 501.696 L
149.264 501.696 L
147.264 503.149 L
146.5 505.5 L
147.264 507.851 L
149.264 509.304 L
151.736 509.304 L
153.736 507.851 L
cp
S
GR
GS
[0.75 0 0 0.75 0 0.5] CT
N
188.5 620.5 M
187.328 617.672 L
184.5 616.5 L
181.672 617.672 L
180.5 620.5 L
181.672 623.328 L
184.5 624.5 L
187.328 623.328 L
188.5 620.5 L
cp
f
GR
GS
[0.75 0 0 0.75 0 0.5] CT
1 LJ
N
188.5 620.5 M
187.736 618.149 L
185.736 616.696 L
183.264 616.696 L
181.264 618.149 L
180.5 620.5 L
181.264 622.851 L
183.264 624.304 L
185.736 624.304 L
187.736 622.851 L
cp
S
GR
GS
[0.75 0 0 0.75 0 0.5] CT
N
221.5 669.5 M
220.328 666.672 L
217.5 665.5 L
214.672 666.672 L
213.5 669.5 L
214.672 672.328 L
217.5 673.5 L
220.328 672.328 L
221.5 669.5 L
cp
f
GR
GS
[0.75 0 0 0.75 0 0.5] CT
1 LJ
N
221.5 669.5 M
220.736 667.149 L
218.736 665.696 L
216.264 665.696 L
214.264 667.149 L
213.5 669.5 L
214.264 671.851 L
216.264 673.304 L
218.736 673.304 L
220.736 671.851 L
cp
S
GR
GS
[0.75 0 0 0.75 0 0.5] CT
N
255.5 694.5 M
254.328 691.672 L
251.5 690.5 L
248.672 691.672 L
247.5 694.5 L
248.672 697.328 L
251.5 698.5 L
254.328 697.328 L
255.5 694.5 L
cp
f
GR
GS
[0.75 0 0 0.75 0 0.5] CT
1 LJ
N
255.5 694.5 M
254.736 692.149 L
252.736 690.696 L
250.264 690.696 L
248.264 692.149 L
247.5 694.5 L
248.264 696.851 L
250.264 698.304 L
252.736 698.304 L
254.736 696.851 L
cp
S
GR
GS
[0.75 0 0 0.75 0 0.5] CT
N
288.5 709.5 M
287.328 706.672 L
284.5 705.5 L
281.672 706.672 L
280.5 709.5 L
281.672 712.328 L
284.5 713.5 L
287.328 712.328 L
288.5 709.5 L
cp
f
GR
GS
[0.75 0 0 0.75 0 0.5] CT
1 LJ
N
288.5 709.5 M
287.736 707.149 L
285.736 705.696 L
283.264 705.696 L
281.264 707.149 L
280.5 709.5 L
281.264 711.851 L
283.264 713.304 L
285.736 713.304 L
287.736 711.851 L
cp
S
GR
GS
[0.75 0 0 0.75 0 0.5] CT
N
322.5 718.5 M
321.328 715.672 L
318.5 714.5 L
315.672 715.672 L
314.5 718.5 L
315.672 721.328 L
318.5 722.5 L
321.328 721.328 L
322.5 718.5 L
cp
f
GR
GS
[0.75 0 0 0.75 0 0.5] CT
1 LJ
N
322.5 718.5 M
321.736 716.149 L
319.736 714.696 L
317.264 714.696 L
315.264 716.149 L
314.5 718.5 L
315.264 720.851 L
317.264 722.304 L
319.736 722.304 L
321.736 720.851 L
cp
S
GR
GS
[0.75 0 0 0.75 0 0.5] CT
N
355.5 725.5 M
354.328 722.672 L
351.5 721.5 L
348.672 722.672 L
347.5 725.5 L
348.672 728.328 L
351.5 729.5 L
354.328 728.328 L
355.5 725.5 L
cp
f
GR
GS
[0.75 0 0 0.75 0 0.5] CT
1 LJ
N
355.5 725.5 M
354.736 723.149 L
352.736 721.696 L
350.264 721.696 L
348.264 723.149 L
347.5 725.5 L
348.264 727.851 L
350.264 729.304 L
352.736 729.304 L
354.736 727.851 L
cp
S
GR
GS
[0.75 0 0 0.75 0 0.5] CT
N
389.5 729.5 M
388.328 726.672 L
385.5 725.5 L
382.672 726.672 L
381.5 729.5 L
382.672 732.328 L
385.5 733.5 L
388.328 732.328 L
389.5 729.5 L
cp
f
GR
GS
[0.75 0 0 0.75 0 0.5] CT
1 LJ
N
389.5 729.5 M
388.736 727.149 L
386.736 725.696 L
384.264 725.696 L
382.264 727.149 L
381.5 729.5 L
382.264 731.851 L
384.264 733.304 L
386.736 733.304 L
388.736 731.851 L
cp
S
GR
GS
[0.75 0 0 0.75 0 0.5] CT
N
422.5 731.5 M
421.328 728.672 L
418.5 727.5 L
415.672 728.672 L
414.5 731.5 L
415.672 734.328 L
418.5 735.5 L
421.328 734.328 L
422.5 731.5 L
cp
f
GR
GS
[0.75 0 0 0.75 0 0.5] CT
1 LJ
N
422.5 731.5 M
421.736 729.149 L
419.736 727.696 L
417.264 727.696 L
415.264 729.149 L
414.5 731.5 L
415.264 733.851 L
417.264 735.304 L
419.736 735.304 L
421.736 733.851 L
cp
S
GR
GS
[0.75 0 0 0.75 0 0.5] CT
N
456.5 735.5 M
455.328 732.672 L
452.5 731.5 L
449.672 732.672 L
448.5 735.5 L
449.672 738.328 L
452.5 739.5 L
455.328 738.328 L
456.5 735.5 L
cp
f
GR
GS
[0.75 0 0 0.75 0 0.5] CT
1 LJ
N
456.5 735.5 M
455.736 733.149 L
453.736 731.696 L
451.264 731.696 L
449.264 733.149 L
448.5 735.5 L
449.264 737.851 L
451.264 739.304 L
453.736 739.304 L
455.736 737.851 L
cp
S
GR
GS
[0.75 0 0 0.75 0 0.5] CT
N
489.5 737.5 M
488.328 734.672 L
485.5 733.5 L
482.672 734.672 L
481.5 737.5 L
482.672 740.328 L
485.5 741.5 L
488.328 740.328 L
489.5 737.5 L
cp
f
GR
GS
[0.75 0 0 0.75 0 0.5] CT
1 LJ
N
489.5 737.5 M
488.736 735.149 L
486.736 733.696 L
484.264 733.696 L
482.264 735.149 L
481.5 737.5 L
482.264 739.851 L
484.264 741.304 L
486.736 741.304 L
488.736 739.851 L
cp
S
GR
GS
[0.75 0 0 0.75 0 0.5] CT
N
523.5 739.5 M
522.328 736.672 L
519.5 735.5 L
516.672 736.672 L
515.5 739.5 L
516.672 742.328 L
519.5 743.5 L
522.328 742.328 L
523.5 739.5 L
cp
f
GR
GS
[0.75 0 0 0.75 0 0.5] CT
1 LJ
N
523.5 739.5 M
522.736 737.149 L
520.736 735.696 L
518.264 735.696 L
516.264 737.149 L
515.5 739.5 L
516.264 741.851 L
518.264 743.304 L
520.736 743.304 L
522.736 741.851 L
cp
S
GR
GS
[0.75 0 0 0.75 0 0.5] CT
N
556.5 740.5 M
555.328 737.672 L
552.5 736.5 L
549.672 737.672 L
548.5 740.5 L
549.672 743.328 L
552.5 744.5 L
555.328 743.328 L
556.5 740.5 L
cp
f
GR
GS
[0.75 0 0 0.75 0 0.5] CT
1 LJ
N
556.5 740.5 M
555.736 738.149 L
553.736 736.696 L
551.264 736.696 L
549.264 738.149 L
548.5 740.5 L
549.264 742.851 L
551.264 744.304 L
553.736 744.304 L
555.736 742.851 L
cp
S
GR
GS
[0.75 0 0 0.75 0 0.5] CT
N
590.5 741.5 M
589.328 738.672 L
586.5 737.5 L
583.672 738.672 L
582.5 741.5 L
583.672 744.328 L
586.5 745.5 L
589.328 744.328 L
590.5 741.5 L
cp
f
GR
GS
[0.75 0 0 0.75 0 0.5] CT
1 LJ
N
590.5 741.5 M
589.736 739.149 L
587.736 737.696 L
585.264 737.696 L
583.264 739.149 L
582.5 741.5 L
583.264 743.851 L
585.264 745.304 L
587.736 745.304 L
589.736 743.851 L
cp
S
GR
GS
[0.75 0 0 0.75 0 0.5] CT
1 GC
N
506 174 M
506 77 L
573 77 L
573 174 L
cp
f
GR
GS
[0.75 0 0 0.75 407.25 65.41192] CT
/Helvetica 12 F
GS
[1 0 0 1 0 0] CT
0 4.5 moveto 
1 -1 scale
(n=5) t 
GR
GR
GS
[0.75 0 0 0.75 0 0.5] CT
N
521.696 85.264 M
524.56 85.264 L
525.5 82.5 L
526.44 85.264 L
529.304 85.264 L
527.022 86.994 L
527.851 89.736 L
525.5 88.1 L
523.149 89.736 L
523.978 86.994 L
521.696 85.264 L
cp
f
GR
GS
[0.75 0 0 0.75 0 0.5] CT
10.0 ML
N
521.696 85.264 M
524.56 85.264 L
525.5 82.5 L
526.44 85.264 L
529.304 85.264 L
527.022 86.994 L
527.851 89.736 L
525.5 88.1 L
523.149 89.736 L
523.978 86.994 L
cp
S
GR
GS
[0.75 0 0 0.75 407.25 77.09715] CT
/Helvetica 12 F
GS
[1 0 0 1 0 0] CT
0 4.5 moveto 
1 -1 scale
(4) t 
GR
GR
GS
[0.75 0 0 0.75 0 0.5] CT
0 1 0 RC
N
522.38 105.62 M
522.38 99.38 L
528.62 99.38 L
528.62 105.62 L
cp
f
GR
GS
[0.75 0 0 0.75 0 0.5] CT
0 1 0 RC
10.0 ML
N
522.38 105.62 M
522.38 99.38 L
528.62 99.38 L
528.62 105.62 L
cp
S
GR
GS
[0.75 0 0 0.75 407.25 88.78238] CT
/Helvetica 12 F
GS
[1 0 0 1 0 0] CT
0 4.5 moveto 
1 -1 scale
(3) t 
GR
GR
GS
[0.75 0 0 0.75 0 0.5] CT
1 0 1 RC
N
525.5 122.832 M
530.117 114.834 L
520.883 114.834 L
cp
f
GR
GS
[0.75 0 0 0.75 0 0.5] CT
1 0 1 RC
10.0 ML
N
525.5 122.832 M
530.117 114.834 L
520.883 114.834 L
cp
S
GR
GS
[0.75 0 0 0.75 407.25 100.46762] CT
/Helvetica 12 F
GS
[1 0 0 1 0 0] CT
0 4.5 moveto 
1 -1 scale
(2) t 
GR
GR
GS
[0.75 0 0 0.75 0 0.5] CT
1 0 0 RC
1 LJ
N
521 133.5 M
530 133.5 L
S
GR
GS
[0.75 0 0 0.75 0 0.5] CT
1 0 0 RC
1 LJ
N
525.5 138 M
525.5 129 L
S
GR
GS
[0.75 0 0 0.75 407.25 112.15285] CT
/Helvetica 12 F
GS
[1 0 0 1 0 0] CT
0 4.5 moveto 
1 -1 scale
(1) t 
GR
GR
GS
[0.75 0 0 0.75 0 0.5] CT
0 0 1 RC
1 LJ
N
522 152 M
529 145 L
S
GR
GS
[0.75 0 0 0.75 0 0.5] CT
0 0 1 RC
1 LJ
N
522 145 M
529 152 L
S
GR
GS
[0.75 0 0 0.75 407.25 123.83808] CT
/Helvetica 12 F
GS
[1 0 0 1 0 0] CT
0 4.5 moveto 
1 -1 scale
(0) t 
GR
GR
GS
[0.75 0 0 0.75 0 0.5] CT
N
529.5 164.5 M
528.328 161.672 L
525.5 160.5 L
522.672 161.672 L
521.5 164.5 L
522.672 167.328 L
525.5 168.5 L
528.328 167.328 L
529.5 164.5 L
cp
f
GR
GS
[0.75 0 0 0.75 0 0.5] CT
1 LJ
N
529.5 164.5 M
528.736 162.149 L
526.736 160.696 L
524.264 160.696 L
522.264 162.149 L
521.5 164.5 L
522.264 166.851 L
524.264 168.304 L
526.736 168.304 L
528.736 166.851 L
cp
S
GR
GS
[0.75 0 0 0.75 0 0.5] CT
0.149 GC
10.0 ML
0.667 LW
N
506 174 M
506 77 L
573 77 L
573 174 L
cp
S
GR
%%Trailer
%%Pages: 1
%%EOF
