%!PS-Adobe-3.0 EPSF-3.0
%%Creator: (MATLAB, The Mathworks, Inc. Version 9.0.0.341360 \(R2016a\). Operating System: Linux)
%%Title: /data/geodynamo/natafh/Dynamo/Acoustics/elastic_shell/Figures/ZoRo/modes_elatic_rigid.eps
%%CreationDate: 2016-06-09T16:50:36
%%Pages: (atend)
%%BoundingBox: 0 0 485 632
%%LanguageLevel: 3
%%EndComments
%%BeginProlog
%%BeginResource: procset (Apache XML Graphics Std ProcSet) 1.2 0
%%Version: 1.2 0
%%Copyright: (Copyright 2001-2003,2010 The Apache Software Foundation. License terms: http://www.apache.org/licenses/LICENSE-2.0)
/bd{bind def}bind def
/ld{load def}bd
/GR/grestore ld
/M/moveto ld
/LJ/setlinejoin ld
/C/curveto ld
/f/fill ld
/LW/setlinewidth ld
/GC/setgray ld
/t/show ld
/N/newpath ld
/CT/concat ld
/cp/closepath ld
/S/stroke ld
/L/lineto ld
/CC/setcmykcolor ld
/A/ashow ld
/GS/gsave ld
/RC/setrgbcolor ld
/RM/rmoveto ld
/ML/setmiterlimit ld
/re {4 2 roll M
1 index 0 rlineto
0 exch rlineto
neg 0 rlineto
cp } bd
/_ctm matrix def
/_tm matrix def
/BT { _ctm currentmatrix pop matrix _tm copy pop 0 0 moveto } bd
/ET { _ctm setmatrix } bd
/iTm { _ctm setmatrix _tm concat } bd
/Tm { _tm astore pop iTm 0 0 moveto } bd
/ux 0.0 def
/uy 0.0 def
/F {
  /Tp exch def
  /Tf exch def
  Tf findfont Tp scalefont setfont
  /cf Tf def  /cs Tp def
} bd
/ULS {currentpoint /uy exch def /ux exch def} bd
/ULE {
  /Tcx currentpoint pop def
  gsave
  newpath
  cf findfont cs scalefont dup
  /FontMatrix get 0 get /Ts exch def /FontInfo get dup
  /UnderlinePosition get Ts mul /To exch def
  /UnderlineThickness get Ts mul /Tt exch def
  ux uy To add moveto  Tcx uy To add lineto
  Tt setlinewidth stroke
  grestore
} bd
/OLE {
  /Tcx currentpoint pop def
  gsave
  newpath
  cf findfont cs scalefont dup
  /FontMatrix get 0 get /Ts exch def /FontInfo get dup
  /UnderlinePosition get Ts mul /To exch def
  /UnderlineThickness get Ts mul /Tt exch def
  ux uy To add cs add moveto Tcx uy To add cs add lineto
  Tt setlinewidth stroke
  grestore
} bd
/SOE {
  /Tcx currentpoint pop def
  gsave
  newpath
  cf findfont cs scalefont dup
  /FontMatrix get 0 get /Ts exch def /FontInfo get dup
  /UnderlinePosition get Ts mul /To exch def
  /UnderlineThickness get Ts mul /Tt exch def
  ux uy To add cs 10 mul 26 idiv add moveto Tcx uy To add cs 10 mul 26 idiv add lineto
  Tt setlinewidth stroke
  grestore
} bd
/QT {
/Y22 exch store
/X22 exch store
/Y21 exch store
/X21 exch store
currentpoint
/Y21 load 2 mul add 3 div exch
/X21 load 2 mul add 3 div exch
/X21 load 2 mul /X22 load add 3 div
/Y21 load 2 mul /Y22 load add 3 div
/X22 load /Y22 load curveto
} bd
/SSPD {
dup length /d exch dict def
{
/v exch def
/k exch def
currentpagedevice k known {
/cpdv currentpagedevice k get def
v cpdv ne {
/upd false def
/nullv v type /nulltype eq def
/nullcpdv cpdv type /nulltype eq def
nullv nullcpdv or
{
/upd true def
} {
/sametype v type cpdv type eq def
sametype {
v type /arraytype eq {
/vlen v length def
/cpdvlen cpdv length def
vlen cpdvlen eq {
0 1 vlen 1 sub {
/i exch def
/obj v i get def
/cpdobj cpdv i get def
obj cpdobj ne {
/upd true def
exit
} if
} for
} {
/upd true def
} ifelse
} {
v type /dicttype eq {
v {
/dv exch def
/dk exch def
/cpddv cpdv dk get def
dv cpddv ne {
/upd true def
exit
} if
} forall
} {
/upd true def
} ifelse
} ifelse
} if
} ifelse
upd true eq {
d k v put
} if
} if
} if
} forall
d length 0 gt {
d setpagedevice
} if
} bd
%%EndResource
%%BeginResource: procset (Apache XML Graphics EPS ProcSet) 1.0 0
%%Version: 1.0 0
%%Copyright: (Copyright 2002-2003 The Apache Software Foundation. License terms: http://www.apache.org/licenses/LICENSE-2.0)
/BeginEPSF { %def
/b4_Inc_state save def         % Save state for cleanup
/dict_count countdictstack def % Count objects on dict stack
/op_count count 1 sub def      % Count objects on operand stack
userdict begin                 % Push userdict on dict stack
/showpage { } def              % Redefine showpage, { } = null proc
0 setgray 0 setlinecap         % Prepare graphics state
1 setlinewidth 0 setlinejoin
10 setmiterlimit [ ] 0 setdash newpath
/languagelevel where           % If level not equal to 1 then
{pop languagelevel             % set strokeadjust and
1 ne                           % overprint to their defaults.
{false setstrokeadjust false setoverprint
} if
} if
} bd
/EndEPSF { %def
count op_count sub {pop} repeat            % Clean up stacks
countdictstack dict_count sub {end} repeat
b4_Inc_state restore
} bd
%%EndResource
%FOPBeginFontDict
%%IncludeResource: font Courier-Bold
%%IncludeResource: font Helvetica
%%IncludeResource: font Courier-BoldOblique
%%IncludeResource: font Courier-Oblique
%%IncludeResource: font Times-Roman
%%IncludeResource: font Helvetica-BoldOblique
%%IncludeResource: font Helvetica-Bold
%%IncludeResource: font Helvetica-Oblique
%%IncludeResource: font Times-BoldItalic
%%IncludeResource: font Courier
%%IncludeResource: font Times-Italic
%%IncludeResource: font Times-Bold
%%IncludeResource: font Symbol
%%IncludeResource: font ZapfDingbats
%FOPEndFontDict
%%BeginResource: encoding WinAnsiEncoding
/WinAnsiEncoding [
/.notdef /.notdef /.notdef /.notdef /.notdef
/.notdef /.notdef /.notdef /.notdef /.notdef
/.notdef /.notdef /.notdef /.notdef /.notdef
/.notdef /.notdef /.notdef /.notdef /.notdef
/.notdef /.notdef /.notdef /.notdef /.notdef
/.notdef /.notdef /.notdef /.notdef /.notdef
/.notdef /.notdef /space /exclam /quotedbl
/numbersign /dollar /percent /ampersand /quotesingle
/parenleft /parenright /asterisk /plus /comma
/hyphen /period /slash /zero /one
/two /three /four /five /six
/seven /eight /nine /colon /semicolon
/less /equal /greater /question /at
/A /B /C /D /E
/F /G /H /I /J
/K /L /M /N /O
/P /Q /R /S /T
/U /V /W /X /Y
/Z /bracketleft /backslash /bracketright /asciicircum
/underscore /quoteleft /a /b /c
/d /e /f /g /h
/i /j /k /l /m
/n /o /p /q /r
/s /t /u /v /w
/x /y /z /braceleft /bar
/braceright /asciitilde /bullet /Euro /bullet
/quotesinglbase /florin /quotedblbase /ellipsis /dagger
/daggerdbl /circumflex /perthousand /Scaron /guilsinglleft
/OE /bullet /Zcaron /bullet /bullet
/quoteleft /quoteright /quotedblleft /quotedblright /bullet
/endash /emdash /asciitilde /trademark /scaron
/guilsinglright /oe /bullet /zcaron /Ydieresis
/space /exclamdown /cent /sterling /currency
/yen /brokenbar /section /dieresis /copyright
/ordfeminine /guillemotleft /logicalnot /sfthyphen /registered
/macron /degree /plusminus /twosuperior /threesuperior
/acute /mu /paragraph /middot /cedilla
/onesuperior /ordmasculine /guillemotright /onequarter /onehalf
/threequarters /questiondown /Agrave /Aacute /Acircumflex
/Atilde /Adieresis /Aring /AE /Ccedilla
/Egrave /Eacute /Ecircumflex /Edieresis /Igrave
/Iacute /Icircumflex /Idieresis /Eth /Ntilde
/Ograve /Oacute /Ocircumflex /Otilde /Odieresis
/multiply /Oslash /Ugrave /Uacute /Ucircumflex
/Udieresis /Yacute /Thorn /germandbls /agrave
/aacute /acircumflex /atilde /adieresis /aring
/ae /ccedilla /egrave /eacute /ecircumflex
/edieresis /igrave /iacute /icircumflex /idieresis
/eth /ntilde /ograve /oacute /ocircumflex
/otilde /odieresis /divide /oslash /ugrave
/uacute /ucircumflex /udieresis /yacute /thorn
/ydieresis
] def
%%EndResource
%FOPBeginFontReencode
/Courier-Bold findfont
dup length dict begin
  {1 index /FID ne {def} {pop pop} ifelse} forall
  /Encoding WinAnsiEncoding def
  currentdict
end
/Courier-Bold exch definefont pop
/Helvetica findfont
dup length dict begin
  {1 index /FID ne {def} {pop pop} ifelse} forall
  /Encoding WinAnsiEncoding def
  currentdict
end
/Helvetica exch definefont pop
/Courier-BoldOblique findfont
dup length dict begin
  {1 index /FID ne {def} {pop pop} ifelse} forall
  /Encoding WinAnsiEncoding def
  currentdict
end
/Courier-BoldOblique exch definefont pop
/Courier-Oblique findfont
dup length dict begin
  {1 index /FID ne {def} {pop pop} ifelse} forall
  /Encoding WinAnsiEncoding def
  currentdict
end
/Courier-Oblique exch definefont pop
/Times-Roman findfont
dup length dict begin
  {1 index /FID ne {def} {pop pop} ifelse} forall
  /Encoding WinAnsiEncoding def
  currentdict
end
/Times-Roman exch definefont pop
/Helvetica-BoldOblique findfont
dup length dict begin
  {1 index /FID ne {def} {pop pop} ifelse} forall
  /Encoding WinAnsiEncoding def
  currentdict
end
/Helvetica-BoldOblique exch definefont pop
/Helvetica-Bold findfont
dup length dict begin
  {1 index /FID ne {def} {pop pop} ifelse} forall
  /Encoding WinAnsiEncoding def
  currentdict
end
/Helvetica-Bold exch definefont pop
/Helvetica-Oblique findfont
dup length dict begin
  {1 index /FID ne {def} {pop pop} ifelse} forall
  /Encoding WinAnsiEncoding def
  currentdict
end
/Helvetica-Oblique exch definefont pop
/Times-BoldItalic findfont
dup length dict begin
  {1 index /FID ne {def} {pop pop} ifelse} forall
  /Encoding WinAnsiEncoding def
  currentdict
end
/Times-BoldItalic exch definefont pop
/Courier findfont
dup length dict begin
  {1 index /FID ne {def} {pop pop} ifelse} forall
  /Encoding WinAnsiEncoding def
  currentdict
end
/Courier exch definefont pop
/Times-Italic findfont
dup length dict begin
  {1 index /FID ne {def} {pop pop} ifelse} forall
  /Encoding WinAnsiEncoding def
  currentdict
end
/Times-Italic exch definefont pop
/Times-Bold findfont
dup length dict begin
  {1 index /FID ne {def} {pop pop} ifelse} forall
  /Encoding WinAnsiEncoding def
  currentdict
end
/Times-Bold exch definefont pop
%FOPEndFontReencode
%%EndProlog
%%Page: 1 1
%%PageBoundingBox: 0 0 485 632
%%BeginPageSetup
[1 0 0 -1 0 632] CT
%%EndPageSetup
GS
[0.75 0 0 0.75 0 0.5] CT
1 GC
N
0 0 647 842 re
f
GR
GS
[0.75 0 0 0.75 0 0.5] CT
1 GC
N
0 0 647 842 re
f
GR
GS
[0.75 0 0 0.75 0 0.5] CT
1 GC
N
84 749 M
586 749 L
586 76 L
84 76 L
cp
f
GR
GS
[0.75 0 0 0.75 0 0.5] CT
0.873 GC
1 LJ
0.667 LW
N
84 749 M
84 76 L
S
GR
GS
[0.75 0 0 0.75 0 0.5] CT
0.873 GC
1 LJ
0.667 LW
N
251.333 749 M
251.333 76 L
S
GR
GS
[0.75 0 0 0.75 0 0.5] CT
0.873 GC
1 LJ
0.667 LW
N
418.667 749 M
418.667 76 L
S
GR
GS
[0.75 0 0 0.75 0 0.5] CT
0.873 GC
1 LJ
0.667 LW
N
586 749 M
586 76 L
S
GR
GS
[0.75 0 0 0.75 0 0.5] CT
0.873 GC
1 LJ
0.667 LW
N
586 749 M
84 749 L
S
GR
GS
[0.75 0 0 0.75 0 0.5] CT
0.873 GC
1 LJ
0.667 LW
N
586 636.833 M
84 636.833 L
S
GR
GS
[0.75 0 0 0.75 0 0.5] CT
0.873 GC
1 LJ
0.667 LW
N
586 524.667 M
84 524.667 L
S
GR
GS
[0.75 0 0 0.75 0 0.5] CT
0.873 GC
1 LJ
0.667 LW
N
586 412.5 M
84 412.5 L
S
GR
GS
[0.75 0 0 0.75 0 0.5] CT
0.873 GC
1 LJ
0.667 LW
N
586 300.333 M
84 300.333 L
S
GR
GS
[0.75 0 0 0.75 0 0.5] CT
0.873 GC
1 LJ
0.667 LW
N
586 188.167 M
84 188.167 L
S
GR
GS
[0.75 0 0 0.75 0 0.5] CT
0.873 GC
1 LJ
0.667 LW
N
586 76 M
84 76 L
S
GR
GS
[0.75 0 0 0.75 0 0.5] CT
0.149 GC
2 setlinecap
1 LJ
0.667 LW
N
84 749 M
586 749 L
S
GR
GS
[0.75 0 0 0.75 0 0.5] CT
0.149 GC
2 setlinecap
1 LJ
0.667 LW
N
84 76 M
586 76 L
S
GR
GS
[0.75 0 0 0.75 0 0.5] CT
0.149 GC
2 setlinecap
1 LJ
0.667 LW
N
84 749 M
84 742.27 L
S
GR
GS
[0.75 0 0 0.75 0 0.5] CT
0.149 GC
2 setlinecap
1 LJ
0.667 LW
N
251.333 749 M
251.333 742.27 L
S
GR
GS
[0.75 0 0 0.75 0 0.5] CT
0.149 GC
2 setlinecap
1 LJ
0.667 LW
N
418.667 749 M
418.667 742.27 L
S
GR
GS
[0.75 0 0 0.75 0 0.5] CT
0.149 GC
2 setlinecap
1 LJ
0.667 LW
N
586 749 M
586 742.27 L
S
GR
GS
[0.75 0 0 0.75 0 0.5] CT
0.149 GC
2 setlinecap
1 LJ
0.667 LW
N
84 76 M
84 82.73 L
S
GR
GS
[0.75 0 0 0.75 0 0.5] CT
0.149 GC
2 setlinecap
1 LJ
0.667 LW
N
251.333 76 M
251.333 82.73 L
S
GR
GS
[0.75 0 0 0.75 0 0.5] CT
0.149 GC
2 setlinecap
1 LJ
0.667 LW
N
418.667 76 M
418.667 82.73 L
S
GR
GS
[0.75 0 0 0.75 0 0.5] CT
0.149 GC
2 setlinecap
1 LJ
0.667 LW
N
586 76 M
586 82.73 L
S
GR
GS
[0.75 0 0 0.75 63 566.24998] CT
0.149 GC
/Helvetica 13.333 F
GS
[1 0 0 1 0 0] CT
-4.5 13 moveto 
1 -1 scale
(0) t 
GR
GR
GS
[0.75 0 0 0.75 188.5 566.24998] CT
0.149 GC
/Helvetica 13.333 F
GS
[1 0 0 1 0 0] CT
-4.5 13 moveto 
1 -1 scale
(5) t 
GR
GR
GS
[0.75 0 0 0.75 313.99999 566.24998] CT
0.149 GC
/Helvetica 13.333 F
GS
[1 0 0 1 0 0] CT
-8.5 13 moveto 
1 -1 scale
(10) t 
GR
GR
GS
[0.75 0 0 0.75 439.5 566.24998] CT
0.149 GC
/Helvetica 13.333 F
GS
[1 0 0 1 0 0] CT
-8.5 13 moveto 
1 -1 scale
(15) t 
GR
GR
GS
[0.75 0 0 0.75 251.25018 580.00002] CT
0.149 GC
/Helvetica 14.667 F
GS
[1 0 0 1 0 0] CT
-88.5 14 moveto 
1 -1 scale
(mode angular number l) t 
GR
GR
GS
[0.75 0 0 0.75 0 0.5] CT
0.149 GC
2 setlinecap
1 LJ
0.667 LW
N
84 749 M
84 76 L
S
GR
GS
[0.75 0 0 0.75 0 0.5] CT
0.149 GC
2 setlinecap
1 LJ
0.667 LW
N
586 749 M
586 76 L
S
GR
GS
[0.75 0 0 0.75 0 0.5] CT
0.149 GC
2 setlinecap
1 LJ
0.667 LW
N
84 749 M
90.73 749 L
S
GR
GS
[0.75 0 0 0.75 0 0.5] CT
0.149 GC
2 setlinecap
1 LJ
0.667 LW
N
84 636.833 M
90.73 636.833 L
S
GR
GS
[0.75 0 0 0.75 0 0.5] CT
0.149 GC
2 setlinecap
1 LJ
0.667 LW
N
84 524.667 M
90.73 524.667 L
S
GR
GS
[0.75 0 0 0.75 0 0.5] CT
0.149 GC
2 setlinecap
1 LJ
0.667 LW
N
84 412.5 M
90.73 412.5 L
S
GR
GS
[0.75 0 0 0.75 0 0.5] CT
0.149 GC
2 setlinecap
1 LJ
0.667 LW
N
84 300.333 M
90.73 300.333 L
S
GR
GS
[0.75 0 0 0.75 0 0.5] CT
0.149 GC
2 setlinecap
1 LJ
0.667 LW
N
84 188.167 M
90.73 188.167 L
S
GR
GS
[0.75 0 0 0.75 0 0.5] CT
0.149 GC
2 setlinecap
1 LJ
0.667 LW
N
84 76 M
90.73 76 L
S
GR
GS
[0.75 0 0 0.75 0 0.5] CT
0.149 GC
2 setlinecap
1 LJ
0.667 LW
N
586 749 M
579.27 749 L
S
GR
GS
[0.75 0 0 0.75 0 0.5] CT
0.149 GC
2 setlinecap
1 LJ
0.667 LW
N
586 636.833 M
579.27 636.833 L
S
GR
GS
[0.75 0 0 0.75 0 0.5] CT
0.149 GC
2 setlinecap
1 LJ
0.667 LW
N
586 524.667 M
579.27 524.667 L
S
GR
GS
[0.75 0 0 0.75 0 0.5] CT
0.149 GC
2 setlinecap
1 LJ
0.667 LW
N
586 412.5 M
579.27 412.5 L
S
GR
GS
[0.75 0 0 0.75 0 0.5] CT
0.149 GC
2 setlinecap
1 LJ
0.667 LW
N
586 300.333 M
579.27 300.333 L
S
GR
GS
[0.75 0 0 0.75 0 0.5] CT
0.149 GC
2 setlinecap
1 LJ
0.667 LW
N
586 188.167 M
579.27 188.167 L
S
GR
GS
[0.75 0 0 0.75 0 0.5] CT
0.149 GC
2 setlinecap
1 LJ
0.667 LW
N
586 76 M
579.27 76 L
S
GR
GS
[0.75 0 0 0.75 59 562.25] CT
0.149 GC
/Helvetica 13.333 F
GS
[1 0 0 1 0 0] CT
-9 4.5 moveto 
1 -1 scale
(0) t 
GR
GR
GS
[0.75 0 0 0.75 59 478.12498] CT
0.149 GC
/Helvetica 13.333 F
GS
[1 0 0 1 0 0] CT
-34 4.5 moveto 
1 -1 scale
(2000) t 
GR
GR
GS
[0.75 0 0 0.75 59 394.00002] CT
0.149 GC
/Helvetica 13.333 F
GS
[1 0 0 1 0 0] CT
-34 4.5 moveto 
1 -1 scale
(4000) t 
GR
GR
GS
[0.75 0 0 0.75 59 309.875] CT
0.149 GC
/Helvetica 13.333 F
GS
[1 0 0 1 0 0] CT
-34 4.5 moveto 
1 -1 scale
(6000) t 
GR
GR
GS
[0.75 0 0 0.75 59 225.75001] CT
0.149 GC
/Helvetica 13.333 F
GS
[1 0 0 1 0 0] CT
-34 4.5 moveto 
1 -1 scale
(8000) t 
GR
GR
GS
[0.75 0 0 0.75 59 141.625] CT
0.149 GC
/Helvetica 13.333 F
GS
[1 0 0 1 0 0] CT
-42 4.5 moveto 
1 -1 scale
(10000) t 
GR
GR
GS
[0.75 0 0 0.75 59 57.5] CT
0.149 GC
/Helvetica 13.333 F
GS
[1 0 0 1 0 0] CT
-42 4.5 moveto 
1 -1 scale
(12000) t 
GR
GR
GS
[0 -0.75 0.75 0 24.5 309.87475] CT
0.149 GC
/Helvetica 14.667 F
GS
[1 0 0 1 0 0] CT
-163.5 -4 moveto 
1 -1 scale
(mode frequency \(Hz\) \(csound = 347.5 m/s\)) t 
GR
GR
GS
[0.75 0 0 0.75 -54.75 17] CT
/Helvetica-Bold 10.667 F
GS
[1 0 0 1 0 0] CT
0 0 moveto 
1 -1 scale
(n) t 
GR
GR
GS
[0.75 0 0 0.75 -48.75 11.75] CT
/Helvetica-Bold 14.667 F
GS
[1 0 0 1 0 0] CT
0 0 moveto 
1 -1 scale
(S) t 
GR
GR
GS
[0.75 0 0 0.75 -40.5 17] CT
/Helvetica-Bold 10.667 F
GS
[1 0 0 1 0 0] CT
0 0 moveto 
1 -1 scale
(l) t 
GR
GR
GS
[0.75 0 0 0.75 -37.5 11.75] CT
/Helvetica-Bold 14.667 F
GS
[1 0 0 1 0 0] CT
0 0 moveto 
1 -1 scale
( mode frequencies for spherical shell of fluid enclosed between inner and outer solid shells : ) t 
GR
GR
GS
[0.75 0 0 0.75 140.25 29.75] CT
/Helvetica-Bold 14.667 F
GS
[1 0 0 1 0 0] CT
0 0 moveto 
1 -1 scale
(r) t 
GR
GR
GS
[0.75 0 0 0.75 146.25 35] CT
/Helvetica-Bold 10.667 F
GS
[1 0 0 1 0 0] CT
0 0 moveto 
1 -1 scale
(i) t 
GR
GR
GS
[0.75 0 0 0.75 149.25 29.75] CT
/Helvetica-Bold 14.667 F
GS
[1 0 0 1 0 0] CT
0 0 moveto 
1 -1 scale
(=0, lambda) t 
GR
GR
GS
[0.75 0 0 0.75 222 35] CT
/Helvetica-Bold 10.667 F
GS
[1 0 0 1 0 0] CT
0 0 moveto 
1 -1 scale
(i) t 
GR
GR
GS
[0.75 0 0 0.75 225 29.75] CT
/Helvetica-Bold 14.667 F
GS
[1 0 0 1 0 0] CT
0 0 moveto 
1 -1 scale
(=0, kappa) t 
GR
GR
GS
[0.75 0 0 0.75 289.5 35] CT
/Helvetica-Bold 10.667 F
GS
[1 0 0 1 0 0] CT
0 0 moveto 
1 -1 scale
(0) t 
GR
GR
GS
[0.75 0 0 0.75 295.5 35] CT
/Helvetica-Bold 10.667 F
GS
[1 0 0 1 0 0] CT
0 0 moveto 
1 -1 scale
(i) t 
GR
GR
GS
[0.75 0 0 0.75 298.5 29.75] CT
/Helvetica-Bold 14.667 F
GS
[1 0 0 1 0 0] CT
0 0 moveto 
1 -1 scale
(=0, nu) t 
GR
GR
GS
[0.75 0 0 0.75 340.5 35] CT
/Helvetica-Bold 10.667 F
GS
[1 0 0 1 0 0] CT
0 0 moveto 
1 -1 scale
(i) t 
GR
GR
GS
[0.75 0 0 0.75 343.5 29.75] CT
/Helvetica-Bold 14.667 F
GS
[1 0 0 1 0 0] CT
0 0 moveto 
1 -1 scale
(=1) t 
GR
GR
GS
[0.75 0 0 0.75 90.75 47.75] CT
/Helvetica-Bold 14.667 F
GS
[1 0 0 1 0 0] CT
0 0 moveto 
1 -1 scale
(r) t 
GR
GR
GS
[0.75 0 0 0.75 96.75 53] CT
/Helvetica-Bold 10.667 F
GS
[1 0 0 1 0 0] CT
0 0 moveto 
1 -1 scale
(o) t 
GR
GR
GS
[0.75 0 0 0.75 102.75 47.75] CT
/Helvetica-Bold 14.667 F
GS
[1 0 0 1 0 0] CT
0 0 moveto 
1 -1 scale
(=0.1975 lambda) t 
GR
GR
GS
[0.75 0 0 0.75 207 53] CT
/Helvetica-Bold 10.667 F
GS
[1 0 0 1 0 0] CT
0 0 moveto 
1 -1 scale
(o) t 
GR
GR
GS
[0.75 0 0 0.75 213 47.75] CT
/Helvetica-Bold 14.667 F
GS
[1 0 0 1 0 0] CT
0 0 moveto 
1 -1 scale
(=0, kappa) t 
GR
GR
GS
[0.75 0 0 0.75 277.5 53] CT
/Helvetica-Bold 10.667 F
GS
[1 0 0 1 0 0] CT
0 0 moveto 
1 -1 scale
(0) t 
GR
GR
GS
[0.75 0 0 0.75 283.5 53] CT
/Helvetica-Bold 10.667 F
GS
[1 0 0 1 0 0] CT
0 0 moveto 
1 -1 scale
(o) t 
GR
GR
GS
[0.75 0 0 0.75 289.5 47.75] CT
/Helvetica-Bold 14.667 F
GS
[1 0 0 1 0 0] CT
0 0 moveto 
1 -1 scale
(=0.011045, nu) t 
GR
GR
GS
[0.75 0 0 0.75 382.5 53] CT
/Helvetica-Bold 10.667 F
GS
[1 0 0 1 0 0] CT
0 0 moveto 
1 -1 scale
(o) t 
GR
GR
GS
[0.75 0 0 0.75 388.5 47.75] CT
/Helvetica-Bold 14.667 F
GS
[1 0 0 1 0 0] CT
0 0 moveto 
1 -1 scale
(=-1) t 
GR
GR
GS
[0.75 0 0 0.75 0 0.5] CT
N
80.696 477.264 M
83.56 477.264 L
84.5 474.5 L
85.44 477.264 L
88.304 477.264 L
86.022 478.994 L
86.851 481.736 L
84.5 480.1 L
82.149 481.736 L
82.978 478.994 L
80.696 477.264 L
cp
f
GR
GS
[0.75 0 0 0.75 0 0.5] CT
10.0 ML
N
80.696 477.264 M
83.56 477.264 L
84.5 474.5 L
85.44 477.264 L
88.304 477.264 L
86.022 478.994 L
86.851 481.736 L
84.5 480.1 L
82.149 481.736 L
82.978 478.994 L
cp
S
GR
GS
[0.75 0 0 0.75 0 0.5] CT
N
113.696 453.264 M
116.56 453.264 L
117.5 450.5 L
118.44 453.264 L
121.304 453.264 L
119.022 454.994 L
119.851 457.736 L
117.5 456.1 L
115.149 457.736 L
115.978 454.994 L
113.696 453.264 L
cp
f
GR
GS
[0.75 0 0 0.75 0 0.5] CT
10.0 ML
N
113.696 453.264 M
116.56 453.264 L
117.5 450.5 L
118.44 453.264 L
121.304 453.264 L
119.022 454.994 L
119.851 457.736 L
117.5 456.1 L
115.149 457.736 L
115.978 454.994 L
cp
S
GR
GS
[0.75 0 0 0.75 0 0.5] CT
N
146.696 430.264 M
149.56 430.264 L
150.5 427.5 L
151.44 430.264 L
154.304 430.264 L
152.022 431.994 L
152.851 434.736 L
150.5 433.1 L
148.149 434.736 L
148.978 431.994 L
146.696 430.264 L
cp
f
GR
GS
[0.75 0 0 0.75 0 0.5] CT
10.0 ML
N
146.696 430.264 M
149.56 430.264 L
150.5 427.5 L
151.44 430.264 L
154.304 430.264 L
152.022 431.994 L
152.851 434.736 L
150.5 433.1 L
148.149 434.736 L
148.978 431.994 L
cp
S
GR
GS
[0.75 0 0 0.75 0 0.5] CT
N
180.696 407.264 M
183.56 407.264 L
184.5 404.5 L
185.44 407.264 L
188.304 407.264 L
186.022 408.994 L
186.851 411.736 L
184.5 410.1 L
182.149 411.736 L
182.978 408.994 L
180.696 407.264 L
cp
f
GR
GS
[0.75 0 0 0.75 0 0.5] CT
10.0 ML
N
180.696 407.264 M
183.56 407.264 L
184.5 404.5 L
185.44 407.264 L
188.304 407.264 L
186.022 408.994 L
186.851 411.736 L
184.5 410.1 L
182.149 411.736 L
182.978 408.994 L
cp
S
GR
GS
[0.75 0 0 0.75 0 0.5] CT
N
213.696 385.264 M
216.56 385.264 L
217.5 382.5 L
218.44 385.264 L
221.304 385.264 L
219.022 386.994 L
219.851 389.736 L
217.5 388.1 L
215.149 389.736 L
215.978 386.994 L
213.696 385.264 L
cp
f
GR
GS
[0.75 0 0 0.75 0 0.5] CT
10.0 ML
N
213.696 385.264 M
216.56 385.264 L
217.5 382.5 L
218.44 385.264 L
221.304 385.264 L
219.022 386.994 L
219.851 389.736 L
217.5 388.1 L
215.149 389.736 L
215.978 386.994 L
cp
S
GR
GS
[0.75 0 0 0.75 0 0.5] CT
N
247.696 414.264 M
250.56 414.264 L
251.5 411.5 L
252.44 414.264 L
255.304 414.264 L
253.022 415.994 L
253.851 418.736 L
251.5 417.1 L
249.149 418.736 L
249.978 415.994 L
247.696 414.264 L
cp
f
GR
GS
[0.75 0 0 0.75 0 0.5] CT
10.0 ML
N
247.696 414.264 M
250.56 414.264 L
251.5 411.5 L
252.44 414.264 L
255.304 414.264 L
253.022 415.994 L
253.851 418.736 L
251.5 417.1 L
249.149 418.736 L
249.978 415.994 L
cp
S
GR
GS
[0.75 0 0 0.75 0 0.5] CT
N
280.696 393.264 M
283.56 393.264 L
284.5 390.5 L
285.44 393.264 L
288.304 393.264 L
286.022 394.994 L
286.851 397.736 L
284.5 396.1 L
282.149 397.736 L
282.978 394.994 L
280.696 393.264 L
cp
f
GR
GS
[0.75 0 0 0.75 0 0.5] CT
10.0 ML
N
280.696 393.264 M
283.56 393.264 L
284.5 390.5 L
285.44 393.264 L
288.304 393.264 L
286.022 394.994 L
286.851 397.736 L
284.5 396.1 L
282.149 397.736 L
282.978 394.994 L
cp
S
GR
GS
[0.75 0 0 0.75 0 0.5] CT
N
314.696 372.264 M
317.56 372.264 L
318.5 369.5 L
319.44 372.264 L
322.304 372.264 L
320.022 373.994 L
320.851 376.736 L
318.5 375.1 L
316.149 376.736 L
316.978 373.994 L
314.696 372.264 L
cp
f
GR
GS
[0.75 0 0 0.75 0 0.5] CT
10.0 ML
N
314.696 372.264 M
317.56 372.264 L
318.5 369.5 L
319.44 372.264 L
322.304 372.264 L
320.022 373.994 L
320.851 376.736 L
318.5 375.1 L
316.149 376.736 L
316.978 373.994 L
cp
S
GR
GS
[0.75 0 0 0.75 0 0.5] CT
N
347.696 299.264 M
350.56 299.264 L
351.5 296.5 L
352.44 299.264 L
355.304 299.264 L
353.022 300.994 L
353.851 303.736 L
351.5 302.1 L
349.149 303.736 L
349.978 300.994 L
347.696 299.264 L
cp
f
GR
GS
[0.75 0 0 0.75 0 0.5] CT
10.0 ML
N
347.696 299.264 M
350.56 299.264 L
351.5 296.5 L
352.44 299.264 L
355.304 299.264 L
353.022 300.994 L
353.851 303.736 L
351.5 302.1 L
349.149 303.736 L
349.978 300.994 L
cp
S
GR
GS
[0.75 0 0 0.75 0 0.5] CT
N
381.696 279.264 M
384.56 279.264 L
385.5 276.5 L
386.44 279.264 L
389.304 279.264 L
387.022 280.994 L
387.851 283.736 L
385.5 282.1 L
383.149 283.736 L
383.978 280.994 L
381.696 279.264 L
cp
f
GR
GS
[0.75 0 0 0.75 0 0.5] CT
10.0 ML
N
381.696 279.264 M
384.56 279.264 L
385.5 276.5 L
386.44 279.264 L
389.304 279.264 L
387.022 280.994 L
387.851 283.736 L
385.5 282.1 L
383.149 283.736 L
383.978 280.994 L
cp
S
GR
GS
[0.75 0 0 0.75 0 0.5] CT
N
414.696 311.264 M
417.56 311.264 L
418.5 308.5 L
419.44 311.264 L
422.304 311.264 L
420.022 312.994 L
420.851 315.736 L
418.5 314.1 L
416.149 315.736 L
416.978 312.994 L
414.696 311.264 L
cp
f
GR
GS
[0.75 0 0 0.75 0 0.5] CT
10.0 ML
N
414.696 311.264 M
417.56 311.264 L
418.5 308.5 L
419.44 311.264 L
422.304 311.264 L
420.022 312.994 L
420.851 315.736 L
418.5 314.1 L
416.149 315.736 L
416.978 312.994 L
cp
S
GR
GS
[0.75 0 0 0.75 0 0.5] CT
N
448.696 238.264 M
451.56 238.264 L
452.5 235.5 L
453.44 238.264 L
456.304 238.264 L
454.022 239.994 L
454.851 242.736 L
452.5 241.1 L
450.149 242.736 L
450.978 239.994 L
448.696 238.264 L
cp
f
GR
GS
[0.75 0 0 0.75 0 0.5] CT
10.0 ML
N
448.696 238.264 M
451.56 238.264 L
452.5 235.5 L
453.44 238.264 L
456.304 238.264 L
454.022 239.994 L
454.851 242.736 L
452.5 241.1 L
450.149 242.736 L
450.978 239.994 L
cp
S
GR
GS
[0.75 0 0 0.75 0 0.5] CT
N
481.696 217.264 M
484.56 217.264 L
485.5 214.5 L
486.44 217.264 L
489.304 217.264 L
487.022 218.994 L
487.851 221.736 L
485.5 220.1 L
483.149 221.736 L
483.978 218.994 L
481.696 217.264 L
cp
f
GR
GS
[0.75 0 0 0.75 0 0.5] CT
10.0 ML
N
481.696 217.264 M
484.56 217.264 L
485.5 214.5 L
486.44 217.264 L
489.304 217.264 L
487.022 218.994 L
487.851 221.736 L
485.5 220.1 L
483.149 221.736 L
483.978 218.994 L
cp
S
GR
GS
[0.75 0 0 0.75 0 0.5] CT
N
515.696 197.264 M
518.56 197.264 L
519.5 194.5 L
520.44 197.264 L
523.304 197.264 L
521.022 198.994 L
521.851 201.736 L
519.5 200.1 L
517.149 201.736 L
517.978 198.994 L
515.696 197.264 L
cp
f
GR
GS
[0.75 0 0 0.75 0 0.5] CT
10.0 ML
N
515.696 197.264 M
518.56 197.264 L
519.5 194.5 L
520.44 197.264 L
523.304 197.264 L
521.022 198.994 L
521.851 201.736 L
519.5 200.1 L
517.149 201.736 L
517.978 198.994 L
cp
S
GR
GS
[0.75 0 0 0.75 0 0.5] CT
N
548.696 177.264 M
551.56 177.264 L
552.5 174.5 L
553.44 177.264 L
556.304 177.264 L
554.022 178.994 L
554.851 181.736 L
552.5 180.1 L
550.149 181.736 L
550.978 178.994 L
548.696 177.264 L
cp
f
GR
GS
[0.75 0 0 0.75 0 0.5] CT
10.0 ML
N
548.696 177.264 M
551.56 177.264 L
552.5 174.5 L
553.44 177.264 L
556.304 177.264 L
554.022 178.994 L
554.851 181.736 L
552.5 180.1 L
550.149 181.736 L
550.978 178.994 L
cp
S
GR
GS
[0.75 0 0 0.75 0 0.5] CT
N
582.696 157.264 M
585.56 157.264 L
586.5 154.5 L
587.44 157.264 L
590.304 157.264 L
588.022 158.994 L
588.851 161.736 L
586.5 160.1 L
584.149 161.736 L
584.978 158.994 L
582.696 157.264 L
cp
f
GR
GS
[0.75 0 0 0.75 0 0.5] CT
10.0 ML
N
582.696 157.264 M
585.56 157.264 L
586.5 154.5 L
587.44 157.264 L
590.304 157.264 L
588.022 158.994 L
588.851 161.736 L
586.5 160.1 L
584.149 161.736 L
584.978 158.994 L
cp
S
GR
GS
[0.75 0 0 0.75 0 0.5] CT
0 1 0 RC
N
81.38 531.62 M
81.38 525.38 L
87.62 525.38 L
87.62 531.62 L
cp
f
GR
GS
[0.75 0 0 0.75 0 0.5] CT
0 1 0 RC
10.0 ML
N
81.38 531.62 M
81.38 525.38 L
87.62 525.38 L
87.62 531.62 L
cp
S
GR
GS
[0.75 0 0 0.75 0 0.5] CT
0 1 0 RC
N
114.38 507.62 M
114.38 501.38 L
120.62 501.38 L
120.62 507.62 L
cp
f
GR
GS
[0.75 0 0 0.75 0 0.5] CT
0 1 0 RC
10.0 ML
N
114.38 507.62 M
114.38 501.38 L
120.62 501.38 L
120.62 507.62 L
cp
S
GR
GS
[0.75 0 0 0.75 0 0.5] CT
0 1 0 RC
N
147.38 484.62 M
147.38 478.38 L
153.62 478.38 L
153.62 484.62 L
cp
f
GR
GS
[0.75 0 0 0.75 0 0.5] CT
0 1 0 RC
10.0 ML
N
147.38 484.62 M
147.38 478.38 L
153.62 478.38 L
153.62 484.62 L
cp
S
GR
GS
[0.75 0 0 0.75 0 0.5] CT
0 1 0 RC
N
181.38 461.62 M
181.38 455.38 L
187.62 455.38 L
187.62 461.62 L
cp
f
GR
GS
[0.75 0 0 0.75 0 0.5] CT
0 1 0 RC
10.0 ML
N
181.38 461.62 M
181.38 455.38 L
187.62 455.38 L
187.62 461.62 L
cp
S
GR
GS
[0.75 0 0 0.75 0 0.5] CT
0 1 0 RC
N
214.38 440.62 M
214.38 434.38 L
220.62 434.38 L
220.62 440.62 L
cp
f
GR
GS
[0.75 0 0 0.75 0 0.5] CT
0 1 0 RC
10.0 ML
N
214.38 440.62 M
214.38 434.38 L
220.62 434.38 L
220.62 440.62 L
cp
S
GR
GS
[0.75 0 0 0.75 0 0.5] CT
0 1 0 RC
N
248.38 470.62 M
248.38 464.38 L
254.62 464.38 L
254.62 470.62 L
cp
f
GR
GS
[0.75 0 0 0.75 0 0.5] CT
0 1 0 RC
10.0 ML
N
248.38 470.62 M
248.38 464.38 L
254.62 464.38 L
254.62 470.62 L
cp
S
GR
GS
[0.75 0 0 0.75 0 0.5] CT
0 1 0 RC
N
281.38 449.62 M
281.38 443.38 L
287.62 443.38 L
287.62 449.62 L
cp
f
GR
GS
[0.75 0 0 0.75 0 0.5] CT
0 1 0 RC
10.0 ML
N
281.38 449.62 M
281.38 443.38 L
287.62 443.38 L
287.62 449.62 L
cp
S
GR
GS
[0.75 0 0 0.75 0 0.5] CT
0 1 0 RC
N
315.38 429.62 M
315.38 423.38 L
321.62 423.38 L
321.62 429.62 L
cp
f
GR
GS
[0.75 0 0 0.75 0 0.5] CT
0 1 0 RC
10.0 ML
N
315.38 429.62 M
315.38 423.38 L
321.62 423.38 L
321.62 429.62 L
cp
S
GR
GS
[0.75 0 0 0.75 0 0.5] CT
0 1 0 RC
N
348.38 355.62 M
348.38 349.38 L
354.62 349.38 L
354.62 355.62 L
cp
f
GR
GS
[0.75 0 0 0.75 0 0.5] CT
0 1 0 RC
10.0 ML
N
348.38 355.62 M
348.38 349.38 L
354.62 349.38 L
354.62 355.62 L
cp
S
GR
GS
[0.75 0 0 0.75 0 0.5] CT
0 1 0 RC
N
382.38 335.62 M
382.38 329.38 L
388.62 329.38 L
388.62 335.62 L
cp
f
GR
GS
[0.75 0 0 0.75 0 0.5] CT
0 1 0 RC
10.0 ML
N
382.38 335.62 M
382.38 329.38 L
388.62 329.38 L
388.62 335.62 L
cp
S
GR
GS
[0.75 0 0 0.75 0 0.5] CT
0 1 0 RC
N
415.38 369.62 M
415.38 363.38 L
421.62 363.38 L
421.62 369.62 L
cp
f
GR
GS
[0.75 0 0 0.75 0 0.5] CT
0 1 0 RC
10.0 ML
N
415.38 369.62 M
415.38 363.38 L
421.62 363.38 L
421.62 369.62 L
cp
S
GR
GS
[0.75 0 0 0.75 0 0.5] CT
0 1 0 RC
N
449.38 295.62 M
449.38 289.38 L
455.62 289.38 L
455.62 295.62 L
cp
f
GR
GS
[0.75 0 0 0.75 0 0.5] CT
0 1 0 RC
10.0 ML
N
449.38 295.62 M
449.38 289.38 L
455.62 289.38 L
455.62 295.62 L
cp
S
GR
GS
[0.75 0 0 0.75 0 0.5] CT
0 1 0 RC
N
482.38 275.62 M
482.38 269.38 L
488.62 269.38 L
488.62 275.62 L
cp
f
GR
GS
[0.75 0 0 0.75 0 0.5] CT
0 1 0 RC
10.0 ML
N
482.38 275.62 M
482.38 269.38 L
488.62 269.38 L
488.62 275.62 L
cp
S
GR
GS
[0.75 0 0 0.75 0 0.5] CT
0 1 0 RC
N
516.38 255.62 M
516.38 249.38 L
522.62 249.38 L
522.62 255.62 L
cp
f
GR
GS
[0.75 0 0 0.75 0 0.5] CT
0 1 0 RC
10.0 ML
N
516.38 255.62 M
516.38 249.38 L
522.62 249.38 L
522.62 255.62 L
cp
S
GR
GS
[0.75 0 0 0.75 0 0.5] CT
0 1 0 RC
N
549.38 236.62 M
549.38 230.38 L
555.62 230.38 L
555.62 236.62 L
cp
f
GR
GS
[0.75 0 0 0.75 0 0.5] CT
0 1 0 RC
10.0 ML
N
549.38 236.62 M
549.38 230.38 L
555.62 230.38 L
555.62 236.62 L
cp
S
GR
GS
[0.75 0 0 0.75 0 0.5] CT
0 1 0 RC
N
583.38 216.62 M
583.38 210.38 L
589.62 210.38 L
589.62 216.62 L
cp
f
GR
GS
[0.75 0 0 0.75 0 0.5] CT
0 1 0 RC
10.0 ML
N
583.38 216.62 M
583.38 210.38 L
589.62 210.38 L
589.62 216.62 L
cp
S
GR
GS
[0.75 0 0 0.75 0 0.5] CT
1 0 1 RC
N
84.5 582.832 M
89.118 574.834 L
79.882 574.834 L
cp
f
GR
GS
[0.75 0 0 0.75 0 0.5] CT
1 0 1 RC
10.0 ML
N
84.5 582.832 M
89.118 574.834 L
79.882 574.834 L
cp
S
GR
GS
[0.75 0 0 0.75 0 0.5] CT
1 0 1 RC
N
117.5 559.832 M
122.118 551.834 L
112.882 551.834 L
cp
f
GR
GS
[0.75 0 0 0.75 0 0.5] CT
1 0 1 RC
10.0 ML
N
117.5 559.832 M
122.118 551.834 L
112.882 551.834 L
cp
S
GR
GS
[0.75 0 0 0.75 0 0.5] CT
1 0 1 RC
N
150.5 536.832 M
155.118 528.834 L
145.882 528.834 L
cp
f
GR
GS
[0.75 0 0 0.75 0 0.5] CT
1 0 1 RC
10.0 ML
N
150.5 536.832 M
155.118 528.834 L
145.882 528.834 L
cp
S
GR
GS
[0.75 0 0 0.75 0 0.5] CT
1 0 1 RC
N
184.5 514.832 M
189.118 506.834 L
179.882 506.834 L
cp
f
GR
GS
[0.75 0 0 0.75 0 0.5] CT
1 0 1 RC
10.0 ML
N
184.5 514.832 M
189.118 506.834 L
179.882 506.834 L
cp
S
GR
GS
[0.75 0 0 0.75 0 0.5] CT
1 0 1 RC
N
217.5 493.832 M
222.118 485.834 L
212.882 485.834 L
cp
f
GR
GS
[0.75 0 0 0.75 0 0.5] CT
1 0 1 RC
10.0 ML
N
217.5 493.832 M
222.118 485.834 L
212.882 485.834 L
cp
S
GR
GS
[0.75 0 0 0.75 0 0.5] CT
1 0 1 RC
N
251.5 524.832 M
256.118 516.834 L
246.882 516.834 L
cp
f
GR
GS
[0.75 0 0 0.75 0 0.5] CT
1 0 1 RC
10.0 ML
N
251.5 524.832 M
256.118 516.834 L
246.882 516.834 L
cp
S
GR
GS
[0.75 0 0 0.75 0 0.5] CT
1 0 1 RC
N
284.5 504.832 M
289.118 496.834 L
279.882 496.834 L
cp
f
GR
GS
[0.75 0 0 0.75 0 0.5] CT
1 0 1 RC
10.0 ML
N
284.5 504.832 M
289.118 496.834 L
279.882 496.834 L
cp
S
GR
GS
[0.75 0 0 0.75 0 0.5] CT
1 0 1 RC
N
318.5 485.832 M
323.118 477.834 L
313.882 477.834 L
cp
f
GR
GS
[0.75 0 0 0.75 0 0.5] CT
1 0 1 RC
10.0 ML
N
318.5 485.832 M
323.118 477.834 L
313.882 477.834 L
cp
S
GR
GS
[0.75 0 0 0.75 0 0.5] CT
1 0 1 RC
N
351.5 410.832 M
356.118 402.834 L
346.882 402.834 L
cp
f
GR
GS
[0.75 0 0 0.75 0 0.5] CT
1 0 1 RC
10.0 ML
N
351.5 410.832 M
356.118 402.834 L
346.882 402.834 L
cp
S
GR
GS
[0.75 0 0 0.75 0 0.5] CT
1 0 1 RC
N
385.5 391.832 M
390.118 383.834 L
380.882 383.834 L
cp
f
GR
GS
[0.75 0 0 0.75 0 0.5] CT
1 0 1 RC
10.0 ML
N
385.5 391.832 M
390.118 383.834 L
380.882 383.834 L
cp
S
GR
GS
[0.75 0 0 0.75 0 0.5] CT
1 0 1 RC
N
418.5 427.832 M
423.118 419.834 L
413.882 419.834 L
cp
f
GR
GS
[0.75 0 0 0.75 0 0.5] CT
1 0 1 RC
10.0 ML
N
418.5 427.832 M
423.118 419.834 L
413.882 419.834 L
cp
S
GR
GS
[0.75 0 0 0.75 0 0.5] CT
1 0 1 RC
N
452.5 351.832 M
457.118 343.834 L
447.882 343.834 L
cp
f
GR
GS
[0.75 0 0 0.75 0 0.5] CT
1 0 1 RC
10.0 ML
N
452.5 351.832 M
457.118 343.834 L
447.882 343.834 L
cp
S
GR
GS
[0.75 0 0 0.75 0 0.5] CT
1 0 1 RC
N
485.5 332.832 M
490.118 324.834 L
480.882 324.834 L
cp
f
GR
GS
[0.75 0 0 0.75 0 0.5] CT
1 0 1 RC
10.0 ML
N
485.5 332.832 M
490.118 324.834 L
480.882 324.834 L
cp
S
GR
GS
[0.75 0 0 0.75 0 0.5] CT
1 0 1 RC
N
519.5 313.832 M
524.117 305.834 L
514.883 305.834 L
cp
f
GR
GS
[0.75 0 0 0.75 0 0.5] CT
1 0 1 RC
10.0 ML
N
519.5 313.832 M
524.117 305.834 L
514.883 305.834 L
cp
S
GR
GS
[0.75 0 0 0.75 0 0.5] CT
1 0 1 RC
N
552.5 294.832 M
557.117 286.834 L
547.883 286.834 L
cp
f
GR
GS
[0.75 0 0 0.75 0 0.5] CT
1 0 1 RC
10.0 ML
N
552.5 294.832 M
557.117 286.834 L
547.883 286.834 L
cp
S
GR
GS
[0.75 0 0 0.75 0 0.5] CT
1 0 1 RC
N
586.5 275.832 M
591.117 267.834 L
581.883 267.834 L
cp
f
GR
GS
[0.75 0 0 0.75 0 0.5] CT
1 0 1 RC
10.0 ML
N
586.5 275.832 M
591.117 267.834 L
581.883 267.834 L
cp
S
GR
GS
[0.75 0 0 0.75 0 0.5] CT
1 0 0 RC
1 LJ
N
80 627.5 M
89 627.5 L
S
GR
GS
[0.75 0 0 0.75 0 0.5] CT
1 0 0 RC
1 LJ
N
84.5 632 M
84.5 623 L
S
GR
GS
[0.75 0 0 0.75 0 0.5] CT
1 0 0 RC
1 LJ
N
113 604.5 M
122 604.5 L
S
GR
GS
[0.75 0 0 0.75 0 0.5] CT
1 0 0 RC
1 LJ
N
117.5 609 M
117.5 600 L
S
GR
GS
[0.75 0 0 0.75 0 0.5] CT
1 0 0 RC
1 LJ
N
146 582.5 M
155 582.5 L
S
GR
GS
[0.75 0 0 0.75 0 0.5] CT
1 0 0 RC
1 LJ
N
150.5 587 M
150.5 578 L
S
GR
GS
[0.75 0 0 0.75 0 0.5] CT
1 0 0 RC
1 LJ
N
180 560.5 M
189 560.5 L
S
GR
GS
[0.75 0 0 0.75 0 0.5] CT
1 0 0 RC
1 LJ
N
184.5 565 M
184.5 556 L
S
GR
GS
[0.75 0 0 0.75 0 0.5] CT
1 0 0 RC
1 LJ
N
213 540.5 M
222 540.5 L
S
GR
GS
[0.75 0 0 0.75 0 0.5] CT
1 0 0 RC
1 LJ
N
217.5 545 M
217.5 536 L
S
GR
GS
[0.75 0 0 0.75 0 0.5] CT
1 0 0 RC
1 LJ
N
247 574.5 M
256 574.5 L
S
GR
GS
[0.75 0 0 0.75 0 0.5] CT
1 0 0 RC
1 LJ
N
251.5 579 M
251.5 570 L
S
GR
GS
[0.75 0 0 0.75 0 0.5] CT
1 0 0 RC
1 LJ
N
280 556.5 M
289 556.5 L
S
GR
GS
[0.75 0 0 0.75 0 0.5] CT
1 0 0 RC
1 LJ
N
284.5 561 M
284.5 552 L
S
GR
GS
[0.75 0 0 0.75 0 0.5] CT
1 0 0 RC
1 LJ
N
314 537.5 M
323 537.5 L
S
GR
GS
[0.75 0 0 0.75 0 0.5] CT
1 0 0 RC
1 LJ
N
318.5 542 M
318.5 533 L
S
GR
GS
[0.75 0 0 0.75 0 0.5] CT
1 0 0 RC
1 LJ
N
347 460.5 M
356 460.5 L
S
GR
GS
[0.75 0 0 0.75 0 0.5] CT
1 0 0 RC
1 LJ
N
351.5 465 M
351.5 456 L
S
GR
GS
[0.75 0 0 0.75 0 0.5] CT
1 0 0 RC
1 LJ
N
381 441.5 M
390 441.5 L
S
GR
GS
[0.75 0 0 0.75 0 0.5] CT
1 0 0 RC
1 LJ
N
385.5 446 M
385.5 437 L
S
GR
GS
[0.75 0 0 0.75 0 0.5] CT
1 0 0 RC
1 LJ
N
414 482.5 M
423 482.5 L
S
GR
GS
[0.75 0 0 0.75 0 0.5] CT
1 0 0 RC
1 LJ
N
418.5 487 M
418.5 478 L
S
GR
GS
[0.75 0 0 0.75 0 0.5] CT
1 0 0 RC
1 LJ
N
448 403.5 M
457 403.5 L
S
GR
GS
[0.75 0 0 0.75 0 0.5] CT
1 0 0 RC
1 LJ
N
452.5 408 M
452.5 399 L
S
GR
GS
[0.75 0 0 0.75 0 0.5] CT
1 0 0 RC
1 LJ
N
481 384.5 M
490 384.5 L
S
GR
GS
[0.75 0 0 0.75 0 0.5] CT
1 0 0 RC
1 LJ
N
485.5 389 M
485.5 380 L
S
GR
GS
[0.75 0 0 0.75 0 0.5] CT
1 0 0 RC
1 LJ
N
515 366.5 M
524 366.5 L
S
GR
GS
[0.75 0 0 0.75 0 0.5] CT
1 0 0 RC
1 LJ
N
519.5 371 M
519.5 362 L
S
GR
GS
[0.75 0 0 0.75 0 0.5] CT
1 0 0 RC
1 LJ
N
548 347.5 M
557 347.5 L
S
GR
GS
[0.75 0 0 0.75 0 0.5] CT
1 0 0 RC
1 LJ
N
552.5 352 M
552.5 343 L
S
GR
GS
[0.75 0 0 0.75 0 0.5] CT
1 0 0 RC
1 LJ
N
582 329.5 M
591 329.5 L
S
GR
GS
[0.75 0 0 0.75 0 0.5] CT
1 0 0 RC
1 LJ
N
586.5 334 M
586.5 325 L
S
GR
GS
[0.75 0 0 0.75 0 0.5] CT
0 0 1 RC
1 LJ
N
81 682 M
88 675 L
S
GR
GS
[0.75 0 0 0.75 0 0.5] CT
0 0 1 RC
1 LJ
N
81 675 M
88 682 L
S
GR
GS
[0.75 0 0 0.75 0 0.5] CT
0 0 1 RC
1 LJ
N
114 659 M
121 652 L
S
GR
GS
[0.75 0 0 0.75 0 0.5] CT
0 0 1 RC
1 LJ
N
114 652 M
121 659 L
S
GR
GS
[0.75 0 0 0.75 0 0.5] CT
0 0 1 RC
1 LJ
N
147 638 M
154 631 L
S
GR
GS
[0.75 0 0 0.75 0 0.5] CT
0 0 1 RC
1 LJ
N
147 631 M
154 638 L
S
GR
GS
[0.75 0 0 0.75 0 0.5] CT
0 0 1 RC
1 LJ
N
181 618 M
188 611 L
S
GR
GS
[0.75 0 0 0.75 0 0.5] CT
0 0 1 RC
1 LJ
N
181 611 M
188 618 L
S
GR
GS
[0.75 0 0 0.75 0 0.5] CT
0 0 1 RC
1 LJ
N
214 603 M
221 596 L
S
GR
GS
[0.75 0 0 0.75 0 0.5] CT
0 0 1 RC
1 LJ
N
214 596 M
221 603 L
S
GR
GS
[0.75 0 0 0.75 0 0.5] CT
0 0 1 RC
1 LJ
N
248 598 M
255 591 L
S
GR
GS
[0.75 0 0 0.75 0 0.5] CT
0 0 1 RC
1 LJ
N
248 591 M
255 598 L
S
GR
GS
[0.75 0 0 0.75 0 0.5] CT
0 0 1 RC
1 LJ
N
281 596 M
288 589 L
S
GR
GS
[0.75 0 0 0.75 0 0.5] CT
0 0 1 RC
1 LJ
N
281 589 M
288 596 L
S
GR
GS
[0.75 0 0 0.75 0 0.5] CT
0 0 1 RC
1 LJ
N
315 594 M
322 587 L
S
GR
GS
[0.75 0 0 0.75 0 0.5] CT
0 0 1 RC
1 LJ
N
315 587 M
322 594 L
S
GR
GS
[0.75 0 0 0.75 0 0.5] CT
0 0 1 RC
1 LJ
N
348 522 M
355 515 L
S
GR
GS
[0.75 0 0 0.75 0 0.5] CT
0 0 1 RC
1 LJ
N
348 515 M
355 522 L
S
GR
GS
[0.75 0 0 0.75 0 0.5] CT
0 0 1 RC
1 LJ
N
382 504 M
389 497 L
S
GR
GS
[0.75 0 0 0.75 0 0.5] CT
0 0 1 RC
1 LJ
N
382 497 M
389 504 L
S
GR
GS
[0.75 0 0 0.75 0 0.5] CT
0 0 1 RC
1 LJ
N
415 561 M
422 554 L
S
GR
GS
[0.75 0 0 0.75 0 0.5] CT
0 0 1 RC
1 LJ
N
415 554 M
422 561 L
S
GR
GS
[0.75 0 0 0.75 0 0.5] CT
0 0 1 RC
1 LJ
N
449 468 M
456 461 L
S
GR
GS
[0.75 0 0 0.75 0 0.5] CT
0 0 1 RC
1 LJ
N
449 461 M
456 468 L
S
GR
GS
[0.75 0 0 0.75 0 0.5] CT
0 0 1 RC
1 LJ
N
482 450 M
489 443 L
S
GR
GS
[0.75 0 0 0.75 0 0.5] CT
0 0 1 RC
1 LJ
N
482 443 M
489 450 L
S
GR
GS
[0.75 0 0 0.75 0 0.5] CT
0 0 1 RC
1 LJ
N
516 432 M
523 425 L
S
GR
GS
[0.75 0 0 0.75 0 0.5] CT
0 0 1 RC
1 LJ
N
516 425 M
523 432 L
S
GR
GS
[0.75 0 0 0.75 0 0.5] CT
0 0 1 RC
1 LJ
N
549 414 M
556 407 L
S
GR
GS
[0.75 0 0 0.75 0 0.5] CT
0 0 1 RC
1 LJ
N
549 407 M
556 414 L
S
GR
GS
[0.75 0 0 0.75 0 0.5] CT
0 0 1 RC
1 LJ
N
583 397 M
590 390 L
S
GR
GS
[0.75 0 0 0.75 0 0.5] CT
0 0 1 RC
1 LJ
N
583 390 M
590 397 L
S
GR
GS
[0.75 0 0 0.75 0 0.5] CT
N
88.5 748.5 M
87.328 745.672 L
84.5 744.5 L
81.672 745.672 L
80.5 748.5 L
81.672 751.328 L
84.5 752.5 L
87.328 751.328 L
88.5 748.5 L
cp
f
GR
GS
[0.75 0 0 0.75 0 0.5] CT
1 LJ
N
88.5 748.5 M
87.736 746.149 L
85.736 744.696 L
83.264 744.696 L
81.264 746.149 L
80.5 748.5 L
81.264 750.851 L
83.264 752.304 L
85.736 752.304 L
87.736 750.851 L
cp
S
GR
GS
[0.75 0 0 0.75 0 0.5] CT
N
121.5 716.5 M
120.328 713.672 L
117.5 712.5 L
114.672 713.672 L
113.5 716.5 L
114.672 719.328 L
117.5 720.5 L
120.328 719.328 L
121.5 716.5 L
cp
f
GR
GS
[0.75 0 0 0.75 0 0.5] CT
1 LJ
N
121.5 716.5 M
120.736 714.149 L
118.736 712.696 L
116.264 712.696 L
114.264 714.149 L
113.5 716.5 L
114.264 718.851 L
116.264 720.304 L
118.736 720.304 L
120.736 718.851 L
cp
S
GR
GS
[0.75 0 0 0.75 0 0.5] CT
N
154.5 696.5 M
153.328 693.672 L
150.5 692.5 L
147.672 693.672 L
146.5 696.5 L
147.672 699.328 L
150.5 700.5 L
153.328 699.328 L
154.5 696.5 L
cp
f
GR
GS
[0.75 0 0 0.75 0 0.5] CT
1 LJ
N
154.5 696.5 M
153.736 694.149 L
151.736 692.696 L
149.264 692.696 L
147.264 694.149 L
146.5 696.5 L
147.264 698.851 L
149.264 700.304 L
151.736 700.304 L
153.736 698.851 L
cp
S
GR
GS
[0.75 0 0 0.75 0 0.5] CT
N
188.5 678.5 M
187.328 675.672 L
184.5 674.5 L
181.672 675.672 L
180.5 678.5 L
181.672 681.328 L
184.5 682.5 L
187.328 681.328 L
188.5 678.5 L
cp
f
GR
GS
[0.75 0 0 0.75 0 0.5] CT
1 LJ
N
188.5 678.5 M
187.736 676.149 L
185.736 674.696 L
183.264 674.696 L
181.264 676.149 L
180.5 678.5 L
181.264 680.851 L
183.264 682.304 L
185.736 682.304 L
187.736 680.851 L
cp
S
GR
GS
[0.75 0 0 0.75 0 0.5] CT
N
221.5 660.5 M
220.328 657.672 L
217.5 656.5 L
214.672 657.672 L
213.5 660.5 L
214.672 663.328 L
217.5 664.5 L
220.328 663.328 L
221.5 660.5 L
cp
f
GR
GS
[0.75 0 0 0.75 0 0.5] CT
1 LJ
N
221.5 660.5 M
220.736 658.149 L
218.736 656.696 L
216.264 656.696 L
214.264 658.149 L
213.5 660.5 L
214.264 662.851 L
216.264 664.304 L
218.736 664.304 L
220.736 662.851 L
cp
S
GR
GS
[0.75 0 0 0.75 0 0.5] CT
N
255.5 642.5 M
254.328 639.672 L
251.5 638.5 L
248.672 639.672 L
247.5 642.5 L
248.672 645.328 L
251.5 646.5 L
254.328 645.328 L
255.5 642.5 L
cp
f
GR
GS
[0.75 0 0 0.75 0 0.5] CT
1 LJ
N
255.5 642.5 M
254.736 640.149 L
252.736 638.696 L
250.264 638.696 L
248.264 640.149 L
247.5 642.5 L
248.264 644.851 L
250.264 646.304 L
252.736 646.304 L
254.736 644.851 L
cp
S
GR
GS
[0.75 0 0 0.75 0 0.5] CT
N
288.5 625.5 M
287.328 622.672 L
284.5 621.5 L
281.672 622.672 L
280.5 625.5 L
281.672 628.328 L
284.5 629.5 L
287.328 628.328 L
288.5 625.5 L
cp
f
GR
GS
[0.75 0 0 0.75 0 0.5] CT
1 LJ
N
288.5 625.5 M
287.736 623.149 L
285.736 621.696 L
283.264 621.696 L
281.264 623.149 L
280.5 625.5 L
281.264 627.851 L
283.264 629.304 L
285.736 629.304 L
287.736 627.851 L
cp
S
GR
GS
[0.75 0 0 0.75 0 0.5] CT
N
322.5 609.5 M
321.328 606.672 L
318.5 605.5 L
315.672 606.672 L
314.5 609.5 L
315.672 612.328 L
318.5 613.5 L
321.328 612.328 L
322.5 609.5 L
cp
f
GR
GS
[0.75 0 0 0.75 0 0.5] CT
1 LJ
N
322.5 609.5 M
321.736 607.149 L
319.736 605.696 L
317.264 605.696 L
315.264 607.149 L
314.5 609.5 L
315.264 611.851 L
317.264 613.304 L
319.736 613.304 L
321.736 611.851 L
cp
S
GR
GS
[0.75 0 0 0.75 0 0.5] CT
N
355.5 593.5 M
354.328 590.672 L
351.5 589.5 L
348.672 590.672 L
347.5 593.5 L
348.672 596.328 L
351.5 597.5 L
354.328 596.328 L
355.5 593.5 L
cp
f
GR
GS
[0.75 0 0 0.75 0 0.5] CT
1 LJ
N
355.5 593.5 M
354.736 591.149 L
352.736 589.696 L
350.264 589.696 L
348.264 591.149 L
347.5 593.5 L
348.264 595.851 L
350.264 597.304 L
352.736 597.304 L
354.736 595.851 L
cp
S
GR
GS
[0.75 0 0 0.75 0 0.5] CT
N
389.5 589.5 M
388.328 586.672 L
385.5 585.5 L
382.672 586.672 L
381.5 589.5 L
382.672 592.328 L
385.5 593.5 L
388.328 592.328 L
389.5 589.5 L
cp
f
GR
GS
[0.75 0 0 0.75 0 0.5] CT
1 LJ
N
389.5 589.5 M
388.736 587.149 L
386.736 585.696 L
384.264 585.696 L
382.264 587.149 L
381.5 589.5 L
382.264 591.851 L
384.264 593.304 L
386.736 593.304 L
388.736 591.851 L
cp
S
GR
GS
[0.75 0 0 0.75 0 0.5] CT
N
422.5 588.5 M
421.328 585.672 L
418.5 584.5 L
415.672 585.672 L
414.5 588.5 L
415.672 591.328 L
418.5 592.5 L
421.328 591.328 L
422.5 588.5 L
cp
f
GR
GS
[0.75 0 0 0.75 0 0.5] CT
1 LJ
N
422.5 588.5 M
421.736 586.149 L
419.736 584.696 L
417.264 584.696 L
415.264 586.149 L
414.5 588.5 L
415.264 590.851 L
417.264 592.304 L
419.736 592.304 L
421.736 590.851 L
cp
S
GR
GS
[0.75 0 0 0.75 0 0.5] CT
N
456.5 541.5 M
455.328 538.672 L
452.5 537.5 L
449.672 538.672 L
448.5 541.5 L
449.672 544.328 L
452.5 545.5 L
455.328 544.328 L
456.5 541.5 L
cp
f
GR
GS
[0.75 0 0 0.75 0 0.5] CT
1 LJ
N
456.5 541.5 M
455.736 539.149 L
453.736 537.696 L
451.264 537.696 L
449.264 539.149 L
448.5 541.5 L
449.264 543.851 L
451.264 545.304 L
453.736 545.304 L
455.736 543.851 L
cp
S
GR
GS
[0.75 0 0 0.75 0 0.5] CT
N
489.5 524.5 M
488.328 521.672 L
485.5 520.5 L
482.672 521.672 L
481.5 524.5 L
482.672 527.328 L
485.5 528.5 L
488.328 527.328 L
489.5 524.5 L
cp
f
GR
GS
[0.75 0 0 0.75 0 0.5] CT
1 LJ
N
489.5 524.5 M
488.736 522.149 L
486.736 520.696 L
484.264 520.696 L
482.264 522.149 L
481.5 524.5 L
482.264 526.851 L
484.264 528.304 L
486.736 528.304 L
488.736 526.851 L
cp
S
GR
GS
[0.75 0 0 0.75 0 0.5] CT
N
523.5 508.5 M
522.328 505.672 L
519.5 504.5 L
516.672 505.672 L
515.5 508.5 L
516.672 511.328 L
519.5 512.5 L
522.328 511.328 L
523.5 508.5 L
cp
f
GR
GS
[0.75 0 0 0.75 0 0.5] CT
1 LJ
N
523.5 508.5 M
522.736 506.149 L
520.736 504.696 L
518.264 504.696 L
516.264 506.149 L
515.5 508.5 L
516.264 510.851 L
518.264 512.304 L
520.736 512.304 L
522.736 510.851 L
cp
S
GR
GS
[0.75 0 0 0.75 0 0.5] CT
N
556.5 491.5 M
555.328 488.672 L
552.5 487.5 L
549.672 488.672 L
548.5 491.5 L
549.672 494.328 L
552.5 495.5 L
555.328 494.328 L
556.5 491.5 L
cp
f
GR
GS
[0.75 0 0 0.75 0 0.5] CT
1 LJ
N
556.5 491.5 M
555.736 489.149 L
553.736 487.696 L
551.264 487.696 L
549.264 489.149 L
548.5 491.5 L
549.264 493.851 L
551.264 495.304 L
553.736 495.304 L
555.736 493.851 L
cp
S
GR
GS
[0.75 0 0 0.75 0 0.5] CT
N
590.5 475.5 M
589.328 472.672 L
586.5 471.5 L
583.672 472.672 L
582.5 475.5 L
583.672 478.328 L
586.5 479.5 L
589.328 478.328 L
590.5 475.5 L
cp
f
GR
GS
[0.75 0 0 0.75 0 0.5] CT
1 LJ
N
590.5 475.5 M
589.736 473.149 L
587.736 471.696 L
585.264 471.696 L
583.264 473.149 L
582.5 475.5 L
583.264 477.851 L
585.264 479.304 L
587.736 479.304 L
589.736 477.851 L
cp
S
GR
GS
[0.75 0 0 0.75 0 0.5] CT
10.0 ML
N
80.696 477.264 M
83.56 477.264 L
84.5 474.5 L
85.44 477.264 L
88.304 477.264 L
86.022 478.994 L
86.851 481.736 L
84.5 480.1 L
82.149 481.736 L
82.978 478.994 L
cp
S
GR
GS
[0.75 0 0 0.75 0 0.5] CT
10.0 ML
N
113.696 453.264 M
116.56 453.264 L
117.5 450.5 L
118.44 453.264 L
121.304 453.264 L
119.022 454.994 L
119.851 457.736 L
117.5 456.1 L
115.149 457.736 L
115.978 454.994 L
cp
S
GR
GS
[0.75 0 0 0.75 0 0.5] CT
10.0 ML
N
146.696 430.264 M
149.56 430.264 L
150.5 427.5 L
151.44 430.264 L
154.304 430.264 L
152.022 431.994 L
152.851 434.736 L
150.5 433.1 L
148.149 434.736 L
148.978 431.994 L
cp
S
GR
GS
[0.75 0 0 0.75 0 0.5] CT
10.0 ML
N
180.696 407.264 M
183.56 407.264 L
184.5 404.5 L
185.44 407.264 L
188.304 407.264 L
186.022 408.994 L
186.851 411.736 L
184.5 410.1 L
182.149 411.736 L
182.978 408.994 L
cp
S
GR
GS
[0.75 0 0 0.75 0 0.5] CT
10.0 ML
N
213.696 385.264 M
216.56 385.264 L
217.5 382.5 L
218.44 385.264 L
221.304 385.264 L
219.022 386.994 L
219.851 389.736 L
217.5 388.1 L
215.149 389.736 L
215.978 386.994 L
cp
S
GR
GS
[0.75 0 0 0.75 0 0.5] CT
10.0 ML
N
247.696 363.264 M
250.56 363.264 L
251.5 360.5 L
252.44 363.264 L
255.304 363.264 L
253.022 364.994 L
253.851 367.736 L
251.5 366.1 L
249.149 367.736 L
249.978 364.994 L
cp
S
GR
GS
[0.75 0 0 0.75 0 0.5] CT
10.0 ML
N
280.696 342.264 M
283.56 342.264 L
284.5 339.5 L
285.44 342.264 L
288.304 342.264 L
286.022 343.994 L
286.851 346.736 L
284.5 345.1 L
282.149 346.736 L
282.978 343.994 L
cp
S
GR
GS
[0.75 0 0 0.75 0 0.5] CT
10.0 ML
N
314.696 320.264 M
317.56 320.264 L
318.5 317.5 L
319.44 320.264 L
322.304 320.264 L
320.022 321.994 L
320.851 324.736 L
318.5 323.1 L
316.149 324.736 L
316.978 321.994 L
cp
S
GR
GS
[0.75 0 0 0.75 0 0.5] CT
10.0 ML
N
347.696 299.264 M
350.56 299.264 L
351.5 296.5 L
352.44 299.264 L
355.304 299.264 L
353.022 300.994 L
353.851 303.736 L
351.5 302.1 L
349.149 303.736 L
349.978 300.994 L
cp
S
GR
GS
[0.75 0 0 0.75 0 0.5] CT
10.0 ML
N
381.696 279.264 M
384.56 279.264 L
385.5 276.5 L
386.44 279.264 L
389.304 279.264 L
387.022 280.994 L
387.851 283.736 L
385.5 282.1 L
383.149 283.736 L
383.978 280.994 L
cp
S
GR
GS
[0.75 0 0 0.75 0 0.5] CT
10.0 ML
N
414.696 258.264 M
417.56 258.264 L
418.5 255.5 L
419.44 258.264 L
422.304 258.264 L
420.022 259.994 L
420.851 262.736 L
418.5 261.1 L
416.149 262.736 L
416.978 259.994 L
cp
S
GR
GS
[0.75 0 0 0.75 0 0.5] CT
10.0 ML
N
448.696 238.264 M
451.56 238.264 L
452.5 235.5 L
453.44 238.264 L
456.304 238.264 L
454.022 239.994 L
454.851 242.736 L
452.5 241.1 L
450.149 242.736 L
450.978 239.994 L
cp
S
GR
GS
[0.75 0 0 0.75 0 0.5] CT
10.0 ML
N
481.696 217.264 M
484.56 217.264 L
485.5 214.5 L
486.44 217.264 L
489.304 217.264 L
487.022 218.994 L
487.851 221.736 L
485.5 220.1 L
483.149 221.736 L
483.978 218.994 L
cp
S
GR
GS
[0.75 0 0 0.75 0 0.5] CT
10.0 ML
N
515.696 197.264 M
518.56 197.264 L
519.5 194.5 L
520.44 197.264 L
523.304 197.264 L
521.022 198.994 L
521.851 201.736 L
519.5 200.1 L
517.149 201.736 L
517.978 198.994 L
cp
S
GR
GS
[0.75 0 0 0.75 0 0.5] CT
10.0 ML
N
548.696 177.264 M
551.56 177.264 L
552.5 174.5 L
553.44 177.264 L
556.304 177.264 L
554.022 178.994 L
554.851 181.736 L
552.5 180.1 L
550.149 181.736 L
550.978 178.994 L
cp
S
GR
GS
[0.75 0 0 0.75 0 0.5] CT
10.0 ML
N
582.696 157.264 M
585.56 157.264 L
586.5 154.5 L
587.44 157.264 L
590.304 157.264 L
588.022 158.994 L
588.851 161.736 L
586.5 160.1 L
584.149 161.736 L
584.978 158.994 L
cp
S
GR
GS
[0.75 0 0 0.75 0 0.5] CT
0 1 0 RC
10.0 ML
N
81.38 531.62 M
81.38 525.38 L
87.62 525.38 L
87.62 531.62 L
cp
S
GR
GS
[0.75 0 0 0.75 0 0.5] CT
0 1 0 RC
10.0 ML
N
114.38 507.62 M
114.38 501.38 L
120.62 501.38 L
120.62 507.62 L
cp
S
GR
GS
[0.75 0 0 0.75 0 0.5] CT
0 1 0 RC
10.0 ML
N
147.38 484.62 M
147.38 478.38 L
153.62 478.38 L
153.62 484.62 L
cp
S
GR
GS
[0.75 0 0 0.75 0 0.5] CT
0 1 0 RC
10.0 ML
N
181.38 461.62 M
181.38 455.38 L
187.62 455.38 L
187.62 461.62 L
cp
S
GR
GS
[0.75 0 0 0.75 0 0.5] CT
0 1 0 RC
10.0 ML
N
214.38 440.62 M
214.38 434.38 L
220.62 434.38 L
220.62 440.62 L
cp
S
GR
GS
[0.75 0 0 0.75 0 0.5] CT
0 1 0 RC
10.0 ML
N
248.38 418.62 M
248.38 412.38 L
254.62 412.38 L
254.62 418.62 L
cp
S
GR
GS
[0.75 0 0 0.75 0 0.5] CT
0 1 0 RC
10.0 ML
N
281.38 397.62 M
281.38 391.38 L
287.62 391.38 L
287.62 397.62 L
cp
S
GR
GS
[0.75 0 0 0.75 0 0.5] CT
0 1 0 RC
10.0 ML
N
315.38 376.62 M
315.38 370.38 L
321.62 370.38 L
321.62 376.62 L
cp
S
GR
GS
[0.75 0 0 0.75 0 0.5] CT
0 1 0 RC
10.0 ML
N
348.38 355.62 M
348.38 349.38 L
354.62 349.38 L
354.62 355.62 L
cp
S
GR
GS
[0.75 0 0 0.75 0 0.5] CT
0 1 0 RC
10.0 ML
N
382.38 335.62 M
382.38 329.38 L
388.62 329.38 L
388.62 335.62 L
cp
S
GR
GS
[0.75 0 0 0.75 0 0.5] CT
0 1 0 RC
10.0 ML
N
415.38 315.62 M
415.38 309.38 L
421.62 309.38 L
421.62 315.62 L
cp
S
GR
GS
[0.75 0 0 0.75 0 0.5] CT
0 1 0 RC
10.0 ML
N
449.38 295.62 M
449.38 289.38 L
455.62 289.38 L
455.62 295.62 L
cp
S
GR
GS
[0.75 0 0 0.75 0 0.5] CT
0 1 0 RC
10.0 ML
N
482.38 275.62 M
482.38 269.38 L
488.62 269.38 L
488.62 275.62 L
cp
S
GR
GS
[0.75 0 0 0.75 0 0.5] CT
0 1 0 RC
10.0 ML
N
516.38 255.62 M
516.38 249.38 L
522.62 249.38 L
522.62 255.62 L
cp
S
GR
GS
[0.75 0 0 0.75 0 0.5] CT
0 1 0 RC
10.0 ML
N
549.38 236.62 M
549.38 230.38 L
555.62 230.38 L
555.62 236.62 L
cp
S
GR
GS
[0.75 0 0 0.75 0 0.5] CT
0 1 0 RC
10.0 ML
N
583.38 216.62 M
583.38 210.38 L
589.62 210.38 L
589.62 216.62 L
cp
S
GR
GS
[0.75 0 0 0.75 0 0.5] CT
1 0 1 RC
10.0 ML
N
84.5 582.832 M
89.118 574.834 L
79.882 574.834 L
cp
S
GR
GS
[0.75 0 0 0.75 0 0.5] CT
1 0 1 RC
10.0 ML
N
117.5 559.832 M
122.118 551.834 L
112.882 551.834 L
cp
S
GR
GS
[0.75 0 0 0.75 0 0.5] CT
1 0 1 RC
10.0 ML
N
150.5 536.832 M
155.118 528.834 L
145.882 528.834 L
cp
S
GR
GS
[0.75 0 0 0.75 0 0.5] CT
1 0 1 RC
10.0 ML
N
184.5 514.832 M
189.118 506.834 L
179.882 506.834 L
cp
S
GR
GS
[0.75 0 0 0.75 0 0.5] CT
1 0 1 RC
10.0 ML
N
217.5 493.832 M
222.118 485.834 L
212.882 485.834 L
cp
S
GR
GS
[0.75 0 0 0.75 0 0.5] CT
1 0 1 RC
10.0 ML
N
251.5 472.832 M
256.118 464.834 L
246.882 464.834 L
cp
S
GR
GS
[0.75 0 0 0.75 0 0.5] CT
1 0 1 RC
10.0 ML
N
284.5 451.832 M
289.118 443.834 L
279.882 443.834 L
cp
S
GR
GS
[0.75 0 0 0.75 0 0.5] CT
1 0 1 RC
10.0 ML
N
318.5 431.832 M
323.118 423.834 L
313.882 423.834 L
cp
S
GR
GS
[0.75 0 0 0.75 0 0.5] CT
1 0 1 RC
10.0 ML
N
351.5 410.832 M
356.118 402.834 L
346.882 402.834 L
cp
S
GR
GS
[0.75 0 0 0.75 0 0.5] CT
1 0 1 RC
10.0 ML
N
385.5 391.832 M
390.118 383.834 L
380.882 383.834 L
cp
S
GR
GS
[0.75 0 0 0.75 0 0.5] CT
1 0 1 RC
10.0 ML
N
418.5 371.832 M
423.118 363.834 L
413.882 363.834 L
cp
S
GR
GS
[0.75 0 0 0.75 0 0.5] CT
1 0 1 RC
10.0 ML
N
452.5 351.832 M
457.118 343.834 L
447.882 343.834 L
cp
S
GR
GS
[0.75 0 0 0.75 0 0.5] CT
1 0 1 RC
10.0 ML
N
485.5 332.832 M
490.118 324.834 L
480.882 324.834 L
cp
S
GR
GS
[0.75 0 0 0.75 0 0.5] CT
1 0 1 RC
10.0 ML
N
519.5 313.832 M
524.117 305.834 L
514.883 305.834 L
cp
S
GR
GS
[0.75 0 0 0.75 0 0.5] CT
1 0 1 RC
10.0 ML
N
552.5 294.832 M
557.117 286.834 L
547.883 286.834 L
cp
S
GR
GS
[0.75 0 0 0.75 0 0.5] CT
1 0 1 RC
10.0 ML
N
586.5 275.832 M
591.117 267.834 L
581.883 267.834 L
cp
S
GR
GS
[0.75 0 0 0.75 0 0.5] CT
0.494 0.184 0.557 RC
1 LJ
N
80 627.5 M
89 627.5 L
S
GR
GS
[0.75 0 0 0.75 0 0.5] CT
0.494 0.184 0.557 RC
1 LJ
N
84.5 632 M
84.5 623 L
S
GR
GS
[0.75 0 0 0.75 0 0.5] CT
0.494 0.184 0.557 RC
1 LJ
N
113 604.5 M
122 604.5 L
S
GR
GS
[0.75 0 0 0.75 0 0.5] CT
0.494 0.184 0.557 RC
1 LJ
N
117.5 609 M
117.5 600 L
S
GR
GS
[0.75 0 0 0.75 0 0.5] CT
0.494 0.184 0.557 RC
1 LJ
N
146 582.5 M
155 582.5 L
S
GR
GS
[0.75 0 0 0.75 0 0.5] CT
0.494 0.184 0.557 RC
1 LJ
N
150.5 587 M
150.5 578 L
S
GR
GS
[0.75 0 0 0.75 0 0.5] CT
0.494 0.184 0.557 RC
1 LJ
N
180 560.5 M
189 560.5 L
S
GR
GS
[0.75 0 0 0.75 0 0.5] CT
0.494 0.184 0.557 RC
1 LJ
N
184.5 565 M
184.5 556 L
S
GR
GS
[0.75 0 0 0.75 0 0.5] CT
0.494 0.184 0.557 RC
1 LJ
N
213 540.5 M
222 540.5 L
S
GR
GS
[0.75 0 0 0.75 0 0.5] CT
0.494 0.184 0.557 RC
1 LJ
N
217.5 545 M
217.5 536 L
S
GR
GS
[0.75 0 0 0.75 0 0.5] CT
0.494 0.184 0.557 RC
1 LJ
N
247 519.5 M
256 519.5 L
S
GR
GS
[0.75 0 0 0.75 0 0.5] CT
0.494 0.184 0.557 RC
1 LJ
N
251.5 524 M
251.5 515 L
S
GR
GS
[0.75 0 0 0.75 0 0.5] CT
0.494 0.184 0.557 RC
1 LJ
N
280 499.5 M
289 499.5 L
S
GR
GS
[0.75 0 0 0.75 0 0.5] CT
0.494 0.184 0.557 RC
1 LJ
N
284.5 504 M
284.5 495 L
S
GR
GS
[0.75 0 0 0.75 0 0.5] CT
0.494 0.184 0.557 RC
1 LJ
N
314 480.5 M
323 480.5 L
S
GR
GS
[0.75 0 0 0.75 0 0.5] CT
0.494 0.184 0.557 RC
1 LJ
N
318.5 485 M
318.5 476 L
S
GR
GS
[0.75 0 0 0.75 0 0.5] CT
0.494 0.184 0.557 RC
1 LJ
N
347 460.5 M
356 460.5 L
S
GR
GS
[0.75 0 0 0.75 0 0.5] CT
0.494 0.184 0.557 RC
1 LJ
N
351.5 465 M
351.5 456 L
S
GR
GS
[0.75 0 0 0.75 0 0.5] CT
0.494 0.184 0.557 RC
1 LJ
N
381 441.5 M
390 441.5 L
S
GR
GS
[0.75 0 0 0.75 0 0.5] CT
0.494 0.184 0.557 RC
1 LJ
N
385.5 446 M
385.5 437 L
S
GR
GS
[0.75 0 0 0.75 0 0.5] CT
0.494 0.184 0.557 RC
1 LJ
N
414 422.5 M
423 422.5 L
S
GR
GS
[0.75 0 0 0.75 0 0.5] CT
0.494 0.184 0.557 RC
1 LJ
N
418.5 427 M
418.5 418 L
S
GR
GS
[0.75 0 0 0.75 0 0.5] CT
0.494 0.184 0.557 RC
1 LJ
N
448 403.5 M
457 403.5 L
S
GR
GS
[0.75 0 0 0.75 0 0.5] CT
0.494 0.184 0.557 RC
1 LJ
N
452.5 408 M
452.5 399 L
S
GR
GS
[0.75 0 0 0.75 0 0.5] CT
0.494 0.184 0.557 RC
1 LJ
N
481 384.5 M
490 384.5 L
S
GR
GS
[0.75 0 0 0.75 0 0.5] CT
0.494 0.184 0.557 RC
1 LJ
N
485.5 389 M
485.5 380 L
S
GR
GS
[0.75 0 0 0.75 0 0.5] CT
0.494 0.184 0.557 RC
1 LJ
N
515 366.5 M
524 366.5 L
S
GR
GS
[0.75 0 0 0.75 0 0.5] CT
0.494 0.184 0.557 RC
1 LJ
N
519.5 371 M
519.5 362 L
S
GR
GS
[0.75 0 0 0.75 0 0.5] CT
0.494 0.184 0.557 RC
1 LJ
N
548 347.5 M
557 347.5 L
S
GR
GS
[0.75 0 0 0.75 0 0.5] CT
0.494 0.184 0.557 RC
1 LJ
N
552.5 352 M
552.5 343 L
S
GR
GS
[0.75 0 0 0.75 0 0.5] CT
0.494 0.184 0.557 RC
1 LJ
N
582 329.5 M
591 329.5 L
S
GR
GS
[0.75 0 0 0.75 0 0.5] CT
0.494 0.184 0.557 RC
1 LJ
N
586.5 334 M
586.5 325 L
S
GR
GS
[0.75 0 0 0.75 0 0.5] CT
0.306 0.396 0.58 RC
1 LJ
N
81 682 M
88 675 L
S
GR
GS
[0.75 0 0 0.75 0 0.5] CT
0.306 0.396 0.58 RC
1 LJ
N
81 675 M
88 682 L
S
GR
GS
[0.75 0 0 0.75 0 0.5] CT
0.306 0.396 0.58 RC
1 LJ
N
114 659 M
121 652 L
S
GR
GS
[0.75 0 0 0.75 0 0.5] CT
0.306 0.396 0.58 RC
1 LJ
N
114 652 M
121 659 L
S
GR
GS
[0.75 0 0 0.75 0 0.5] CT
0.306 0.396 0.58 RC
1 LJ
N
147 638 M
154 631 L
S
GR
GS
[0.75 0 0 0.75 0 0.5] CT
0.306 0.396 0.58 RC
1 LJ
N
147 631 M
154 638 L
S
GR
GS
[0.75 0 0 0.75 0 0.5] CT
0.306 0.396 0.58 RC
1 LJ
N
181 618 M
188 611 L
S
GR
GS
[0.75 0 0 0.75 0 0.5] CT
0.306 0.396 0.58 RC
1 LJ
N
181 611 M
188 618 L
S
GR
GS
[0.75 0 0 0.75 0 0.5] CT
0.306 0.396 0.58 RC
1 LJ
N
214 598 M
221 591 L
S
GR
GS
[0.75 0 0 0.75 0 0.5] CT
0.306 0.396 0.58 RC
1 LJ
N
214 591 M
221 598 L
S
GR
GS
[0.75 0 0 0.75 0 0.5] CT
0.306 0.396 0.58 RC
1 LJ
N
248 579 M
255 572 L
S
GR
GS
[0.75 0 0 0.75 0 0.5] CT
0.306 0.396 0.58 RC
1 LJ
N
248 572 M
255 579 L
S
GR
GS
[0.75 0 0 0.75 0 0.5] CT
0.306 0.396 0.58 RC
1 LJ
N
281 560 M
288 553 L
S
GR
GS
[0.75 0 0 0.75 0 0.5] CT
0.306 0.396 0.58 RC
1 LJ
N
281 553 M
288 560 L
S
GR
GS
[0.75 0 0 0.75 0 0.5] CT
0.306 0.396 0.58 RC
1 LJ
N
315 541 M
322 534 L
S
GR
GS
[0.75 0 0 0.75 0 0.5] CT
0.306 0.396 0.58 RC
1 LJ
N
315 534 M
322 541 L
S
GR
GS
[0.75 0 0 0.75 0 0.5] CT
0.306 0.396 0.58 RC
1 LJ
N
348 522 M
355 515 L
S
GR
GS
[0.75 0 0 0.75 0 0.5] CT
0.306 0.396 0.58 RC
1 LJ
N
348 515 M
355 522 L
S
GR
GS
[0.75 0 0 0.75 0 0.5] CT
0.306 0.396 0.58 RC
1 LJ
N
382 504 M
389 497 L
S
GR
GS
[0.75 0 0 0.75 0 0.5] CT
0.306 0.396 0.58 RC
1 LJ
N
382 497 M
389 504 L
S
GR
GS
[0.75 0 0 0.75 0 0.5] CT
0.306 0.396 0.58 RC
1 LJ
N
415 486 M
422 479 L
S
GR
GS
[0.75 0 0 0.75 0 0.5] CT
0.306 0.396 0.58 RC
1 LJ
N
415 479 M
422 486 L
S
GR
GS
[0.75 0 0 0.75 0 0.5] CT
0.306 0.396 0.58 RC
1 LJ
N
449 468 M
456 461 L
S
GR
GS
[0.75 0 0 0.75 0 0.5] CT
0.306 0.396 0.58 RC
1 LJ
N
449 461 M
456 468 L
S
GR
GS
[0.75 0 0 0.75 0 0.5] CT
0.306 0.396 0.58 RC
1 LJ
N
482 450 M
489 443 L
S
GR
GS
[0.75 0 0 0.75 0 0.5] CT
0.306 0.396 0.58 RC
1 LJ
N
482 443 M
489 450 L
S
GR
GS
[0.75 0 0 0.75 0 0.5] CT
0.306 0.396 0.58 RC
1 LJ
N
516 432 M
523 425 L
S
GR
GS
[0.75 0 0 0.75 0 0.5] CT
0.306 0.396 0.58 RC
1 LJ
N
516 425 M
523 432 L
S
GR
GS
[0.75 0 0 0.75 0 0.5] CT
0.306 0.396 0.58 RC
1 LJ
N
549 414 M
556 407 L
S
GR
GS
[0.75 0 0 0.75 0 0.5] CT
0.306 0.396 0.58 RC
1 LJ
N
549 407 M
556 414 L
S
GR
GS
[0.75 0 0 0.75 0 0.5] CT
0.306 0.396 0.58 RC
1 LJ
N
583 397 M
590 390 L
S
GR
GS
[0.75 0 0 0.75 0 0.5] CT
0.306 0.396 0.58 RC
1 LJ
N
583 390 M
590 397 L
S
GR
GS
[0.75 0 0 0.75 0 0.5] CT
1 LJ
N
88.5 748.5 M
87.736 746.149 L
85.736 744.696 L
83.264 744.696 L
81.264 746.149 L
80.5 748.5 L
81.264 750.851 L
83.264 752.304 L
85.736 752.304 L
87.736 750.851 L
cp
S
GR
GS
[0.75 0 0 0.75 0 0.5] CT
1 LJ
N
121.5 716.5 M
120.736 714.149 L
118.736 712.696 L
116.264 712.696 L
114.264 714.149 L
113.5 716.5 L
114.264 718.851 L
116.264 720.304 L
118.736 720.304 L
120.736 718.851 L
cp
S
GR
GS
[0.75 0 0 0.75 0 0.5] CT
1 LJ
N
154.5 696.5 M
153.736 694.149 L
151.736 692.696 L
149.264 692.696 L
147.264 694.149 L
146.5 696.5 L
147.264 698.851 L
149.264 700.304 L
151.736 700.304 L
153.736 698.851 L
cp
S
GR
GS
[0.75 0 0 0.75 0 0.5] CT
1 LJ
N
188.5 678.5 M
187.736 676.149 L
185.736 674.696 L
183.264 674.696 L
181.264 676.149 L
180.5 678.5 L
181.264 680.851 L
183.264 682.304 L
185.736 682.304 L
187.736 680.851 L
cp
S
GR
GS
[0.75 0 0 0.75 0 0.5] CT
1 LJ
N
221.5 660.5 M
220.736 658.149 L
218.736 656.696 L
216.264 656.696 L
214.264 658.149 L
213.5 660.5 L
214.264 662.851 L
216.264 664.304 L
218.736 664.304 L
220.736 662.851 L
cp
S
GR
GS
[0.75 0 0 0.75 0 0.5] CT
1 LJ
N
255.5 642.5 M
254.736 640.149 L
252.736 638.696 L
250.264 638.696 L
248.264 640.149 L
247.5 642.5 L
248.264 644.851 L
250.264 646.304 L
252.736 646.304 L
254.736 644.851 L
cp
S
GR
GS
[0.75 0 0 0.75 0 0.5] CT
1 LJ
N
288.5 625.5 M
287.736 623.149 L
285.736 621.696 L
283.264 621.696 L
281.264 623.149 L
280.5 625.5 L
281.264 627.851 L
283.264 629.304 L
285.736 629.304 L
287.736 627.851 L
cp
S
GR
GS
[0.75 0 0 0.75 0 0.5] CT
1 LJ
N
322.5 608.5 M
321.736 606.149 L
319.736 604.696 L
317.264 604.696 L
315.264 606.149 L
314.5 608.5 L
315.264 610.851 L
317.264 612.304 L
319.736 612.304 L
321.736 610.851 L
cp
S
GR
GS
[0.75 0 0 0.75 0 0.5] CT
1 LJ
N
355.5 591.5 M
354.736 589.149 L
352.736 587.696 L
350.264 587.696 L
348.264 589.149 L
347.5 591.5 L
348.264 593.851 L
350.264 595.304 L
352.736 595.304 L
354.736 593.851 L
cp
S
GR
GS
[0.75 0 0 0.75 0 0.5] CT
1 LJ
N
389.5 574.5 M
388.736 572.149 L
386.736 570.696 L
384.264 570.696 L
382.264 572.149 L
381.5 574.5 L
382.264 576.851 L
384.264 578.304 L
386.736 578.304 L
388.736 576.851 L
cp
S
GR
GS
[0.75 0 0 0.75 0 0.5] CT
1 LJ
N
422.5 558.5 M
421.736 556.149 L
419.736 554.696 L
417.264 554.696 L
415.264 556.149 L
414.5 558.5 L
415.264 560.851 L
417.264 562.304 L
419.736 562.304 L
421.736 560.851 L
cp
S
GR
GS
[0.75 0 0 0.75 0 0.5] CT
1 LJ
N
456.5 541.5 M
455.736 539.149 L
453.736 537.696 L
451.264 537.696 L
449.264 539.149 L
448.5 541.5 L
449.264 543.851 L
451.264 545.304 L
453.736 545.304 L
455.736 543.851 L
cp
S
GR
GS
[0.75 0 0 0.75 0 0.5] CT
1 LJ
N
489.5 525.5 M
488.736 523.149 L
486.736 521.696 L
484.264 521.696 L
482.264 523.149 L
481.5 525.5 L
482.264 527.851 L
484.264 529.304 L
486.736 529.304 L
488.736 527.851 L
cp
S
GR
GS
[0.75 0 0 0.75 0 0.5] CT
1 LJ
N
523.5 508.5 M
522.736 506.149 L
520.736 504.696 L
518.264 504.696 L
516.264 506.149 L
515.5 508.5 L
516.264 510.851 L
518.264 512.304 L
520.736 512.304 L
522.736 510.851 L
cp
S
GR
GS
[0.75 0 0 0.75 0 0.5] CT
1 LJ
N
556.5 492.5 M
555.736 490.149 L
553.736 488.696 L
551.264 488.696 L
549.264 490.149 L
548.5 492.5 L
549.264 494.851 L
551.264 496.304 L
553.736 496.304 L
555.736 494.851 L
cp
S
GR
GS
[0.75 0 0 0.75 0 0.5] CT
1 LJ
N
590.5 475.5 M
589.736 473.149 L
587.736 471.696 L
585.264 471.696 L
583.264 473.149 L
582.5 475.5 L
583.264 477.851 L
585.264 479.304 L
587.736 479.304 L
589.736 477.851 L
cp
S
GR
GS
[0.75 0 0 0.75 0 0.5] CT
1 GC
N
115 331 M
115 112 L
225 112 L
225 331 L
cp
f
GR
GS
[0.75 0 0 0.75 114 92.73417] CT
/Helvetica 12 F
GS
[1 0 0 1 0 0] CT
0 4.5 moveto 
1 -1 scale
(n=5 elastic) t 
GR
GR
GS
[0.75 0 0 0.75 0 0.5] CT
N
129.696 121.264 M
132.56 121.264 L
133.5 118.5 L
134.44 121.264 L
137.304 121.264 L
135.022 122.994 L
135.851 125.736 L
133.5 124.1 L
131.149 125.736 L
131.978 122.994 L
129.696 121.264 L
cp
f
GR
GS
[0.75 0 0 0.75 0 0.5] CT
10.0 ML
N
129.696 121.264 M
132.56 121.264 L
133.5 118.5 L
134.44 121.264 L
137.304 121.264 L
135.022 122.994 L
135.851 125.736 L
133.5 124.1 L
131.149 125.736 L
131.978 122.994 L
cp
S
GR
GS
[0.75 0 0 0.75 114 106.16886] CT
/Helvetica 12 F
GS
[1 0 0 1 0 0] CT
0 4.5 moveto 
1 -1 scale
(4) t 
GR
GR
GS
[0.75 0 0 0.75 0 0.5] CT
0 1 0 RC
N
130.38 143.62 M
130.38 137.38 L
136.62 137.38 L
136.62 143.62 L
cp
f
GR
GS
[0.75 0 0 0.75 0 0.5] CT
0 1 0 RC
10.0 ML
N
130.38 143.62 M
130.38 137.38 L
136.62 137.38 L
136.62 143.62 L
cp
S
GR
GS
[0.75 0 0 0.75 114 119.60356] CT
/Helvetica 12 F
GS
[1 0 0 1 0 0] CT
0 4.5 moveto 
1 -1 scale
(3) t 
GR
GR
GS
[0.75 0 0 0.75 0 0.5] CT
1 0 1 RC
N
133.5 163.832 M
138.118 155.834 L
128.882 155.834 L
cp
f
GR
GS
[0.75 0 0 0.75 0 0.5] CT
1 0 1 RC
10.0 ML
N
133.5 163.832 M
138.118 155.834 L
128.882 155.834 L
cp
S
GR
GS
[0.75 0 0 0.75 114 133.03826] CT
/Helvetica 12 F
GS
[1 0 0 1 0 0] CT
0 4.5 moveto 
1 -1 scale
(2) t 
GR
GR
GS
[0.75 0 0 0.75 0 0.5] CT
1 0 0 RC
1 LJ
N
129 176.5 M
138 176.5 L
S
GR
GS
[0.75 0 0 0.75 0 0.5] CT
1 0 0 RC
1 LJ
N
133.5 181 M
133.5 172 L
S
GR
GS
[0.75 0 0 0.75 114 146.47296] CT
/Helvetica 12 F
GS
[1 0 0 1 0 0] CT
0 4.5 moveto 
1 -1 scale
(1) t 
GR
GR
GS
[0.75 0 0 0.75 0 0.5] CT
0 0 1 RC
1 LJ
N
130 198 M
137 191 L
S
GR
GS
[0.75 0 0 0.75 0 0.5] CT
0 0 1 RC
1 LJ
N
130 191 M
137 198 L
S
GR
GS
[0.75 0 0 0.75 114 159.90766] CT
/Helvetica 12 F
GS
[1 0 0 1 0 0] CT
0 4.5 moveto 
1 -1 scale
(0) t 
GR
GR
GS
[0.75 0 0 0.75 0 0.5] CT
N
137.5 212.5 M
136.328 209.672 L
133.5 208.5 L
130.672 209.672 L
129.5 212.5 L
130.672 215.328 L
133.5 216.5 L
136.328 215.328 L
137.5 212.5 L
cp
f
GR
GS
[0.75 0 0 0.75 0 0.5] CT
1 LJ
N
137.5 212.5 M
136.736 210.149 L
134.736 208.696 L
132.264 208.696 L
130.264 210.149 L
129.5 212.5 L
130.264 214.851 L
132.264 216.304 L
134.736 216.304 L
136.736 214.851 L
cp
S
GR
GS
[0.75 0 0 0.75 114 173.34235] CT
/Helvetica 12 F
GS
[1 0 0 1 0 0] CT
0 4.5 moveto 
1 -1 scale
(n=5 rigid) t 
GR
GR
GS
[0.75 0 0 0.75 0 0.5] CT
10.0 ML
N
129.696 229.264 M
132.56 229.264 L
133.5 226.5 L
134.44 229.264 L
137.304 229.264 L
135.022 230.994 L
135.851 233.736 L
133.5 232.1 L
131.149 233.736 L
131.978 230.994 L
cp
S
GR
GS
[0.75 0 0 0.75 114 186.77705] CT
/Helvetica 12 F
GS
[1 0 0 1 0 0] CT
0 4.5 moveto 
1 -1 scale
(4) t 
GR
GR
GS
[0.75 0 0 0.75 0 0.5] CT
0 1 0 RC
10.0 ML
N
130.38 251.62 M
130.38 245.38 L
136.62 245.38 L
136.62 251.62 L
cp
S
GR
GS
[0.75 0 0 0.75 114 200.21174] CT
/Helvetica 12 F
GS
[1 0 0 1 0 0] CT
0 4.5 moveto 
1 -1 scale
(3) t 
GR
GR
GS
[0.75 0 0 0.75 0 0.5] CT
1 0 1 RC
10.0 ML
N
133.5 271.832 M
138.118 263.834 L
128.882 263.834 L
cp
S
GR
GS
[0.75 0 0 0.75 114 213.64644] CT
/Helvetica 12 F
GS
[1 0 0 1 0 0] CT
0 4.5 moveto 
1 -1 scale
(2) t 
GR
GR
GS
[0.75 0 0 0.75 0 0.5] CT
0.494 0.184 0.557 RC
1 LJ
N
129 284.5 M
138 284.5 L
S
GR
GS
[0.75 0 0 0.75 0 0.5] CT
0.494 0.184 0.557 RC
1 LJ
N
133.5 289 M
133.5 280 L
S
GR
GS
[0.75 0 0 0.75 114 227.08114] CT
/Helvetica 12 F
GS
[1 0 0 1 0 0] CT
0 4.5 moveto 
1 -1 scale
(1) t 
GR
GR
GS
[0.75 0 0 0.75 0 0.5] CT
0.306 0.396 0.58 RC
1 LJ
N
130 306 M
137 299 L
S
GR
GS
[0.75 0 0 0.75 0 0.5] CT
0.306 0.396 0.58 RC
1 LJ
N
130 299 M
137 306 L
S
GR
GS
[0.75 0 0 0.75 114 240.51584] CT
/Helvetica 12 F
GS
[1 0 0 1 0 0] CT
0 4.5 moveto 
1 -1 scale
(0) t 
GR
GR
GS
[0.75 0 0 0.75 0 0.5] CT
1 LJ
N
137.5 320.5 M
136.736 318.149 L
134.736 316.696 L
132.264 316.696 L
130.264 318.149 L
129.5 320.5 L
130.264 322.851 L
132.264 324.304 L
134.736 324.304 L
136.736 322.851 L
cp
S
GR
GS
[0.75 0 0 0.75 0 0.5] CT
0.149 GC
10.0 ML
0.667 LW
N
115 331 M
115 112 L
225 112 L
225 331 L
cp
S
GR
%%Trailer
%%Pages: 1
%%EOF
